"time","epoch_time","boot_time","rssi","ch","mac"
"2020-07-28T12:31:09",1595961069.847,78749746,-41,38,"334b524f0e3a"
"2020-07-28T12:31:10",1595961070.049,78749948,-39,39,"334b524f0e3a"
"2020-07-28T12:31:10",1595961070.458,78750357,-42,37,"334b524f0e3a"
"2020-07-28T12:31:10",1595961070.66,78750559,-41,38,"334b524f0e3a"
"2020-07-28T12:31:11",1595961071.069,78750968,-40,39,"334b524f0e3a"
"2020-07-28T12:31:11",1595961071.28,78751179,-42,37,"334b524f0e3a"
"2020-07-28T12:31:11",1595961071.684,78751583,-41,38,"334b524f0e3a"
"2020-07-28T12:31:11",1595961071.892,78751791,-39,39,"334b524f0e3a"
"2020-07-28T12:31:12",1595961072.307,78752206,-42,37,"334b524f0e3a"
"2020-07-28T12:31:12",1595961072.517,78752416,-42,38,"334b524f0e3a"
"2020-07-28T12:31:12",1595961072.928,78752827,-39,39,"334b524f0e3a"
"2020-07-28T12:31:13",1595961073.135,78753034,-42,37,"334b524f0e3a"
"2020-07-28T12:31:13",1595961073.538,78753437,-41,38,"334b524f0e3a"
"2020-07-28T12:31:13",1595961073.948,78753847,-40,39,"334b524f0e3a"
"2020-07-28T12:31:14",1595961074.153,78754052,-42,37,"334b524f0e3a"
"2020-07-28T12:31:14",1595961074.571,78754470,-42,38,"334b524f0e3a"
"2020-07-28T12:31:14",1595961074.771,78754670,-40,39,"334b524f0e3a"
"2020-07-28T12:31:15",1595961075.188,78755087,-43,37,"334b524f0e3a"
"2020-07-28T12:31:15",1595961075.392,78755291,-41,38,"334b524f0e3a"
"2020-07-28T12:31:15",1595961075.796,78755695,-40,39,"334b524f0e3a"
"2020-07-28T12:31:16",1595961076.004,78755903,-42,37,"334b524f0e3a"
"2020-07-28T12:31:16",1595961076.418,78756317,-41,38,"334b524f0e3a"
"2020-07-28T12:31:16",1595961076.618,78756517,-40,39,"334b524f0e3a"
"2020-07-28T12:31:17",1595961077.034,78756933,-41,37,"334b524f0e3a"
"2020-07-28T12:31:17",1595961077.241,78757140,-42,38,"334b524f0e3a"
"2020-07-28T12:31:17",1595961077.649,78757548,-39,39,"334b524f0e3a"
"2020-07-28T12:31:17",1595961077.851,78757750,-43,37,"334b524f0e3a"
"2020-07-28T12:31:18",1595961078.265,78758164,-41,38,"334b524f0e3a"
"2020-07-28T12:31:18",1595961078.467,78758366,-40,39,"334b524f0e3a"
"2020-07-28T12:31:18",1595961078.88,78758779,-43,37,"334b524f0e3a"
"2020-07-28T12:31:19",1595961079.083,78758982,-41,38,"334b524f0e3a"
"2020-07-28T12:31:19",1595961079.497,78759396,-38,39,"334b524f0e3a"
"2020-07-28T12:31:19",1595961079.702,78759601,-43,37,"334b524f0e3a"
"2020-07-28T12:31:20",1595961080.108,78760007,-41,38,"334b524f0e3a"
"2020-07-28T12:31:20",1595961080.317,78760216,-38,39,"334b524f0e3a"
"2020-07-28T12:31:20",1595961080.728,78760627,-42,37,"334b524f0e3a"
"2020-07-28T12:31:20",1595961080.937,78760836,-42,38,"334b524f0e3a"
"2020-07-28T12:31:21",1595961081.145,78761044,-41,38,"334b524f0e3a"
"2020-07-28T12:31:21",1595961081.344,78761243,-39,39,"334b524f0e3a"
"2020-07-28T12:31:21",1595961081.757,78761656,-43,37,"334b524f0e3a"
"2020-07-28T12:31:21",1595961081.96,78761859,-42,38,"334b524f0e3a"
"2020-07-28T12:31:22",1595961082.375,78762274,-38,39,"334b524f0e3a"
"2020-07-28T12:31:22",1595961082.578,78762477,-42,37,"334b524f0e3a"
"2020-07-28T12:31:22",1595961082.989,78762888,-41,38,"334b524f0e3a"
"2020-07-28T12:31:23",1595961083.198,78763097,-39,39,"334b524f0e3a"
"2020-07-28T12:31:23",1595961083.612,78763511,-42,37,"334b524f0e3a"
"2020-07-28T12:31:23",1595961083.814,78763713,-41,38,"334b524f0e3a"
"2020-07-28T12:31:24",1595961084.224,78764123,-39,39,"334b524f0e3a"
"2020-07-28T12:31:24",1595961084.43,78764329,-42,37,"334b524f0e3a"
"2020-07-28T12:31:24",1595961084.848,78764747,-41,38,"334b524f0e3a"
"2020-07-28T12:31:25",1595961085.047,78764946,-38,39,"334b524f0e3a"
"2020-07-28T12:31:25",1595961085.46,78765359,-42,37,"334b524f0e3a"
"2020-07-28T12:31:25",1595961085.668,78765567,-41,38,"334b524f0e3a"
"2020-07-28T12:31:26",1595961086.079,78765978,-40,39,"334b524f0e3a"
"2020-07-28T12:31:26",1595961086.287,78766186,-42,37,"334b524f0e3a"
"2020-07-28T12:31:26",1595961086.701,78766600,-41,38,"334b524f0e3a"
"2020-07-28T12:31:26",1595961086.911,78766810,-39,39,"334b524f0e3a"
"2020-07-28T12:31:27",1595961087.32,78767219,-43,37,"334b524f0e3a"
"2020-07-28T12:31:27",1595961087.525,78767424,-41,38,"334b524f0e3a"
"2020-07-28T12:31:27",1595961087.937,78767836,-40,39,"334b524f0e3a"
"2020-07-28T12:31:28",1595961088.142,78768041,-43,37,"334b524f0e3a"
"2020-07-28T12:31:28",1595961088.545,78768444,-40,38,"334b524f0e3a"
"2020-07-28T12:31:28",1595961088.755,78768654,-39,39,"334b524f0e3a"
"2020-07-28T12:31:29",1595961089.167,78769066,-42,37,"334b524f0e3a"
"2020-07-28T12:31:29",1595961089.582,78769481,-40,38,"334b524f0e3a"
"2020-07-28T12:31:29",1595961089.789,78769688,-40,39,"334b524f0e3a"
"2020-07-28T12:31:30",1595961090.196,78770095,-43,37,"334b524f0e3a"
"2020-07-28T12:31:30",1595961090.398,78770297,-41,38,"334b524f0e3a"
"2020-07-28T12:31:30",1595961090.818,78770717,-39,39,"334b524f0e3a"
"2020-07-28T12:31:31",1595961091.02,78770919,-43,37,"334b524f0e3a"
"2020-07-28T12:31:31",1595961091.437,78771336,-40,38,"334b524f0e3a"
"2020-07-28T12:31:31",1595961091.641,78771540,-40,39,"334b524f0e3a"
"2020-07-28T12:31:32",1595961092.051,78771950,-42,37,"334b524f0e3a"
"2020-07-28T12:31:32",1595961092.259,78772158,-40,38,"334b524f0e3a"
"2020-07-28T12:31:32",1595961092.667,78772566,-39,39,"334b524f0e3a"
"2020-07-28T12:31:32",1595961092.875,78772774,-42,37,"334b524f0e3a"
"2020-07-28T12:31:33",1595961093.279,78773178,-41,38,"334b524f0e3a"
"2020-07-28T12:31:33",1595961093.487,78773386,-39,39,"334b524f0e3a"
"2020-07-28T12:31:33",1595961093.907,78773806,-43,37,"334b524f0e3a"
"2020-07-28T12:31:34",1595961094.111,78774010,-41,38,"334b524f0e3a"
"2020-07-28T12:31:34",1595961094.522,78774421,-39,39,"334b524f0e3a"
"2020-07-28T12:31:34",1595961094.727,78774626,-42,37,"334b524f0e3a"
"2020-07-28T12:31:35",1595961095.137,78775036,-41,38,"334b524f0e3a"
"2020-07-28T12:31:35",1595961095.347,78775246,-39,39,"334b524f0e3a"
"2020-07-28T12:31:35",1595961095.76,78775659,-42,37,"334b524f0e3a"
"2020-07-28T12:31:35",1595961095.961,78775860,-41,38,"334b524f0e3a"
"2020-07-28T12:31:36",1595961096.382,78776281,-38,39,"334b524f0e3a"
"2020-07-28T12:31:36",1595961096.587,78776486,-43,37,"334b524f0e3a"
"2020-07-28T12:31:36",1595961096.998,78776897,-41,38,"334b524f0e3a"
"2020-07-28T12:31:37",1595961097.605,78777504,-42,37,"334b524f0e3a"
"2020-07-28T12:31:37",1595961097.815,78777714,-41,38,"334b524f0e3a"
"2020-07-28T12:31:38",1595961098.019,78777918,-41,38,"334b524f0e3a"
"2020-07-28T12:31:38",1595961098.223,78778122,-40,39,"334b524f0e3a"
"2020-07-28T12:31:38",1595961098.437,78778336,-43,37,"334b524f0e3a"
"2020-07-28T12:31:38",1595961098.848,78778747,-41,38,"334b524f0e3a"
"2020-07-28T12:31:39",1595961099.26,78779159,-39,39,"334b524f0e3a"
"2020-07-28T12:31:39",1595961099.465,78779364,-43,37,"334b524f0e3a"
"2020-07-28T12:31:40",1595961100.082,78779981,-39,39,"334b524f0e3a"
"2020-07-28T12:31:40",1595961100.491,78780390,-42,37,"334b524f0e3a"
"2020-07-28T12:31:40",1595961100.697,78780596,-41,38,"334b524f0e3a"
"2020-07-28T12:31:41",1595961101.107,78781006,-39,39,"334b524f0e3a"
"2020-07-28T12:31:41",1595961101.317,78781216,-43,37,"334b524f0e3a"
"2020-07-28T12:31:41",1595961101.724,78781623,-41,38,"334b524f0e3a"
"2020-07-28T12:31:41",1595961101.928,78781827,-39,39,"334b524f0e3a"
"2020-07-28T12:31:42",1595961102.344,78782243,-42,37,"334b524f0e3a"
"2020-07-28T12:31:42",1595961102.548,78782447,-41,38,"334b524f0e3a"
"2020-07-28T12:31:42",1595961102.957,78782856,-40,39,"334b524f0e3a"
"2020-07-28T12:31:43",1595961103.165,78783064,-43,37,"334b524f0e3a"
"2020-07-28T12:31:43",1595961103.575,78783474,-41,38,"334b524f0e3a"
"2020-07-28T12:31:43",1595961103.78,78783679,-40,39,"334b524f0e3a"
"2020-07-28T12:31:44",1595961104.198,78784097,-42,37,"334b524f0e3a"
"2020-07-28T12:31:44",1595961104.399,78784298,-41,38,"334b524f0e3a"
"2020-07-28T12:31:44",1595961104.808,78784707,-40,39,"334b524f0e3a"
"2020-07-28T12:31:45",1595961105.018,78784917,-43,37,"334b524f0e3a"
"2020-07-28T12:31:45",1595961105.432,78785331,-41,38,"334b524f0e3a"
"2020-07-28T12:31:45",1595961105.64,78785539,-39,39,"334b524f0e3a"
"2020-07-28T12:31:46",1595961106.046,78785945,-42,37,"334b524f0e3a"
"2020-07-28T12:31:46",1595961106.255,78786154,-41,38,"334b524f0e3a"
"2020-07-28T12:31:46",1595961106.458,78786357,-41,38,"334b524f0e3a"
"2020-07-28T12:31:46",1595961106.664,78786563,-40,39,"334b524f0e3a"
"2020-07-28T12:31:47",1595961107.077,78786976,-42,37,"334b524f0e3a"
"2020-07-28T12:31:47",1595961107.279,78787178,-41,38,"334b524f0e3a"
"2020-07-28T12:31:47",1595961107.693,78787592,-38,39,"334b524f0e3a"
"2020-07-28T12:31:47",1595961107.897,78787796,-43,37,"334b524f0e3a"
"2020-07-28T12:31:48",1595961108.308,78788207,-40,38,"334b524f0e3a"
"2020-07-28T12:31:48",1595961108.511,78788410,-40,39,"334b524f0e3a"
"2020-07-28T12:31:48",1595961108.92,78788819,-42,37,"334b524f0e3a"
"2020-07-28T12:31:49",1595961109.126,78789025,-41,38,"334b524f0e3a"
"2020-07-28T12:31:49",1595961109.538,78789437,-39,39,"334b524f0e3a"
"2020-07-28T12:31:49",1595961109.748,78789647,-43,37,"334b524f0e3a"
"2020-07-28T12:31:50",1595961110.155,78790054,-41,38,"334b524f0e3a"
"2020-07-28T12:31:50",1595961110.365,78790264,-39,39,"334b524f0e3a"
"2020-07-28T12:31:50",1595961110.778,78790677,-42,37,"334b524f0e3a"
"2020-07-28T12:31:50",1595961110.979,78790878,-41,38,"334b524f0e3a"
"2020-07-28T12:31:51",1595961111.391,78791290,-38,39,"334b524f0e3a"
"2020-07-28T12:31:51",1595961111.598,78791497,-42,37,"334b524f0e3a"
"2020-07-28T12:31:52",1595961112.003,78791902,-41,38,"334b524f0e3a"
"2020-07-28T12:31:52",1595961112.212,78792111,-38,39,"334b524f0e3a"
"2020-07-28T12:31:53",1595961113.24,78793139,-39,39,"334b524f0e3a"
"2020-07-28T12:31:53",1595961113.448,78793347,-43,37,"334b524f0e3a"
"2020-07-28T12:31:53",1595961113.853,78793752,-40,38,"334b524f0e3a"
"2020-07-28T12:31:54",1595961114.061,78793960,-39,39,"334b524f0e3a"
"2020-07-28T12:31:54",1595961114.264,78794163,-39,39,"334b524f0e3a"
"2020-07-28T12:31:54",1595961114.467,78794366,-42,37,"334b524f0e3a"
"2020-07-28T12:31:54",1595961114.879,78794778,-41,38,"334b524f0e3a"
"2020-07-28T12:31:55",1595961115.087,78794986,-39,39,"334b524f0e3a"
"2020-07-28T12:31:55",1595961115.503,78795402,-43,37,"334b524f0e3a"
"2020-07-28T12:31:55",1595961115.709,78795608,-41,38,"334b524f0e3a"
"2020-07-28T12:31:56",1595961116.126,78796025,-40,39,"334b524f0e3a"
"2020-07-28T12:31:56",1595961116.326,78796225,-42,37,"334b524f0e3a"
"2020-07-28T12:31:56",1595961116.738,78796637,-40,38,"334b524f0e3a"
"2020-07-28T12:31:56",1595961116.947,78796846,-40,39,"334b524f0e3a"
"2020-07-28T12:31:57",1595961117.35,78797249,-42,37,"334b524f0e3a"
"2020-07-28T12:31:57",1595961117.554,78797453,-41,38,"334b524f0e3a"
"2020-07-28T12:31:57",1595961117.975,78797874,-39,39,"334b524f0e3a"
"2020-07-28T12:31:58",1595961118.183,78798082,-43,37,"334b524f0e3a"
"2020-07-28T12:31:58",1595961118.598,78798497,-41,38,"334b524f0e3a"
"2020-07-28T12:31:58",1595961118.803,78798702,-40,39,"334b524f0e3a"
"2020-07-28T12:31:59",1595961119.206,78799105,-43,37,"334b524f0e3a"
"2020-07-28T12:31:59",1595961119.409,78799308,-40,38,"334b524f0e3a"
"2020-07-28T12:31:59",1595961119.83,78799729,-39,39,"334b524f0e3a"
"2020-07-28T12:32:00",1595961120.037,78799936,-42,37,"334b524f0e3a"
"2020-07-28T12:32:00",1595961120.447,78800346,-40,38,"334b524f0e3a"
"2020-07-28T12:32:00",1595961120.647,78800546,-39,39,"334b524f0e3a"
"2020-07-28T12:32:01",1595961121.057,78800956,-43,37,"334b524f0e3a"
"2020-07-28T12:32:01",1595961121.261,78801160,-41,38,"334b524f0e3a"
"2020-07-28T12:32:01",1595961121.676,78801575,-39,39,"334b524f0e3a"
"2020-07-28T12:32:01",1595961121.879,78801778,-43,37,"334b524f0e3a"
"2020-07-28T12:32:02",1595961122.29,78802189,-41,38,"334b524f0e3a"
"2020-07-28T12:32:02",1595961122.707,78802606,-40,39,"334b524f0e3a"
"2020-07-28T12:32:02",1595961122.918,78802817,-43,37,"334b524f0e3a"
"2020-07-28T12:32:03",1595961123.326,78803225,-41,38,"334b524f0e3a"
"2020-07-28T12:32:03",1595961123.533,78803432,-39,39,"334b524f0e3a"
"2020-07-28T12:32:03",1595961123.937,78803836,-43,37,"334b524f0e3a"
"2020-07-28T12:32:04",1595961124.143,78804042,-41,38,"334b524f0e3a"
"2020-07-28T12:32:04",1595961124.554,78804453,-38,39,"334b524f0e3a"
"2020-07-28T12:32:04",1595961124.756,78804655,-42,37,"334b524f0e3a"
"2020-07-28T12:32:05",1595961125.171,78805070,-41,38,"334b524f0e3a"
"2020-07-28T12:32:05",1595961125.377,78805276,-39,39,"334b524f0e3a"
"2020-07-28T12:32:05",1595961125.788,78805687,-43,37,"334b524f0e3a"
"2020-07-28T12:32:05",1595961125.996,78805895,-41,38,"334b524f0e3a"
"2020-07-28T12:32:06",1595961126.407,78806306,-40,39,"334b524f0e3a"
"2020-07-28T12:32:06",1595961126.608,78806507,-42,37,"334b524f0e3a"
"2020-07-28T12:32:07",1595961127.027,78806926,-41,38,"334b524f0e3a"
"2020-07-28T12:32:07",1595961127.241,78807140,-39,39,"334b524f0e3a"
"2020-07-28T12:32:07",1595961127.648,78807547,-42,37,"334b524f0e3a"
"2020-07-28T12:32:07",1595961127.854,78807753,-41,38,"334b524f0e3a"
"2020-07-28T12:32:08",1595961128.263,78808162,-39,39,"334b524f0e3a"
"2020-07-28T12:32:08",1595961128.467,78808366,-42,37,"334b524f0e3a"
"2020-07-28T12:32:08",1595961128.878,78808777,-41,38,"334b524f0e3a"
"2020-07-28T12:32:09",1595961129.085,78808984,-40,39,"334b524f0e3a"
"2020-07-28T12:32:09",1595961129.493,78809392,-43,37,"334b524f0e3a"
"2020-07-28T12:32:09",1595961129.709,78809608,-41,38,"334b524f0e3a"
"2020-07-28T12:32:10",1595961130.119,78810018,-39,39,"334b524f0e3a"
"2020-07-28T12:32:10",1595961130.321,78810220,-43,37,"334b524f0e3a"
"2020-07-28T12:32:10",1595961130.726,78810625,-41,38,"334b524f0e3a"
"2020-07-28T12:32:11",1595961131.14,78811039,-39,39,"334b524f0e3a"
"2020-07-28T12:32:11",1595961131.348,78811247,-43,37,"334b524f0e3a"
"2020-07-28T12:32:11",1595961131.755,78811654,-41,38,"334b524f0e3a"
"2020-07-28T12:32:11",1595961131.962,78811861,-40,39,"334b524f0e3a"
"2020-07-28T12:32:12",1595961132.375,78812274,-42,37,"334b524f0e3a"
"2020-07-28T12:32:12",1595961132.586,78812485,-41,38,"334b524f0e3a"
"2020-07-28T12:32:13",1595961133.197,78813096,-42,37,"334b524f0e3a"
"2020-07-28T12:32:13",1595961133.606,78813505,-41,38,"334b524f0e3a"
"2020-07-28T12:32:13",1595961133.815,78813714,-39,39,"334b524f0e3a"
"2020-07-28T12:32:14",1595961134.223,78814122,-42,37,"334b524f0e3a"
"2020-07-28T12:32:14",1595961134.437,78814336,-41,38,"334b524f0e3a"
"2020-07-28T12:32:14",1595961134.841,78814740,-40,39,"334b524f0e3a"
"2020-07-28T12:32:15",1595961135.052,78814951,-42,37,"334b524f0e3a"
"2020-07-28T12:32:15",1595961135.464,78815363,-41,38,"334b524f0e3a"
"2020-07-28T12:32:15",1595961135.667,78815566,-38,39,"334b524f0e3a"
"2020-07-28T12:32:16",1595961136.077,78815976,-43,37,"334b524f0e3a"
"2020-07-28T12:32:16",1595961136.283,78816182,-41,38,"334b524f0e3a"
"2020-07-28T12:32:16",1595961136.692,78816591,-39,39,"334b524f0e3a"
"2020-07-28T12:32:16",1595961136.898,78816797,-43,37,"334b524f0e3a"
"2020-07-28T12:32:17",1595961137.31,78817209,-40,38,"334b524f0e3a"
"2020-07-28T12:32:17",1595961137.51,78817409,-39,39,"334b524f0e3a"
"2020-07-28T12:32:17",1595961137.921,78817820,-43,37,"334b524f0e3a"
"2020-07-28T12:32:18",1595961138.127,78818026,-41,38,"334b524f0e3a"
"2020-07-28T12:32:18",1595961138.327,78818226,-41,38,"334b524f0e3a"
"2020-07-28T12:32:18",1595961138.534,78818433,-40,39,"334b524f0e3a"
"2020-07-28T12:32:18",1595961138.942,78818841,-43,37,"334b524f0e3a"
"2020-07-28T12:32:19",1595961139.147,78819046,-41,38,"334b524f0e3a"
"2020-07-28T12:32:19",1595961139.567,78819466,-39,39,"334b524f0e3a"
"2020-07-28T12:32:19",1595961139.777,78819676,-42,37,"334b524f0e3a"
"2020-07-28T12:32:20",1595961140.182,78820081,-41,38,"334b524f0e3a"
"2020-07-28T12:32:20",1595961140.39,78820289,-39,39,"334b524f0e3a"
"2020-07-28T12:32:20",1595961140.802,78820701,-43,37,"334b524f0e3a"
"2020-07-28T12:32:21",1595961141.007,78820906,-41,38,"334b524f0e3a"
"2020-07-28T12:32:21",1595961141.417,78821316,-40,39,"334b524f0e3a"
"2020-07-28T12:32:21",1595961141.619,78821518,-42,37,"334b524f0e3a"
"2020-07-28T12:32:22",1595961142.031,78821930,-40,38,"334b524f0e3a"
"2020-07-28T12:32:22",1595961142.24,78822139,-39,39,"334b524f0e3a"
"2020-07-28T12:32:22",1595961142.651,78822550,-43,37,"334b524f0e3a"
"2020-07-28T12:32:22",1595961142.857,78822756,-40,38,"334b524f0e3a"
"2020-07-28T12:32:23",1595961143.261,78823160,-39,39,"334b524f0e3a"
"2020-07-28T12:32:23",1595961143.47,78823369,-43,37,"334b524f0e3a"
"2020-07-28T12:32:23",1595961143.88,78823779,-41,38,"334b524f0e3a"
"2020-07-28T12:32:24",1595961144.098,78823997,-38,39,"334b524f0e3a"
"2020-07-28T12:32:24",1595961144.504,78824403,-42,37,"334b524f0e3a"
"2020-07-28T12:32:24",1595961144.709,78824608,-40,38,"334b524f0e3a"
"2020-07-28T12:32:25",1595961145.117,78825016,-38,39,"334b524f0e3a"
"2020-07-28T12:32:25",1595961145.322,78825221,-42,37,"334b524f0e3a"
"2020-07-28T12:32:25",1595961145.734,78825633,-40,38,"334b524f0e3a"
"2020-07-28T12:32:25",1595961145.94,78825839,-39,39,"334b524f0e3a"
"2020-07-28T12:32:26",1595961146.141,78826040,-40,39,"334b524f0e3a"
"2020-07-28T12:32:26",1595961146.35,78826249,-43,37,"334b524f0e3a"
"2020-07-28T12:32:26",1595961146.767,78826666,-41,38,"334b524f0e3a"
"2020-07-28T12:32:26",1595961146.971,78826870,-40,39,"334b524f0e3a"
"2020-07-28T12:32:27",1595961147.379,78827278,-42,37,"334b524f0e3a"
"2020-07-28T12:32:27",1595961147.586,78827485,-40,38,"334b524f0e3a"
"2020-07-28T12:32:28",1595961148.001,78827900,-39,39,"334b524f0e3a"
"2020-07-28T12:32:28",1595961148.202,78828101,-43,37,"334b524f0e3a"
"2020-07-28T12:32:28",1595961148.609,78828508,-41,38,"334b524f0e3a"
"2020-07-28T12:32:28",1595961148.818,78828717,-39,39,"334b524f0e3a"
"2020-07-28T12:32:29",1595961149.233,78829132,-43,37,"334b524f0e3a"
"2020-07-28T12:32:29",1595961149.44,78829339,-41,38,"334b524f0e3a"
"2020-07-28T12:32:29",1595961149.843,78829742,-39,39,"334b524f0e3a"
"2020-07-28T12:32:30",1595961150.05,78829949,-43,37,"334b524f0e3a"
"2020-07-28T12:32:30",1595961150.461,78830360,-41,38,"334b524f0e3a"
"2020-07-28T12:32:30",1595961150.67,78830569,-38,39,"334b524f0e3a"
"2020-07-28T12:32:31",1595961151.076,78830975,-43,37,"334b524f0e3a"
"2020-07-28T12:32:31",1595961151.291,78831190,-41,38,"334b524f0e3a"
"2020-07-28T12:32:31",1595961151.694,78831593,-40,39,"334b524f0e3a"
"2020-07-28T12:32:31",1595961151.898,78831797,-43,37,"334b524f0e3a"
"2020-07-28T12:32:32",1595961152.313,78832212,-41,38,"334b524f0e3a"
"2020-07-28T12:32:32",1595961152.521,78832420,-40,39,"334b524f0e3a"
"2020-07-28T12:32:32",1595961152.925,78832824,-42,37,"334b524f0e3a"
"2020-07-28T12:32:33",1595961153.133,78833032,-41,38,"334b524f0e3a"
"2020-07-28T12:32:33",1595961153.547,78833446,-40,39,"334b524f0e3a"
"2020-07-28T12:32:33",1595961153.757,78833656,-42,37,"334b524f0e3a"
"2020-07-28T12:32:34",1595961154.165,78834064,-41,38,"334b524f0e3a"
"2020-07-28T12:32:34",1595961154.578,78834477,-39,39,"334b524f0e3a"
"2020-07-28T12:32:34",1595961154.784,78834683,-42,37,"334b524f0e3a"
"2020-07-28T12:32:35",1595961155.19,78835089,-40,38,"334b524f0e3a"
"2020-07-28T12:32:35",1595961155.396,78835295,-39,39,"334b524f0e3a"
"2020-07-28T12:32:35",1595961155.81,78835709,-43,37,"334b524f0e3a"
"2020-07-28T12:32:36",1595961156.012,78835911,-41,38,"334b524f0e3a"
"2020-07-28T12:32:36",1595961156.427,78836326,-39,39,"334b524f0e3a"
"2020-07-28T12:32:36",1595961156.627,78836526,-43,37,"334b524f0e3a"
"2020-07-28T12:32:37",1595961157.045,78836944,-41,38,"334b524f0e3a"
"2020-07-28T12:32:37",1595961157.245,78837144,-39,39,"334b524f0e3a"
"2020-07-28T12:32:37",1595961157.658,78837557,-43,37,"334b524f0e3a"
"2020-07-28T12:32:37",1595961157.862,78837761,-40,38,"334b524f0e3a"
"2020-07-28T12:32:38",1595961158.277,78838176,-39,39,"334b524f0e3a"
"2020-07-28T12:32:38",1595961158.483,78838382,-43,37,"334b524f0e3a"
"2020-07-28T12:32:38",1595961158.89,78838789,-41,38,"334b524f0e3a"
"2020-07-28T12:32:39",1595961159.097,78838996,-40,39,"334b524f0e3a"
"2020-07-28T12:32:39",1595961159.509,78839408,-43,37,"334b524f0e3a"
"2020-07-28T12:32:39",1595961159.718,78839617,-41,38,"334b524f0e3a"
"2020-07-28T12:32:40",1595961160.121,78840020,-39,39,"334b524f0e3a"
"2020-07-28T12:32:40",1595961160.329,78840228,-43,37,"334b524f0e3a"
"2020-07-28T12:32:40",1595961160.738,78840637,-41,38,"334b524f0e3a"
"2020-07-28T12:32:40",1595961160.952,78840851,-39,39,"334b524f0e3a"
"2020-07-28T12:32:41",1595961161.362,78841261,-43,37,"334b524f0e3a"
"2020-07-28T12:32:41",1595961161.564,78841463,-41,38,"334b524f0e3a"
"2020-07-28T12:32:41",1595961161.978,78841877,-39,39,"334b524f0e3a"
"2020-07-28T12:32:42",1595961162.386,78842285,-42,37,"334b524f0e3a"
"2020-07-28T12:32:42",1595961162.591,78842490,-41,38,"334b524f0e3a"
"2020-07-28T12:32:43",1595961163.003,78842902,-38,39,"334b524f0e3a"
"2020-07-28T12:32:43",1595961163.21,78843109,-43,37,"334b524f0e3a"
"2020-07-28T12:32:43",1595961163.627,78843526,-40,38,"334b524f0e3a"
"2020-07-28T12:32:43",1595961163.832,78843731,-40,39,"334b524f0e3a"
"2020-07-28T12:32:44",1595961164.243,78844142,-42,37,"334b524f0e3a"
"2020-07-28T12:32:44",1595961164.449,78844348,-41,38,"334b524f0e3a"
"2020-07-28T12:32:44",1595961164.858,78844757,-40,39,"334b524f0e3a"
"2020-07-28T12:32:45",1595961165.057,78844956,-42,37,"334b524f0e3a"
"2020-07-28T12:32:45",1595961165.468,78845367,-41,38,"334b524f0e3a"
"2020-07-28T12:32:45",1595961165.682,78845581,-39,39,"334b524f0e3a"
"2020-07-28T12:32:46",1595961166.09,78845989,-42,37,"334b524f0e3a"
"2020-07-28T12:32:46",1595961166.3,78846199,-41,38,"334b524f0e3a"
"2020-07-28T12:32:46",1595961166.706,78846605,-39,39,"334b524f0e3a"
"2020-07-28T12:32:46",1595961166.91,78846809,-42,37,"334b524f0e3a"
"2020-07-28T12:32:47",1595961167.324,78847223,-41,38,"334b524f0e3a"
"2020-07-28T12:32:47",1595961167.529,78847428,-39,39,"334b524f0e3a"
"2020-07-28T12:32:47",1595961167.938,78847837,-43,37,"334b524f0e3a"
"2020-07-28T12:32:48",1595961168.15,78848049,-41,38,"334b524f0e3a"
"2020-07-28T12:32:48",1595961168.764,78848663,-43,37,"334b524f0e3a"
"2020-07-28T12:32:49",1595961169.172,78849071,-41,38,"334b524f0e3a"
"2020-07-28T12:32:49",1595961169.374,78849273,-40,39,"334b524f0e3a"
"2020-07-28T12:32:49",1595961169.583,78849482,-40,39,"334b524f0e3a"
"2020-07-28T12:32:49",1595961169.789,78849688,-42,37,"334b524f0e3a"
"2020-07-28T12:32:50",1595961170.197,78850096,-41,38,"334b524f0e3a"
"2020-07-28T12:32:50",1595961170.4,78850299,-38,39,"334b524f0e3a"
"2020-07-28T12:32:50",1595961170.827,78850726,-43,37,"334b524f0e3a"
"2020-07-28T12:32:51",1595961171.031,78850930,-40,38,"334b524f0e3a"
"2020-07-28T12:32:51",1595961171.437,78851336,-40,39,"334b524f0e3a"
"2020-07-28T12:32:51",1595961171.642,78851541,-43,37,"334b524f0e3a"
"2020-07-28T12:32:52",1595961172.051,78851950,-41,38,"334b524f0e3a"
"2020-07-28T12:32:52",1595961172.262,78852161,-39,39,"334b524f0e3a"
"2020-07-28T12:32:52",1595961172.672,78852571,-42,37,"334b524f0e3a"
"2020-07-28T12:32:52",1595961172.884,78852783,-40,38,"334b524f0e3a"
"2020-07-28T12:32:53",1595961173.294,78853193,-39,39,"334b524f0e3a"
"2020-07-28T12:32:53",1595961173.501,78853400,-43,37,"334b524f0e3a"
"2020-07-28T12:32:53",1595961173.907,78853806,-41,38,"334b524f0e3a"
"2020-07-28T12:32:54",1595961174.107,78854006,-39,39,"334b524f0e3a"
"2020-07-28T12:32:54",1595961174.52,78854419,-42,37,"334b524f0e3a"
"2020-07-28T12:32:54",1595961174.727,78854626,-40,38,"334b524f0e3a"
"2020-07-28T12:32:55",1595961175.147,78855046,-38,39,"334b524f0e3a"
"2020-07-28T12:32:55",1595961175.353,78855252,-42,37,"334b524f0e3a"
"2020-07-28T12:32:55",1595961175.764,78855663,-41,38,"334b524f0e3a"
"2020-07-28T12:32:55",1595961175.972,78855871,-39,39,"334b524f0e3a"
"2020-07-28T12:32:56",1595961176.378,78856277,-43,37,"334b524f0e3a"
"2020-07-28T12:32:56",1595961176.58,78856479,-40,38,"334b524f0e3a"
"2020-07-28T12:32:56",1595961176.993,78856892,-38,39,"334b524f0e3a"
"2020-07-28T12:32:57",1595961177.199,78857098,-43,37,"334b524f0e3a"
"2020-07-28T12:32:57",1595961177.61,78857509,-41,38,"334b524f0e3a"
"2020-07-28T12:32:57",1595961177.818,78857717,-38,39,"334b524f0e3a"
"2020-07-28T12:32:58",1595961178.231,78858130,-42,37,"334b524f0e3a"
"2020-07-28T12:32:58",1595961178.44,78858339,-40,38,"334b524f0e3a"
"2020-07-28T12:32:58",1595961178.644,78858543,-41,38,"334b524f0e3a"
"2020-07-28T12:32:58",1595961178.847,78858746,-38,39,"334b524f0e3a"
"2020-07-28T12:32:59",1595961179.257,78859156,-42,37,"334b524f0e3a"
"2020-07-28T12:32:59",1595961179.467,78859366,-41,38,"334b524f0e3a"
"2020-07-28T12:32:59",1595961179.882,78859781,-38,39,"334b524f0e3a"
"2020-07-28T12:33:00",1595961180.092,78859991,-43,37,"334b524f0e3a"
"2020-07-28T12:33:00",1595961180.5,78860399,-41,38,"334b524f0e3a"
"2020-07-28T12:33:00",1595961180.709,78860608,-40,39,"334b524f0e3a"
"2020-07-28T12:33:01",1595961181.118,78861017,-42,37,"334b524f0e3a"
"2020-07-28T12:33:01",1595961181.322,78861221,-41,38,"334b524f0e3a"
"2020-07-28T12:33:01",1595961181.73,78861629,-38,39,"334b524f0e3a"
"2020-07-28T12:33:01",1595961181.937,78861836,-43,37,"334b524f0e3a"
"2020-07-28T12:33:02",1595961182.349,78862248,-41,38,"334b524f0e3a"
"2020-07-28T12:33:02",1595961182.557,78862456,-38,39,"334b524f0e3a"
"2020-07-28T12:33:02",1595961182.965,78862864,-42,37,"334b524f0e3a"
"2020-07-28T12:33:03",1595961183.17,78863069,-41,38,"334b524f0e3a"
"2020-07-28T12:33:03",1595961183.584,78863483,-39,39,"334b524f0e3a"
"2020-07-28T12:33:03",1595961183.788,78863687,-42,37,"334b524f0e3a"
"2020-07-28T12:33:04",1595961184.192,78864091,-41,38,"334b524f0e3a"
"2020-07-28T12:33:04",1595961184.401,78864300,-40,39,"334b524f0e3a"
"2020-07-28T12:33:04",1595961184.811,78864710,-43,37,"334b524f0e3a"
"2020-07-28T12:33:05",1595961185.024,78864923,-40,38,"334b524f0e3a"
"2020-07-28T12:33:05",1595961185.437,78865336,-39,39,"334b524f0e3a"
"2020-07-28T12:33:05",1595961185.639,78865538,-42,37,"334b524f0e3a"
"2020-07-28T12:33:06",1595961186.054,78865953,-41,38,"334b524f0e3a"
"2020-07-28T12:33:06",1595961186.258,78866157,-38,39,"334b524f0e3a"
"2020-07-28T12:33:06",1595961186.668,78866567,-42,37,"334b524f0e3a"
"2020-07-28T12:33:07",1595961187.081,78866980,-40,38,"334b524f0e3a"
"2020-07-28T12:33:07",1595961187.288,78867187,-40,39,"334b524f0e3a"
"2020-07-28T12:33:07",1595961187.695,78867594,-43,37,"334b524f0e3a"
"2020-07-28T12:33:07",1595961187.901,78867800,-41,38,"334b524f0e3a"
"2020-07-28T12:33:08",1595961188.311,78868210,-39,39,"334b524f0e3a"
"2020-07-28T12:33:08",1595961188.514,78868413,-42,37,"334b524f0e3a"
"2020-07-28T12:33:08",1595961188.925,78868824,-40,38,"334b524f0e3a"
"2020-07-28T12:33:09",1595961189.134,78869033,-39,39,"334b524f0e3a"
"2020-07-28T12:33:09",1595961189.539,78869438,-42,37,"334b524f0e3a"
"2020-07-28T12:33:09",1595961189.749,78869648,-41,38,"334b524f0e3a"
"2020-07-28T12:33:10",1595961190.161,78870060,-39,39,"334b524f0e3a"
"2020-07-28T12:33:10",1595961190.365,78870264,-42,37,"334b524f0e3a"
"2020-07-28T12:33:10",1595961190.777,78870676,-41,38,"334b524f0e3a"
"2020-07-28T12:33:10",1595961190.982,78870881,-40,39,"334b524f0e3a"
"2020-07-28T12:33:11",1595961191.393,78871292,-43,37,"334b524f0e3a"
"2020-07-28T12:33:11",1595961191.594,78871493,-41,38,"334b524f0e3a"
"2020-07-28T12:33:12",1595961192.008,78871907,-40,39,"334b524f0e3a"
"2020-07-28T12:33:12",1595961192.222,78872121,-43,37,"334b524f0e3a"
"2020-07-28T12:33:12",1595961192.631,78872530,-40,38,"334b524f0e3a"
"2020-07-28T12:33:12",1595961192.837,78872736,-39,39,"334b524f0e3a"
"2020-07-28T12:33:13",1595961193.447,78873346,-40,38,"334b524f0e3a"
"2020-07-28T12:33:13",1595961193.861,78873760,-38,39,"334b524f0e3a"
"2020-07-28T12:33:14",1595961194.07,78873969,-42,37,"334b524f0e3a"
"2020-07-28T12:33:14",1595961194.271,78874170,-42,37,"334b524f0e3a"
"2020-07-28T12:33:14",1595961194.486,78874385,-41,38,"334b524f0e3a"
"2020-07-28T12:33:14",1595961194.689,78874588,-40,39,"334b524f0e3a"
"2020-07-28T12:33:14",1595961194.89,78874789,-38,39,"334b524f0e3a"
"2020-07-28T12:33:15",1595961195.1,78874999,-43,37,"334b524f0e3a"
"2020-07-28T12:33:15",1595961195.51,78875409,-40,38,"334b524f0e3a"
"2020-07-28T12:33:15",1595961195.715,78875614,-39,39,"334b524f0e3a"
"2020-07-28T12:33:16",1595961196.125,78876024,-43,37,"334b524f0e3a"
"2020-07-28T12:33:16",1595961196.328,78876227,-40,38,"334b524f0e3a"
"2020-07-28T12:33:16",1595961196.738,78876637,-40,39,"334b524f0e3a"
"2020-07-28T12:33:16",1595961196.951,78876850,-43,37,"334b524f0e3a"
"2020-07-28T12:33:17",1595961197.361,78877260,-41,38,"334b524f0e3a"
"2020-07-28T12:33:17",1595961197.562,78877461,-39,39,"334b524f0e3a"
"2020-07-28T12:33:18",1595961198.179,78878078,-41,38,"334b524f0e3a"
"2020-07-28T12:33:18",1595961198.584,78878483,-39,39,"334b524f0e3a"
"2020-07-28T12:33:18",1595961198.792,78878691,-43,37,"334b524f0e3a"
"2020-07-28T12:33:19",1595961199.208,78879107,-40,38,"334b524f0e3a"
"2020-07-28T12:33:19",1595961199.828,78879727,-43,37,"334b524f0e3a"
"2020-07-28T12:33:20",1595961200.032,78879931,-40,38,"334b524f0e3a"
"2020-07-28T12:33:20",1595961200.444,78880343,-39,39,"334b524f0e3a"
"2020-07-28T12:33:20",1595961200.649,78880548,-43,37,"334b524f0e3a"
"2020-07-28T12:33:21",1595961201.059,78880958,-40,38,"334b524f0e3a"
"2020-07-28T12:33:21",1595961201.262,78881161,-38,39,"334b524f0e3a"
"2020-07-28T12:33:21",1595961201.673,78881572,-42,37,"334b524f0e3a"
"2020-07-28T12:33:22",1595961202.083,78881982,-41,38,"334b524f0e3a"
"2020-07-28T12:33:22",1595961202.293,78882192,-38,39,"334b524f0e3a"
"2020-07-28T12:33:22",1595961202.702,78882601,-43,37,"334b524f0e3a"
"2020-07-28T12:33:22",1595961202.905,78882804,-41,38,"334b524f0e3a"
"2020-07-28T12:33:23",1595961203.318,78883217,-38,39,"334b524f0e3a"
"2020-07-28T12:33:23",1595961203.52,78883419,-43,37,"334b524f0e3a"
"2020-07-28T12:33:23",1595961203.928,78883827,-40,38,"334b524f0e3a"
"2020-07-28T12:33:24",1595961204.142,78884041,-39,39,"334b524f0e3a"
"2020-07-28T12:33:24",1595961204.552,78884451,-42,37,"334b524f0e3a"
"2020-07-28T12:33:24",1595961204.753,78884652,-41,38,"334b524f0e3a"
"2020-07-28T12:33:25",1595961205.168,78885067,-39,39,"334b524f0e3a"
"2020-07-28T12:33:25",1595961205.371,78885270,-43,37,"334b524f0e3a"
"2020-07-28T12:33:25",1595961205.782,78885681,-41,38,"334b524f0e3a"
"2020-07-28T12:33:25",1595961205.987,78885886,-38,39,"334b524f0e3a"
"2020-07-28T12:33:26",1595961206.399,78886298,-42,37,"334b524f0e3a"
"2020-07-28T12:33:26",1595961206.61,78886509,-41,38,"334b524f0e3a"
"2020-07-28T12:33:27",1595961207.021,78886920,-40,39,"334b524f0e3a"
"2020-07-28T12:33:27",1595961207.227,78887126,-43,37,"334b524f0e3a"
"2020-07-28T12:33:27",1595961207.632,78887531,-41,38,"334b524f0e3a"
"2020-07-28T12:33:27",1595961207.834,78887733,-40,39,"334b524f0e3a"
"2020-07-28T12:33:28",1595961208.249,78888148,-43,37,"334b524f0e3a"
"2020-07-28T12:33:28",1595961208.451,78888350,-40,38,"334b524f0e3a"
"2020-07-28T12:33:28",1595961208.867,78888766,-38,39,"334b524f0e3a"
"2020-07-28T12:33:29",1595961209.077,78888976,-43,37,"334b524f0e3a"
"2020-07-28T12:33:29",1595961209.482,78889381,-41,38,"334b524f0e3a"
"2020-07-28T12:33:29",1595961209.691,78889590,-38,39,"334b524f0e3a"
"2020-07-28T12:33:30",1595961210.106,78890005,-42,37,"334b524f0e3a"
"2020-07-28T12:33:30",1595961210.512,78890411,-41,38,"334b524f0e3a"
"2020-07-28T12:33:30",1595961210.72,78890619,-38,39,"334b524f0e3a"
"2020-07-28T12:33:31",1595961211.128,78891027,-42,37,"334b524f0e3a"
"2020-07-28T12:33:31",1595961211.333,78891232,-41,38,"334b524f0e3a"
"2020-07-28T12:33:31",1595961211.747,78891646,-40,39,"334b524f0e3a"
"2020-07-28T12:33:31",1595961211.951,78891850,-43,37,"334b524f0e3a"
"2020-07-28T12:33:32",1595961212.369,78892268,-41,38,"334b524f0e3a"
"2020-07-28T12:33:32",1595961212.572,78892471,-39,39,"334b524f0e3a"
"2020-07-28T12:33:32",1595961212.98,78892879,-43,37,"334b524f0e3a"
"2020-07-28T12:33:33",1595961213.182,78893081,-41,38,"334b524f0e3a"
"2020-07-28T12:33:33",1595961213.589,78893488,-40,39,"334b524f0e3a"
"2020-07-28T12:33:33",1595961213.803,78893702,-42,37,"334b524f0e3a"
"2020-07-28T12:33:34",1595961214.211,78894110,-41,38,"334b524f0e3a"
"2020-07-28T12:33:34",1595961214.417,78894316,-39,39,"334b524f0e3a"
"2020-07-28T12:33:34",1595961214.828,78894727,-43,37,"334b524f0e3a"
"2020-07-28T12:33:35",1595961215.038,78894937,-41,38,"334b524f0e3a"
"2020-07-28T12:33:35",1595961215.446,78895345,-38,39,"334b524f0e3a"
"2020-07-28T12:33:35",1595961215.654,78895553,-42,37,"334b524f0e3a"
"2020-07-28T12:33:36",1595961216.071,78895970,-41,38,"334b524f0e3a"
"2020-07-28T12:33:36",1595961216.278,78896177,-39,39,"334b524f0e3a"
"2020-07-28T12:33:36",1595961216.888,78896787,-41,38,"334b524f0e3a"
"2020-07-28T12:33:37",1595961217.297,78897196,-40,39,"334b524f0e3a"
"2020-07-28T12:33:37",1595961217.508,78897407,-42,37,"334b524f0e3a"
"2020-07-28T12:33:38",1595961218.331,78898230,-39,39,"334b524f0e3a"
"2020-07-28T12:33:38",1595961218.545,78898444,-43,37,"334b524f0e3a"
"2020-07-28T12:33:38",1595961218.949,78898848,-41,38,"334b524f0e3a"
"2020-07-28T12:33:39",1595961219.158,78899057,-40,39,"334b524f0e3a"
"2020-07-28T12:33:39",1595961219.561,78899460,-42,37,"334b524f0e3a"
"2020-07-28T12:33:39",1595961219.771,78899670,-41,38,"334b524f0e3a"
"2020-07-28T12:33:40",1595961220.178,78900077,-39,39,"334b524f0e3a"
"2020-07-28T12:33:40",1595961220.388,78900287,-43,37,"334b524f0e3a"
"2020-07-28T12:33:40",1595961220.799,78900698,-41,38,"334b524f0e3a"
"2020-07-28T12:33:41",1595961221.009,78900908,-40,39,"334b524f0e3a"
"2020-07-28T12:33:41",1595961221.42,78901319,-42,37,"334b524f0e3a"
"2020-07-28T12:33:41",1595961221.623,78901522,-41,38,"334b524f0e3a"
"2020-07-28T12:33:42",1595961222.037,78901936,-38,39,"334b524f0e3a"
"2020-07-28T12:33:42",1595961222.242,78902141,-42,37,"334b524f0e3a"
"2020-07-28T12:33:42",1595961222.653,78902552,-41,38,"334b524f0e3a"
"2020-07-28T12:33:42",1595961222.857,78902756,-40,39,"334b524f0e3a"
"2020-07-28T12:33:43",1595961223.272,78903171,-42,37,"334b524f0e3a"
"2020-07-28T12:33:43",1595961223.478,78903377,-41,38,"334b524f0e3a"
"2020-07-28T12:33:43",1595961223.887,78903786,-40,39,"334b524f0e3a"
"2020-07-28T12:33:44",1595961224.091,78903990,-42,37,"334b524f0e3a"
"2020-07-28T12:33:44",1595961224.506,78904405,-41,38,"334b524f0e3a"
"2020-07-28T12:33:44",1595961224.709,78904608,-39,39,"334b524f0e3a"
"2020-07-28T12:33:45",1595961225.114,78905013,-43,37,"334b524f0e3a"
"2020-07-28T12:33:45",1595961225.325,78905224,-41,38,"334b524f0e3a"
"2020-07-28T12:33:45",1595961225.735,78905634,-39,39,"334b524f0e3a"
"2020-07-28T12:33:45",1595961225.941,78905840,-43,37,"334b524f0e3a"
"2020-07-28T12:33:46",1595961226.351,78906250,-41,38,"334b524f0e3a"
"2020-07-28T12:33:46",1595961226.759,78906658,-40,39,"334b524f0e3a"
"2020-07-28T12:33:46",1595961226.968,78906867,-42,37,"334b524f0e3a"
"2020-07-28T12:33:47",1595961227.378,78907277,-40,38,"334b524f0e3a"
"2020-07-28T12:33:47",1595961227.588,78907487,-40,39,"334b524f0e3a"
"2020-07-28T12:33:47",1595961227.997,78907896,-43,37,"334b524f0e3a"
"2020-07-28T12:33:48",1595961228.208,78908107,-41,38,"334b524f0e3a"
"2020-07-28T12:33:48",1595961228.622,78908521,-39,39,"334b524f0e3a"
"2020-07-28T12:33:48",1595961228.825,78908724,-42,37,"334b524f0e3a"
"2020-07-28T12:33:49",1595961229.238,78909137,-41,38,"334b524f0e3a"
"2020-07-28T12:33:49",1595961229.442,78909341,-39,39,"334b524f0e3a"
"2020-07-28T12:33:49",1595961229.852,78909751,-42,37,"334b524f0e3a"
"2020-07-28T12:33:50",1595961230.053,78909952,-41,38,"334b524f0e3a"
"2020-07-28T12:33:50",1595961230.467,78910366,-39,39,"334b524f0e3a"
"2020-07-28T12:33:50",1595961230.677,78910576,-43,37,"334b524f0e3a"
"2020-07-28T12:33:51",1595961231.089,78910988,-41,38,"334b524f0e3a"
"2020-07-28T12:33:51",1595961231.291,78911190,-39,39,"334b524f0e3a"
"2020-07-28T12:33:51",1595961231.697,78911596,-43,37,"334b524f0e3a"
"2020-07-28T12:33:51",1595961231.902,78911801,-41,38,"334b524f0e3a"
"2020-07-28T12:33:52",1595961232.314,78912213,-40,39,"334b524f0e3a"
"2020-07-28T12:33:52",1595961232.524,78912423,-42,37,"334b524f0e3a"
"2020-07-28T12:33:52",1595961232.941,78912840,-40,38,"334b524f0e3a"
"2020-07-28T12:33:53",1595961233.142,78913041,-40,39,"334b524f0e3a"
"2020-07-28T12:33:53",1595961233.551,78913450,-42,37,"334b524f0e3a"
"2020-07-28T12:33:53",1595961233.754,78913653,-41,38,"334b524f0e3a"
"2020-07-28T12:33:54",1595961234.578,78914477,-42,37,"334b524f0e3a"
"2020-07-28T12:33:54",1595961234.783,78914682,-41,38,"334b524f0e3a"
"2020-07-28T12:33:55",1595961235.191,78915090,-39,39,"334b524f0e3a"
"2020-07-28T12:33:55",1595961235.401,78915300,-42,37,"334b524f0e3a"
"2020-07-28T12:33:55",1595961235.814,78915713,-41,38,"334b524f0e3a"
"2020-07-28T12:33:56",1595961236.013,78915912,-39,39,"334b524f0e3a"
"2020-07-28T12:33:56",1595961236.423,78916322,-42,37,"334b524f0e3a"
"2020-07-28T12:33:56",1595961236.63,78916529,-41,38,"334b524f0e3a"
"2020-07-28T12:33:57",1595961237.041,78916940,-39,39,"334b524f0e3a"
"2020-07-28T12:33:57",1595961237.243,78917142,-42,37,"334b524f0e3a"
"2020-07-28T12:33:57",1595961237.668,78917567,-41,38,"334b524f0e3a"
"2020-07-28T12:33:57",1595961237.87,78917769,-40,39,"334b524f0e3a"
"2020-07-28T12:33:58",1595961238.272,78918171,-42,37,"334b524f0e3a"
"2020-07-28T12:33:58",1595961238.48,78918379,-41,38,"334b524f0e3a"
"2020-07-28T12:33:58",1595961238.892,78918791,-40,39,"334b524f0e3a"
"2020-07-28T12:33:59",1595961239.1,78918999,-43,37,"334b524f0e3a"
"2020-07-28T12:33:59",1595961239.504,78919403,-41,38,"334b524f0e3a"
"2020-07-28T12:33:59",1595961239.712,78919611,-39,39,"334b524f0e3a"
"2020-07-28T12:34:00",1595961240.122,78920021,-43,37,"334b524f0e3a"
"2020-07-28T12:34:00",1595961240.332,78920231,-41,38,"334b524f0e3a"
"2020-07-28T12:34:00",1595961240.74,78920639,-39,39,"334b524f0e3a"
"2020-07-28T12:34:00",1595961240.95,78920849,-43,37,"334b524f0e3a"
"2020-07-28T12:34:01",1595961241.362,78921261,-41,38,"334b524f0e3a"
"2020-07-28T12:34:01",1595961241.767,78921666,-40,39,"334b524f0e3a"
"2020-07-28T12:34:01",1595961241.97,78921869,-43,37,"334b524f0e3a"
"2020-07-28T12:34:02",1595961242.381,78922280,-41,38,"334b524f0e3a"
"2020-07-28T12:34:02",1595961242.591,78922490,-39,39,"334b524f0e3a"
"2020-07-28T12:34:03",1595961243.001,78922900,-43,37,"334b524f0e3a"
"2020-07-28T12:34:03",1595961243.203,78923102,-41,38,"334b524f0e3a"
"2020-07-28T12:34:03",1595961243.617,78923516,-38,39,"334b524f0e3a"
"2020-07-28T12:34:03",1595961243.825,78923724,-43,37,"334b524f0e3a"
"2020-07-28T12:34:04",1595961244.231,78924130,-41,38,"334b524f0e3a"
"2020-07-28T12:34:04",1595961244.434,78924333,-39,39,"334b524f0e3a"
"2020-07-28T12:34:04",1595961244.847,78924746,-43,37,"334b524f0e3a"
"2020-07-28T12:34:05",1595961245.055,78924954,-41,38,"334b524f0e3a"
"2020-07-28T12:34:05",1595961245.462,78925361,-39,39,"334b524f0e3a"
"2020-07-28T12:34:05",1595961245.667,78925566,-43,37,"334b524f0e3a"
"2020-07-28T12:34:06",1595961246.082,78925981,-41,38,"334b524f0e3a"
"2020-07-28T12:34:06",1595961246.284,78926183,-40,39,"334b524f0e3a"
"2020-07-28T12:34:06",1595961246.698,78926597,-43,37,"334b524f0e3a"
"2020-07-28T12:34:06",1595961246.901,78926800,-41,38,"334b524f0e3a"
"2020-07-28T12:34:07",1595961247.318,78927217,-39,39,"334b524f0e3a"
"2020-07-28T12:34:07",1595961247.523,78927422,-42,37,"334b524f0e3a"
"2020-07-28T12:34:07",1595961247.932,78927831,-41,38,"334b524f0e3a"
"2020-07-28T12:34:08",1595961248.141,78928040,-39,39,"334b524f0e3a"
"2020-07-28T12:34:08",1595961248.756,78928655,-41,38,"334b524f0e3a"
"2020-07-28T12:34:08",1595961248.956,78928855,-40,38,"334b524f0e3a"
"2020-07-28T12:34:09",1595961249.164,78929063,-40,39,"334b524f0e3a"
"2020-07-28T12:34:09",1595961249.374,78929273,-42,37,"334b524f0e3a"
"2020-07-28T12:34:09",1595961249.578,78929477,-42,37,"334b524f0e3a"
"2020-07-28T12:34:09",1595961249.787,78929686,-41,38,"334b524f0e3a"
"2020-07-28T12:34:10",1595961250.198,78930097,-39,39,"334b524f0e3a"
"2020-07-28T12:34:10",1595961250.405,78930304,-43,37,"334b524f0e3a"
"2020-07-28T12:34:10",1595961250.809,78930708,-40,38,"334b524f0e3a"
"2020-07-28T12:34:11",1595961251.019,78930918,-40,39,"334b524f0e3a"
"2020-07-28T12:34:11",1595961251.421,78931320,-42,37,"334b524f0e3a"
"2020-07-28T12:34:11",1595961251.628,78931527,-40,38,"334b524f0e3a"
"2020-07-28T12:34:12",1595961252.044,78931943,-40,39,"334b524f0e3a"
"2020-07-28T12:34:12",1595961252.248,78932147,-43,37,"334b524f0e3a"
"2020-07-28T12:34:12",1595961252.662,78932561,-41,38,"334b524f0e3a"
"2020-07-28T12:34:12",1595961252.862,78932761,-40,39,"334b524f0e3a"
"2020-07-28T12:34:13",1595961253.275,78933174,-43,37,"334b524f0e3a"
"2020-07-28T12:34:13",1595961253.477,78933376,-41,38,"334b524f0e3a"
"2020-07-28T12:34:13",1595961253.888,78933787,-40,39,"334b524f0e3a"
"2020-07-28T12:34:14",1595961254.091,78933990,-42,37,"334b524f0e3a"
"2020-07-28T12:34:14",1595961254.506,78934405,-40,38,"334b524f0e3a"
"2020-07-28T12:34:14",1595961254.713,78934612,-38,39,"334b524f0e3a"
"2020-07-28T12:34:15",1595961255.122,78935021,-43,37,"334b524f0e3a"
"2020-07-28T12:34:15",1595961255.331,78935230,-41,38,"334b524f0e3a"
"2020-07-28T12:34:15",1595961255.734,78935633,-39,39,"334b524f0e3a"
"2020-07-28T12:34:15",1595961255.943,78935842,-42,37,"334b524f0e3a"
"2020-07-28T12:34:16",1595961256.359,78936258,-41,38,"334b524f0e3a"
"2020-07-28T12:34:16",1595961256.767,78936666,-38,39,"334b524f0e3a"
"2020-07-28T12:34:16",1595961256.971,78936870,-42,37,"334b524f0e3a"
"2020-07-28T12:34:17",1595961257.381,78937280,-41,38,"334b524f0e3a"
"2020-07-28T12:34:17",1595961257.588,78937487,-39,39,"334b524f0e3a"
"2020-07-28T12:34:18",1595961258.001,78937900,-42,37,"334b524f0e3a"
"2020-07-28T12:34:18",1595961258.205,78938104,-40,38,"334b524f0e3a"
"2020-07-28T12:34:18",1595961258.616,78938515,-39,39,"334b524f0e3a"
"2020-07-28T12:34:18",1595961258.818,78938717,-43,37,"334b524f0e3a"
"2020-07-28T12:34:19",1595961259.237,78939136,-41,38,"334b524f0e3a"
"2020-07-28T12:34:19",1595961259.447,78939346,-39,39,"334b524f0e3a"
"2020-07-28T12:34:19",1595961259.857,78939756,-43,37,"334b524f0e3a"
"2020-07-28T12:34:20",1595961260.06,78939959,-41,38,"334b524f0e3a"
"2020-07-28T12:34:20",1595961260.467,78940366,-38,39,"334b524f0e3a"
"2020-07-28T12:34:20",1595961260.677,78940576,-42,37,"334b524f0e3a"
"2020-07-28T12:34:21",1595961261.086,78940985,-41,38,"334b524f0e3a"
"2020-07-28T12:34:21",1595961261.285,78941184,-40,39,"334b524f0e3a"
"2020-07-28T12:34:21",1595961261.703,78941602,-42,37,"334b524f0e3a"
"2020-07-28T12:34:21",1595961261.908,78941807,-41,38,"334b524f0e3a"
"2020-07-28T12:34:22",1595961262.317,78942216,-40,39,"334b524f0e3a"
"2020-07-28T12:34:22",1595961262.524,78942423,-43,37,"334b524f0e3a"
"2020-07-28T12:34:22",1595961262.933,78942832,-40,38,"334b524f0e3a"
"2020-07-28T12:34:23",1595961263.139,78943038,-38,39,"334b524f0e3a"
"2020-07-28T12:34:23",1595961263.549,78943448,-42,37,"334b524f0e3a"
"2020-07-28T12:34:23",1595961263.757,78943656,-41,38,"334b524f0e3a"
"2020-07-28T12:34:24",1595961264.377,78944276,-43,37,"334b524f0e3a"
"2020-07-28T12:34:24",1595961264.582,78944481,-43,37,"334b524f0e3a"
"2020-07-28T12:34:24",1595961264.788,78944687,-41,38,"334b524f0e3a"
"2020-07-28T12:34:25",1595961265.197,78945096,-39,39,"334b524f0e3a"
"2020-07-28T12:34:25",1595961265.4,78945299,-43,37,"334b524f0e3a"
"2020-07-28T12:34:25",1595961265.809,78945708,-41,38,"334b524f0e3a"
"2020-07-28T12:34:26",1595961266.018,78945917,-40,39,"334b524f0e3a"
"2020-07-28T12:34:26",1595961266.438,78946337,-43,37,"334b524f0e3a"
"2020-07-28T12:34:26",1595961266.648,78946547,-41,38,"334b524f0e3a"
"2020-07-28T12:34:27",1595961267.054,78946953,-40,39,"334b524f0e3a"
"2020-07-28T12:34:27",1595961267.253,78947152,-43,37,"334b524f0e3a"
"2020-07-28T12:34:27",1595961267.669,78947568,-41,38,"334b524f0e3a"
"2020-07-28T12:34:28",1595961268.288,78948187,-43,37,"334b524f0e3a"
"2020-07-28T12:34:28",1595961268.49,78948389,-41,38,"334b524f0e3a"
"2020-07-28T12:34:28",1595961268.903,78948802,-39,39,"334b524f0e3a"
"2020-07-28T12:34:29",1595961269.11,78949009,-43,37,"334b524f0e3a"
"2020-07-28T12:34:29",1595961269.518,78949417,-41,38,"334b524f0e3a"
"2020-07-28T12:34:29",1595961269.727,78949626,-38,39,"334b524f0e3a"
"2020-07-28T12:34:30",1595961270.133,78950032,-43,37,"334b524f0e3a"
"2020-07-28T12:34:30",1595961270.342,78950241,-41,38,"334b524f0e3a"
"2020-07-28T12:34:30",1595961270.752,78950651,-38,39,"334b524f0e3a"
"2020-07-28T12:34:30",1595961270.957,78950856,-42,37,"334b524f0e3a"
"2020-07-28T12:34:31",1595961271.369,78951268,-40,38,"334b524f0e3a"
"2020-07-28T12:34:31",1595961271.57,78951469,-39,39,"334b524f0e3a"
"2020-07-28T12:34:32",1595961272.193,78952092,-40,38,"334b524f0e3a"
"2020-07-28T12:34:32",1595961272.599,78952498,-38,39,"334b524f0e3a"
"2020-07-28T12:34:33",1595961273.008,78952907,-43,37,"334b524f0e3a"
"2020-07-28T12:34:33",1595961273.218,78953117,-41,38,"334b524f0e3a"
"2020-07-28T12:34:33",1595961273.634,78953533,-40,39,"334b524f0e3a"
"2020-07-28T12:34:33",1595961273.842,78953741,-43,37,"334b524f0e3a"
"2020-07-28T12:34:34",1595961274.249,78954148,-41,38,"334b524f0e3a"
"2020-07-28T12:34:34",1595961274.459,78954358,-38,39,"334b524f0e3a"
"2020-07-28T12:34:34",1595961274.867,78954766,-42,37,"334b524f0e3a"
"2020-07-28T12:34:35",1595961275.477,78955376,-38,39,"334b524f0e3a"
"2020-07-28T12:34:35",1595961275.687,78955586,-43,37,"334b524f0e3a"
"2020-07-28T12:34:36",1595961276.31,78956209,-40,39,"334b524f0e3a"
"2020-07-28T12:34:36",1595961276.721,78956620,-42,37,"334b524f0e3a"
"2020-07-28T12:34:36",1595961276.929,78956828,-41,38,"334b524f0e3a"
"2020-07-28T12:34:37",1595961277.34,78957239,-39,39,"334b524f0e3a"
"2020-07-28T12:34:37",1595961277.542,78957441,-42,37,"334b524f0e3a"
"2020-07-28T12:34:37",1595961277.951,78957850,-41,38,"334b524f0e3a"
"2020-07-28T12:34:38",1595961278.153,78958052,-40,39,"334b524f0e3a"
"2020-07-28T12:34:38",1595961278.566,78958465,-43,37,"334b524f0e3a"
"2020-07-28T12:34:38",1595961278.772,78958671,-41,38,"334b524f0e3a"
"2020-07-28T12:34:39",1595961279.187,78959086,-39,39,"334b524f0e3a"
"2020-07-28T12:34:39",1595961279.389,78959288,-43,37,"334b524f0e3a"
"2020-07-28T12:34:39",1595961279.798,78959697,-41,38,"334b524f0e3a"
"2020-07-28T12:34:40",1595961280.418,78960317,-42,37,"334b524f0e3a"
"2020-07-28T12:34:40",1595961280.831,78960730,-41,38,"334b524f0e3a"
"2020-07-28T12:34:41",1595961281.036,78960935,-38,39,"334b524f0e3a"
"2020-07-28T12:34:41",1595961281.445,78961344,-43,37,"334b524f0e3a"
"2020-07-28T12:34:41",1595961281.656,78961555,-40,38,"334b524f0e3a"
"2020-07-28T12:34:42",1595961282.068,78961967,-40,39,"334b524f0e3a"
"2020-07-28T12:34:42",1595961282.271,78962170,-43,37,"334b524f0e3a"
"2020-07-28T12:34:42",1595961282.673,78962572,-41,38,"334b524f0e3a"
"2020-07-28T12:34:42",1595961282.881,78962780,-38,39,"334b524f0e3a"
"2020-07-28T12:34:43",1595961283.297,78963196,-42,37,"334b524f0e3a"
"2020-07-28T12:34:43",1595961283.507,78963406,-41,38,"334b524f0e3a"
"2020-07-28T12:34:43",1595961283.909,78963808,-38,39,"334b524f0e3a"
"2020-07-28T12:34:44",1595961284.117,78964016,-43,37,"334b524f0e3a"
"2020-07-28T12:34:44",1595961284.528,78964427,-41,38,"334b524f0e3a"
"2020-07-28T12:34:44",1595961284.732,78964631,-38,39,"334b524f0e3a"
"2020-07-28T12:34:45",1595961285.14,78965039,-43,37,"334b524f0e3a"
"2020-07-28T12:34:45",1595961285.348,78965247,-41,38,"334b524f0e3a"
"2020-07-28T12:34:45",1595961285.767,78965666,-38,39,"334b524f0e3a"
"2020-07-28T12:34:45",1595961285.973,78965872,-43,37,"334b524f0e3a"
"2020-07-28T12:34:46",1595961286.38,78966279,-41,38,"334b524f0e3a"
"2020-07-28T12:34:46",1595961286.585,78966484,-38,39,"334b524f0e3a"
"2020-07-28T12:34:46",1595961286.997,78966896,-42,37,"334b524f0e3a"
"2020-07-28T12:34:47",1595961287.2,78967099,-40,38,"334b524f0e3a"
"2020-07-28T12:34:47",1595961287.613,78967512,-38,39,"334b524f0e3a"
"2020-07-28T12:34:47",1595961287.817,78967716,-42,37,"334b524f0e3a"
"2020-07-28T12:34:48",1595961288.017,78967916,-43,37,"334b524f0e3a"
"2020-07-28T12:34:48",1595961288.228,78968127,-41,38,"334b524f0e3a"
"2020-07-28T12:34:48",1595961288.438,78968337,-39,39,"334b524f0e3a"
"2020-07-28T12:34:48",1595961288.645,78968544,-40,39,"334b524f0e3a"
"2020-07-28T12:34:48",1595961288.847,78968746,-43,37,"334b524f0e3a"
"2020-07-28T12:34:49",1595961289.257,78969156,-41,38,"334b524f0e3a"
"2020-07-28T12:34:49",1595961289.466,78969365,-38,39,"334b524f0e3a"
"2020-07-28T12:34:49",1595961289.872,78969771,-43,37,"334b524f0e3a"
"2020-07-28T12:34:50",1595961290.078,78969977,-41,38,"334b524f0e3a"
"2020-07-28T12:34:50",1595961290.49,78970389,-39,39,"334b524f0e3a"
"2020-07-28T12:34:50",1595961290.698,78970597,-43,37,"334b524f0e3a"
"2020-07-28T12:34:51",1595961291.108,78971007,-41,38,"334b524f0e3a"
"2020-07-28T12:34:51",1595961291.317,78971216,-40,39,"334b524f0e3a"
"2020-07-28T12:34:51",1595961291.721,78971620,-42,37,"334b524f0e3a"
"2020-07-28T12:34:51",1595961291.928,78971827,-40,38,"334b524f0e3a"
"2020-07-28T12:34:52",1595961292.338,78972237,-39,39,"334b524f0e3a"
"2020-07-28T12:34:52",1595961292.539,78972438,-42,37,"334b524f0e3a"
"2020-07-28T12:34:52",1595961292.958,78972857,-41,38,"334b524f0e3a"
"2020-07-28T12:34:53",1595961293.161,78973060,-38,39,"334b524f0e3a"
"2020-07-28T12:34:53",1595961293.566,78973465,-43,37,"334b524f0e3a"
"2020-07-28T12:34:53",1595961293.774,78973673,-41,38,"334b524f0e3a"
"2020-07-28T12:34:54",1595961294.188,78974087,-40,39,"334b524f0e3a"
"2020-07-28T12:34:54",1595961294.398,78974297,-43,37,"334b524f0e3a"
"2020-07-28T12:34:54",1595961294.806,78974705,-41,38,"334b524f0e3a"
"2020-07-28T12:34:55",1595961295.013,78974912,-38,39,"334b524f0e3a"
"2020-07-28T12:34:55",1595961295.43,78975329,-42,37,"334b524f0e3a"
"2020-07-28T12:34:55",1595961295.636,78975535,-41,38,"334b524f0e3a"
"2020-07-28T12:34:56",1595961296.048,78975947,-38,39,"334b524f0e3a"
"2020-07-28T12:34:56",1595961296.253,78976152,-42,37,"334b524f0e3a"
"2020-07-28T12:34:56",1595961296.664,78976563,-41,38,"334b524f0e3a"
"2020-07-28T12:34:57",1595961297.072,78976971,-38,39,"334b524f0e3a"
"2020-07-28T12:34:57",1595961297.281,78977180,-42,37,"334b524f0e3a"
"2020-07-28T12:34:57",1595961297.698,78977597,-40,38,"334b524f0e3a"
"2020-07-28T12:34:57",1595961297.907,78977806,-39,39,"334b524f0e3a"
"2020-07-28T12:34:58",1595961298.521,78978420,-41,38,"334b524f0e3a"
"2020-07-28T12:34:58",1595961298.929,78978828,-38,39,"334b524f0e3a"
"2020-07-28T12:34:59",1595961299.138,78979037,-42,37,"334b524f0e3a"
"2020-07-28T12:34:59",1595961299.546,78979445,-41,38,"334b524f0e3a"
"2020-07-28T12:34:59",1595961299.75,78979649,-38,39,"334b524f0e3a"
"2020-07-28T12:35:00",1595961300.168,78980067,-42,37,"334b524f0e3a"
"2020-07-28T12:35:00",1595961300.371,78980270,-41,38,"334b524f0e3a"
"2020-07-28T12:35:00",1595961300.788,78980687,-39,39,"334b524f0e3a"
"2020-07-28T12:35:00",1595961300.988,78980887,-42,37,"334b524f0e3a"
"2020-07-28T12:35:01",1595961301.606,78981505,-40,39,"334b524f0e3a"
"2020-07-28T12:35:02",1595961302.012,78981911,-43,37,"334b524f0e3a"
"2020-07-28T12:35:02",1595961302.217,78982116,-41,38,"334b524f0e3a"
"2020-07-28T12:35:02",1595961302.633,78982532,-39,39,"334b524f0e3a"
"2020-07-28T12:35:02",1595961302.837,78982736,-43,37,"334b524f0e3a"
"2020-07-28T12:35:03",1595961303.248,78983147,-41,38,"334b524f0e3a"
"2020-07-28T12:35:03",1595961303.45,78983349,-39,39,"334b524f0e3a"
"2020-07-28T12:35:03",1595961303.863,78983762,-43,37,"334b524f0e3a"
"2020-07-28T12:35:04",1595961304.066,78983965,-41,38,"334b524f0e3a"
"2020-07-28T12:35:04",1595961304.477,78984376,-38,39,"334b524f0e3a"
"2020-07-28T12:35:04",1595961304.688,78984587,-42,37,"334b524f0e3a"
"2020-07-28T12:35:05",1595961305.101,78985000,-41,38,"334b524f0e3a"
"2020-07-28T12:35:05",1595961305.514,78985413,-38,39,"334b524f0e3a"
"2020-07-28T12:35:05",1595961305.715,78985614,-42,37,"334b524f0e3a"
"2020-07-28T12:35:06",1595961306.128,78986027,-41,38,"334b524f0e3a"
"2020-07-28T12:35:06",1595961306.331,78986230,-39,39,"334b524f0e3a"
"2020-07-28T12:35:06",1595961306.74,78986639,-43,37,"334b524f0e3a"
"2020-07-28T12:35:06",1595961306.949,78986848,-41,38,"334b524f0e3a"
"2020-07-28T12:35:07",1595961307.362,78987261,-40,39,"334b524f0e3a"
"2020-07-28T12:35:07",1595961307.567,78987466,-42,37,"334b524f0e3a"
"2020-07-28T12:35:07",1595961307.979,78987878,-41,38,"334b524f0e3a"
"2020-07-28T12:35:08",1595961308.19,78988089,-39,39,"334b524f0e3a"
"2020-07-28T12:35:08",1595961308.599,78988498,-43,37,"334b524f0e3a"
"2020-07-28T12:35:08",1595961308.808,78988707,-40,38,"334b524f0e3a"
"2020-07-28T12:35:09",1595961309.211,78989110,-40,39,"334b524f0e3a"
"2020-07-28T12:35:09",1595961309.416,78989315,-43,37,"334b524f0e3a"
"2020-07-28T12:35:09",1595961309.833,78989732,-41,38,"334b524f0e3a"
"2020-07-28T12:35:10",1595961310.034,78989933,-39,39,"334b524f0e3a"
"2020-07-28T12:35:10",1595961310.45,78990349,-43,37,"334b524f0e3a"
"2020-07-28T12:35:10",1595961310.651,78990550,-40,38,"334b524f0e3a"
"2020-07-28T12:35:11",1595961311.057,78990956,-38,39,"334b524f0e3a"
"2020-07-28T12:35:11",1595961311.264,78991163,-43,37,"334b524f0e3a"
"2020-07-28T12:35:11",1595961311.678,78991577,-41,38,"334b524f0e3a"
"2020-07-28T12:35:11",1595961311.888,78991787,-39,39,"334b524f0e3a"
"2020-07-28T12:35:12",1595961312.301,78992200,-42,37,"334b524f0e3a"
"2020-07-28T12:35:12",1595961312.509,78992408,-41,38,"334b524f0e3a"
"2020-07-28T12:35:12",1595961312.916,78992815,-38,39,"334b524f0e3a"
"2020-07-28T12:35:13",1595961313.322,78993221,-42,37,"334b524f0e3a"
"2020-07-28T12:35:13",1595961313.527,78993426,-41,38,"334b524f0e3a"
"2020-07-28T12:35:13",1595961313.937,78993836,-38,39,"334b524f0e3a"
"2020-07-28T12:35:14",1595961314.144,78994043,-42,37,"334b524f0e3a"
"2020-07-28T12:35:14",1595961314.558,78994457,-41,38,"334b524f0e3a"
"2020-07-28T12:35:14",1595961314.768,78994667,-39,39,"334b524f0e3a"
"2020-07-28T12:35:15",1595961315.176,78995075,-43,37,"334b524f0e3a"
"2020-07-28T12:35:15",1595961315.376,78995275,-41,38,"334b524f0e3a"
"2020-07-28T12:35:15",1595961315.79,78995689,-38,39,"334b524f0e3a"
"2020-07-28T12:35:15",1595961315.993,78995892,-42,37,"334b524f0e3a"
"2020-07-28T12:35:16",1595961316.408,78996307,-41,38,"334b524f0e3a"
"2020-07-28T12:35:16",1595961316.61,78996509,-39,39,"334b524f0e3a"
"2020-07-28T12:35:17",1595961317.03,78996929,-43,37,"334b524f0e3a"
"2020-07-28T12:35:17",1595961317.233,78997132,-41,38,"334b524f0e3a"
"2020-07-28T12:35:17",1595961317.642,78997541,-38,39,"334b524f0e3a"
"2020-07-28T12:35:17",1595961317.844,78997743,-42,37,"334b524f0e3a"
"2020-07-28T12:35:18",1595961318.257,78998156,-41,38,"334b524f0e3a"
"2020-07-28T12:35:18",1595961318.459,78998358,-38,39,"334b524f0e3a"
"2020-07-28T12:35:18",1595961318.869,78998768,-42,37,"334b524f0e3a"
"2020-07-28T12:35:19",1595961319.079,78998978,-41,38,"334b524f0e3a"
"2020-07-28T12:35:19",1595961319.492,78999391,-40,39,"334b524f0e3a"
"2020-07-28T12:35:19",1595961319.699,78999598,-43,37,"334b524f0e3a"
"2020-07-28T12:35:20",1595961320.108,79000007,-41,38,"334b524f0e3a"
"2020-07-28T12:35:20",1595961320.512,79000411,-40,39,"334b524f0e3a"
"2020-07-28T12:35:20",1595961320.719,79000618,-42,37,"334b524f0e3a"
"2020-07-28T12:35:21",1595961321.133,79001032,-41,38,"334b524f0e3a"
"2020-07-28T12:35:21",1595961321.341,79001240,-38,39,"334b524f0e3a"
"2020-07-28T12:35:21",1595961321.758,79001657,-43,37,"334b524f0e3a"
"2020-07-28T12:35:22",1595961322.374,79002273,-40,39,"334b524f0e3a"
"2020-07-28T12:35:22",1595961322.581,79002480,-42,37,"334b524f0e3a"
"2020-07-28T12:35:22",1595961322.987,79002886,-41,38,"334b524f0e3a"
"2020-07-28T12:35:23",1595961323.19,79003089,-39,39,"334b524f0e3a"
"2020-07-28T12:35:23",1595961323.596,79003495,-42,37,"334b524f0e3a"
"2020-07-28T12:35:23",1595961323.805,79003704,-41,38,"334b524f0e3a"
"2020-07-28T12:35:24",1595961324.221,79004120,-40,39,"334b524f0e3a"
"2020-07-28T12:35:24",1595961324.428,79004327,-42,37,"334b524f0e3a"
"2020-07-28T12:35:24",1595961324.847,79004746,-41,38,"334b524f0e3a"
"2020-07-28T12:35:25",1595961325.052,79004951,-38,39,"334b524f0e3a"
"2020-07-28T12:35:25",1595961325.462,79005361,-43,37,"334b524f0e3a"
"2020-07-28T12:35:25",1595961325.664,79005563,-41,38,"334b524f0e3a"
"2020-07-28T12:35:26",1595961326.069,79005968,-38,39,"334b524f0e3a"
"2020-07-28T12:35:26",1595961326.279,79006178,-43,37,"334b524f0e3a"
"2020-07-28T12:35:26",1595961326.698,79006597,-41,38,"334b524f0e3a"
"2020-07-28T12:35:26",1595961326.898,79006797,-40,39,"334b524f0e3a"
"2020-07-28T12:35:27",1595961327.307,79007206,-43,37,"334b524f0e3a"
"2020-07-28T12:35:27",1595961327.518,79007417,-41,38,"334b524f0e3a"
"2020-07-28T12:35:27",1595961327.925,79007824,-39,39,"334b524f0e3a"
"2020-07-28T12:35:28",1595961328.136,79008035,-43,37,"334b524f0e3a"
"2020-07-28T12:35:28",1595961328.543,79008442,-41,38,"334b524f0e3a"
"2020-07-28T12:35:28",1595961328.954,79008853,-40,39,"334b524f0e3a"
"2020-07-28T12:35:29",1595961329.157,79009056,-43,37,"334b524f0e3a"
"2020-07-28T12:35:29",1595961329.568,79009467,-41,38,"334b524f0e3a"
"2020-07-28T12:35:29",1595961329.772,79009671,-38,39,"334b524f0e3a"
"2020-07-28T12:35:30",1595961330.183,79010082,-42,37,"334b524f0e3a"
"2020-07-28T12:35:30",1595961330.39,79010289,-41,38,"334b524f0e3a"
"2020-07-28T12:35:30",1595961330.8,79010699,-38,39,"334b524f0e3a"
"2020-07-28T12:35:31",1595961331.008,79010907,-43,37,"334b524f0e3a"
"2020-07-28T12:35:31",1595961331.418,79011317,-41,38,"334b524f0e3a"
"2020-07-28T12:35:31",1595961331.628,79011527,-39,39,"334b524f0e3a"
"2020-07-28T12:35:32",1595961332.037,79011936,-43,37,"334b524f0e3a"
"2020-07-28T12:35:32",1595961332.243,79012142,-41,38,"334b524f0e3a"
"2020-07-28T12:35:32",1595961332.653,79012552,-40,39,"334b524f0e3a"
"2020-07-28T12:35:32",1595961332.859,79012758,-42,37,"334b524f0e3a"
"2020-07-28T12:35:33",1595961333.273,79013172,-41,38,"334b524f0e3a"
"2020-07-28T12:35:33",1595961333.474,79013373,-39,39,"334b524f0e3a"
"2020-07-28T12:35:33",1595961333.89,79013789,-43,37,"334b524f0e3a"
"2020-07-28T12:35:34",1595961334.097,79013996,-41,38,"334b524f0e3a"
"2020-07-28T12:35:34",1595961334.507,79014406,-38,39,"334b524f0e3a"
"2020-07-28T12:35:34",1595961334.708,79014607,-42,37,"334b524f0e3a"
"2020-07-28T12:35:35",1595961335.116,79015015,-41,38,"334b524f0e3a"
"2020-07-28T12:35:35",1595961335.318,79015217,-38,39,"334b524f0e3a"
"2020-07-28T12:35:35",1595961335.733,79015632,-43,37,"334b524f0e3a"
"2020-07-28T12:35:36",1595961336.144,79016043,-41,38,"334b524f0e3a"
"2020-07-28T12:35:36",1595961336.353,79016252,-40,39,"334b524f0e3a"
"2020-07-28T12:35:36",1595961336.761,79016660,-42,37,"334b524f0e3a"
"2020-07-28T12:35:36",1595961336.972,79016871,-41,38,"334b524f0e3a"
"2020-07-28T12:35:37",1595961337.38,79017279,-40,39,"334b524f0e3a"
"2020-07-28T12:35:37",1595961337.582,79017481,-42,37,"334b524f0e3a"
"2020-07-28T12:35:37",1595961337.996,79017895,-41,38,"334b524f0e3a"
"2020-07-28T12:35:38",1595961338.202,79018101,-39,39,"334b524f0e3a"
"2020-07-28T12:35:38",1595961338.617,79018516,-43,37,"334b524f0e3a"
"2020-07-28T12:35:38",1595961338.819,79018718,-41,38,"334b524f0e3a"
"2020-07-28T12:35:39",1595961339.226,79019125,-40,39,"334b524f0e3a"
"2020-07-28T12:35:39",1595961339.433,79019332,-43,37,"334b524f0e3a"
"2020-07-28T12:35:40",1595961340.043,79019942,-38,39,"334b524f0e3a"
"2020-07-28T12:35:40",1595961340.462,79020361,-43,37,"334b524f0e3a"
"2020-07-28T12:35:40",1595961340.664,79020563,-41,38,"334b524f0e3a"
"2020-07-28T12:35:41",1595961341.077,79020976,-38,39,"334b524f0e3a"
"2020-07-28T12:35:41",1595961341.288,79021187,-43,37,"334b524f0e3a"
"2020-07-28T12:35:41",1595961341.698,79021597,-40,38,"334b524f0e3a"
"2020-07-28T12:35:41",1595961341.898,79021797,-38,39,"334b524f0e3a"
"2020-07-28T12:35:42",1595961342.311,79022210,-42,37,"334b524f0e3a"
"2020-07-28T12:35:42",1595961342.511,79022410,-41,38,"334b524f0e3a"
"2020-07-28T12:35:42",1595961342.923,79022822,-39,39,"334b524f0e3a"
"2020-07-28T12:35:43",1595961343.125,79023024,-43,37,"334b524f0e3a"
"2020-07-28T12:35:43",1595961343.54,79023439,-41,38,"334b524f0e3a"
"2020-07-28T12:35:43",1595961343.953,79023852,-40,39,"334b524f0e3a"
"2020-07-28T12:35:44",1595961344.161,79024060,-43,37,"334b524f0e3a"
"2020-07-28T12:35:44",1595961344.569,79024468,-41,38,"334b524f0e3a"
"2020-07-28T12:35:44",1595961344.78,79024679,-38,39,"334b524f0e3a"
"2020-07-28T12:35:45",1595961345.189,79025088,-43,37,"334b524f0e3a"
"2020-07-28T12:35:45",1595961345.398,79025297,-41,38,"334b524f0e3a"
"2020-07-28T12:35:45",1595961345.81,79025709,-38,39,"334b524f0e3a"
"2020-07-28T12:35:46",1595961346.015,79025914,-43,37,"334b524f0e3a"
"2020-07-28T12:35:46",1595961346.422,79026321,-41,38,"334b524f0e3a"
"2020-07-28T12:35:46",1595961346.627,79026526,-40,39,"334b524f0e3a"
"2020-07-28T12:35:47",1595961347.041,79026940,-43,37,"334b524f0e3a"
"2020-07-28T12:35:47",1595961347.247,79027146,-41,38,"334b524f0e3a"
"2020-07-28T12:35:47",1595961347.65,79027549,-38,39,"334b524f0e3a"
"2020-07-28T12:35:47",1595961347.857,79027756,-43,37,"334b524f0e3a"
"2020-07-28T12:35:48",1595961348.278,79028177,-41,38,"334b524f0e3a"
"2020-07-28T12:35:48",1595961348.488,79028387,-39,39,"334b524f0e3a"
"2020-07-28T12:35:48",1595961348.892,79028791,-43,37,"334b524f0e3a"
"2020-07-28T12:35:49",1595961349.098,79028997,-41,38,"334b524f0e3a"
"2020-07-28T12:35:49",1595961349.51,79029409,-38,39,"334b524f0e3a"
"2020-07-28T12:35:49",1595961349.72,79029619,-42,37,"334b524f0e3a"
"2020-07-28T12:35:50",1595961350.128,79030027,-41,38,"334b524f0e3a"
"2020-07-28T12:35:50",1595961350.338,79030237,-38,39,"334b524f0e3a"
"2020-07-28T12:35:50",1595961350.75,79030649,-42,37,"334b524f0e3a"
"2020-07-28T12:35:51",1595961351.363,79031262,-38,39,"334b524f0e3a"
"2020-07-28T12:35:51",1595961351.566,79031465,-43,37,"334b524f0e3a"
"2020-07-28T12:35:51",1595961351.979,79031878,-41,38,"334b524f0e3a"
"2020-07-28T12:35:52",1595961352.188,79032087,-40,39,"334b524f0e3a"
"2020-07-28T12:35:52",1595961352.388,79032287,-39,39,"334b524f0e3a"
"2020-07-28T12:35:52",1595961352.597,79032496,-42,37,"334b524f0e3a"
"2020-07-28T12:35:53",1595961353.014,79032913,-41,38,"334b524f0e3a"
"2020-07-28T12:35:53",1595961353.214,79033113,-40,39,"334b524f0e3a"
"2020-07-28T12:35:53",1595961353.626,79033525,-42,37,"334b524f0e3a"
"2020-07-28T12:35:53",1595961353.828,79033727,-41,38,"334b524f0e3a"
"2020-07-28T12:35:54",1595961354.244,79034143,-39,39,"334b524f0e3a"
"2020-07-28T12:35:54",1595961354.451,79034350,-43,37,"334b524f0e3a"
"2020-07-28T12:35:54",1595961354.859,79034758,-40,38,"334b524f0e3a"
"2020-07-28T12:35:55",1595961355.066,79034965,-38,39,"334b524f0e3a"
"2020-07-28T12:35:55",1595961355.478,79035377,-43,37,"334b524f0e3a"
"2020-07-28T12:35:55",1595961355.682,79035581,-41,38,"334b524f0e3a"
"2020-07-28T12:35:56",1595961356.096,79035995,-39,39,"334b524f0e3a"
"2020-07-28T12:35:56",1595961356.296,79036195,-43,37,"334b524f0e3a"
"2020-07-28T12:35:56",1595961356.707,79036606,-41,38,"334b524f0e3a"
"2020-07-28T12:35:56",1595961356.913,79036812,-40,39,"334b524f0e3a"
"2020-07-28T12:35:57",1595961357.322,79037221,-42,37,"334b524f0e3a"
"2020-07-28T12:35:57",1595961357.531,79037430,-40,38,"334b524f0e3a"
"2020-07-28T12:35:57",1595961357.948,79037847,-40,39,"334b524f0e3a"
"2020-07-28T12:35:58",1595961358.154,79038053,-43,37,"334b524f0e3a"
"2020-07-28T12:35:58",1595961358.56,79038459,-41,38,"334b524f0e3a"
"2020-07-28T12:35:58",1595961358.769,79038668,-40,39,"334b524f0e3a"
"2020-07-28T12:35:59",1595961359.177,79039076,-42,37,"334b524f0e3a"
"2020-07-28T12:35:59",1595961359.382,79039281,-41,38,"334b524f0e3a"
"2020-07-28T12:35:59",1595961359.789,79039688,-39,39,"334b524f0e3a"
"2020-07-28T12:36:00",1595961360.201,79040100,-42,37,"334b524f0e3a"
"2020-07-28T12:36:00",1595961360.407,79040306,-41,38,"334b524f0e3a"
"2020-07-28T12:36:00",1595961360.817,79040716,-40,39,"334b524f0e3a"
"2020-07-28T12:36:01",1595961361.028,79040927,-43,37,"334b524f0e3a"
"2020-07-28T12:36:01",1595961361.443,79041342,-41,38,"334b524f0e3a"
"2020-07-28T12:36:01",1595961361.645,79041544,-39,39,"334b524f0e3a"
"2020-07-28T12:36:02",1595961362.055,79041954,-42,37,"334b524f0e3a"
"2020-07-28T12:36:02",1595961362.258,79042157,-41,38,"334b524f0e3a"
"2020-07-28T12:36:02",1595961362.678,79042577,-38,39,"334b524f0e3a"
"2020-07-28T12:36:02",1595961362.877,79042776,-43,37,"334b524f0e3a"
"2020-07-28T12:36:03",1595961363.292,79043191,-41,38,"334b524f0e3a"
"2020-07-28T12:36:03",1595961363.5,79043399,-38,39,"334b524f0e3a"
"2020-07-28T12:36:03",1595961363.91,79043809,-43,37,"334b524f0e3a"
"2020-07-28T12:36:04",1595961364.11,79044009,-41,38,"334b524f0e3a"
"2020-07-28T12:36:04",1595961364.515,79044414,-38,39,"334b524f0e3a"
"2020-07-28T12:36:04",1595961364.722,79044621,-42,37,"334b524f0e3a"
"2020-07-28T12:36:05",1595961365.338,79045237,-40,39,"334b524f0e3a"
"2020-07-28T12:36:05",1595961365.752,79045651,-42,37,"334b524f0e3a"
"2020-07-28T12:36:05",1595961365.954,79045853,-41,38,"334b524f0e3a"
"2020-07-28T12:36:06",1595961366.368,79046267,-40,39,"334b524f0e3a"
"2020-07-28T12:36:06",1595961366.578,79046477,-42,37,"334b524f0e3a"
"2020-07-28T12:36:06",1595961366.986,79046885,-41,38,"334b524f0e3a"
"2020-07-28T12:36:07",1595961367.188,79047087,-38,39,"334b524f0e3a"
"2020-07-28T12:36:07",1595961367.605,79047504,-43,37,"334b524f0e3a"
"2020-07-28T12:36:08",1595961368.018,79047917,-40,38,"334b524f0e3a"
"2020-07-28T12:36:08",1595961368.222,79048121,-38,39,"334b524f0e3a"
"2020-07-28T12:36:08",1595961368.629,79048528,-43,37,"334b524f0e3a"
"2020-07-28T12:36:08",1595961368.832,79048731,-41,38,"334b524f0e3a"
"2020-07-28T12:36:09",1595961369.248,79049147,-38,39,"334b524f0e3a"
"2020-07-28T12:36:09",1595961369.457,79049356,-43,37,"334b524f0e3a"
"2020-07-28T12:36:09",1595961369.869,79049768,-41,38,"334b524f0e3a"
"2020-07-28T12:36:10",1595961370.073,79049972,-38,39,"334b524f0e3a"
"2020-07-28T12:36:10",1595961370.486,79050385,-43,37,"334b524f0e3a"
"2020-07-28T12:36:11",1595961371.1,79050999,-39,39,"334b524f0e3a"
"2020-07-28T12:36:11",1595961371.304,79051203,-42,37,"334b524f0e3a"
"2020-07-28T12:36:11",1595961371.719,79051618,-41,38,"334b524f0e3a"
"2020-07-28T12:36:11",1595961371.92,79051819,-39,39,"334b524f0e3a"
"2020-07-28T12:36:12",1595961372.338,79052237,-43,37,"334b524f0e3a"
"2020-07-28T12:36:12",1595961372.548,79052447,-41,38,"334b524f0e3a"
"2020-07-28T12:36:12",1595961372.96,79052859,-40,39,"334b524f0e3a"
"2020-07-28T12:36:13",1595961373.574,79053473,-41,38,"334b524f0e3a"
"2020-07-28T12:36:13",1595961373.777,79053676,-39,39,"334b524f0e3a"
"2020-07-28T12:36:14",1595961374.189,79054088,-42,37,"334b524f0e3a"
"2020-07-28T12:36:14",1595961374.395,79054294,-40,38,"334b524f0e3a"
"2020-07-28T12:36:14",1595961374.806,79054705,-38,39,"334b524f0e3a"
"2020-07-28T12:36:15",1595961375.007,79054906,-43,37,"334b524f0e3a"
"2020-07-28T12:36:15",1595961375.423,79055322,-41,38,"334b524f0e3a"
"2020-07-28T12:36:15",1595961375.628,79055527,-40,39,"334b524f0e3a"
"2020-07-28T12:36:15",1595961375.829,79055728,-38,39,"334b524f0e3a"
"2020-07-28T12:36:16",1595961376.038,79055937,-42,37,"334b524f0e3a"
"2020-07-28T12:36:16",1595961376.448,79056347,-41,38,"334b524f0e3a"
"2020-07-28T12:36:17",1595961377.064,79056963,-43,37,"334b524f0e3a"
"2020-07-28T12:36:17",1595961377.27,79057169,-40,38,"334b524f0e3a"
"2020-07-28T12:36:17",1595961377.683,79057582,-40,39,"334b524f0e3a"
"2020-07-28T12:36:17",1595961377.889,79057788,-42,37,"334b524f0e3a"
"2020-07-28T12:36:18",1595961378.294,79058193,-40,38,"334b524f0e3a"
"2020-07-28T12:36:18",1595961378.501,79058400,-38,39,"334b524f0e3a"
"2020-07-28T12:36:18",1595961378.912,79058811,-43,37,"334b524f0e3a"
"2020-07-28T12:36:19",1595961379.12,79059019,-41,38,"334b524f0e3a"
"2020-07-28T12:36:19",1595961379.537,79059436,-40,39,"334b524f0e3a"
"2020-07-28T12:36:19",1595961379.739,79059638,-42,37,"334b524f0e3a"
"2020-07-28T12:36:20",1595961380.148,79060047,-41,38,"334b524f0e3a"
"2020-07-28T12:36:20",1595961380.349,79060248,-40,39,"334b524f0e3a"
"2020-07-28T12:36:20",1595961380.972,79060871,-41,38,"334b524f0e3a"
"2020-07-28T12:36:21",1595961381.381,79061280,-39,39,"334b524f0e3a"
"2020-07-28T12:36:21",1595961381.585,79061484,-42,37,"334b524f0e3a"
"2020-07-28T12:36:21",1595961381.998,79061897,-41,38,"334b524f0e3a"
"2020-07-28T12:36:22",1595961382.207,79062106,-38,39,"334b524f0e3a"
"2020-07-28T12:36:22",1595961382.618,79062517,-42,37,"334b524f0e3a"
"2020-07-28T12:36:22",1595961382.818,79062717,-41,38,"334b524f0e3a"
"2020-07-28T12:36:23",1595961383.022,79062921,-41,38,"334b524f0e3a"
"2020-07-28T12:36:23",1595961383.231,79063130,-40,39,"334b524f0e3a"
"2020-07-28T12:36:23",1595961383.642,79063541,-43,37,"334b524f0e3a"
"2020-07-28T12:36:23",1595961383.841,79063740,-41,38,"334b524f0e3a"
"2020-07-28T12:36:24",1595961384.461,79064360,-43,37,"334b524f0e3a"
"2020-07-28T12:36:24",1595961384.877,79064776,-41,38,"334b524f0e3a"
"2020-07-28T12:36:25",1595961385.08,79064979,-38,39,"334b524f0e3a"
"2020-07-28T12:36:25",1595961385.491,79065390,-43,37,"334b524f0e3a"
"2020-07-28T12:36:25",1595961385.696,79065595,-41,38,"334b524f0e3a"
"2020-07-28T12:36:26",1595961386.112,79066011,-40,39,"334b524f0e3a"
"2020-07-28T12:36:26",1595961386.318,79066217,-43,37,"334b524f0e3a"
"2020-07-28T12:36:26",1595961386.738,79066637,-40,38,"334b524f0e3a"
"2020-07-28T12:36:26",1595961386.939,79066838,-40,39,"334b524f0e3a"
"2020-07-28T12:36:27",1595961387.347,79067246,-42,37,"334b524f0e3a"
"2020-07-28T12:36:27",1595961387.549,79067448,-40,38,"334b524f0e3a"
"2020-07-28T12:36:27",1595961387.968,79067867,-38,39,"334b524f0e3a"
"2020-07-28T12:36:28",1595961388.582,79068481,-41,38,"334b524f0e3a"
"2020-07-28T12:36:28",1595961388.786,79068685,-39,39,"334b524f0e3a"
"2020-07-28T12:36:29",1595961389.2,79069099,-43,37,"334b524f0e3a"
"2020-07-28T12:36:29",1595961389.409,79069308,-41,38,"334b524f0e3a"