"time","epoch_time","boot_time","rssi","ch","mac"
"1969-12-31T18:06:32",392.814,392814,-38,37,"2c6be5b8fc1e"
"1969-12-31T18:06:35",395.276,395276,-38,38,"2c6be5b8fc1e"
"1969-12-31T18:06:39",399.999,399999,-38,37,"2c6be5b8fc1e"
"1969-12-31T18:06:42",402.475,402475,-38,38,"2c6be5b8fc1e"
"1969-12-31T18:06:47",407.208,407208,-37,37,"2c6be5b8fc1e"
"1969-12-31T18:06:49",409.669,409669,-38,38,"2c6be5b8fc1e"
"1969-12-31T18:06:52",412.136,412136,-26,39,"2c6be5b8fc1e"
"1969-12-31T18:06:54",414.398,414398,-38,37,"2c6be5b8fc1e"
"1969-12-31T18:06:56",416.869,416869,-38,38,"2c6be5b8fc1e"
"1969-12-31T18:07:01",421.596,421596,-38,37,"2c6be5b8fc1e"
"1969-12-31T18:07:04",424.064,424064,-38,38,"2c6be5b8fc1e"
"1969-12-31T18:07:06",426.525,426525,-26,39,"2c6be5b8fc1e"
"1969-12-31T18:07:08",428.787,428787,-38,37,"2c6be5b8fc1e"
"1969-12-31T18:07:11",431.247,431247,-38,38,"2c6be5b8fc1e"
"1969-12-31T18:07:13",433.72,433720,-26,39,"2c6be5b8fc1e"
"1969-12-31T18:07:15",435.974,435974,-38,37,"2c6be5b8fc1e"
"1969-12-31T18:07:18",438.443,438443,-38,38,"2c6be5b8fc1e"
"1969-12-31T18:07:20",440.908,440908,-28,39,"2c6be5b8fc1e"
"1969-12-31T18:07:23",443.16,443160,-38,37,"2c6be5b8fc1e"
"1969-12-31T18:07:25",445.631,445631,-38,38,"2c6be5b8fc1e"
"1969-12-31T18:07:28",448.094,448094,-27,39,"2c6be5b8fc1e"
"1969-12-31T18:07:32",452.824,452824,-38,38,"2c6be5b8fc1e"
"1969-12-31T18:07:35",455.281,455281,-27,39,"2c6be5b8fc1e"
"1969-12-31T18:07:40",460.011,460011,-37,38,"2c6be5b8fc1e"
"1969-12-31T18:07:42",462.473,462473,-26,39,"2c6be5b8fc1e"
"1969-12-31T18:07:44",464.942,464942,-38,37,"2c6be5b8fc1e"
"1969-12-31T18:07:47",467.189,467189,-38,38,"2c6be5b8fc1e"
"1969-12-31T18:07:49",469.657,469657,-28,39,"2c6be5b8fc1e"
"1969-12-31T18:07:52",472.126,472126,-37,37,"2c6be5b8fc1e"
"1969-12-31T18:07:56",476.849,476849,-28,39,"2c6be5b8fc1e"
"1969-12-31T18:07:59",479.311,479311,-38,37,"2c6be5b8fc1e"
"1969-12-31T18:08:01",481.575,481575,-38,38,"2c6be5b8fc1e"
"1969-12-31T18:08:04",484.038,484038,-26,39,"2c6be5b8fc1e"
"1969-12-31T18:08:06",486.502,486502,-38,37,"2c6be5b8fc1e"
"1969-12-31T18:08:08",488.759,488759,-37,38,"2c6be5b8fc1e"
"1969-12-31T18:08:11",491.226,491226,-27,39,"2c6be5b8fc1e"
"1969-12-31T18:08:13",493.69,493690,-38,37,"2c6be5b8fc1e"
"1969-12-31T18:08:15",495.952,495952,-37,38,"2c6be5b8fc1e"
"1969-12-31T18:08:20",500.875,500875,-37,37,"2c6be5b8fc1e"
"1969-12-31T18:08:23",503.141,503141,-41,38,"2c6be5b8fc1e"
"1969-12-31T18:08:25",505.605,505605,-29,39,"2c6be5b8fc1e"
"1969-12-31T18:08:28",508.069,508069,-41,37,"2c6be5b8fc1e"
"1969-12-31T18:08:30",510.532,510532,-41,38,"2c6be5b8fc1e"
"1969-12-31T18:08:32",512.788,512788,-29,39,"2c6be5b8fc1e"
"1969-12-31T18:08:35",515.259,515259,-43,37,"2c6be5b8fc1e"
"1969-12-31T18:08:37",517.717,517717,-44,38,"2c6be5b8fc1e"
"1969-12-31T18:08:39",519.981,519981,-29,39,"2c6be5b8fc1e"
"1969-12-31T18:08:42",522.449,522449,-43,37,"2c6be5b8fc1e"
"1969-12-31T18:08:44",524.906,524906,-43,38,"2c6be5b8fc1e"
"1969-12-31T18:08:47",527.168,527168,-30,39,"2c6be5b8fc1e"
"1969-12-31T18:08:49",529.636,529636,-39,37,"2c6be5b8fc1e"
"1969-12-31T18:08:52",532.1,532100,-36,38,"2c6be5b8fc1e"
"1969-12-31T18:08:54",534.363,534363,-36,39,"2c6be5b8fc1e"
"1969-12-31T18:08:56",536.823,536823,-46,37,"2c6be5b8fc1e"
"1969-12-31T18:09:01",541.549,541549,-35,39,"2c6be5b8fc1e"
"1969-12-31T18:09:04",544.012,544012,-46,37,"2c6be5b8fc1e"
"1969-12-31T18:09:06",546.476,546476,-59,38,"2c6be5b8fc1e"
"1969-12-31T18:09:08",548.739,548739,-43,39,"2c6be5b8fc1e"
"1969-12-31T18:09:11",551.202,551202,-48,37,"2c6be5b8fc1e"
"1969-12-31T18:09:13",553.665,553665,-60,38,"2c6be5b8fc1e"
"1969-12-31T18:09:16",556.13,556130,-42,39,"2c6be5b8fc1e"
"1969-12-31T18:09:18",558.391,558391,-48,37,"2c6be5b8fc1e"
"1969-12-31T18:09:20",560.86,560860,-63,38,"2c6be5b8fc1e"
"1969-12-31T18:09:23",563.323,563323,-47,39,"2c6be5b8fc1e"
"1969-12-31T18:09:28",568.049,568049,-62,38,"2c6be5b8fc1e"
"1969-12-31T18:09:30",570.512,570512,-43,39,"2c6be5b8fc1e"
"1969-12-31T18:09:32",572.77,572770,-50,37,"2c6be5b8fc1e"
"1969-12-31T18:09:35",575.23,575230,-54,38,"2c6be5b8fc1e"
"1969-12-31T18:09:37",577.703,577703,-44,39,"2c6be5b8fc1e"
"1969-12-31T18:09:39",579.962,579962,-52,37,"2c6be5b8fc1e"
"1969-12-31T18:09:42",582.429,582429,-58,38,"2c6be5b8fc1e"
"1969-12-31T18:09:44",584.887,584887,-46,39,"2c6be5b8fc1e"
"1969-12-31T18:09:47",587.149,587149,-51,37,"2c6be5b8fc1e"
"1969-12-31T18:09:49",589.614,589614,-58,38,"2c6be5b8fc1e"
"1969-12-31T18:09:54",594.341,594341,-50,37,"2c6be5b8fc1e"
"1969-12-31T18:09:54",594.541,594541,-51,37,"2c6be5b8fc1e"
"1969-12-31T18:09:56",596.804,596804,-54,38,"2c6be5b8fc1e"
"1969-12-31T18:09:59",599.264,599264,-47,39,"2c6be5b8fc1e"
"1969-12-31T18:10:01",601.73,601730,-48,37,"2c6be5b8fc1e"
"1969-12-31T18:10:03",603.993,603993,-54,38,"2c6be5b8fc1e"
"1969-12-31T18:10:06",606.449,606449,-41,39,"2c6be5b8fc1e"
"1969-12-31T18:10:08",608.918,608918,-51,37,"2c6be5b8fc1e"
"1969-12-31T18:10:11",611.181,611181,-58,38,"2c6be5b8fc1e"
"1969-12-31T18:10:13",613.644,613644,-44,39,"2c6be5b8fc1e"
"1969-12-31T18:10:18",618.371,618371,-56,38,"2c6be5b8fc1e"
"1969-12-31T18:10:20",620.832,620832,-47,39,"2c6be5b8fc1e"
"1969-12-31T18:10:23",623.293,623293,-49,37,"2c6be5b8fc1e"
"1969-12-31T18:10:25",625.551,625551,-56,38,"2c6be5b8fc1e"
"1969-12-31T18:10:28",628.017,628017,-48,39,"2c6be5b8fc1e"
"1969-12-31T18:10:30",630.489,630489,-52,37,"2c6be5b8fc1e"
"1969-12-31T18:10:32",632.743,632743,-57,38,"2c6be5b8fc1e"
"1969-12-31T18:10:37",637.676,637676,-49,37,"2c6be5b8fc1e"
"1969-12-31T18:10:40",640.136,640136,-57,38,"2c6be5b8fc1e"
"1969-12-31T18:10:44",644.86,644860,-46,37,"2c6be5b8fc1e"
"1969-12-31T18:10:47",647.324,647324,-66,38,"2c6be5b8fc1e"
"1969-12-31T18:10:49",649.585,649585,-47,39,"2c6be5b8fc1e"
"1969-12-31T18:10:52",652.05,652050,-50,37,"2c6be5b8fc1e"
"1969-12-31T18:10:54",654.509,654509,-44,38,"2c6be5b8fc1e"
"1969-12-31T18:10:59",659.24,659240,-42,37,"2c6be5b8fc1e"
"1969-12-31T18:11:01",661.703,661703,-41,38,"2c6be5b8fc1e"
"1969-12-31T18:11:03",663.962,663962,-35,39,"2c6be5b8fc1e"
"1969-12-31T18:11:06",666.428,666428,-38,37,"2c6be5b8fc1e"
"1969-12-31T18:11:08",668.896,668896,-50,38,"2c6be5b8fc1e"
"1969-12-31T18:11:11",671.157,671157,-33,39,"2c6be5b8fc1e"
"1969-12-31T18:11:13",673.615,673615,-50,37,"2c6be5b8fc1e"
"1969-12-31T18:11:16",676.083,676083,-55,38,"2c6be5b8fc1e"
"1969-12-31T18:11:18",678.345,678345,-42,39,"2c6be5b8fc1e"
"1969-12-31T18:11:20",680.801,680801,-35,37,"2c6be5b8fc1e"
"1969-12-31T18:11:23",683.272,683272,-36,38,"2c6be5b8fc1e"
"1969-12-31T18:11:25",685.73,685730,-35,39,"2c6be5b8fc1e"
"1969-12-31T18:11:27",687.993,687993,-35,37,"2c6be5b8fc1e"
"1969-12-31T18:11:30",690.455,690455,-37,38,"2c6be5b8fc1e"
"1969-12-31T18:11:32",692.919,692919,-36,39,"2c6be5b8fc1e"
"1969-12-31T18:11:35",695.183,695183,-35,37,"2c6be5b8fc1e"
"1969-12-31T18:11:37",697.649,697649,-36,38,"2c6be5b8fc1e"
"1969-12-31T18:11:40",700.112,700112,-36,39,"2c6be5b8fc1e"
"1969-12-31T18:11:42",702.369,702369,-35,37,"2c6be5b8fc1e"
"1969-12-31T18:11:44",704.84,704840,-36,38,"2c6be5b8fc1e"
"1969-12-31T18:11:47",707.297,707297,-36,39,"2c6be5b8fc1e"
"1969-12-31T18:11:49",709.558,709558,-34,37,"2c6be5b8fc1e"
"1969-12-31T18:11:52",712.022,712022,-35,38,"2c6be5b8fc1e"
"1969-12-31T18:11:54",714.489,714489,-35,39,"2c6be5b8fc1e"
"1969-12-31T18:11:59",719.213,719213,-36,38,"2c6be5b8fc1e"
"1969-12-31T18:12:01",721.679,721679,-36,39,"2c6be5b8fc1e"
"1969-12-31T18:12:03",723.936,723936,-34,37,"2c6be5b8fc1e"
"1969-12-31T18:12:04",724.14,724140,-35,37,"2c6be5b8fc1e"
"1969-12-31T18:12:06",726.406,726406,-35,38,"2c6be5b8fc1e"
"1969-12-31T18:12:08",728.867,728867,-34,39,"2c6be5b8fc1e"
"1969-12-31T18:12:11",731.335,731335,-34,37,"2c6be5b8fc1e"
"1969-12-31T18:12:13",733.593,733593,-35,38,"2c6be5b8fc1e"
"1969-12-31T18:12:16",736.054,736054,-36,39,"2c6be5b8fc1e"
"1969-12-31T18:12:18",738.526,738526,-34,37,"2c6be5b8fc1e"
"1969-12-31T18:12:20",740.787,740787,-35,38,"2c6be5b8fc1e"
"1969-12-31T18:12:23",743.248,743248,-36,39,"2c6be5b8fc1e"
"1969-12-31T18:12:25",745.715,745715,-34,37,"2c6be5b8fc1e"
"1969-12-31T18:12:27",747.971,747971,-35,38,"2c6be5b8fc1e"
"1969-12-31T18:12:30",750.438,750438,-36,39,"2c6be5b8fc1e"
"1969-12-31T18:12:32",752.904,752904,-34,37,"2c6be5b8fc1e"
"1969-12-31T18:12:35",755.161,755161,-35,38,"2c6be5b8fc1e"
"1969-12-31T18:12:37",757.628,757628,-35,39,"2c6be5b8fc1e"
"1969-12-31T18:12:40",760.09,760090,-34,37,"2c6be5b8fc1e"
"1969-12-31T18:12:42",762.351,762351,-35,38,"2c6be5b8fc1e"
"1969-12-31T18:12:44",764.814,764814,-34,39,"2c6be5b8fc1e"
"1969-12-31T18:12:47",767.282,767282,-34,37,"2c6be5b8fc1e"
"1969-12-31T18:12:49",769.541,769541,-35,38,"2c6be5b8fc1e"
"1969-12-31T18:12:49",769.741,769741,-35,38,"2c6be5b8fc1e"
"1969-12-31T18:12:51",771.998,771998,-36,39,"2c6be5b8fc1e"
"1969-12-31T18:12:54",774.459,774459,-34,37,"2c6be5b8fc1e"
"1969-12-31T18:12:56",776.925,776925,-35,38,"2c6be5b8fc1e"
"1969-12-31T18:12:59",779.184,779184,-43,39,"2c6be5b8fc1e"
"1969-12-31T18:13:01",781.655,781655,-48,37,"2c6be5b8fc1e"
"1969-12-31T18:13:04",784.118,784118,-39,38,"2c6be5b8fc1e"
"1969-12-31T18:13:06",786.378,786378,-40,39,"2c6be5b8fc1e"
"1969-12-31T18:13:08",788.848,788848,-54,37,"2c6be5b8fc1e"
"1969-12-31T18:13:11",791.309,791309,-51,38,"2c6be5b8fc1e"
"1969-12-31T18:13:13",793.566,793566,-54,39,"2c6be5b8fc1e"
"1969-12-31T18:13:16",796.034,796034,-49,37,"2c6be5b8fc1e"
"1969-12-31T18:13:23",803.223,803223,-48,37,"2c6be5b8fc1e"
"1969-12-31T18:13:25",805.682,805682,-47,38,"2c6be5b8fc1e"
"1969-12-31T18:13:27",807.943,807943,-61,39,"2c6be5b8fc1e"
"1969-12-31T18:13:30",810.413,810413,-61,37,"2c6be5b8fc1e"
"1969-12-31T18:13:35",815.139,815139,-39,39,"2c6be5b8fc1e"
"1969-12-31T18:13:35",815.345,815345,-39,39,"2c6be5b8fc1e"
"1969-12-31T18:13:37",817.597,817597,-42,37,"2c6be5b8fc1e"
"1969-12-31T18:13:40",820.063,820063,-45,38,"2c6be5b8fc1e"
"1969-12-31T18:13:42",822.529,822529,-40,39,"2c6be5b8fc1e"
"1969-12-31T18:13:44",824.791,824791,-41,37,"2c6be5b8fc1e"
"1969-12-31T18:13:47",827.254,827254,-44,38,"2c6be5b8fc1e"
"1969-12-31T18:13:49",829.715,829715,-39,39,"2c6be5b8fc1e"
"1969-12-31T18:13:51",831.981,831981,-41,37,"2c6be5b8fc1e"
"1969-12-31T18:13:56",836.902,836902,-40,39,"2c6be5b8fc1e"
"1969-12-31T18:14:01",841.627,841627,-44,38,"2c6be5b8fc1e"
"1969-12-31T18:14:04",844.093,844093,-39,39,"2c6be5b8fc1e"
"1969-12-31T18:14:06",846.353,846353,-40,37,"2c6be5b8fc1e"
"1969-12-31T18:14:08",848.822,848822,-44,38,"2c6be5b8fc1e"
"1969-12-31T18:14:11",851.287,851287,-43,39,"2c6be5b8fc1e"
"1969-12-31T18:14:13",853.547,853547,-42,37,"2c6be5b8fc1e"
"1969-12-31T18:14:16",856.011,856011,-49,38,"2c6be5b8fc1e"
"1969-12-31T18:14:18",858.47,858470,-49,39,"2c6be5b8fc1e"
"1969-12-31T18:14:20",860.934,860934,-47,37,"2c6be5b8fc1e"
"1969-12-31T18:14:23",863.198,863198,-44,38,"2c6be5b8fc1e"
"1969-12-31T18:14:25",865.659,865659,-43,39,"2c6be5b8fc1e"
"1969-12-31T18:14:28",868.133,868133,-47,37,"2c6be5b8fc1e"
"1969-12-31T18:14:30",870.385,870385,-50,38,"2c6be5b8fc1e"
"1969-12-31T18:14:32",872.856,872856,-44,39,"2c6be5b8fc1e"
"1969-12-31T18:14:35",875.315,875315,-42,37,"2c6be5b8fc1e"
"1969-12-31T18:14:37",877.582,877582,-44,38,"2c6be5b8fc1e"
"1969-12-31T18:14:40",880.04,880040,-50,39,"2c6be5b8fc1e"
"1969-12-31T18:14:42",882.505,882505,-44,37,"2c6be5b8fc1e"
"1969-12-31T18:14:44",884.772,884772,-47,38,"2c6be5b8fc1e"
"1969-12-31T18:14:47",887.234,887234,-56,39,"2c6be5b8fc1e"
"1969-12-31T18:14:49",889.697,889697,-44,37,"2c6be5b8fc1e"
"1969-12-31T18:14:51",891.959,891959,-43,38,"2c6be5b8fc1e"
"1969-12-31T18:14:54",894.42,894420,-48,39,"2c6be5b8fc1e"
"1969-12-31T18:14:56",896.89,896890,-45,37,"2c6be5b8fc1e"
"1969-12-31T18:14:59",899.146,899146,-43,38,"2c6be5b8fc1e"
"1969-12-31T18:15:01",901.608,901608,-53,39,"2c6be5b8fc1e"
"1969-12-31T18:15:04",904.072,904072,-43,37,"2c6be5b8fc1e"
"1969-12-31T18:15:08",908.799,908799,-60,39,"2c6be5b8fc1e"
"1969-12-31T18:15:11",911.265,911265,-53,37,"2c6be5b8fc1e"
"1969-12-31T18:15:13",913.728,913728,-59,38,"2c6be5b8fc1e"
"1969-12-31T18:15:15",915.986,915986,-60,39,"2c6be5b8fc1e"
"1969-12-31T18:15:18",918.45,918450,-49,37,"2c6be5b8fc1e"
"1969-12-31T18:15:20",920.916,920916,-56,38,"2c6be5b8fc1e"
"1969-12-31T18:15:25",925.639,925639,-53,37,"2c6be5b8fc1e"
"1969-12-31T18:15:30",930.365,930365,-59,39,"2c6be5b8fc1e"
"1969-12-31T18:15:35",935.286,935286,-61,38,"2c6be5b8fc1e"
"1969-12-31T18:15:40",940.014,940014,-52,37,"2c6be5b8fc1e"
"1969-12-31T18:15:44",944.738,944738,-59,39,"2c6be5b8fc1e"
"1969-12-31T18:15:44",944.942,944942,-59,39,"2c6be5b8fc1e"
"1969-12-31T18:15:47",947.21,947210,-52,37,"2c6be5b8fc1e"
"1969-12-31T18:15:49",949.67,949670,-57,38,"2c6be5b8fc1e"
"1969-12-31T18:15:56",956.856,956856,-57,38,"2c6be5b8fc1e"
"1969-12-31T18:15:59",959.322,959322,-58,39,"2c6be5b8fc1e"
"1969-12-31T18:16:01",961.578,961578,-52,37,"2c6be5b8fc1e"
"1969-12-31T18:16:04",964.047,964047,-56,38,"2c6be5b8fc1e"
"1969-12-31T18:16:06",966.512,966512,-57,39,"2c6be5b8fc1e"
"1969-12-31T18:16:08",968.77,968770,-52,37,"2c6be5b8fc1e"
"1969-12-31T18:16:13",973.704,973704,-57,39,"2c6be5b8fc1e"
"1969-12-31T18:16:15",975.956,975956,-52,37,"2c6be5b8fc1e"
"1969-12-31T18:16:18",978.427,978427,-56,38,"2c6be5b8fc1e"
"1969-12-31T18:16:23",983.154,983154,-52,37,"2c6be5b8fc1e"
"1969-12-31T18:16:25",985.614,985614,-56,38,"2c6be5b8fc1e"
"1969-12-31T18:16:28",988.084,988084,-57,39,"2c6be5b8fc1e"
"1969-12-31T18:16:30",990.343,990343,-52,37,"2c6be5b8fc1e"
"1969-12-31T18:16:30",990.545,990545,-52,37,"2c6be5b8fc1e"
"1969-12-31T18:16:32",992.802,992802,-55,38,"2c6be5b8fc1e"
"1969-12-31T18:16:35",995.273,995273,-56,39,"2c6be5b8fc1e"
"1969-12-31T18:16:37",997.737,997737,-52,37,"2c6be5b8fc1e"
"1969-12-31T18:16:39",999.99,999990,-56,38,"2c6be5b8fc1e"
"1969-12-31T18:16:42",1002.455,1002455,-57,39,"2c6be5b8fc1e"
"1969-12-31T18:16:44",1004.923,1004923,-52,37,"2c6be5b8fc1e"
"1969-12-31T18:16:47",1007.179,1007179,-55,38,"2c6be5b8fc1e"
"1969-12-31T18:16:49",1009.646,1009646,-57,39,"2c6be5b8fc1e"
"1969-12-31T18:16:52",1012.113,1012113,-52,37,"2c6be5b8fc1e"
"1969-12-31T18:16:54",1014.376,1014376,-54,38,"2c6be5b8fc1e"
"1969-12-31T18:16:56",1016.835,1016835,-57,39,"2c6be5b8fc1e"
"1969-12-31T18:17:01",1021.565,1021565,-55,38,"2c6be5b8fc1e"
"1969-12-31T18:17:04",1024.024,1024024,-57,39,"2c6be5b8fc1e"
"1969-12-31T18:17:06",1026.491,1026491,-52,37,"2c6be5b8fc1e"
"1969-12-31T18:17:08",1028.754,1028754,-56,38,"2c6be5b8fc1e"
"1969-12-31T18:17:11",1031.218,1031218,-57,39,"2c6be5b8fc1e"
"1969-12-31T18:17:13",1033.68,1033680,-50,37,"2c6be5b8fc1e"
"1969-12-31T18:17:15",1035.937,1035937,-56,38,"2c6be5b8fc1e"
"1969-12-31T18:17:16",1036.144,1036144,-56,38,"2c6be5b8fc1e"
"1969-12-31T18:17:18",1038.401,1038401,-58,39,"2c6be5b8fc1e"
"1969-12-31T18:17:23",1043.338,1043338,-56,38,"2c6be5b8fc1e"
"1969-12-31T18:17:25",1045.594,1045594,-57,39,"2c6be5b8fc1e"
"1969-12-31T18:17:28",1048.058,1048058,-51,37,"2c6be5b8fc1e"