"time","epoch_time","boot_time","rssi","ch","mac"
"2020-07-30T09:23:39",1596122619.275,431001,-60,37,"98859d9e1a3a"
"2020-07-30T09:23:39",1596122619.698,431424,-60,38,"98859d9e1a3a"
"2020-07-30T09:23:39",1596122619.906,431632,-60,39,"98859d9e1a3a"
"2020-07-30T09:23:40",1596122620.94,432666,-61,39,"98859d9e1a3a"
"2020-07-30T09:23:41",1596122621.147,432873,-60,37,"98859d9e1a3a"
"2020-07-30T09:23:41",1596122621.567,433293,-59,38,"98859d9e1a3a"
"2020-07-30T09:23:41",1596122621.771,433497,-60,39,"98859d9e1a3a"
"2020-07-30T09:23:42",1596122622.189,433915,-59,37,"98859d9e1a3a"
"2020-07-30T09:23:42",1596122622.401,434127,-57,38,"98859d9e1a3a"
"2020-07-30T09:23:42",1596122622.817,434543,-57,39,"98859d9e1a3a"
"2020-07-30T09:23:43",1596122623.026,434752,-57,37,"98859d9e1a3a"
"2020-07-30T09:23:43",1596122623.444,435170,-59,38,"98859d9e1a3a"
"2020-07-30T09:23:43",1596122623.653,435379,-59,39,"98859d9e1a3a"
"2020-07-30T09:23:44",1596122624.065,435791,-62,37,"98859d9e1a3a"
"2020-07-30T09:23:44",1596122624.275,436001,-56,38,"98859d9e1a3a"
"2020-07-30T09:23:44",1596122624.694,436420,-62,39,"98859d9e1a3a"
"2020-07-30T09:23:44",1596122624.899,436625,-56,37,"98859d9e1a3a"
"2020-07-30T09:23:45",1596122625.31,437036,-57,38,"98859d9e1a3a"
"2020-07-30T09:23:45",1596122625.522,437248,-59,39,"98859d9e1a3a"
"2020-07-30T09:23:45",1596122625.936,437662,-58,37,"98859d9e1a3a"
"2020-07-30T09:23:46",1596122626.15,437876,-58,38,"98859d9e1a3a"
"2020-07-30T09:23:46",1596122626.774,438500,-58,37,"98859d9e1a3a"
"2020-07-30T09:23:47",1596122627.194,438920,-58,38,"98859d9e1a3a"
"2020-07-30T09:23:47",1596122627.816,439542,-57,37,"98859d9e1a3a"
"2020-07-30T09:23:48",1596122628.443,440169,-59,39,"98859d9e1a3a"
"2020-07-30T09:23:48",1596122628.648,440374,-57,37,"98859d9e1a3a"
"2020-07-30T09:23:49",1596122629.063,440789,-58,38,"98859d9e1a3a"
"2020-07-30T09:23:49",1596122629.275,441001,-59,39,"98859d9e1a3a"
"2020-07-30T09:23:49",1596122629.693,441419,-56,37,"98859d9e1a3a"
"2020-07-30T09:23:49",1596122629.897,441623,-61,38,"98859d9e1a3a"
"2020-07-30T09:23:50",1596122630.311,442037,-70,39,"98859d9e1a3a"
"2020-07-30T09:23:50",1596122630.521,442247,-62,37,"98859d9e1a3a"
"2020-07-30T09:23:51",1596122631.566,443292,-58,37,"98859d9e1a3a"
"2020-07-30T09:23:51",1596122631.781,443507,-63,38,"98859d9e1a3a"
"2020-07-30T09:23:52",1596122632.192,443918,-61,39,"98859d9e1a3a"
"2020-07-30T09:23:52",1596122632.398,444124,-57,37,"98859d9e1a3a"
"2020-07-30T09:23:52",1596122632.809,444535,-58,38,"98859d9e1a3a"
"2020-07-30T09:23:53",1596122633.024,444750,-60,39,"98859d9e1a3a"
"2020-07-30T09:23:53",1596122633.443,445169,-57,37,"98859d9e1a3a"
"2020-07-30T09:23:53",1596122633.65,445376,-57,38,"98859d9e1a3a"
"2020-07-30T09:23:54",1596122634.066,445792,-57,39,"98859d9e1a3a"
"2020-07-30T09:23:54",1596122634.682,446408,-58,38,"98859d9e1a3a"
"2020-07-30T09:23:54",1596122634.892,446618,-61,39,"98859d9e1a3a"
"2020-07-30T09:23:55",1596122635.31,447036,-62,37,"98859d9e1a3a"
"2020-07-30T09:23:55",1596122635.523,447249,-68,38,"98859d9e1a3a"
"2020-07-30T09:23:55",1596122635.93,447656,-58,39,"98859d9e1a3a"
"2020-07-30T09:23:56",1596122636.135,447861,-58,37,"98859d9e1a3a"
"2020-07-30T09:23:56",1596122636.551,448277,-59,38,"98859d9e1a3a"
"2020-07-30T09:23:56",1596122636.755,448481,-58,39,"98859d9e1a3a"
"2020-07-30T09:23:57",1596122637.176,448902,-58,37,"98859d9e1a3a"
"2020-07-30T09:23:57",1596122637.391,449117,-59,38,"98859d9e1a3a"
"2020-07-30T09:23:57",1596122637.803,449529,-59,39,"98859d9e1a3a"
"2020-07-30T09:23:58",1596122638.004,449730,-58,37,"98859d9e1a3a"
"2020-07-30T09:23:58",1596122638.434,450160,-59,38,"98859d9e1a3a"
"2020-07-30T09:23:58",1596122638.64,450366,-59,39,"98859d9e1a3a"
"2020-07-30T09:23:59",1596122639.058,450784,-58,37,"98859d9e1a3a"
"2020-07-30T09:23:59",1596122639.268,450994,-58,38,"98859d9e1a3a"
"2020-07-30T09:23:59",1596122639.679,451405,-59,39,"98859d9e1a3a"
"2020-07-30T09:23:59",1596122639.891,451617,-58,37,"98859d9e1a3a"
"2020-07-30T09:24:00",1596122640.31,452036,-58,38,"98859d9e1a3a"
"2020-07-30T09:24:00",1596122640.521,452247,-59,39,"98859d9e1a3a"
"2020-07-30T09:24:00",1596122640.931,452657,-58,37,"98859d9e1a3a"
"2020-07-30T09:24:01",1596122641.132,452858,-58,38,"98859d9e1a3a"
"2020-07-30T09:24:01",1596122641.55,453276,-59,39,"98859d9e1a3a"
"2020-07-30T09:24:01",1596122641.754,453480,-58,37,"98859d9e1a3a"
"2020-07-30T09:24:02",1596122642.175,453901,-58,38,"98859d9e1a3a"
"2020-07-30T09:24:02",1596122642.384,454110,-59,39,"98859d9e1a3a"
"2020-07-30T09:24:02",1596122642.804,454530,-58,37,"98859d9e1a3a"
"2020-07-30T09:24:03",1596122643.005,454731,-58,38,"98859d9e1a3a"
"2020-07-30T09:24:03",1596122643.421,455147,-59,39,"98859d9e1a3a"
"2020-07-30T09:24:04",1596122644.051,455777,-58,38,"98859d9e1a3a"
"2020-07-30T09:24:04",1596122644.677,456403,-58,37,"98859d9e1a3a"
"2020-07-30T09:24:04",1596122644.88,456606,-58,38,"98859d9e1a3a"
"2020-07-30T09:24:05",1596122645.297,457023,-59,39,"98859d9e1a3a"
"2020-07-30T09:24:05",1596122645.507,457233,-58,37,"98859d9e1a3a"
"2020-07-30T09:24:05",1596122645.926,457652,-58,38,"98859d9e1a3a"
"2020-07-30T09:24:06",1596122646.127,457853,-59,39,"98859d9e1a3a"
"2020-07-30T09:24:06",1596122646.547,458273,-60,37,"98859d9e1a3a"
"2020-07-30T09:24:06",1596122646.753,458479,-73,38,"98859d9e1a3a"
"2020-07-30T09:24:07",1596122647.176,458902,-65,39,"98859d9e1a3a"
"2020-07-30T09:24:07",1596122647.376,459102,-61,37,"98859d9e1a3a"
"2020-07-30T09:24:07",1596122647.801,459527,-64,38,"98859d9e1a3a"
"2020-07-30T09:24:08",1596122648.427,460153,-58,37,"98859d9e1a3a"
"2020-07-30T09:24:08",1596122648.641,460367,-58,38,"98859d9e1a3a"
"2020-07-30T09:24:09",1596122649.056,460782,-59,39,"98859d9e1a3a"
"2020-07-30T09:24:09",1596122649.258,460984,-58,37,"98859d9e1a3a"
"2020-07-30T09:24:09",1596122649.683,461409,-58,38,"98859d9e1a3a"
"2020-07-30T09:24:09",1596122649.883,461609,-59,39,"98859d9e1a3a"
"2020-07-30T09:24:10",1596122650.303,462029,-58,37,"98859d9e1a3a"
"2020-07-30T09:24:10",1596122650.506,462232,-59,38,"98859d9e1a3a"
"2020-07-30T09:24:10",1596122650.927,462653,-59,39,"98859d9e1a3a"
"2020-07-30T09:24:11",1596122651.133,462859,-57,37,"98859d9e1a3a"
"2020-07-30T09:24:11",1596122651.559,463285,-58,38,"98859d9e1a3a"
"2020-07-30T09:24:12",1596122652.186,463912,-58,37,"98859d9e1a3a"
"2020-07-30T09:24:12",1596122652.808,464534,-58,39,"98859d9e1a3a"
"2020-07-30T09:24:13",1596122653.022,464748,-57,37,"98859d9e1a3a"
"2020-07-30T09:24:13",1596122653.435,465161,-58,38,"98859d9e1a3a"
"2020-07-30T09:24:13",1596122653.641,465367,-60,39,"98859d9e1a3a"
"2020-07-30T09:24:14",1596122654.058,465784,-60,37,"98859d9e1a3a"
"2020-07-30T09:24:14",1596122654.269,465995,-58,38,"98859d9e1a3a"
"2020-07-30T09:24:14",1596122654.685,466411,-65,39,"98859d9e1a3a"
"2020-07-30T09:24:14",1596122654.897,466623,-61,37,"98859d9e1a3a"
"2020-07-30T09:24:15",1596122655.312,467038,-61,38,"98859d9e1a3a"
"2020-07-30T09:24:15",1596122655.518,467244,-63,39,"98859d9e1a3a"
"2020-07-30T09:24:15",1596122655.936,467662,-64,37,"98859d9e1a3a"
"2020-07-30T09:24:16",1596122656.142,467868,-69,38,"98859d9e1a3a"
"2020-07-30T09:24:17",1596122657.181,468907,-59,38,"98859d9e1a3a"
"2020-07-30T09:24:17",1596122657.397,469123,-59,39,"98859d9e1a3a"
"2020-07-30T09:24:17",1596122657.805,469531,-58,37,"98859d9e1a3a"
"2020-07-30T09:24:18",1596122658.017,469743,-58,38,"98859d9e1a3a"
"2020-07-30T09:24:18",1596122658.432,470158,-59,39,"98859d9e1a3a"
"2020-07-30T09:24:18",1596122658.643,470369,-58,37,"98859d9e1a3a"
"2020-07-30T09:24:19",1596122659.061,470787,-58,38,"98859d9e1a3a"
"2020-07-30T09:24:19",1596122659.265,470991,-59,39,"98859d9e1a3a"
"2020-07-30T09:24:19",1596122659.895,471621,-58,38,"98859d9e1a3a"
"2020-07-30T09:24:20",1596122660.93,472656,-58,38,"98859d9e1a3a"
"2020-07-30T09:24:21",1596122661.141,472867,-59,39,"98859d9e1a3a"
"2020-07-30T09:24:21",1596122661.562,473288,-58,37,"98859d9e1a3a"
"2020-07-30T09:24:21",1596122661.768,473494,-58,38,"98859d9e1a3a"
"2020-07-30T09:24:22",1596122662.182,473908,-59,39,"98859d9e1a3a"
"2020-07-30T09:24:22",1596122662.384,474110,-58,37,"98859d9e1a3a"
"2020-07-30T09:24:22",1596122662.805,474531,-58,38,"98859d9e1a3a"
"2020-07-30T09:24:23",1596122663.007,474733,-57,39,"98859d9e1a3a"
"2020-07-30T09:24:23",1596122663.427,475153,-58,37,"98859d9e1a3a"
"2020-07-30T09:24:23",1596122663.629,475355,-58,38,"98859d9e1a3a"
"2020-07-30T09:24:24",1596122664.052,475778,-59,39,"98859d9e1a3a"
"2020-07-30T09:24:24",1596122664.259,475985,-58,37,"98859d9e1a3a"
"2020-07-30T09:24:24",1596122664.678,476404,-58,38,"98859d9e1a3a"
"2020-07-30T09:24:24",1596122664.879,476605,-59,39,"98859d9e1a3a"
"2020-07-30T09:24:25",1596122665.3,477026,-58,37,"98859d9e1a3a"
"2020-07-30T09:24:25",1596122665.922,477648,-59,39,"98859d9e1a3a"
"2020-07-30T09:24:26",1596122666.757,478483,-59,39,"98859d9e1a3a"
"2020-07-30T09:24:27",1596122667.182,478908,-58,37,"98859d9e1a3a"
"2020-07-30T09:24:27",1596122667.382,479108,-58,38,"98859d9e1a3a"
"2020-07-30T09:24:27",1596122667.804,479530,-59,39,"98859d9e1a3a"
"2020-07-30T09:24:28",1596122668.004,479730,-57,37,"98859d9e1a3a"
"2020-07-30T09:24:28",1596122668.429,480155,-58,38,"98859d9e1a3a"
"2020-07-30T09:24:28",1596122668.644,480370,-59,39,"98859d9e1a3a"
"2020-07-30T09:24:29",1596122669.058,480784,-58,37,"98859d9e1a3a"
"2020-07-30T09:24:29",1596122669.271,480997,-58,38,"98859d9e1a3a"
"2020-07-30T09:24:29",1596122669.68,481406,-59,39,"98859d9e1a3a"
"2020-07-30T09:24:29",1596122669.883,481609,-58,37,"98859d9e1a3a"
"2020-07-30T09:24:31",1596122671.134,482860,-58,38,"98859d9e1a3a"
"2020-07-30T09:24:31",1596122671.767,483493,-58,37,"98859d9e1a3a"
"2020-07-30T09:24:32",1596122672.186,483912,-58,38,"98859d9e1a3a"
"2020-07-30T09:24:32",1596122672.392,484118,-59,39,"98859d9e1a3a"
"2020-07-30T09:24:32",1596122672.806,484532,-58,37,"98859d9e1a3a"
"2020-07-30T09:24:33",1596122673.02,484746,-58,38,"98859d9e1a3a"
"2020-07-30T09:24:33",1596122673.436,485162,-59,39,"98859d9e1a3a"
"2020-07-30T09:24:33",1596122673.647,485373,-58,37,"98859d9e1a3a"
"2020-07-30T09:24:34",1596122674.062,485788,-58,38,"98859d9e1a3a"
"2020-07-30T09:24:34",1596122674.268,485994,-59,39,"98859d9e1a3a"
"2020-07-30T09:24:34",1596122674.686,486412,-57,37,"98859d9e1a3a"
"2020-07-30T09:24:34",1596122674.897,486623,-58,38,"98859d9e1a3a"
"2020-07-30T09:24:35",1596122675.313,487039,-60,39,"98859d9e1a3a"
"2020-07-30T09:24:35",1596122675.527,487253,-57,37,"98859d9e1a3a"
"2020-07-30T09:24:35",1596122675.943,487669,-69,38,"98859d9e1a3a"
"2020-07-30T09:24:36",1596122676.561,488287,-75,37,"98859d9e1a3a"
"2020-07-30T09:24:36",1596122676.769,488495,-63,38,"98859d9e1a3a"
"2020-07-30T09:24:37",1596122677.192,488918,-57,39,"98859d9e1a3a"
"2020-07-30T09:24:37",1596122677.396,489122,-57,37,"98859d9e1a3a"
"2020-07-30T09:24:37",1596122677.816,489542,-57,38,"98859d9e1a3a"
"2020-07-30T09:24:38",1596122678.022,489748,-60,39,"98859d9e1a3a"
"2020-07-30T09:24:38",1596122678.438,490164,-58,37,"98859d9e1a3a"
"2020-07-30T09:24:38",1596122678.647,490373,-59,38,"98859d9e1a3a"
"2020-07-30T09:24:39",1596122679.684,491410,-59,38,"98859d9e1a3a"
"2020-07-30T09:24:39",1596122679.892,491618,-59,39,"98859d9e1a3a"
"2020-07-30T09:24:40",1596122680.307,492033,-58,37,"98859d9e1a3a"
"2020-07-30T09:24:40",1596122680.522,492248,-58,38,"98859d9e1a3a"
"2020-07-30T09:24:40",1596122680.931,492657,-59,39,"98859d9e1a3a"
"2020-07-30T09:24:41",1596122681.142,492868,-58,37,"98859d9e1a3a"
"2020-07-30T09:24:41",1596122681.561,493287,-58,38,"98859d9e1a3a"
"2020-07-30T09:24:41",1596122681.77,493496,-59,39,"98859d9e1a3a"
"2020-07-30T09:24:42",1596122682.183,493909,-58,37,"98859d9e1a3a"
"2020-07-30T09:24:43",1596122683.439,495165,-58,38,"98859d9e1a3a"
"2020-07-30T09:24:44",1596122684.065,495791,-58,37,"98859d9e1a3a"
"2020-07-30T09:24:44",1596122684.274,496000,-58,38,"98859d9e1a3a"
"2020-07-30T09:24:44",1596122684.688,496414,-59,39,"98859d9e1a3a"
"2020-07-30T09:24:44",1596122684.897,496623,-58,37,"98859d9e1a3a"
"2020-07-30T09:24:45",1596122685.313,497039,-58,38,"98859d9e1a3a"
"2020-07-30T09:24:45",1596122685.521,497247,-59,39,"98859d9e1a3a"
"2020-07-30T09:24:46",1596122686.146,497872,-58,38,"98859d9e1a3a"
"2020-07-30T09:24:46",1596122686.768,498494,-58,37,"98859d9e1a3a"
"2020-07-30T09:24:47",1596122687.181,498907,-58,38,"98859d9e1a3a"
"2020-07-30T09:24:47",1596122687.391,499117,-59,39,"98859d9e1a3a"
"2020-07-30T09:24:47",1596122687.803,499529,-58,37,"98859d9e1a3a"
"2020-07-30T09:24:48",1596122688.016,499742,-58,38,"98859d9e1a3a"
"2020-07-30T09:24:48",1596122688.433,500159,-59,39,"98859d9e1a3a"
"2020-07-30T09:24:48",1596122688.647,500373,-58,37,"98859d9e1a3a"
"2020-07-30T09:24:50",1596122690.316,502042,-59,39,"98859d9e1a3a"
"2020-07-30T09:24:50",1596122690.934,502660,-58,38,"98859d9e1a3a"
"2020-07-30T09:24:51",1596122691.148,502874,-59,39,"98859d9e1a3a"
"2020-07-30T09:24:51",1596122691.565,503291,-58,37,"98859d9e1a3a"
"2020-07-30T09:24:51",1596122691.772,503498,-58,38,"98859d9e1a3a"
"2020-07-30T09:24:52",1596122692.188,503914,-59,39,"98859d9e1a3a"
"2020-07-30T09:24:52",1596122692.401,504127,-58,37,"98859d9e1a3a"
"2020-07-30T09:24:52",1596122692.813,504539,-58,38,"98859d9e1a3a"
"2020-07-30T09:24:53",1596122693.021,504747,-59,39,"98859d9e1a3a"
"2020-07-30T09:24:54",1596122694.057,505783,-60,39,"98859d9e1a3a"
"2020-07-30T09:24:55",1596122695.314,507040,-64,37,"98859d9e1a3a"
"2020-07-30T09:24:55",1596122695.524,507250,-65,38,"98859d9e1a3a"
"2020-07-30T09:24:55",1596122695.935,507661,-64,39,"98859d9e1a3a"
"2020-07-30T09:24:56",1596122696.145,507871,-71,37,"98859d9e1a3a"
"2020-07-30T09:24:56",1596122696.563,508289,-64,38,"98859d9e1a3a"
"2020-07-30T09:24:56",1596122696.767,508493,-58,39,"98859d9e1a3a"
"2020-07-30T09:24:57",1596122697.183,508909,-59,37,"98859d9e1a3a"
"2020-07-30T09:24:57",1596122697.397,509123,-58,38,"98859d9e1a3a"
"2020-07-30T09:24:58",1596122698.018,509744,-57,37,"98859d9e1a3a"
"2020-07-30T09:24:58",1596122698.436,510162,-58,38,"98859d9e1a3a"
"2020-07-30T09:24:58",1596122698.648,510374,-59,39,"98859d9e1a3a"
"2020-07-30T09:24:59",1596122699.06,510786,-57,37,"98859d9e1a3a"
"2020-07-30T09:24:59",1596122699.268,510994,-58,38,"98859d9e1a3a"
"2020-07-30T09:24:59",1596122699.682,511408,-59,39,"98859d9e1a3a"
"2020-07-30T09:24:59",1596122699.896,511622,-58,37,"98859d9e1a3a"
"2020-07-30T09:25:00",1596122700.308,512034,-58,38,"98859d9e1a3a"
"2020-07-30T09:25:00",1596122700.517,512243,-59,39,"98859d9e1a3a"
"2020-07-30T09:25:00",1596122700.929,512655,-57,37,"98859d9e1a3a"
"2020-07-30T09:25:01",1596122701.774,513500,-57,37,"98859d9e1a3a"
"2020-07-30T09:25:02",1596122702.408,514134,-60,39,"98859d9e1a3a"
"2020-07-30T09:25:02",1596122702.819,514545,-58,37,"98859d9e1a3a"
"2020-07-30T09:25:03",1596122703.024,514750,-58,38,"98859d9e1a3a"
"2020-07-30T09:25:03",1596122703.44,515166,-59,39,"98859d9e1a3a"
"2020-07-30T09:25:03",1596122703.654,515380,-57,37,"98859d9e1a3a"
"2020-07-30T09:25:04",1596122704.069,515795,-57,38,"98859d9e1a3a"
"2020-07-30T09:25:04",1596122704.277,516003,-77,39,"98859d9e1a3a"
"2020-07-30T09:25:04",1596122704.694,516420,-58,37,"98859d9e1a3a"
"2020-07-30T09:25:04",1596122704.901,516627,-59,38,"98859d9e1a3a"
"2020-07-30T09:25:05",1596122705.322,517048,-59,39,"98859d9e1a3a"
"2020-07-30T09:25:05",1596122705.531,517257,-57,37,"98859d9e1a3a"
"2020-07-30T09:25:06",1596122706.784,518510,-58,38,"98859d9e1a3a"
"2020-07-30T09:25:07",1596122707.189,518915,-60,39,"98859d9e1a3a"
"2020-07-30T09:25:07",1596122707.401,519127,-57,37,"98859d9e1a3a"
"2020-07-30T09:25:07",1596122707.818,519544,-58,38,"98859d9e1a3a"
"2020-07-30T09:25:08",1596122708.032,519758,-59,39,"98859d9e1a3a"
"2020-07-30T09:25:08",1596122708.445,520171,-58,37,"98859d9e1a3a"
"2020-07-30T09:25:08",1596122708.65,520376,-58,38,"98859d9e1a3a"
"2020-07-30T09:25:09",1596122709.07,520796,-59,39,"98859d9e1a3a"
"2020-07-30T09:25:09",1596122709.278,521004,-57,37,"98859d9e1a3a"
"2020-07-30T09:25:10",1596122710.312,522038,-57,37,"98859d9e1a3a"
"2020-07-30T09:25:10",1596122710.527,522253,-58,38,"98859d9e1a3a"
"2020-07-30T09:25:10",1596122710.946,522672,-58,39,"98859d9e1a3a"
"2020-07-30T09:25:11",1596122711.152,522878,-57,37,"98859d9e1a3a"
"2020-07-30T09:25:11",1596122711.566,523292,-58,38,"98859d9e1a3a"
"2020-07-30T09:25:11",1596122711.774,523500,-60,39,"98859d9e1a3a"
"2020-07-30T09:25:12",1596122712.196,523922,-53,37,"98859d9e1a3a"
"2020-07-30T09:25:12",1596122712.4,524126,-53,38,"98859d9e1a3a"
"2020-07-30T09:25:12",1596122712.818,524544,-53,39,"98859d9e1a3a"
"2020-07-30T09:25:13",1596122713.031,524757,-52,37,"98859d9e1a3a"
"2020-07-30T09:25:13",1596122713.438,525164,-58,38,"98859d9e1a3a"
"2020-07-30T09:25:13",1596122713.65,525376,-59,39,"98859d9e1a3a"
"2020-07-30T09:25:14",1596122714.063,525789,-57,37,"98859d9e1a3a"
"2020-07-30T09:25:14",1596122714.275,526001,-66,38,"98859d9e1a3a"
"2020-07-30T09:25:14",1596122714.686,526412,-67,39,"98859d9e1a3a"
"2020-07-30T09:25:14",1596122714.897,526623,-63,37,"98859d9e1a3a"
"2020-07-30T09:25:15",1596122715.312,527038,-58,38,"98859d9e1a3a"
"2020-07-30T09:25:15",1596122715.521,527247,-59,39,"98859d9e1a3a"
"2020-07-30T09:25:15",1596122715.943,527669,-58,37,"98859d9e1a3a"
"2020-07-30T09:25:16",1596122716.148,527874,-58,38,"98859d9e1a3a"
"2020-07-30T09:25:16",1596122716.569,528295,-59,39,"98859d9e1a3a"
"2020-07-30T09:25:16",1596122716.774,528500,-58,37,"98859d9e1a3a"
"2020-07-30T09:25:17",1596122717.815,529541,-58,37,"98859d9e1a3a"
"2020-07-30T09:25:18",1596122718.023,529749,-58,38,"98859d9e1a3a"
"2020-07-30T09:25:18",1596122718.439,530165,-59,39,"98859d9e1a3a"
"2020-07-30T09:25:18",1596122718.648,530374,-58,37,"98859d9e1a3a"
"2020-07-30T09:25:19",1596122719.062,530788,-58,38,"98859d9e1a3a"
"2020-07-30T09:25:19",1596122719.275,531001,-59,39,"98859d9e1a3a"
"2020-07-30T09:25:19",1596122719.684,531410,-58,37,"98859d9e1a3a"
"2020-07-30T09:25:19",1596122719.899,531625,-58,38,"98859d9e1a3a"
"2020-07-30T09:25:20",1596122720.314,532040,-59,39,"98859d9e1a3a"
"2020-07-30T09:25:20",1596122720.52,532246,-58,37,"98859d9e1a3a"
"2020-07-30T09:25:20",1596122720.934,532660,-58,38,"98859d9e1a3a"
"2020-07-30T09:25:21",1596122721.147,532873,-59,39,"98859d9e1a3a"
"2020-07-30T09:25:21",1596122721.559,533285,-58,37,"98859d9e1a3a"
"2020-07-30T09:25:21",1596122721.767,533493,-58,38,"98859d9e1a3a"
"2020-07-30T09:25:22",1596122722.188,533914,-59,39,"98859d9e1a3a"
"2020-07-30T09:25:22",1596122722.394,534120,-57,37,"98859d9e1a3a"
"2020-07-30T09:25:22",1596122722.808,534534,-58,38,"98859d9e1a3a"
"2020-07-30T09:25:23",1596122723.019,534745,-59,39,"98859d9e1a3a"
"2020-07-30T09:25:23",1596122723.434,535160,-58,37,"98859d9e1a3a"
"2020-07-30T09:25:24",1596122724.06,535786,-59,39,"98859d9e1a3a"
"2020-07-30T09:25:24",1596122724.269,535995,-57,37,"98859d9e1a3a"
"2020-07-30T09:25:24",1596122724.685,536411,-58,38,"98859d9e1a3a"
"2020-07-30T09:25:24",1596122724.892,536618,-59,39,"98859d9e1a3a"
"2020-07-30T09:25:25",1596122725.312,537038,-58,37,"98859d9e1a3a"
"2020-07-30T09:25:25",1596122725.511,537237,-58,38,"98859d9e1a3a"
"2020-07-30T09:25:25",1596122725.937,537663,-59,39,"98859d9e1a3a"
"2020-07-30T09:25:26",1596122726.149,537875,-58,37,"98859d9e1a3a"
"2020-07-30T09:25:26",1596122726.562,538288,-58,38,"98859d9e1a3a"
"2020-07-30T09:25:26",1596122726.773,538499,-59,39,"98859d9e1a3a"
"2020-07-30T09:25:27",1596122727.184,538910,-58,37,"98859d9e1a3a"
"2020-07-30T09:25:27",1596122727.814,539540,-59,39,"98859d9e1a3a"
"2020-07-30T09:25:28",1596122728.438,540164,-58,38,"98859d9e1a3a"
"2020-07-30T09:25:28",1596122728.647,540373,-59,39,"98859d9e1a3a"
"2020-07-30T09:25:29",1596122729.057,540783,-58,37,"98859d9e1a3a"
"2020-07-30T09:25:29",1596122729.267,540993,-58,38,"98859d9e1a3a"
"2020-07-30T09:25:29",1596122729.689,541415,-60,39,"98859d9e1a3a"
"2020-07-30T09:25:29",1596122729.893,541619,-58,37,"98859d9e1a3a"
"2020-07-30T09:25:30",1596122730.307,542033,-58,38,"98859d9e1a3a"
"2020-07-30T09:25:30",1596122730.518,542244,-59,39,"98859d9e1a3a"
"2020-07-30T09:25:31",1596122731.149,542875,-58,38,"98859d9e1a3a"
"2020-07-30T09:25:31",1596122731.769,543495,-58,37,"98859d9e1a3a"
"2020-07-30T09:25:32",1596122732.19,543916,-58,38,"98859d9e1a3a"
"2020-07-30T09:25:32",1596122732.398,544124,-59,39,"98859d9e1a3a"
"2020-07-30T09:25:32",1596122732.811,544537,-58,37,"98859d9e1a3a"
"2020-07-30T09:25:33",1596122733.024,544750,-58,38,"98859d9e1a3a"
"2020-07-30T09:25:33",1596122733.43,545156,-59,39,"98859d9e1a3a"
"2020-07-30T09:25:33",1596122733.643,545369,-57,37,"98859d9e1a3a"
"2020-07-30T09:25:34",1596122734.06,545786,-58,38,"98859d9e1a3a"
"2020-07-30T09:25:34",1596122734.274,546000,-59,39,"98859d9e1a3a"
"2020-07-30T09:25:35",1596122735.304,547030,-59,39,"98859d9e1a3a"
"2020-07-30T09:25:35",1596122735.505,547231,-58,37,"98859d9e1a3a"
"2020-07-30T09:25:35",1596122735.932,547658,-58,38,"98859d9e1a3a"
"2020-07-30T09:25:36",1596122736.145,547871,-59,39,"98859d9e1a3a"
"2020-07-30T09:25:36",1596122736.556,548282,-58,37,"98859d9e1a3a"
"2020-07-30T09:25:36",1596122736.767,548493,-58,38,"98859d9e1a3a"
"2020-07-30T09:25:37",1596122737.188,548914,-59,39,"98859d9e1a3a"
"2020-07-30T09:25:37",1596122737.392,549118,-58,37,"98859d9e1a3a"
"2020-07-30T09:25:37",1596122737.81,549536,-58,38,"98859d9e1a3a"
"2020-07-30T09:25:38",1596122738.017,549743,-59,39,"98859d9e1a3a"
"2020-07-30T09:25:38",1596122738.648,550374,-58,38,"98859d9e1a3a"
"2020-07-30T09:25:39",1596122739.686,551412,-58,38,"98859d9e1a3a"
"2020-07-30T09:25:40",1596122740.32,552046,-58,37,"98859d9e1a3a"
"2020-07-30T09:25:40",1596122740.528,552254,-58,38,"98859d9e1a3a"
"2020-07-30T09:25:40",1596122740.942,552668,-59,39,"98859d9e1a3a"
"2020-07-30T09:25:41",1596122741.157,552883,-58,37,"98859d9e1a3a"
"2020-07-30T09:25:41",1596122741.568,553294,-58,38,"98859d9e1a3a"
"2020-07-30T09:25:41",1596122741.773,553499,-59,39,"98859d9e1a3a"
"2020-07-30T09:25:42",1596122742.185,553911,-58,37,"98859d9e1a3a"
"2020-07-30T09:25:42",1596122742.399,554125,-58,38,"98859d9e1a3a"
"2020-07-30T09:25:42",1596122742.819,554545,-59,39,"98859d9e1a3a"
"2020-07-30T09:25:43",1596122743.025,554751,-58,37,"98859d9e1a3a"
"2020-07-30T09:25:44",1596122744.07,555796,-58,37,"98859d9e1a3a"
"2020-07-30T09:25:44",1596122744.276,556002,-58,38,"98859d9e1a3a"
"2020-07-30T09:25:44",1596122744.687,556413,-59,39,"98859d9e1a3a"
"2020-07-30T09:25:44",1596122744.896,556622,-58,37,"98859d9e1a3a"
"2020-07-30T09:25:45",1596122745.314,557040,-58,38,"98859d9e1a3a"
"2020-07-30T09:25:45",1596122745.526,557252,-59,39,"98859d9e1a3a"
"2020-07-30T09:25:45",1596122745.939,557665,-58,37,"98859d9e1a3a"
"2020-07-30T09:25:46",1596122746.154,557880,-58,38,"98859d9e1a3a"
"2020-07-30T09:25:46",1596122746.565,558291,-59,39,"98859d9e1a3a"
"2020-07-30T09:25:47",1596122747.185,558911,-58,38,"98859d9e1a3a"
"2020-07-30T09:25:47",1596122747.394,559120,-59,39,"98859d9e1a3a"
"2020-07-30T09:25:47",1596122747.808,559534,-58,37,"98859d9e1a3a"
"2020-07-30T09:25:48",1596122748.021,559747,-58,38,"98859d9e1a3a"
"2020-07-30T09:25:48",1596122748.435,560161,-59,39,"98859d9e1a3a"
"2020-07-30T09:25:48",1596122748.646,560372,-57,37,"98859d9e1a3a"
"2020-07-30T09:25:49",1596122749.06,560786,-58,38,"98859d9e1a3a"
"2020-07-30T09:25:49",1596122749.269,560995,-59,39,"98859d9e1a3a"
"2020-07-30T09:25:49",1596122749.685,561411,-58,37,"98859d9e1a3a"
"2020-07-30T09:25:49",1596122749.887,561613,-58,38,"98859d9e1a3a"
"2020-07-30T09:25:50",1596122750.307,562033,-59,39,"98859d9e1a3a"
"2020-07-30T09:25:50",1596122750.513,562239,-58,37,"98859d9e1a3a"
"2020-07-30T09:25:50",1596122750.931,562657,-58,38,"98859d9e1a3a"
"2020-07-30T09:25:51",1596122751.142,562868,-59,39,"98859d9e1a3a"
"2020-07-30T09:25:51",1596122751.553,563279,-58,37,"98859d9e1a3a"
"2020-07-30T09:25:51",1596122751.758,563484,-58,38,"98859d9e1a3a"
"2020-07-30T09:25:52",1596122752.18,563906,-59,39,"98859d9e1a3a"
"2020-07-30T09:25:52",1596122752.386,564112,-58,37,"98859d9e1a3a"
"2020-07-30T09:25:52",1596122752.8,564526,-58,38,"98859d9e1a3a"
"2020-07-30T09:25:53",1596122753.005,564731,-57,39,"98859d9e1a3a"
"2020-07-30T09:25:53",1596122753.426,565152,-58,37,"98859d9e1a3a"
"2020-07-30T09:25:53",1596122753.635,565361,-58,38,"98859d9e1a3a"
"2020-07-30T09:25:54",1596122754.059,565785,-59,39,"98859d9e1a3a"
"2020-07-30T09:25:54",1596122754.267,565993,-57,37,"98859d9e1a3a"
"2020-07-30T09:25:54",1596122754.683,566409,-58,38,"98859d9e1a3a"
"2020-07-30T09:25:54",1596122754.883,566609,-59,39,"98859d9e1a3a"
"2020-07-30T09:25:55",1596122755.302,567028,-58,37,"98859d9e1a3a"
"2020-07-30T09:25:56",1596122756.136,567862,-57,37,"98859d9e1a3a"
"2020-07-30T09:25:56",1596122756.757,568483,-59,39,"98859d9e1a3a"
"2020-07-30T09:25:57",1596122757.177,568903,-58,37,"98859d9e1a3a"
"2020-07-30T09:25:57",1596122757.383,569109,-59,38,"98859d9e1a3a"
"2020-07-30T09:25:57",1596122757.805,569531,-59,39,"98859d9e1a3a"
"2020-07-30T09:25:58",1596122758.008,569734,-57,37,"98859d9e1a3a"
"2020-07-30T09:25:58",1596122758.429,570155,-58,38,"98859d9e1a3a"
"2020-07-30T09:25:58",1596122758.633,570359,-58,39,"98859d9e1a3a"
"2020-07-30T09:25:59",1596122759.251,570977,-59,38,"98859d9e1a3a"
"2020-07-30T09:26:00",1596122760.302,572028,-58,38,"98859d9e1a3a"
"2020-07-30T09:26:00",1596122760.508,572234,-58,39,"98859d9e1a3a"
"2020-07-30T09:26:00",1596122760.931,572657,-57,37,"98859d9e1a3a"
"2020-07-30T09:26:01",1596122761.559,573285,-59,39,"98859d9e1a3a"
"2020-07-30T09:26:01",1596122761.768,573494,-58,37,"98859d9e1a3a"
"2020-07-30T09:26:02",1596122762.185,573911,-58,38,"98859d9e1a3a"
"2020-07-30T09:26:02",1596122762.395,574121,-59,39,"98859d9e1a3a"
"2020-07-30T09:26:02",1596122762.809,574535,-58,37,"98859d9e1a3a"
"2020-07-30T09:26:03",1596122763.017,574743,-58,38,"98859d9e1a3a"
"2020-07-30T09:26:03",1596122763.432,575158,-59,39,"98859d9e1a3a"
"2020-07-30T09:26:04",1596122764.06,575786,-58,38,"98859d9e1a3a"
"2020-07-30T09:26:04",1596122764.27,575996,-59,39,"98859d9e1a3a"
"2020-07-30T09:26:04",1596122764.896,576622,-58,38,"98859d9e1a3a"
"2020-07-30T09:26:05",1596122765.31,577036,-59,39,"98859d9e1a3a"
"2020-07-30T09:26:05",1596122765.526,577252,-57,37,"98859d9e1a3a"
"2020-07-30T09:26:05",1596122765.934,577660,-58,38,"98859d9e1a3a"
"2020-07-30T09:26:06",1596122766.146,577872,-59,39,"98859d9e1a3a"
"2020-07-30T09:26:06",1596122766.559,578285,-57,37,"98859d9e1a3a"
"2020-07-30T09:26:06",1596122766.774,578500,-58,38,"98859d9e1a3a"
"2020-07-30T09:26:07",1596122767.189,578915,-59,39,"98859d9e1a3a"
"2020-07-30T09:26:07",1596122767.396,579122,-57,37,"98859d9e1a3a"
"2020-07-30T09:26:07",1596122767.814,579540,-58,38,"98859d9e1a3a"
"2020-07-30T09:26:08",1596122768.016,579742,-59,39,"98859d9e1a3a"
"2020-07-30T09:26:09",1596122769.055,580781,-59,39,"98859d9e1a3a"
"2020-07-30T09:26:09",1596122769.262,580988,-58,37,"98859d9e1a3a"
"2020-07-30T09:26:09",1596122769.678,581404,-58,38,"98859d9e1a3a"
"2020-07-30T09:26:09",1596122769.884,581610,-59,39,"98859d9e1a3a"
"2020-07-30T09:26:10",1596122770.302,582028,-58,37,"98859d9e1a3a"
"2020-07-30T09:26:10",1596122770.509,582235,-58,38,"98859d9e1a3a"
"2020-07-30T09:26:11",1596122771.132,582858,-57,37,"98859d9e1a3a"
"2020-07-30T09:26:11",1596122771.55,583276,-58,38,"98859d9e1a3a"
"2020-07-30T09:26:11",1596122771.757,583483,-59,39,"98859d9e1a3a"
"2020-07-30T09:26:12",1596122772.18,583906,-57,37,"98859d9e1a3a"
"2020-07-30T09:26:12",1596122772.385,584111,-58,38,"98859d9e1a3a"
"2020-07-30T09:26:12",1596122772.807,584533,-59,39,"98859d9e1a3a"
"2020-07-30T09:26:13",1596122773.011,584737,-57,37,"98859d9e1a3a"
"2020-07-30T09:26:13",1596122773.424,585150,-58,38,"98859d9e1a3a"
"2020-07-30T09:26:13",1596122773.632,585358,-59,39,"98859d9e1a3a"
"2020-07-30T09:26:14",1596122774.046,585772,-58,37,"98859d9e1a3a"
"2020-07-30T09:26:14",1596122774.676,586402,-59,39,"98859d9e1a3a"
"2020-07-30T09:26:14",1596122774.886,586612,-58,37,"98859d9e1a3a"
"2020-07-30T09:26:15",1596122775.3,587026,-58,38,"98859d9e1a3a"
"2020-07-30T09:26:15",1596122775.501,587227,-58,39,"98859d9e1a3a"
"2020-07-30T09:26:15",1596122775.926,587652,-56,37,"98859d9e1a3a"
"2020-07-30T09:26:16",1596122776.134,587860,-57,38,"98859d9e1a3a"
"2020-07-30T09:26:16",1596122776.554,588280,-67,39,"98859d9e1a3a"
"2020-07-30T09:26:16",1596122776.754,588480,-66,37,"98859d9e1a3a"
"2020-07-30T09:26:17",1596122777.171,588897,-61,38,"98859d9e1a3a"
"2020-07-30T09:26:17",1596122777.379,589105,-63,39,"98859d9e1a3a"
"2020-07-30T09:26:18",1596122778.43,590156,-60,39,"98859d9e1a3a"
"2020-07-30T09:26:18",1596122778.631,590357,-58,37,"98859d9e1a3a"
"2020-07-30T09:26:19",1596122779.051,590777,-58,38,"98859d9e1a3a"
"2020-07-30T09:26:19",1596122779.259,590985,-57,39,"98859d9e1a3a"
"2020-07-30T09:26:19",1596122779.672,591398,-57,37,"98859d9e1a3a"
"2020-07-30T09:26:19",1596122779.881,591607,-58,38,"98859d9e1a3a"
"2020-07-30T09:26:20",1596122780.297,592023,-59,39,"98859d9e1a3a"
"2020-07-30T09:26:20",1596122780.506,592232,-57,37,"98859d9e1a3a"
"2020-07-30T09:26:20",1596122780.926,592652,-58,38,"98859d9e1a3a"
"2020-07-30T09:26:21",1596122781.131,592857,-58,39,"98859d9e1a3a"
"2020-07-30T09:26:21",1596122781.749,593475,-58,38,"98859d9e1a3a"
"2020-07-30T09:26:22",1596122782.177,593903,-59,39,"98859d9e1a3a"
"2020-07-30T09:26:22",1596122782.377,594103,-57,37,"98859d9e1a3a"
"2020-07-30T09:26:22",1596122782.581,594307,-57,37,"98859d9e1a3a"
"2020-07-30T09:26:22",1596122782.795,594521,-57,38,"98859d9e1a3a"
"2020-07-30T09:26:23",1596122783,594726,-57,39,"98859d9e1a3a"
"2020-07-30T09:26:23",1596122783.418,595144,-57,37,"98859d9e1a3a"
"2020-07-30T09:26:23",1596122783.629,595355,-57,38,"98859d9e1a3a"
"2020-07-30T09:26:24",1596122784.043,595769,-70,39,"98859d9e1a3a"
"2020-07-30T09:26:24",1596122784.254,595980,-60,37,"98859d9e1a3a"
"2020-07-30T09:26:24",1596122784.667,596393,-63,38,"98859d9e1a3a"
"2020-07-30T09:26:25",1596122785.92,597646,-59,39,"98859d9e1a3a"
"2020-07-30T09:26:26",1596122786.129,597855,-57,37,"98859d9e1a3a"
"2020-07-30T09:26:26",1596122786.548,598274,-58,38,"98859d9e1a3a"
"2020-07-30T09:26:26",1596122786.754,598480,-57,39,"98859d9e1a3a"
"2020-07-30T09:26:27",1596122787.169,598895,-57,37,"98859d9e1a3a"
"2020-07-30T09:26:27",1596122787.376,599102,-58,38,"98859d9e1a3a"
"2020-07-30T09:26:27",1596122787.58,599306,-58,38,"98859d9e1a3a"
"2020-07-30T09:26:27",1596122787.791,599517,-59,39,"98859d9e1a3a"
"2020-07-30T09:26:28",1596122788.001,599727,-58,37,"98859d9e1a3a"
"2020-07-30T09:26:28",1596122788.421,600147,-58,38,"98859d9e1a3a"
"2020-07-30T09:26:29",1596122789.05,600776,-57,37,"98859d9e1a3a"
"2020-07-30T09:26:29",1596122789.677,601403,-59,39,"98859d9e1a3a"
"2020-07-30T09:26:29",1596122789.88,601606,-57,37,"98859d9e1a3a"
"2020-07-30T09:26:30",1596122790.296,602022,-58,38,"98859d9e1a3a"
"2020-07-30T09:26:30",1596122790.506,602232,-59,39,"98859d9e1a3a"
"2020-07-30T09:26:30",1596122790.922,602648,-57,37,"98859d9e1a3a"
"2020-07-30T09:26:31",1596122791.131,602857,-58,38,"98859d9e1a3a"
"2020-07-30T09:26:31",1596122791.55,603276,-59,39,"98859d9e1a3a"
"2020-07-30T09:26:31",1596122791.756,603482,-58,37,"98859d9e1a3a"
"2020-07-30T09:26:32",1596122792.167,603893,-58,38,"98859d9e1a3a"
"2020-07-30T09:26:32",1596122792.373,604099,-59,39,"98859d9e1a3a"
"2020-07-30T09:26:33",1596122793.002,604728,-58,38,"98859d9e1a3a"
"2020-07-30T09:26:34",1596122794.057,605783,-58,38,"98859d9e1a3a"
"2020-07-30T09:26:34",1596122794.261,605987,-57,39,"98859d9e1a3a"
"2020-07-30T09:26:34",1596122794.676,606402,-58,37,"98859d9e1a3a"
"2020-07-30T09:26:34",1596122794.877,606603,-58,38,"98859d9e1a3a"
"2020-07-30T09:26:35",1596122795.305,607031,-59,39,"98859d9e1a3a"
"2020-07-30T09:26:35",1596122795.505,607231,-57,37,"98859d9e1a3a"
"2020-07-30T09:26:35",1596122795.928,607654,-58,38,"98859d9e1a3a"
"2020-07-30T09:26:36",1596122796.134,607860,-59,39,"98859d9e1a3a"
"2020-07-30T09:26:37",1596122797.171,608897,-59,39,"98859d9e1a3a"
"2020-07-30T09:26:37",1596122797.378,609104,-56,37,"98859d9e1a3a"
"2020-07-30T09:26:38",1596122798.009,609735,-59,39,"98859d9e1a3a"
"2020-07-30T09:26:38",1596122798.43,610156,-57,37,"98859d9e1a3a"
"2020-07-30T09:26:38",1596122798.637,610363,-58,38,"98859d9e1a3a"
"2020-07-30T09:26:39",1596122799.055,610781,-59,39,"98859d9e1a3a"
"2020-07-30T09:26:39",1596122799.259,610985,-58,37,"98859d9e1a3a"
"2020-07-30T09:26:39",1596122799.678,611404,-58,38,"98859d9e1a3a"
"2020-07-30T09:26:39",1596122799.881,611607,-59,39,"98859d9e1a3a"
"2020-07-30T09:26:40",1596122800.301,612027,-58,37,"98859d9e1a3a"
"2020-07-30T09:26:40",1596122800.503,612229,-58,38,"98859d9e1a3a"
"2020-07-30T09:26:40",1596122800.922,612648,-59,39,"98859d9e1a3a"
"2020-07-30T09:26:41",1596122801.128,612854,-57,37,"98859d9e1a3a"
"2020-07-30T09:26:41",1596122801.548,613274,-58,38,"98859d9e1a3a"
"2020-07-30T09:26:41",1596122801.751,613477,-59,39,"98859d9e1a3a"
"2020-07-30T09:26:42",1596122802.172,613898,-58,37,"98859d9e1a3a"
"2020-07-30T09:26:42",1596122802.375,614101,-58,38,"98859d9e1a3a"
"2020-07-30T09:26:42",1596122802.797,614523,-59,39,"98859d9e1a3a"
"2020-07-30T09:26:43",1596122803.005,614731,-58,37,"98859d9e1a3a"
"2020-07-30T09:26:43",1596122803.425,615151,-58,38,"98859d9e1a3a"
"2020-07-30T09:26:44",1596122804.047,615773,-57,37,"98859d9e1a3a"
"2020-07-30T09:26:44",1596122804.883,616609,-57,37,"98859d9e1a3a"
"2020-07-30T09:26:45",1596122805.508,617234,-59,39,"98859d9e1a3a"
"2020-07-30T09:26:45",1596122805.929,617655,-58,37,"98859d9e1a3a"
"2020-07-30T09:26:46",1596122806.129,617855,-58,38,"98859d9e1a3a"
"2020-07-30T09:26:46",1596122806.551,618277,-59,39,"98859d9e1a3a"
"2020-07-30T09:26:46",1596122806.761,618487,-58,37,"98859d9e1a3a"
"2020-07-30T09:26:47",1596122807.175,618901,-58,38,"98859d9e1a3a"
"2020-07-30T09:26:47",1596122807.383,619109,-60,39,"98859d9e1a3a"
"2020-07-30T09:26:47",1596122807.803,619529,-58,37,"98859d9e1a3a"
"2020-07-30T09:26:48",1596122808.008,619734,-57,38,"98859d9e1a3a"
"2020-07-30T09:26:48",1596122808.428,620154,-64,39,"98859d9e1a3a"
"2020-07-30T09:26:49",1596122809.058,620784,-56,38,"98859d9e1a3a"
"2020-07-30T09:26:49",1596122809.258,620984,-57,39,"98859d9e1a3a"
"2020-07-30T09:26:49",1596122809.68,621406,-57,37,"98859d9e1a3a"
"2020-07-30T09:26:49",1596122809.887,621613,-58,38,"98859d9e1a3a"
"2020-07-30T09:26:50",1596122810.305,622031,-58,39,"98859d9e1a3a"
"2020-07-30T09:26:50",1596122810.508,622234,-57,37,"98859d9e1a3a"
"2020-07-30T09:26:50",1596122810.922,622648,-58,38,"98859d9e1a3a"
"2020-07-30T09:26:51",1596122811.13,622856,-58,39,"98859d9e1a3a"
"2020-07-30T09:26:51",1596122811.548,623274,-57,37,"98859d9e1a3a"
"2020-07-30T09:26:52",1596122812.378,624104,-58,37,"98859d9e1a3a"
"2020-07-30T09:26:52",1596122812.797,624523,-59,38,"98859d9e1a3a"
"2020-07-30T09:26:53",1596122813.006,624732,-57,39,"98859d9e1a3a"
"2020-07-30T09:26:53",1596122813.43,625156,-57,37,"98859d9e1a3a"
"2020-07-30T09:26:53",1596122813.633,625359,-58,38,"98859d9e1a3a"
"2020-07-30T09:26:54",1596122814.05,625776,-59,39,"98859d9e1a3a"
"2020-07-30T09:26:54",1596122814.255,625981,-57,37,"98859d9e1a3a"
"2020-07-30T09:26:54",1596122814.674,626400,-58,38,"98859d9e1a3a"
"2020-07-30T09:26:54",1596122814.879,626605,-59,39,"98859d9e1a3a"
"2020-07-30T09:26:55",1596122815.298,627024,-57,37,"98859d9e1a3a"
"2020-07-30T09:26:55",1596122815.501,627227,-57,38,"98859d9e1a3a"
"2020-07-30T09:26:55",1596122815.928,627654,-60,39,"98859d9e1a3a"
"2020-07-30T09:26:56",1596122816.131,627857,-57,37,"98859d9e1a3a"
"2020-07-30T09:26:56",1596122816.552,628278,-55,38,"98859d9e1a3a"
"2020-07-30T09:26:56",1596122816.76,628486,-56,39,"98859d9e1a3a"
"2020-07-30T09:26:57",1596122817.18,628906,-56,37,"98859d9e1a3a"
"2020-07-30T09:26:57",1596122817.389,629115,-57,38,"98859d9e1a3a"
"2020-07-30T09:26:57",1596122817.803,629529,-58,39,"98859d9e1a3a"
"2020-07-30T09:26:58",1596122818.012,629738,-58,37,"98859d9e1a3a"
"2020-07-30T09:26:58",1596122818.426,630152,-59,38,"98859d9e1a3a"
"2020-07-30T09:26:58",1596122818.63,630356,-58,39,"98859d9e1a3a"
"2020-07-30T09:26:59",1596122819.054,630780,-65,37,"98859d9e1a3a"
"2020-07-30T09:26:59",1596122819.262,630988,-62,38,"98859d9e1a3a"
"2020-07-30T09:26:59",1596122819.678,631404,-58,39,"98859d9e1a3a"
"2020-07-30T09:26:59",1596122819.881,631607,-57,37,"98859d9e1a3a"
"2020-07-30T09:27:00",1596122820.298,632024,-58,38,"98859d9e1a3a"
"2020-07-30T09:27:00",1596122820.508,632234,-58,39,"98859d9e1a3a"
"2020-07-30T09:27:00",1596122820.928,632654,-57,37,"98859d9e1a3a"
"2020-07-30T09:27:01",1596122821.132,632858,-58,38,"98859d9e1a3a"
"2020-07-30T09:27:01",1596122821.549,633275,-59,39,"98859d9e1a3a"
"2020-07-30T09:27:01",1596122821.751,633477,-57,37,"98859d9e1a3a"
"2020-07-30T09:27:02",1596122822.176,633902,-58,38,"98859d9e1a3a"
"2020-07-30T09:27:02",1596122822.384,634110,-59,39,"98859d9e1a3a"
"2020-07-30T09:27:03",1596122823.004,634730,-58,38,"98859d9e1a3a"
"2020-07-30T09:27:03",1596122823.421,635147,-59,39,"98859d9e1a3a"
"2020-07-30T09:27:03",1596122823.631,635357,-58,37,"98859d9e1a3a"
"2020-07-30T09:27:04",1596122824.044,635770,-58,38,"98859d9e1a3a"
"2020-07-30T09:27:04",1596122824.254,635980,-57,39,"98859d9e1a3a"
"2020-07-30T09:27:04",1596122824.667,636393,-57,37,"98859d9e1a3a"
"2020-07-30T09:27:04",1596122824.875,636601,-58,38,"98859d9e1a3a"
"2020-07-30T09:27:05",1596122825.296,637022,-59,39,"98859d9e1a3a"
"2020-07-30T09:27:05",1596122825.918,637644,-58,38,"98859d9e1a3a"
"2020-07-30T09:27:06",1596122826.333,638059,-59,39,"98859d9e1a3a"
"2020-07-30T09:27:07",1596122827.379,639105,-57,37,"98859d9e1a3a"
"2020-07-30T09:27:07",1596122827.8,639526,-58,38,"98859d9e1a3a"
"2020-07-30T09:27:08",1596122828.002,639728,-57,39,"98859d9e1a3a"
"2020-07-30T09:27:08",1596122828.418,640144,-57,37,"98859d9e1a3a"
"2020-07-30T09:27:08",1596122828.626,640352,-58,38,"98859d9e1a3a"
"2020-07-30T09:27:09",1596122829.052,640778,-59,39,"98859d9e1a3a"
"2020-07-30T09:27:09",1596122829.256,640982,-57,37,"98859d9e1a3a"
"2020-07-30T09:27:09",1596122829.671,641397,-58,38,"98859d9e1a3a"
"2020-07-30T09:27:09",1596122829.874,641600,-57,39,"98859d9e1a3a"
"2020-07-30T09:27:10",1596122830.302,642028,-57,37,"98859d9e1a3a"
"2020-07-30T09:27:10",1596122830.932,642658,-59,39,"98859d9e1a3a"
"2020-07-30T09:27:11",1596122831.559,643285,-58,38,"98859d9e1a3a"
"2020-07-30T09:27:11",1596122831.761,643487,-59,39,"98859d9e1a3a"
"2020-07-30T09:27:12",1596122832.177,643903,-57,37,"98859d9e1a3a"
"2020-07-30T09:27:12",1596122832.384,644110,-58,38,"98859d9e1a3a"
"2020-07-30T09:27:12",1596122832.804,644530,-59,39,"98859d9e1a3a"
"2020-07-30T09:27:13",1596122833.004,644730,-57,37,"98859d9e1a3a"
"2020-07-30T09:27:13",1596122833.426,645152,-58,38,"98859d9e1a3a"
"2020-07-30T09:27:13",1596122833.635,645361,-59,39,"98859d9e1a3a"
"2020-07-30T09:27:14",1596122834.254,645980,-58,38,"98859d9e1a3a"
"2020-07-30T09:27:14",1596122834.673,646399,-59,39,"98859d9e1a3a"
"2020-07-30T09:27:14",1596122834.882,646608,-57,37,"98859d9e1a3a"
"2020-07-30T09:27:15",1596122835.297,647023,-58,38,"98859d9e1a3a"
"2020-07-30T09:27:15",1596122835.502,647228,-59,39,"98859d9e1a3a"
"2020-07-30T09:27:15",1596122835.93,647656,-57,37,"98859d9e1a3a"
"2020-07-30T09:27:16",1596122836.134,647860,-58,38,"98859d9e1a3a"
"2020-07-30T09:27:16",1596122836.552,648278,-59,39,"98859d9e1a3a"
"2020-07-30T09:27:16",1596122836.761,648487,-57,37,"98859d9e1a3a"
"2020-07-30T09:27:17",1596122837.177,648903,-58,38,"98859d9e1a3a"
"2020-07-30T09:27:17",1596122837.382,649108,-59,39,"98859d9e1a3a"
"2020-07-30T09:27:17",1596122837.799,649525,-57,37,"98859d9e1a3a"
"2020-07-30T09:27:18",1596122838.009,649735,-58,38,"98859d9e1a3a"
"2020-07-30T09:27:19",1596122839.689,651415,-57,37,"98859d9e1a3a"
"2020-07-30T09:27:19",1596122839.888,651614,-58,38,"98859d9e1a3a"
"2020-07-30T09:27:20",1596122840.305,652031,-59,39,"98859d9e1a3a"
"2020-07-30T09:27:20",1596122840.513,652239,-57,37,"98859d9e1a3a"
"2020-07-30T09:27:20",1596122840.933,652659,-58,38,"98859d9e1a3a"
"2020-07-30T09:27:21",1596122841.149,652875,-59,39,"98859d9e1a3a"
"2020-07-30T09:27:21",1596122841.563,653289,-57,37,"98859d9e1a3a"
"2020-07-30T09:27:21",1596122841.763,653489,-58,38,"98859d9e1a3a"
"2020-07-30T09:27:22",1596122842.185,653911,-59,39,"98859d9e1a3a"
"2020-07-30T09:27:23",1596122843.009,654735,-57,39,"98859d9e1a3a"
"2020-07-30T09:27:23",1596122843.43,655156,-57,37,"98859d9e1a3a"
"2020-07-30T09:27:23",1596122843.645,655371,-58,38,"98859d9e1a3a"
"2020-07-30T09:27:24",1596122844.058,655784,-59,39,"98859d9e1a3a"
"2020-07-30T09:27:24",1596122844.258,655984,-57,37,"98859d9e1a3a"
"2020-07-30T09:27:24",1596122844.681,656407,-58,38,"98859d9e1a3a"
"2020-07-30T09:27:24",1596122844.894,656620,-59,39,"98859d9e1a3a"
"2020-07-30T09:27:25",1596122845.308,657034,-57,37,"98859d9e1a3a"
"2020-07-30T09:27:25",1596122845.523,657249,-58,38,"98859d9e1a3a"
"2020-07-30T09:27:25",1596122845.935,657661,-59,39,"98859d9e1a3a"
"2020-07-30T09:27:26",1596122846.145,657871,-57,37,"98859d9e1a3a"
"2020-07-30T09:27:27",1596122847.399,659125,-58,38,"98859d9e1a3a"
"2020-07-30T09:27:27",1596122847.815,659541,-59,39,"98859d9e1a3a"
"2020-07-30T09:27:28",1596122848.022,659748,-57,37,"98859d9e1a3a"
"2020-07-30T09:27:28",1596122848.44,660166,-58,38,"98859d9e1a3a"
"2020-07-30T09:27:28",1596122848.646,660372,-59,39,"98859d9e1a3a"
"2020-07-30T09:27:29",1596122849.06,660786,-57,37,"98859d9e1a3a"
"2020-07-30T09:27:29",1596122849.27,660996,-59,38,"98859d9e1a3a"
"2020-07-30T09:27:29",1596122849.687,661413,-60,39,"98859d9e1a3a"
"2020-07-30T09:27:29",1596122849.897,661623,-57,37,"98859d9e1a3a"
"2020-07-30T09:27:30",1596122850.314,662040,-64,38,"98859d9e1a3a"
"2020-07-30T09:27:30",1596122850.944,662670,-57,37,"98859d9e1a3a"
"2020-07-30T09:27:32",1596122852.19,663916,-59,38,"98859d9e1a3a"
"2020-07-30T09:27:32",1596122852.397,664123,-58,39,"98859d9e1a3a"
"2020-07-30T09:27:32",1596122852.817,664543,-57,37,"98859d9e1a3a"
"2020-07-30T09:27:33",1596122853.027,664753,-58,38,"98859d9e1a3a"
"2020-07-30T09:27:33",1596122853.65,665376,-57,37,"98859d9e1a3a"
"2020-07-30T09:27:34",1596122854.068,665794,-58,38,"98859d9e1a3a"
"2020-07-30T09:27:34",1596122854.273,665999,-58,39,"98859d9e1a3a"
"2020-07-30T09:27:34",1596122854.903,666629,-58,38,"98859d9e1a3a"
"2020-07-30T09:27:35",1596122855.319,667045,-58,39,"98859d9e1a3a"
"2020-07-30T09:27:36",1596122856.136,667862,-59,39,"98859d9e1a3a"
"2020-07-30T09:27:36",1596122856.555,668281,-57,37,"98859d9e1a3a"
"2020-07-30T09:27:36",1596122856.763,668489,-58,38,"98859d9e1a3a"
"2020-07-30T09:27:37",1596122857.39,669116,-57,37,"98859d9e1a3a"
"2020-07-30T09:27:38",1596122858.645,670371,-58,38,"98859d9e1a3a"
"2020-07-30T09:27:39",1596122859.059,670785,-59,39,"98859d9e1a3a"
"2020-07-30T09:27:39",1596122859.273,670999,-57,37,"98859d9e1a3a"
"2020-07-30T09:27:40",1596122860.932,672658,-59,39,"98859d9e1a3a"
"2020-07-30T09:27:41",1596122861.56,673286,-58,38,"98859d9e1a3a"
"2020-07-30T09:27:41",1596122861.762,673488,-59,39,"98859d9e1a3a"
"2020-07-30T09:27:42",1596122862.19,673916,-57,37,"98859d9e1a3a"
"2020-07-30T09:27:42",1596122862.811,674537,-59,39,"98859d9e1a3a"
"2020-07-30T09:27:43",1596122863.013,674739,-57,37,"98859d9e1a3a"
"2020-07-30T09:27:43",1596122863.428,675154,-58,38,"98859d9e1a3a"
"2020-07-30T09:27:43",1596122863.633,675359,-59,39,"98859d9e1a3a"
"2020-07-30T09:27:44",1596122864.67,676396,-59,39,"98859d9e1a3a"
"2020-07-30T09:27:45",1596122865.298,677024,-58,38,"98859d9e1a3a"
"2020-07-30T09:27:45",1596122865.5,677226,-59,39,"98859d9e1a3a"
"2020-07-30T09:27:46",1596122866.954,678680,-57,37,"98859d9e1a3a"
"2020-07-30T09:27:47",1596122867.161,678887,-58,38,"98859d9e1a3a"
"2020-07-30T09:27:47",1596122867.577,679303,-59,39,"98859d9e1a3a"
"2020-07-30T09:27:47",1596122867.788,679514,-57,37,"98859d9e1a3a"
"2020-07-30T09:27:48",1596122868.2,679926,-58,38,"98859d9e1a3a"
"2020-07-30T09:27:48",1596122868.41,680136,-59,39,"98859d9e1a3a"
"2020-07-30T09:27:48",1596122868.828,680554,-57,37,"98859d9e1a3a"
"2020-07-30T09:27:49",1596122869.038,680764,-58,38,"98859d9e1a3a"
"2020-07-30T09:27:49",1596122869.454,681180,-59,39,"98859d9e1a3a"
"2020-07-30T09:27:49",1596122869.664,681390,-57,37,"98859d9e1a3a"
"2020-07-30T09:27:50",1596122870.29,682016,-59,39,"98859d9e1a3a"
"2020-07-30T09:27:51",1596122871.13,682856,-59,39,"98859d9e1a3a"
"2020-07-30T09:27:51",1596122871.754,683480,-58,38,"98859d9e1a3a"
"2020-07-30T09:27:52",1596122872.58,684306,-57,37,"98859d9e1a3a"
"2020-07-30T09:27:52",1596122872.793,684519,-58,38,"98859d9e1a3a"
"2020-07-30T09:27:53",1596122873.002,684728,-57,39,"98859d9e1a3a"
"2020-07-30T09:27:53",1596122873.418,685144,-57,37,"98859d9e1a3a"
"2020-07-30T09:27:53",1596122873.622,685348,-58,38,"98859d9e1a3a"
"2020-07-30T09:27:54",1596122874.447,686173,-57,37,"98859d9e1a3a"
"2020-07-30T09:27:54",1596122874.657,686383,-58,38,"98859d9e1a3a"
"2020-07-30T09:27:55",1596122875.071,686797,-59,39,"98859d9e1a3a"
"2020-07-30T09:27:55",1596122875.287,687013,-57,37,"98859d9e1a3a"
"2020-07-30T09:27:55",1596122875.703,687429,-58,38,"98859d9e1a3a"
"2020-07-30T09:27:55",1596122875.915,687641,-59,39,"98859d9e1a3a"
"2020-07-30T09:27:56",1596122876.537,688263,-57,38,"98859d9e1a3a"
"2020-07-30T09:27:57",1596122877.566,689292,-66,38,"98859d9e1a3a"
"2020-07-30T09:27:57",1596122877.779,689505,-67,39,"98859d9e1a3a"
"2020-07-30T09:27:58",1596122878.194,689920,-63,37,"98859d9e1a3a"
"2020-07-30T09:27:58",1596122878.405,690131,-68,38,"98859d9e1a3a"
"2020-07-30T09:27:58",1596122878.819,690545,-59,39,"98859d9e1a3a"
"2020-07-30T09:27:59",1596122879.029,690755,-57,37,"98859d9e1a3a"
"2020-07-30T09:27:59",1596122879.449,691175,-58,38,"98859d9e1a3a"
"2020-07-30T09:27:59",1596122879.656,691382,-59,39,"98859d9e1a3a"
"2020-07-30T09:28:00",1596122880.696,692422,-59,39,"98859d9e1a3a"
"2020-07-30T09:28:00",1596122880.902,692628,-57,37,"98859d9e1a3a"
"2020-07-30T09:28:01",1596122881.318,693044,-58,38,"98859d9e1a3a"
"2020-07-30T09:28:01",1596122881.527,693253,-59,39,"98859d9e1a3a"
"2020-07-30T09:28:01",1596122881.945,693671,-57,37,"98859d9e1a3a"
"2020-07-30T09:28:02",1596122882.16,693886,-58,38,"98859d9e1a3a"
"2020-07-30T09:28:02",1596122882.568,694294,-59,39,"98859d9e1a3a"
"2020-07-30T09:28:02",1596122882.776,694502,-57,37,"98859d9e1a3a"
"2020-07-30T09:28:03",1596122883.194,694920,-58,38,"98859d9e1a3a"
"2020-07-30T09:28:03",1596122883.405,695131,-59,39,"98859d9e1a3a"
"2020-07-30T09:28:03",1596122883.815,695541,-57,37,"98859d9e1a3a"
"2020-07-30T09:28:04",1596122884.446,696172,-59,39,"98859d9e1a3a"
"2020-07-30T09:28:04",1596122884.655,696381,-57,37,"98859d9e1a3a"
"2020-07-30T09:28:05",1596122885.069,696795,-58,38,"98859d9e1a3a"
"2020-07-30T09:28:05",1596122885.279,697005,-59,39,"98859d9e1a3a"
"2020-07-30T09:28:05",1596122885.698,697424,-57,37,"98859d9e1a3a"
"2020-07-30T09:28:05",1596122885.909,697635,-58,38,"98859d9e1a3a"
"2020-07-30T09:28:06",1596122886.317,698043,-59,39,"98859d9e1a3a"
"2020-07-30T09:28:06",1596122886.53,698256,-57,37,"98859d9e1a3a"
"2020-07-30T09:28:07",1596122887.155,698881,-59,39,"98859d9e1a3a"
"2020-07-30T09:28:07",1596122887.574,699300,-57,37,"98859d9e1a3a"
"2020-07-30T09:28:07",1596122887.781,699507,-58,38,"98859d9e1a3a"
"2020-07-30T09:28:08",1596122888.192,699918,-59,39,"98859d9e1a3a"
"2020-07-30T09:28:08",1596122888.405,700131,-57,37,"98859d9e1a3a"
"2020-07-30T09:28:08",1596122888.813,700539,-57,38,"98859d9e1a3a"
"2020-07-30T09:28:09",1596122889.025,700751,-65,39,"98859d9e1a3a"
"2020-07-30T09:28:09",1596122889.437,701163,-57,37,"98859d9e1a3a"
"2020-07-30T09:28:09",1596122889.652,701378,-59,38,"98859d9e1a3a"
"2020-07-30T09:28:10",1596122890.064,701790,-60,39,"98859d9e1a3a"
"2020-07-30T09:28:10",1596122890.278,702004,-58,37,"98859d9e1a3a"
"2020-07-30T09:28:10",1596122890.905,702631,-57,39,"98859d9e1a3a"
"2020-07-30T09:28:11",1596122891.317,703043,-66,37,"98859d9e1a3a"
"2020-07-30T09:28:11",1596122891.526,703252,-67,38,"98859d9e1a3a"
"2020-07-30T09:28:11",1596122891.941,703667,-63,39,"98859d9e1a3a"
"2020-07-30T09:28:12",1596122892.151,703877,-67,37,"98859d9e1a3a"
"2020-07-30T09:28:12",1596122892.563,704289,-58,38,"98859d9e1a3a"
"2020-07-30T09:28:12",1596122892.769,704495,-58,39,"98859d9e1a3a"
"2020-07-30T09:28:13",1596122893.189,704915,-58,37,"98859d9e1a3a"
"2020-07-30T09:28:13",1596122893.811,705537,-58,39,"98859d9e1a3a"
"2020-07-30T09:28:14",1596122894.436,706162,-58,38,"98859d9e1a3a"
"2020-07-30T09:28:15",1596122895.06,706786,-57,37,"98859d9e1a3a"
"2020-07-30T09:28:15",1596122895.272,706998,-58,38,"98859d9e1a3a"
"2020-07-30T09:28:15",1596122895.683,707409,-59,39,"98859d9e1a3a"
"2020-07-30T09:28:15",1596122895.899,707625,-57,37,"98859d9e1a3a"
"2020-07-30T09:28:16",1596122896.307,708033,-58,38,"98859d9e1a3a"
"2020-07-30T09:28:16",1596122896.516,708242,-58,39,"98859d9e1a3a"
"2020-07-30T09:28:17",1596122897.144,708870,-59,38,"98859d9e1a3a"
"2020-07-30T09:28:17",1596122897.565,709291,-58,39,"98859d9e1a3a"
"2020-07-30T09:28:18",1596122898.178,709904,-58,38,"98859d9e1a3a"
"2020-07-30T09:28:18",1596122898.389,710115,-59,39,"98859d9e1a3a"
"2020-07-30T09:28:18",1596122898.807,710533,-57,37,"98859d9e1a3a"
"2020-07-30T09:28:19",1596122899.021,710747,-58,38,"98859d9e1a3a"
"2020-07-30T09:28:19",1596122899.434,711160,-59,39,"98859d9e1a3a"
"2020-07-30T09:28:19",1596122899.645,711371,-57,37,"98859d9e1a3a"
"2020-07-30T09:28:20",1596122900.058,711784,-58,38,"98859d9e1a3a"
"2020-07-30T09:28:20",1596122900.261,711987,-59,39,"98859d9e1a3a"
"2020-07-30T09:28:20",1596122900.675,712401,-57,37,"98859d9e1a3a"
"2020-07-30T09:28:21",1596122901.304,713030,-59,39,"98859d9e1a3a"
"2020-07-30T09:28:21",1596122901.513,713239,-57,37,"98859d9e1a3a"
"2020-07-30T09:28:21",1596122901.929,713655,-58,38,"98859d9e1a3a"
"2020-07-30T09:28:22",1596122902.141,713867,-59,39,"98859d9e1a3a"
"2020-07-30T09:28:22",1596122902.552,714278,-57,37,"98859d9e1a3a"
"2020-07-30T09:28:22",1596122902.762,714488,-58,38,"98859d9e1a3a"
"2020-07-30T09:28:23",1596122903.181,714907,-59,39,"98859d9e1a3a"
"2020-07-30T09:28:23",1596122903.394,715120,-57,37,"98859d9e1a3a"
"2020-07-30T09:28:24",1596122904.637,716363,-57,38,"98859d9e1a3a"
"2020-07-30T09:28:25",1596122905.055,716781,-60,39,"98859d9e1a3a"
"2020-07-30T09:28:25",1596122905.264,716990,-58,37,"98859d9e1a3a"
"2020-07-30T09:28:25",1596122905.677,717403,-63,38,"98859d9e1a3a"
"2020-07-30T09:28:25",1596122905.89,717616,-70,39,"98859d9e1a3a"
"2020-07-30T09:28:26",1596122906.302,718028,-58,37,"98859d9e1a3a"
"2020-07-30T09:28:26",1596122906.515,718241,-57,38,"98859d9e1a3a"
"2020-07-30T09:28:26",1596122906.93,718656,-58,39,"98859d9e1a3a"
"2020-07-30T09:28:27",1596122907.138,718864,-57,37,"98859d9e1a3a"
"2020-07-30T09:28:27",1596122907.552,719278,-58,38,"98859d9e1a3a"
"2020-07-30T09:28:27",1596122907.764,719490,-58,39,"98859d9e1a3a"
"2020-07-30T09:28:28",1596122908.176,719902,-57,37,"98859d9e1a3a"
"2020-07-30T09:28:28",1596122908.382,720108,-58,38,"98859d9e1a3a"
"2020-07-30T09:28:28",1596122908.798,720524,-59,39,"98859d9e1a3a"
"2020-07-30T09:28:29",1596122909.009,720735,-57,37,"98859d9e1a3a"
"2020-07-30T09:28:29",1596122909.424,721150,-58,38,"98859d9e1a3a"
"2020-07-30T09:28:29",1596122909.64,721366,-59,39,"98859d9e1a3a"
"2020-07-30T09:28:30",1596122910.055,721781,-57,37,"98859d9e1a3a"
"2020-07-30T09:28:30",1596122910.266,721992,-58,38,"98859d9e1a3a"
"2020-07-30T09:28:30",1596122910.68,722406,-58,39,"98859d9e1a3a"
"2020-07-30T09:28:30",1596122910.889,722615,-57,37,"98859d9e1a3a"
"2020-07-30T09:28:31",1596122911.515,723241,-59,39,"98859d9e1a3a"
"2020-07-30T09:28:31",1596122911.922,723648,-57,37,"98859d9e1a3a"
"2020-07-30T09:28:32",1596122912.134,723860,-58,38,"98859d9e1a3a"
"2020-07-30T09:28:32",1596122912.549,724275,-59,39,"98859d9e1a3a"
"2020-07-30T09:28:32",1596122912.759,724485,-57,37,"98859d9e1a3a"
"2020-07-30T09:28:33",1596122913.175,724901,-58,38,"98859d9e1a3a"
"2020-07-30T09:28:33",1596122913.388,725114,-58,39,"98859d9e1a3a"
"2020-07-30T09:28:33",1596122913.797,725523,-57,37,"98859d9e1a3a"
"2020-07-30T09:28:34",1596122914.01,725736,-58,38,"98859d9e1a3a"
"2020-07-30T09:28:34",1596122914.422,726148,-58,39,"98859d9e1a3a"
"2020-07-30T09:28:34",1596122914.632,726358,-57,37,"98859d9e1a3a"
"2020-07-30T09:28:35",1596122915.047,726773,-58,38,"98859d9e1a3a"
"2020-07-30T09:28:35",1596122915.256,726982,-58,39,"98859d9e1a3a"
"2020-07-30T09:28:35",1596122915.675,727401,-57,37,"98859d9e1a3a"
"2020-07-30T09:28:35",1596122915.88,727606,-58,38,"98859d9e1a3a"
"2020-07-30T09:28:36",1596122916.3,728026,-58,39,"98859d9e1a3a"
"2020-07-30T09:28:36",1596122916.506,728232,-57,37,"98859d9e1a3a"
"2020-07-30T09:28:36",1596122916.919,728645,-58,38,"98859d9e1a3a"
"2020-07-30T09:28:37",1596122917.13,728856,-58,39,"98859d9e1a3a"
"2020-07-30T09:28:37",1596122917.547,729273,-58,37,"98859d9e1a3a"
"2020-07-30T09:28:37",1596122917.76,729486,-58,38,"98859d9e1a3a"
"2020-07-30T09:28:38",1596122918.172,729898,-58,39,"98859d9e1a3a"
"2020-07-30T09:28:38",1596122918.376,730102,-59,37,"98859d9e1a3a"
"2020-07-30T09:28:38",1596122918.792,730518,-68,38,"98859d9e1a3a"
"2020-07-30T09:28:39",1596122919.008,730734,-63,39,"98859d9e1a3a"
"2020-07-30T09:28:39",1596122919.416,731142,-57,37,"98859d9e1a3a"
"2020-07-30T09:28:39",1596122919.627,731353,-60,38,"98859d9e1a3a"
"2020-07-30T09:28:40",1596122920.045,731771,-59,39,"98859d9e1a3a"
"2020-07-30T09:28:40",1596122920.251,731977,-57,37,"98859d9e1a3a"
"2020-07-30T09:28:40",1596122920.672,732398,-58,38,"98859d9e1a3a"
"2020-07-30T09:28:40",1596122920.881,732607,-58,39,"98859d9e1a3a"
"2020-07-30T09:28:41",1596122921.922,733648,-59,39,"98859d9e1a3a"
"2020-07-30T09:28:42",1596122922.546,734272,-58,38,"98859d9e1a3a"
"2020-07-30T09:28:42",1596122922.756,734482,-58,39,"98859d9e1a3a"
"2020-07-30T09:28:43",1596122923.173,734899,-57,37,"98859d9e1a3a"
"2020-07-30T09:28:43",1596122923.387,735113,-58,38,"98859d9e1a3a"
"2020-07-30T09:28:43",1596122923.791,735517,-60,39,"98859d9e1a3a"
"2020-07-30T09:28:44",1596122924.003,735729,-57,37,"98859d9e1a3a"
"2020-07-30T09:28:44",1596122924.42,736146,-56,38,"98859d9e1a3a"
"2020-07-30T09:28:44",1596122924.632,736358,-56,39,"98859d9e1a3a"
"2020-07-30T09:28:45",1596122925.046,736772,-53,37,"98859d9e1a3a"
"2020-07-30T09:28:45",1596122925.252,736978,-54,38,"98859d9e1a3a"
"2020-07-30T09:28:46",1596122926.293,738019,-60,38,"98859d9e1a3a"
"2020-07-30T09:28:46",1596122926.5,738226,-59,39,"98859d9e1a3a"
"2020-07-30T09:28:46",1596122926.919,738645,-64,37,"98859d9e1a3a"
"2020-07-30T09:28:47",1596122927.129,738855,-64,38,"98859d9e1a3a"
"2020-07-30T09:28:47",1596122927.541,739267,-65,39,"98859d9e1a3a"
"2020-07-30T09:28:47",1596122927.752,739478,-61,37,"98859d9e1a3a"
"2020-07-30T09:28:48",1596122928.166,739892,-58,38,"98859d9e1a3a"
"2020-07-30T09:28:48",1596122928.375,740101,-58,39,"98859d9e1a3a"
"2020-07-30T09:28:49",1596122929.626,741352,-57,37,"98859d9e1a3a"
"2020-07-30T09:28:50",1596122930.041,741767,-58,38,"98859d9e1a3a"
"2020-07-30T09:28:50",1596122930.25,741976,-59,39,"98859d9e1a3a"
"2020-07-30T09:28:50",1596122930.665,742391,-57,37,"98859d9e1a3a"
"2020-07-30T09:28:50",1596122930.876,742602,-58,38,"98859d9e1a3a"
"2020-07-30T09:28:51",1596122931.294,743020,-58,39,"98859d9e1a3a"
"2020-07-30T09:28:51",1596122931.506,743232,-57,37,"98859d9e1a3a"
"2020-07-30T09:28:51",1596122931.917,743643,-58,38,"98859d9e1a3a"
"2020-07-30T09:28:52",1596122932.542,744268,-57,37,"98859d9e1a3a"
"2020-07-30T09:28:53",1596122933.167,744893,-59,39,"98859d9e1a3a"
"2020-07-30T09:28:53",1596122933.797,745523,-58,38,"98859d9e1a3a"
"2020-07-30T09:28:54",1596122934.006,745732,-59,39,"98859d9e1a3a"
"2020-07-30T09:28:54",1596122934.415,746141,-57,37,"98859d9e1a3a"
"2020-07-30T09:28:54",1596122934.625,746351,-58,38,"98859d9e1a3a"
"2020-07-30T09:28:55",1596122935.044,746770,-58,39,"98859d9e1a3a"
"2020-07-30T09:28:55",1596122935.255,746981,-57,37,"98859d9e1a3a"
"2020-07-30T09:28:55",1596122935.663,747389,-58,38,"98859d9e1a3a"
"2020-07-30T09:28:56",1596122936.293,748019,-57,37,"98859d9e1a3a"
"2020-07-30T09:28:57",1596122937.542,749268,-58,38,"98859d9e1a3a"
"2020-07-30T09:28:57",1596122937.753,749479,-58,39,"98859d9e1a3a"
"2020-07-30T09:28:58",1596122938.17,749896,-57,37,"98859d9e1a3a"
"2020-07-30T09:28:58",1596122938.38,750106,-58,38,"98859d9e1a3a"
"2020-07-30T09:28:58",1596122938.795,750521,-59,39,"98859d9e1a3a"
"2020-07-30T09:28:59",1596122939.005,750731,-57,37,"98859d9e1a3a"
"2020-07-30T09:28:59",1596122939.418,751144,-58,38,"98859d9e1a3a"
"2020-07-30T09:28:59",1596122939.626,751352,-58,39,"98859d9e1a3a"
"2020-07-30T09:29:00",1596122940.043,751769,-57,37,"98859d9e1a3a"
"2020-07-30T09:29:00",1596122940.256,751982,-58,38,"98859d9e1a3a"
"2020-07-30T09:29:00",1596122940.668,752394,-59,39,"98859d9e1a3a"
"2020-07-30T09:29:00",1596122940.878,752604,-57,37,"98859d9e1a3a"
"2020-07-30T09:29:01",1596122941.294,753020,-58,38,"98859d9e1a3a"
"2020-07-30T09:29:01",1596122941.5,753226,-58,39,"98859d9e1a3a"
"2020-07-30T09:29:01",1596122941.917,753643,-57,37,"98859d9e1a3a"
"2020-07-30T09:29:02",1596122942.132,753858,-57,38,"98859d9e1a3a"
"2020-07-30T09:29:02",1596122942.546,754272,-58,39,"98859d9e1a3a"
"2020-07-30T09:29:02",1596122942.757,754483,-58,37,"98859d9e1a3a"
"2020-07-30T09:29:03",1596122943.788,755514,-61,37,"98859d9e1a3a"
"2020-07-30T09:29:04",1596122944.416,756142,-66,39,"98859d9e1a3a"
"2020-07-30T09:29:04",1596122944.626,756352,-65,37,"98859d9e1a3a"
"2020-07-30T09:29:05",1596122945.043,756769,-64,38,"98859d9e1a3a"
"2020-07-30T09:29:05",1596122945.248,756974,-64,39,"98859d9e1a3a"
"2020-07-30T09:29:05",1596122945.663,757389,-57,37,"98859d9e1a3a"
"2020-07-30T09:29:05",1596122945.873,757599,-57,38,"98859d9e1a3a"
"2020-07-30T09:29:07",1596122947.117,758843,-60,39,"98859d9e1a3a"
"2020-07-30T09:29:07",1596122947.536,759262,-58,37,"98859d9e1a3a"
"2020-07-30T09:29:07",1596122947.742,759468,-58,38,"98859d9e1a3a"
"2020-07-30T09:29:08",1596122948.159,759885,-58,39,"98859d9e1a3a"
"2020-07-30T09:29:08",1596122948.37,760096,-57,37,"98859d9e1a3a"
"2020-07-30T09:29:08",1596122948.781,760507,-67,38,"98859d9e1a3a"
"2020-07-30T09:29:08",1596122948.99,760716,-62,39,"98859d9e1a3a"
"2020-07-30T09:29:09",1596122949.407,761133,-61,37,"98859d9e1a3a"
"2020-07-30T09:29:09",1596122949.62,761346,-62,38,"98859d9e1a3a"
"2020-07-30T09:29:10",1596122950.035,761761,-57,39,"98859d9e1a3a"
"2020-07-30T09:29:10",1596122950.251,761977,-57,37,"98859d9e1a3a"
"2020-07-30T09:29:10",1596122950.657,762383,-58,38,"98859d9e1a3a"
"2020-07-30T09:29:10",1596122950.866,762592,-58,39,"98859d9e1a3a"
"2020-07-30T09:29:11",1596122951.28,763006,-57,37,"98859d9e1a3a"
"2020-07-30T09:29:11",1596122951.494,763220,-57,38,"98859d9e1a3a"
"2020-07-30T09:29:11",1596122951.908,763634,-58,39,"98859d9e1a3a"
"2020-07-30T09:29:12",1596122952.124,763850,-57,37,"98859d9e1a3a"
"2020-07-30T09:29:12",1596122952.535,764261,-58,38,"98859d9e1a3a"
"2020-07-30T09:29:12",1596122952.743,764469,-58,39,"98859d9e1a3a"
"2020-07-30T09:29:13",1596122953.157,764883,-57,37,"98859d9e1a3a"
"2020-07-30T09:29:13",1596122953.371,765097,-58,38,"98859d9e1a3a"
"2020-07-30T09:29:14",1596122954.407,766133,-58,38,"98859d9e1a3a"
"2020-07-30T09:29:15",1596122955.034,766760,-57,37,"98859d9e1a3a"
"2020-07-30T09:29:15",1596122955.247,766973,-58,38,"98859d9e1a3a"
"2020-07-30T09:29:15",1596122955.659,767385,-58,39,"98859d9e1a3a"
"2020-07-30T09:29:15",1596122955.871,767597,-57,37,"98859d9e1a3a"
"2020-07-30T09:29:16",1596122956.285,768011,-58,38,"98859d9e1a3a"
"2020-07-30T09:29:16",1596122956.498,768224,-58,39,"98859d9e1a3a"
"2020-07-30T09:29:16",1596122956.909,768635,-57,37,"98859d9e1a3a"
"2020-07-30T09:29:17",1596122957.123,768849,-58,38,"98859d9e1a3a"
"2020-07-30T09:29:17",1596122957.541,769267,-59,39,"98859d9e1a3a"
"2020-07-30T09:29:17",1596122957.748,769474,-57,37,"98859d9e1a3a"
"2020-07-30T09:29:18",1596122958.159,769885,-58,38,"98859d9e1a3a"
"2020-07-30T09:29:18",1596122958.788,770514,-57,37,"98859d9e1a3a"
"2020-07-30T09:29:18",1596122958.999,770725,-57,38,"98859d9e1a3a"
"2020-07-30T09:29:19",1596122959.407,771133,-56,39,"98859d9e1a3a"
"2020-07-30T09:29:19",1596122959.617,771343,-70,37,"98859d9e1a3a"
"2020-07-30T09:29:20",1596122960.035,771761,-72,38,"98859d9e1a3a"
"2020-07-30T09:29:20",1596122960.242,771968,-80,39,"98859d9e1a3a"
"2020-07-30T09:29:20",1596122960.864,772590,-72,38,"98859d9e1a3a"
"2020-07-30T09:29:21",1596122961.276,773002,-88,39,"98859d9e1a3a"
"2020-07-30T09:29:21",1596122961.487,773213,-67,37,"98859d9e1a3a"
"2020-07-30T09:29:22",1596122962.536,774262,-57,37,"98859d9e1a3a"
"2020-07-30T09:29:23",1596122963.163,774889,-58,39,"98859d9e1a3a"
"2020-07-30T09:29:23",1596122963.375,775101,-57,37,"98859d9e1a3a"
"2020-07-30T09:29:23",1596122963.785,775511,-59,38,"98859d9e1a3a"
"2020-07-30T09:29:23",1596122963.996,775722,-58,39,"98859d9e1a3a"
"2020-07-30T09:29:24",1596122964.417,776143,-57,37,"98859d9e1a3a"
"2020-07-30T09:29:24",1596122964.627,776353,-58,38,"98859d9e1a3a"
"2020-07-30T09:29:25",1596122965.652,777378,-58,38,"98859d9e1a3a"
"2020-07-30T09:29:25",1596122965.863,777589,-59,39,"98859d9e1a3a"
"2020-07-30T09:29:26",1596122966.285,778011,-57,37,"98859d9e1a3a"
"2020-07-30T09:29:26",1596122966.49,778216,-58,38,"98859d9e1a3a"
"2020-07-30T09:29:26",1596122966.91,778636,-58,39,"98859d9e1a3a"
"2020-07-30T09:29:27",1596122967.115,778841,-57,37,"98859d9e1a3a"
"2020-07-30T09:29:27",1596122967.528,779254,-58,38,"98859d9e1a3a"
"2020-07-30T09:29:27",1596122967.74,779466,-58,39,"98859d9e1a3a"
"2020-07-30T09:29:28",1596122968.364,780090,-58,38,"98859d9e1a3a"
"2020-07-30T09:29:28",1596122968.779,780505,-58,39,"98859d9e1a3a"
"2020-07-30T09:29:29",1596122969.4,781126,-57,38,"98859d9e1a3a"
"2020-07-30T09:29:29",1596122969.615,781341,-58,39,"98859d9e1a3a"
"2020-07-30T09:29:30",1596122970.028,781754,-57,37,"98859d9e1a3a"
"2020-07-30T09:29:30",1596122970.238,781964,-58,38,"98859d9e1a3a"
"2020-07-30T09:29:30",1596122970.654,782380,-58,39,"98859d9e1a3a"
"2020-07-30T09:29:30",1596122970.86,782586,-57,37,"98859d9e1a3a"
"2020-07-30T09:29:31",1596122971.28,783006,-58,38,"98859d9e1a3a"
"2020-07-30T09:29:31",1596122971.904,783630,-57,37,"98859d9e1a3a"
"2020-07-30T09:29:32",1596122972.109,783835,-58,38,"98859d9e1a3a"
"2020-07-30T09:29:32",1596122972.528,784254,-58,39,"98859d9e1a3a"
"2020-07-30T09:29:32",1596122972.736,784462,-57,37,"98859d9e1a3a"
"2020-07-30T09:29:33",1596122973.147,784873,-58,38,"98859d9e1a3a"
"2020-07-30T09:29:33",1596122973.358,785084,-58,39,"98859d9e1a3a"
"2020-07-30T09:29:33",1596122973.773,785499,-57,37,"98859d9e1a3a"
"2020-07-30T09:29:33",1596122973.986,785712,-58,38,"98859d9e1a3a"
"2020-07-30T09:29:34",1596122974.394,786120,-58,39,"98859d9e1a3a"
"2020-07-30T09:29:34",1596122974.608,786334,-57,37,"98859d9e1a3a"
"2020-07-30T09:29:35",1596122975.018,786744,-58,38,"98859d9e1a3a"
"2020-07-30T09:29:35",1596122975.23,786956,-58,39,"98859d9e1a3a"
"2020-07-30T09:29:35",1596122975.654,787380,-57,37,"98859d9e1a3a"
"2020-07-30T09:29:36",1596122976.273,787999,-58,39,"98859d9e1a3a"
"2020-07-30T09:29:36",1596122976.483,788209,-57,37,"98859d9e1a3a"
"2020-07-30T09:29:36",1596122976.904,788630,-58,38,"98859d9e1a3a"
"2020-07-30T09:29:37",1596122977.11,788836,-58,39,"98859d9e1a3a"
"2020-07-30T09:29:37",1596122977.52,789246,-57,37,"98859d9e1a3a"
"2020-07-30T09:29:37",1596122977.729,789455,-58,38,"98859d9e1a3a"
"2020-07-30T09:29:38",1596122978.989,790715,-58,39,"98859d9e1a3a"
"2020-07-30T09:29:39",1596122979.614,791340,-58,38,"98859d9e1a3a"
"2020-07-30T09:29:40",1596122980.658,792384,-58,38,"98859d9e1a3a"
"2020-07-30T09:29:40",1596122980.874,792600,-58,39,"98859d9e1a3a"
"2020-07-30T09:29:41",1596122981.287,793013,-57,37,"98859d9e1a3a"
"2020-07-30T09:29:41",1596122981.492,793218,-58,38,"98859d9e1a3a"
"2020-07-30T09:29:41",1596122981.91,793636,-58,39,"98859d9e1a3a"
"2020-07-30T09:29:42",1596122982.124,793850,-57,37,"98859d9e1a3a"
"2020-07-30T09:29:42",1596122982.532,794258,-58,38,"98859d9e1a3a"
"2020-07-30T09:29:42",1596122982.745,794471,-58,39,"98859d9e1a3a"
"2020-07-30T09:29:43",1596122983.161,794887,-57,37,"98859d9e1a3a"
"2020-07-30T09:29:44",1596122984.405,796131,-57,38,"98859d9e1a3a"
"2020-07-30T09:29:44",1596122984.618,796344,-58,39,"98859d9e1a3a"
"2020-07-30T09:29:45",1596122985.031,796757,-57,37,"98859d9e1a3a"
"2020-07-30T09:29:45",1596122985.245,796971,-58,38,"98859d9e1a3a"
"2020-07-30T09:29:45",1596122985.657,797383,-58,39,"98859d9e1a3a"
"2020-07-30T09:29:45",1596122985.871,797597,-57,37,"98859d9e1a3a"
"2020-07-30T09:29:46",1596122986.282,798008,-58,38,"98859d9e1a3a"
"2020-07-30T09:29:46",1596122986.487,798213,-58,39,"98859d9e1a3a"
"2020-07-30T09:29:46",1596122986.905,798631,-57,37,"98859d9e1a3a"
"2020-07-30T09:29:47",1596122987.535,799261,-58,39,"98859d9e1a3a"
"2020-07-30T09:29:47",1596122987.741,799467,-56,37,"98859d9e1a3a"
"2020-07-30T09:29:48",1596122988.788,800514,-57,37,"98859d9e1a3a"
"2020-07-30T09:29:48",1596122988.993,800719,-58,38,"98859d9e1a3a"
"2020-07-30T09:29:49",1596122989.409,801135,-58,39,"98859d9e1a3a"
"2020-07-30T09:29:49",1596122989.62,801346,-58,37,"98859d9e1a3a"
"2020-07-30T09:29:50",1596122990.034,801760,-58,38,"98859d9e1a3a"
"2020-07-30T09:29:50",1596122990.242,801968,-58,39,"98859d9e1a3a"
"2020-07-30T09:29:50",1596122990.66,802386,-57,37,"98859d9e1a3a"
"2020-07-30T09:29:50",1596122990.872,802598,-58,38,"98859d9e1a3a"
"2020-07-30T09:29:51",1596122991.285,803011,-59,39,"98859d9e1a3a"
"2020-07-30T09:29:51",1596122991.499,803225,-57,37,"98859d9e1a3a"
"2020-07-30T09:29:51",1596122991.91,803636,-58,38,"98859d9e1a3a"
"2020-07-30T09:29:52",1596122992.535,804261,-57,37,"98859d9e1a3a"
"2020-07-30T09:29:52",1596122992.746,804472,-58,38,"98859d9e1a3a"
"2020-07-30T09:29:53",1596122993.165,804891,-58,39,"98859d9e1a3a"
"2020-07-30T09:29:53",1596122993.371,805097,-57,37,"98859d9e1a3a"
"2020-07-30T09:29:53",1596122993.788,805514,-58,38,"98859d9e1a3a"
"2020-07-30T09:29:53",1596122993.998,805724,-58,39,"98859d9e1a3a"
"2020-07-30T09:29:54",1596122994.414,806140,-57,37,"98859d9e1a3a"
"2020-07-30T09:29:54",1596122994.624,806350,-58,38,"98859d9e1a3a"
"2020-07-30T09:29:55",1596122995.038,806764,-58,39,"98859d9e1a3a"
"2020-07-30T09:29:55",1596122995.251,806977,-57,37,"98859d9e1a3a"
"2020-07-30T09:29:55",1596122995.665,807391,-58,38,"98859d9e1a3a"
"2020-07-30T09:29:56",1596122996.295,808021,-57,37,"98859d9e1a3a"
"2020-07-30T09:29:56",1596122996.499,808225,-58,38,"98859d9e1a3a"
"2020-07-30T09:29:56",1596122996.916,808642,-59,39,"98859d9e1a3a"
"2020-07-30T09:29:57",1596122997.123,808849,-57,37,"98859d9e1a3a"
"2020-07-30T09:29:57",1596122997.541,809267,-58,38,"98859d9e1a3a"
"2020-07-30T09:29:57",1596122997.746,809472,-58,39,"98859d9e1a3a"
"2020-07-30T09:29:58",1596122998.165,809891,-59,37,"98859d9e1a3a"
"2020-07-30T09:29:58",1596122998.37,810096,-57,38,"98859d9e1a3a"
"2020-07-30T09:29:58",1596122998.991,810717,-59,37,"98859d9e1a3a"
"2020-07-30T09:29:59",1596122999.407,811133,-61,38,"98859d9e1a3a"
"2020-07-30T09:29:59",1596122999.62,811346,-58,39,"98859d9e1a3a"
"2020-07-30T09:30:00",1596123000.034,811760,-57,37,"98859d9e1a3a"
"2020-07-30T09:30:00",1596123000.242,811968,-58,38,"98859d9e1a3a"
"2020-07-30T09:30:00",1596123000.66,812386,-58,39,"98859d9e1a3a"
"2020-07-30T09:30:00",1596123000.865,812591,-57,37,"98859d9e1a3a"
"2020-07-30T09:30:01",1596123001.284,813010,-58,38,"98859d9e1a3a"
"2020-07-30T09:30:01",1596123001.489,813215,-58,39,"98859d9e1a3a"
"2020-07-30T09:30:01",1596123001.908,813634,-57,37,"98859d9e1a3a"
"2020-07-30T09:30:02",1596123002.535,814261,-58,39,"98859d9e1a3a"
"2020-07-30T09:30:02",1596123002.745,814471,-57,37,"98859d9e1a3a"
"2020-07-30T09:30:03",1596123003.157,814883,-58,38,"98859d9e1a3a"
"2020-07-30T09:30:03",1596123003.37,815096,-58,39,"98859d9e1a3a"
"2020-07-30T09:30:03",1596123003.778,815504,-57,37,"98859d9e1a3a"
"2020-07-30T09:30:03",1596123003.991,815717,-57,38,"98859d9e1a3a"
"2020-07-30T09:30:04",1596123004.408,816134,-58,39,"98859d9e1a3a"
"2020-07-30T09:30:04",1596123004.613,816339,-57,37,"98859d9e1a3a"
"2020-07-30T09:30:05",1596123005.032,816758,-58,38,"98859d9e1a3a"
"2020-07-30T09:30:05",1596123005.655,817381,-57,37,"98859d9e1a3a"
"2020-07-30T09:30:05",1596123005.869,817595,-58,38,"98859d9e1a3a"
"2020-07-30T09:30:06",1596123006.281,818007,-58,39,"98859d9e1a3a"
"2020-07-30T09:30:06",1596123006.492,818218,-57,37,"98859d9e1a3a"
"2020-07-30T09:30:06",1596123006.908,818634,-57,38,"98859d9e1a3a"
"2020-07-30T09:30:07",1596123007.115,818841,-58,39,"98859d9e1a3a"
"2020-07-30T09:30:07",1596123007.524,819250,-57,37,"98859d9e1a3a"
"2020-07-30T09:30:07",1596123007.737,819463,-58,38,"98859d9e1a3a"
"2020-07-30T09:30:08",1596123008.153,819879,-60,39,"98859d9e1a3a"
"2020-07-30T09:30:08",1596123008.361,820087,-57,37,"98859d9e1a3a"
"2020-07-30T09:30:08",1596123008.781,820507,-60,38,"98859d9e1a3a"
"2020-07-30T09:30:08",1596123008.988,820714,-57,39,"98859d9e1a3a"
"2020-07-30T09:30:09",1596123009.405,821131,-68,37,"98859d9e1a3a"
"2020-07-30T09:30:09",1596123009.61,821336,-71,38,"98859d9e1a3a"
"2020-07-30T09:30:10",1596123010.022,821748,-74,39,"98859d9e1a3a"
"2020-07-30T09:30:10",1596123010.236,821962,-66,37,"98859d9e1a3a"
"2020-07-30T09:30:10",1596123010.653,822379,-65,38,"98859d9e1a3a"
"2020-07-30T09:30:10",1596123010.86,822586,-66,39,"98859d9e1a3a"
"2020-07-30T09:30:11",1596123011.274,823000,-62,37,"98859d9e1a3a"