"time","epoch_time","boot_time","rssi","ch","mac"
"2020-07-30T11:16:04",1596129364.813,7192699,-61,38,"a71850b36037"
"2020-07-30T11:16:05",1596129365.02,7192906,-62,39,"a71850b36037"
"2020-07-30T11:16:05",1596129365.433,7193319,-62,37,"a71850b36037"
"2020-07-30T11:16:05",1596129365.648,7193534,-61,38,"a71850b36037"
"2020-07-30T11:16:06",1596129366.055,7193941,-62,39,"a71850b36037"
"2020-07-30T11:16:06",1596129366.271,7194157,-62,37,"a71850b36037"
"2020-07-30T11:16:06",1596129366.685,7194571,-61,38,"a71850b36037"
"2020-07-30T11:16:06",1596129366.895,7194781,-61,39,"a71850b36037"
"2020-07-30T11:16:07",1596129367.312,7195198,-62,37,"a71850b36037"
"2020-07-30T11:16:07",1596129367.527,7195413,-61,38,"a71850b36037"
"2020-07-30T11:16:07",1596129367.933,7195819,-61,39,"a71850b36037"
"2020-07-30T11:16:08",1596129368.147,7196033,-62,37,"a71850b36037"
"2020-07-30T11:16:08",1596129368.563,7196449,-61,38,"a71850b36037"
"2020-07-30T11:16:08",1596129368.77,7196656,-60,39,"a71850b36037"
"2020-07-30T11:16:09",1596129369.183,7197069,-61,37,"a71850b36037"
"2020-07-30T11:16:09",1596129369.807,7197693,-57,39,"a71850b36037"
"2020-07-30T11:16:10",1596129370.017,7197903,-58,37,"a71850b36037"
"2020-07-30T11:16:10",1596129370.432,7198318,-61,38,"a71850b36037"
"2020-07-30T11:16:10",1596129370.638,7198524,-60,39,"a71850b36037"
"2020-07-30T11:16:11",1596129371.061,7198947,-59,37,"a71850b36037"
"2020-07-30T11:16:11",1596129371.27,7199156,-57,38,"a71850b36037"
"2020-07-30T11:16:11",1596129371.685,7199571,-59,39,"a71850b36037"
"2020-07-30T11:16:11",1596129371.891,7199777,-61,37,"a71850b36037"
"2020-07-30T11:16:12",1596129372.305,7200191,-60,38,"a71850b36037"
"2020-07-30T11:16:12",1596129372.519,7200405,-60,39,"a71850b36037"
"2020-07-30T11:16:12",1596129372.931,7200817,-57,37,"a71850b36037"
"2020-07-30T11:16:13",1596129373.141,7201027,-63,38,"a71850b36037"
"2020-07-30T11:16:13",1596129373.553,7201439,-62,39,"a71850b36037"
"2020-07-30T11:16:13",1596129373.761,7201647,-54,37,"a71850b36037"
"2020-07-30T11:16:14",1596129374.171,7202057,-59,38,"a71850b36037"
"2020-07-30T11:16:14",1596129374.383,7202269,-59,39,"a71850b36037"
"2020-07-30T11:16:14",1596129374.801,7202687,-59,37,"a71850b36037"
"2020-07-30T11:16:15",1596129375.014,7202900,-59,38,"a71850b36037"
"2020-07-30T11:16:15",1596129375.427,7203313,-58,39,"a71850b36037"
"2020-07-30T11:16:15",1596129375.634,7203520,-59,37,"a71850b36037"
"2020-07-30T11:16:16",1596129376.047,7203933,-58,38,"a71850b36037"
"2020-07-30T11:16:16",1596129376.261,7204147,-59,39,"a71850b36037"
"2020-07-30T11:16:16",1596129376.672,7204558,-59,37,"a71850b36037"
"2020-07-30T11:16:16",1596129376.877,7204763,-59,38,"a71850b36037"
"2020-07-30T11:16:17",1596129377.297,7205183,-59,39,"a71850b36037"
"2020-07-30T11:16:17",1596129377.505,7205391,-59,37,"a71850b36037"
"2020-07-30T11:16:17",1596129377.916,7205802,-58,38,"a71850b36037"
"2020-07-30T11:16:18",1596129378.127,7206013,-59,39,"a71850b36037"
"2020-07-30T11:16:18",1596129378.55,7206436,-59,37,"a71850b36037"
"2020-07-30T11:16:18",1596129378.758,7206644,-58,38,"a71850b36037"
"2020-07-30T11:16:19",1596129379.171,7207057,-59,39,"a71850b36037"
"2020-07-30T11:16:19",1596129379.793,7207679,-58,38,"a71850b36037"
"2020-07-30T11:16:20",1596129380.007,7207893,-59,39,"a71850b36037"
"2020-07-30T11:16:20",1596129380.42,7208306,-59,37,"a71850b36037"
"2020-07-30T11:16:20",1596129380.628,7208514,-58,38,"a71850b36037"
"2020-07-30T11:16:21",1596129381.049,7208935,-59,39,"a71850b36037"
"2020-07-30T11:16:21",1596129381.255,7209141,-59,37,"a71850b36037"
"2020-07-30T11:16:21",1596129381.669,7209555,-58,38,"a71850b36037"
"2020-07-30T11:16:21",1596129381.878,7209764,-59,39,"a71850b36037"
"2020-07-30T11:16:22",1596129382.293,7210179,-59,37,"a71850b36037"
"2020-07-30T11:16:22",1596129382.914,7210800,-59,39,"a71850b36037"
"2020-07-30T11:16:23",1596129383.131,7211017,-59,37,"a71850b36037"
"2020-07-30T11:16:23",1596129383.546,7211432,-60,38,"a71850b36037"
"2020-07-30T11:16:23",1596129383.757,7211643,-60,39,"a71850b36037"
"2020-07-30T11:16:24",1596129384.174,7212060,-65,37,"a71850b36037"
"2020-07-30T11:16:24",1596129384.38,7212266,-57,38,"a71850b36037"
"2020-07-30T11:16:24",1596129384.799,7212685,-57,39,"a71850b36037"
"2020-07-30T11:16:25",1596129385.005,7212891,-59,37,"a71850b36037"
"2020-07-30T11:16:25",1596129385.422,7213308,-57,38,"a71850b36037"
"2020-07-30T11:16:25",1596129385.628,7213514,-57,39,"a71850b36037"
"2020-07-30T11:16:26",1596129386.049,7213935,-59,37,"a71850b36037"
"2020-07-30T11:16:26",1596129386.256,7214142,-57,38,"a71850b36037"
"2020-07-30T11:16:26",1596129386.672,7214558,-59,39,"a71850b36037"
"2020-07-30T11:16:27",1596129387.511,7215397,-59,39,"a71850b36037"
"2020-07-30T11:16:27",1596129387.92,7215806,-59,37,"a71850b36037"
"2020-07-30T11:16:28",1596129388.134,7216020,-58,38,"a71850b36037"
"2020-07-30T11:16:28",1596129388.547,7216433,-58,39,"a71850b36037"
"2020-07-30T11:16:28",1596129388.752,7216638,-59,37,"a71850b36037"
"2020-07-30T11:16:29",1596129389.172,7217058,-59,38,"a71850b36037"
"2020-07-30T11:16:29",1596129389.378,7217264,-58,39,"a71850b36037"
"2020-07-30T11:16:29",1596129389.794,7217680,-59,37,"a71850b36037"
"2020-07-30T11:16:30",1596129390.421,7218307,-59,39,"a71850b36037"
"2020-07-30T11:16:30",1596129390.626,7218512,-59,37,"a71850b36037"
"2020-07-30T11:16:31",1596129391.041,7218927,-58,38,"a71850b36037"
"2020-07-30T11:16:31",1596129391.256,7219142,-59,39,"a71850b36037"
"2020-07-30T11:16:31",1596129391.673,7219559,-59,37,"a71850b36037"
"2020-07-30T11:16:31",1596129391.883,7219769,-58,38,"a71850b36037"
"2020-07-30T11:16:32",1596129392.299,7220185,-59,39,"a71850b36037"
"2020-07-30T11:16:32",1596129392.508,7220394,-59,37,"a71850b36037"
"2020-07-30T11:16:32",1596129392.923,7220809,-58,38,"a71850b36037"
"2020-07-30T11:16:33",1596129393.129,7221015,-58,39,"a71850b36037"
"2020-07-30T11:16:33",1596129393.542,7221428,-59,37,"a71850b36037"
"2020-07-30T11:16:34",1596129394.166,7222052,-59,39,"a71850b36037"
"2020-07-30T11:16:34",1596129394.375,7222261,-59,37,"a71850b36037"
"2020-07-30T11:16:34",1596129394.789,7222675,-58,38,"a71850b36037"
"2020-07-30T11:16:34",1596129394.995,7222881,-59,39,"a71850b36037"
"2020-07-30T11:16:35",1596129395.415,7223301,-59,37,"a71850b36037"
"2020-07-30T11:16:35",1596129395.621,7223507,-58,38,"a71850b36037"
"2020-07-30T11:16:36",1596129396.036,7223922,-59,39,"a71850b36037"
"2020-07-30T11:16:36",1596129396.25,7224136,-59,37,"a71850b36037"
"2020-07-30T11:16:36",1596129396.666,7224552,-58,38,"a71850b36037"
"2020-07-30T11:16:36",1596129396.871,7224757,-58,39,"a71850b36037"
"2020-07-30T11:16:37",1596129397.505,7225391,-58,38,"a71850b36037"
"2020-07-30T11:16:37",1596129397.913,7225799,-58,39,"a71850b36037"
"2020-07-30T11:16:38",1596129398.126,7226012,-59,37,"a71850b36037"
"2020-07-30T11:16:38",1596129398.542,7226428,-58,38,"a71850b36037"
"2020-07-30T11:16:38",1596129398.749,7226635,-59,39,"a71850b36037"
"2020-07-30T11:16:39",1596129399.165,7227051,-59,37,"a71850b36037"
"2020-07-30T11:16:39",1596129399.376,7227262,-58,38,"a71850b36037"
"2020-07-30T11:16:39",1596129399.793,7227679,-59,39,"a71850b36037"
"2020-07-30T11:16:40",1596129400.001,7227887,-59,37,"a71850b36037"
"2020-07-30T11:16:40",1596129400.42,7228306,-58,38,"a71850b36037"
"2020-07-30T11:16:40",1596129400.631,7228517,-59,39,"a71850b36037"
"2020-07-30T11:16:41",1596129401.042,7228928,-59,37,"a71850b36037"
"2020-07-30T11:16:41",1596129401.665,7229551,-59,39,"a71850b36037"
"2020-07-30T11:16:42",1596129402.296,7230182,-58,38,"a71850b36037"
"2020-07-30T11:16:42",1596129402.5,7230386,-59,39,"a71850b36037"
"2020-07-30T11:16:42",1596129402.919,7230805,-59,37,"a71850b36037"
"2020-07-30T11:16:43",1596129403.131,7231017,-58,38,"a71850b36037"
"2020-07-30T11:16:43",1596129403.544,7231430,-58,39,"a71850b36037"
"2020-07-30T11:16:43",1596129403.755,7231641,-59,37,"a71850b36037"
"2020-07-30T11:16:44",1596129404.174,7232060,-58,38,"a71850b36037"
"2020-07-30T11:16:44",1596129404.382,7232268,-57,39,"a71850b36037"
"2020-07-30T11:16:44",1596129404.795,7232681,-59,37,"a71850b36037"
"2020-07-30T11:16:45",1596129405.007,7232893,-59,38,"a71850b36037"
"2020-07-30T11:16:45",1596129405.422,7233308,-63,39,"a71850b36037"
"2020-07-30T11:16:45",1596129405.626,7233512,-66,37,"a71850b36037"
"2020-07-30T11:16:46",1596129406.04,7233926,-63,38,"a71850b36037"
"2020-07-30T11:16:46",1596129406.253,7234139,-58,39,"a71850b36037"
"2020-07-30T11:16:46",1596129406.667,7234553,-58,37,"a71850b36037"
"2020-07-30T11:16:46",1596129406.881,7234767,-59,38,"a71850b36037"
"2020-07-30T11:16:47",1596129407.294,7235180,-58,39,"a71850b36037"
"2020-07-30T11:16:47",1596129407.502,7235388,-59,37,"a71850b36037"
"2020-07-30T11:16:47",1596129407.917,7235803,-58,38,"a71850b36037"
"2020-07-30T11:16:48",1596129408.131,7236017,-58,39,"a71850b36037"
"2020-07-30T11:16:48",1596129408.547,7236433,-59,37,"a71850b36037"
"2020-07-30T11:16:48",1596129408.755,7236641,-58,38,"a71850b36037"
"2020-07-30T11:16:49",1596129409.791,7237677,-58,38,"a71850b36037"
"2020-07-30T11:16:49",1596129409.999,7237885,-58,39,"a71850b36037"
"2020-07-30T11:16:50",1596129410.413,7238299,-59,37,"a71850b36037"
"2020-07-30T11:16:50",1596129410.623,7238509,-58,38,"a71850b36037"
"2020-07-30T11:16:51",1596129411.042,7238928,-58,39,"a71850b36037"
"2020-07-30T11:16:51",1596129411.251,7239137,-59,37,"a71850b36037"
"2020-07-30T11:16:51",1596129411.671,7239557,-58,38,"a71850b36037"
"2020-07-30T11:16:51",1596129411.877,7239763,-59,39,"a71850b36037"
"2020-07-30T11:16:52",1596129412.284,7240170,-59,37,"a71850b36037"
"2020-07-30T11:16:52",1596129412.502,7240388,-59,38,"a71850b36037"
"2020-07-30T11:16:52",1596129412.917,7240803,-58,39,"a71850b36037"
"2020-07-30T11:16:53",1596129413.123,7241009,-59,37,"a71850b36037"
"2020-07-30T11:16:53",1596129413.544,7241430,-57,38,"a71850b36037"
"2020-07-30T11:16:53",1596129413.752,7241638,-56,39,"a71850b36037"
"2020-07-30T11:16:54",1596129414.163,7242049,-63,37,"a71850b36037"
"2020-07-30T11:16:54",1596129414.375,7242261,-57,38,"a71850b36037"
"2020-07-30T11:16:54",1596129414.79,7242676,-60,39,"a71850b36037"
"2020-07-30T11:16:55",1596129415.002,7242888,-60,37,"a71850b36037"
"2020-07-30T11:16:55",1596129415.416,7243302,-58,38,"a71850b36037"
"2020-07-30T11:16:55",1596129415.625,7243511,-58,39,"a71850b36037"
"2020-07-30T11:16:56",1596129416.036,7243922,-58,37,"a71850b36037"
"2020-07-30T11:16:56",1596129416.242,7244128,-58,38,"a71850b36037"
"2020-07-30T11:16:56",1596129416.665,7244551,-59,39,"a71850b36037"
"2020-07-30T11:16:56",1596129416.875,7244761,-59,37,"a71850b36037"
"2020-07-30T11:16:57",1596129417.287,7245173,-58,38,"a71850b36037"
"2020-07-30T11:16:57",1596129417.497,7245383,-58,39,"a71850b36037"
"2020-07-30T11:16:57",1596129417.912,7245798,-59,37,"a71850b36037"
"2020-07-30T11:16:58",1596129418.12,7246006,-57,38,"a71850b36037"
"2020-07-30T11:16:58",1596129418.535,7246421,-58,39,"a71850b36037"
"2020-07-30T11:16:59",1596129419.152,7247038,-58,38,"a71850b36037"
"2020-07-30T11:16:59",1596129419.772,7247658,-59,37,"a71850b36037"
"2020-07-30T11:16:59",1596129419.986,7247872,-58,38,"a71850b36037"
"2020-07-30T11:17:00",1596129420.396,7248282,-59,39,"a71850b36037"
"2020-07-30T11:17:00",1596129420.609,7248495,-58,37,"a71850b36037"
"2020-07-30T11:17:02",1596129422.477,7250363,-60,37,"a71850b36037"
"2020-07-30T11:17:03",1596129423.101,7250987,-58,39,"a71850b36037"
"2020-07-30T11:17:03",1596129423.516,7251402,-59,37,"a71850b36037"
"2020-07-30T11:17:03",1596129423.728,7251614,-59,38,"a71850b36037"
"2020-07-30T11:17:04",1596129424.144,7252030,-58,39,"a71850b36037"
"2020-07-30T11:17:04",1596129424.763,7252649,-58,38,"a71850b36037"
"2020-07-30T11:17:04",1596129424.971,7252857,-58,39,"a71850b36037"
"2020-07-30T11:17:05",1596129425.388,7253274,-58,37,"a71850b36037"
"2020-07-30T11:17:05",1596129425.6,7253486,-58,38,"a71850b36037"
"2020-07-30T11:17:06",1596129426.015,7253901,-58,39,"a71850b36037"
"2020-07-30T11:17:06",1596129426.22,7254106,-59,37,"a71850b36037"
"2020-07-30T11:17:06",1596129426.641,7254527,-58,38,"a71850b36037"
"2020-07-30T11:17:06",1596129426.851,7254737,-58,39,"a71850b36037"
"2020-07-30T11:17:07",1596129427.262,7255148,-59,37,"a71850b36037"
"2020-07-30T11:17:07",1596129427.475,7255361,-58,38,"a71850b36037"
"2020-07-30T11:17:08",1596129428.096,7255982,-58,37,"a71850b36037"
"2020-07-30T11:17:08",1596129428.511,7256397,-58,38,"a71850b36037"
"2020-07-30T11:17:08",1596129428.724,7256610,-58,39,"a71850b36037"
"2020-07-30T11:17:10",1596129430.172,7258058,-59,37,"a71850b36037"
"2020-07-30T11:17:11",1596129431.005,7258891,-58,37,"a71850b36037"
"2020-07-30T11:17:11",1596129431.635,7259521,-58,39,"a71850b36037"
"2020-07-30T11:17:11",1596129431.843,7259729,-58,37,"a71850b36037"
"2020-07-30T11:17:12",1596129432.26,7260146,-58,38,"a71850b36037"
"2020-07-30T11:17:12",1596129432.473,7260359,-58,39,"a71850b36037"
"2020-07-30T11:17:12",1596129432.882,7260768,-59,37,"a71850b36037"
"2020-07-30T11:17:13",1596129433.096,7260982,-58,38,"a71850b36037"
"2020-07-30T11:17:13",1596129433.513,7261399,-58,39,"a71850b36037"
"2020-07-30T11:17:13",1596129433.721,7261607,-59,37,"a71850b36037"
"2020-07-30T11:17:14",1596129434.128,7262014,-58,38,"a71850b36037"
"2020-07-30T11:17:14",1596129434.763,7262649,-58,37,"a71850b36037"
"2020-07-30T11:17:15",1596129435.8,7263686,-59,37,"a71850b36037"
"2020-07-30T11:17:16",1596129436.006,7263892,-58,38,"a71850b36037"
"2020-07-30T11:17:16",1596129436.215,7264101,-58,39,"a71850b36037"
"2020-07-30T11:17:16",1596129436.63,7264516,-58,37,"a71850b36037"
"2020-07-30T11:17:16",1596129436.839,7264725,-58,38,"a71850b36037"
"2020-07-30T11:17:17",1596129437.047,7264933,-58,38,"a71850b36037"
"2020-07-30T11:17:17",1596129437.257,7265143,-58,39,"a71850b36037"
"2020-07-30T11:17:17",1596129437.466,7265352,-58,37,"a71850b36037"
"2020-07-30T11:17:17",1596129437.883,7265769,-58,38,"a71850b36037"
"2020-07-30T11:17:18",1596129438.503,7266389,-58,37,"a71850b36037"
"2020-07-30T11:17:19",1596129439.133,7267019,-58,39,"a71850b36037"
"2020-07-30T11:17:19",1596129439.341,7267227,-59,37,"a71850b36037"
"2020-07-30T11:17:19",1596129439.761,7267647,-58,38,"a71850b36037"
"2020-07-30T11:17:19",1596129439.97,7267856,-58,39,"a71850b36037"
"2020-07-30T11:17:20",1596129440.382,7268268,-58,37,"a71850b36037"
"2020-07-30T11:17:20",1596129440.796,7268682,-58,38,"a71850b36037"
"2020-07-30T11:17:21",1596129441.003,7268889,-58,39,"a71850b36037"
"2020-07-30T11:17:21",1596129441.218,7269104,-58,37,"a71850b36037"
"2020-07-30T11:17:21",1596129441.423,7269309,-58,37,"a71850b36037"
"2020-07-30T11:17:21",1596129441.625,7269511,-58,38,"a71850b36037"
"2020-07-30T11:17:22",1596129442.043,7269929,-58,39,"a71850b36037"
"2020-07-30T11:17:22",1596129442.249,7270135,-58,37,"a71850b36037"
"2020-07-30T11:17:22",1596129442.67,7270556,-58,38,"a71850b36037"
"2020-07-30T11:17:22",1596129442.878,7270764,-58,39,"a71850b36037"
"2020-07-30T11:17:23",1596129443.091,7270977,-59,37,"a71850b36037"
"2020-07-30T11:17:23",1596129443.499,7271385,-58,38,"a71850b36037"
"2020-07-30T11:17:23",1596129443.918,7271804,-58,39,"a71850b36037"
"2020-07-30T11:17:24",1596129444.123,7272009,-59,37,"a71850b36037"
"2020-07-30T11:17:24",1596129444.742,7272628,-58,39,"a71850b36037"
"2020-07-30T11:17:25",1596129445.164,7273050,-59,37,"a71850b36037"
"2020-07-30T11:17:25",1596129445.375,7273261,-58,38,"a71850b36037"
"2020-07-30T11:17:25",1596129445.786,7273672,-58,39,"a71850b36037"
"2020-07-30T11:17:25",1596129445.995,7273881,-58,37,"a71850b36037"
"2020-07-30T11:17:26",1596129446.414,7274300,-58,38,"a71850b36037"
"2020-07-30T11:17:26",1596129446.617,7274503,-58,39,"a71850b36037"
"2020-07-30T11:17:27",1596129447.041,7274927,-59,37,"a71850b36037"
"2020-07-30T11:17:28",1596129448.293,7276179,-58,38,"a71850b36037"
"2020-07-30T11:17:28",1596129448.497,7276383,-60,39,"a71850b36037"
"2020-07-30T11:17:28",1596129448.917,7276803,-59,37,"a71850b36037"
"2020-07-30T11:17:29",1596129449.121,7277007,-58,38,"a71850b36037"
"2020-07-30T11:17:29",1596129449.54,7277426,-57,39,"a71850b36037"
"2020-07-30T11:17:29",1596129449.745,7277631,-58,37,"a71850b36037"
"2020-07-30T11:17:30",1596129450.162,7278048,-58,38,"a71850b36037"
"2020-07-30T11:17:32",1596129452.238,7280124,-58,39,"a71850b36037"
"2020-07-30T11:17:32",1596129452.654,7280540,-58,37,"a71850b36037"
"2020-07-30T11:17:32",1596129452.857,7280743,-58,38,"a71850b36037"
"2020-07-30T11:17:33",1596129453.267,7281153,-58,39,"a71850b36037"
"2020-07-30T11:17:33",1596129453.478,7281364,-58,37,"a71850b36037"
"2020-07-30T11:17:34",1596129454.107,7281993,-58,39,"a71850b36037"
"2020-07-30T11:17:34",1596129454.519,7282405,-59,37,"a71850b36037"
"2020-07-30T11:17:34",1596129454.724,7282610,-58,38,"a71850b36037"
"2020-07-30T11:17:35",1596129455.14,7283026,-57,39,"a71850b36037"
"2020-07-30T11:17:35",1596129455.354,7283240,-60,37,"a71850b36037"
"2020-07-30T11:17:35",1596129455.768,7283654,-58,38,"a71850b36037"
"2020-07-30T11:17:35",1596129455.973,7283859,-57,39,"a71850b36037"
"2020-07-30T11:17:36",1596129456.385,7284271,-64,37,"a71850b36037"
"2020-07-30T11:17:37",1596129457.014,7284900,-63,39,"a71850b36037"
"2020-07-30T11:17:37",1596129457.636,7285522,-58,38,"a71850b36037"
"2020-07-30T11:17:37",1596129457.847,7285733,-58,39,"a71850b36037"
"2020-07-30T11:17:38",1596129458.264,7286150,-58,37,"a71850b36037"
"2020-07-30T11:17:39",1596129459.508,7287394,-58,38,"a71850b36037"
"2020-07-30T11:17:40",1596129460.746,7288632,-58,39,"a71850b36037"
"2020-07-30T11:17:41",1596129461.366,7289252,-58,38,"a71850b36037"
"2020-07-30T11:17:41",1596129461.576,7289462,-58,39,"a71850b36037"
"2020-07-30T11:17:41",1596129461.994,7289880,-58,37,"a71850b36037"
"2020-07-30T11:17:42",1596129462.203,7290089,-58,38,"a71850b36037"
"2020-07-30T11:17:42",1596129462.62,7290506,-58,39,"a71850b36037"
"2020-07-30T11:17:43",1596129463.233,7291119,-58,38,"a71850b36037"
"2020-07-30T11:17:43",1596129463.447,7291333,-58,39,"a71850b36037"
"2020-07-30T11:17:43",1596129463.857,7291743,-59,37,"a71850b36037"
"2020-07-30T11:17:44",1596129464.064,7291950,-58,38,"a71850b36037"
"2020-07-30T11:17:45",1596129465.723,7293609,-58,37,"a71850b36037"
"2020-07-30T11:17:46",1596129466.344,7294230,-58,39,"a71850b36037"
"2020-07-30T11:17:47",1596129467.809,7295695,-58,38,"a71850b36037"
"2020-07-30T11:17:48",1596129468.226,7296112,-58,39,"a71850b36037"
"2020-07-30T11:17:48",1596129468.431,7296317,-58,37,"a71850b36037"
"2020-07-30T11:17:49",1596129469.679,7297565,-57,38,"a71850b36037"
"2020-07-30T11:17:50",1596129470.103,7297989,-57,39,"a71850b36037"
"2020-07-30T11:17:50",1596129470.716,7298602,-58,38,"a71850b36037"
"2020-07-30T11:17:50",1596129470.932,7298818,-58,39,"a71850b36037"
"2020-07-30T11:17:51",1596129471.338,7299224,-60,37,"a71850b36037"
"2020-07-30T11:17:51",1596129471.55,7299436,-59,38,"a71850b36037"
"2020-07-30T11:17:51",1596129471.968,7299854,-59,39,"a71850b36037"
"2020-07-30T11:17:52",1596129472.794,7300680,-58,39,"a71850b36037"
"2020-07-30T11:17:53",1596129473.211,7301097,-58,37,"a71850b36037"
"2020-07-30T11:17:53",1596129473.423,7301309,-58,38,"a71850b36037"
"2020-07-30T11:17:53",1596129473.842,7301728,-58,39,"a71850b36037"
"2020-07-30T11:17:54",1596129474.049,7301935,-58,37,"a71850b36037"
"2020-07-30T11:17:54",1596129474.459,7302345,-57,38,"a71850b36037"
"2020-07-30T11:17:54",1596129474.674,7302560,-58,39,"a71850b36037"
"2020-07-30T11:17:55",1596129475.086,7302972,-58,37,"a71850b36037"
"2020-07-30T11:17:55",1596129475.294,7303180,-57,38,"a71850b36037"
"2020-07-30T11:17:55",1596129475.705,7303591,-58,39,"a71850b36037"
"2020-07-30T11:17:56",1596129476.324,7304210,-58,38,"a71850b36037"
"2020-07-30T11:17:56",1596129476.945,7304831,-58,37,"a71850b36037"
"2020-07-30T11:17:57",1596129477.565,7305451,-58,39,"a71850b36037"
"2020-07-30T11:17:57",1596129477.778,7305664,-58,37,"a71850b36037"
"2020-07-30T11:17:58",1596129478.194,7306080,-57,38,"a71850b36037"
"2020-07-30T11:17:58",1596129478.403,7306289,-58,39,"a71850b36037"
"2020-07-30T11:17:58",1596129478.814,7306700,-58,37,"a71850b36037"
"2020-07-30T11:17:59",1596129479.233,7307119,-57,38,"a71850b36037"
"2020-07-30T11:17:59",1596129479.442,7307328,-58,39,"a71850b36037"
"2020-07-30T11:17:59",1596129479.862,7307748,-58,37,"a71850b36037"
"2020-07-30T11:18:00",1596129480.067,7307953,-57,38,"a71850b36037"
"2020-07-30T11:18:00",1596129480.484,7308370,-58,39,"a71850b36037"
"2020-07-30T11:18:01",1596129481.316,7309202,-58,39,"a71850b36037"
"2020-07-30T11:18:01",1596129481.943,7309829,-57,38,"a71850b36037"
"2020-07-30T11:18:02",1596129482.153,7310039,-58,39,"a71850b36037"
"2020-07-30T11:18:02",1596129482.361,7310247,-58,39,"a71850b36037"
"2020-07-30T11:18:02",1596129482.568,7310454,-58,37,"a71850b36037"
"2020-07-30T11:18:02",1596129482.778,7310664,-57,38,"a71850b36037"
"2020-07-30T11:18:02",1596129482.986,7310872,-57,38,"a71850b36037"
"2020-07-30T11:18:03",1596129483.188,7311074,-58,39,"a71850b36037"
"2020-07-30T11:18:03",1596129483.607,7311493,-58,37,"a71850b36037"
"2020-07-30T11:18:03",1596129483.816,7311702,-57,38,"a71850b36037"
"2020-07-30T11:18:04",1596129484.234,7312120,-58,39,"a71850b36037"
"2020-07-30T11:18:04",1596129484.859,7312745,-57,38,"a71850b36037"
"2020-07-30T11:18:05",1596129485.069,7312955,-58,39,"a71850b36037"
"2020-07-30T11:18:05",1596129485.687,7313573,-57,38,"a71850b36037"
"2020-07-30T11:18:06",1596129486.316,7314202,-58,37,"a71850b36037"
"2020-07-30T11:18:06",1596129486.735,7314621,-57,38,"a71850b36037"
"2020-07-30T11:18:06",1596129486.94,7314826,-58,39,"a71850b36037"
"2020-07-30T11:18:07",1596129487.153,7315039,-58,37,"a71850b36037"
"2020-07-30T11:18:07",1596129487.565,7315451,-57,38,"a71850b36037"
"2020-07-30T11:18:07",1596129487.779,7315665,-58,39,"a71850b36037"
"2020-07-30T11:18:08",1596129488.183,7316069,-58,37,"a71850b36037"
"2020-07-30T11:18:08",1596129488.607,7316493,-57,38,"a71850b36037"
"2020-07-30T11:18:08",1596129488.813,7316699,-58,39,"a71850b36037"
"2020-07-30T11:18:09",1596129489.231,7317117,-58,37,"a71850b36037"
"2020-07-30T11:18:09",1596129489.438,7317324,-57,38,"a71850b36037"
"2020-07-30T11:18:09",1596129489.858,7317744,-58,39,"a71850b36037"
"2020-07-30T11:18:10",1596129490.06,7317946,-58,37,"a71850b36037"
"2020-07-30T11:18:10",1596129490.482,7318368,-57,38,"a71850b36037"
"2020-07-30T11:18:10",1596129490.688,7318574,-58,39,"a71850b36037"
"2020-07-30T11:18:11",1596129491.104,7318990,-58,37,"a71850b36037"
"2020-07-30T11:18:11",1596129491.305,7319191,-57,38,"a71850b36037"
"2020-07-30T11:18:11",1596129491.728,7319614,-58,39,"a71850b36037"
"2020-07-30T11:18:11",1596129491.929,7319815,-58,37,"a71850b36037"
"2020-07-30T11:18:12",1596129492.354,7320240,-57,38,"a71850b36037"
"2020-07-30T11:18:12",1596129492.554,7320440,-58,39,"a71850b36037"
"2020-07-30T11:18:12",1596129492.971,7320857,-58,37,"a71850b36037"
"2020-07-30T11:18:13",1596129493.179,7321065,-57,38,"a71850b36037"
"2020-07-30T11:18:13",1596129493.599,7321485,-58,39,"a71850b36037"
"2020-07-30T11:18:13",1596129493.805,7321691,-58,37,"a71850b36037"
"2020-07-30T11:18:14",1596129494.228,7322114,-57,38,"a71850b36037"
"2020-07-30T11:18:14",1596129494.849,7322735,-58,37,"a71850b36037"
"2020-07-30T11:18:15",1596129495.059,7322945,-57,38,"a71850b36037"
"2020-07-30T11:18:15",1596129495.478,7323364,-58,39,"a71850b36037"
"2020-07-30T11:18:15",1596129495.681,7323567,-58,37,"a71850b36037"
"2020-07-30T11:18:16",1596129496.101,7323987,-57,38,"a71850b36037"
"2020-07-30T11:18:16",1596129496.309,7324195,-58,39,"a71850b36037"
"2020-07-30T11:18:16",1596129496.725,7324611,-58,37,"a71850b36037"
"2020-07-30T11:18:16",1596129496.926,7324812,-57,38,"a71850b36037"
"2020-07-30T11:18:17",1596129497.353,7325239,-58,39,"a71850b36037"
"2020-07-30T11:18:17",1596129497.555,7325441,-58,37,"a71850b36037"
"2020-07-30T11:18:17",1596129497.974,7325860,-57,38,"a71850b36037"
"2020-07-30T11:18:18",1596129498.808,7326694,-57,38,"a71850b36037"
"2020-07-30T11:18:19",1596129499.229,7327115,-58,39,"a71850b36037"
"2020-07-30T11:18:19",1596129499.428,7327314,-58,37,"a71850b36037"
"2020-07-30T11:18:19",1596129499.853,7327739,-57,38,"a71850b36037"
"2020-07-30T11:18:20",1596129500.056,7327942,-58,39,"a71850b36037"
"2020-07-30T11:18:20",1596129500.475,7328361,-58,37,"a71850b36037"
"2020-07-30T11:18:20",1596129500.68,7328566,-57,38,"a71850b36037"
"2020-07-30T11:18:21",1596129501.103,7328989,-58,39,"a71850b36037"
"2020-07-30T11:18:21",1596129501.307,7329193,-58,37,"a71850b36037"
"2020-07-30T11:18:21",1596129501.929,7329815,-58,39,"a71850b36037"
"2020-07-30T11:18:22",1596129502.358,7330244,-58,37,"a71850b36037"
"2020-07-30T11:18:22",1596129502.564,7330450,-57,38,"a71850b36037"
"2020-07-30T11:18:22",1596129502.98,7330866,-58,39,"a71850b36037"
"2020-07-30T11:18:23",1596129503.187,7331073,-58,37,"a71850b36037"
"2020-07-30T11:18:23",1596129503.809,7331695,-58,39,"a71850b36037"
"2020-07-30T11:18:24",1596129504.229,7332115,-58,37,"a71850b36037"
"2020-07-30T11:18:24",1596129504.432,7332318,-57,38,"a71850b36037"
"2020-07-30T11:18:25",1596129505.055,7332941,-58,37,"a71850b36037"
"2020-07-30T11:18:25",1596129505.684,7333570,-58,39,"a71850b36037"
"2020-07-30T11:18:26",1596129506.104,7333990,-58,37,"a71850b36037"
"2020-07-30T11:18:26",1596129506.306,7334192,-57,38,"a71850b36037"
"2020-07-30T11:18:26",1596129506.734,7334620,-58,39,"a71850b36037"
"2020-07-30T11:18:26",1596129506.934,7334820,-58,37,"a71850b36037"
"2020-07-30T11:18:27",1596129507.361,7335247,-57,38,"a71850b36037"
"2020-07-30T11:18:27",1596129507.563,7335449,-58,39,"a71850b36037"
"2020-07-30T11:18:27",1596129507.979,7335865,-58,37,"a71850b36037"
"2020-07-30T11:18:28",1596129508.179,7336065,-58,38,"a71850b36037"
"2020-07-30T11:18:28",1596129508.6,7336486,-57,39,"a71850b36037"
"2020-07-30T11:18:28",1596129508.809,7336695,-58,37,"a71850b36037"
"2020-07-30T11:18:30",1596129510.47,7338356,-58,39,"a71850b36037"
"2020-07-30T11:18:30",1596129510.675,7338561,-58,37,"a71850b36037"
"2020-07-30T11:18:31",1596129511.095,7338981,-71,38,"a71850b36037"
"2020-07-30T11:18:31",1596129511.296,7339182,-66,39,"a71850b36037"
"2020-07-30T11:18:32",1596129512.555,7340441,-83,37,"a71850b36037"
"2020-07-30T11:18:32",1596129512.975,7340861,-76,38,"a71850b36037"
"2020-07-30T11:18:33",1596129513.177,7341063,-80,39,"a71850b36037"
"2020-07-30T11:18:33",1596129513.593,7341479,-78,37,"a71850b36037"
"2020-07-30T11:18:34",1596129514.22,7342106,-79,39,"a71850b36037"
"2020-07-30T11:18:34",1596129514.422,7342308,-77,37,"a71850b36037"
"2020-07-30T11:18:34",1596129514.844,7342730,-75,38,"a71850b36037"
"2020-07-30T11:18:35",1596129515.455,7343341,-79,37,"a71850b36037"
"2020-07-30T11:18:35",1596129515.666,7343552,-77,38,"a71850b36037"
"2020-07-30T11:18:36",1596129516.08,7343966,-80,39,"a71850b36037"
"2020-07-30T11:18:36",1596129516.292,7344178,-78,37,"a71850b36037"
"2020-07-30T11:18:36",1596129516.703,7344589,-76,38,"a71850b36037"
"2020-07-30T11:18:36",1596129516.917,7344803,-81,39,"a71850b36037"
"2020-07-30T11:18:37",1596129517.331,7345217,-77,37,"a71850b36037"
"2020-07-30T11:18:37",1596129517.538,7345424,-78,38,"a71850b36037"
"2020-07-30T11:18:38",1596129518.577,7346463,-75,38,"a71850b36037"
"2020-07-30T11:18:38",1596129518.787,7346673,-73,39,"a71850b36037"
"2020-07-30T11:18:39",1596129519.195,7347081,-69,37,"a71850b36037"
"2020-07-30T11:18:39",1596129519.408,7347294,-68,38,"a71850b36037"
"2020-07-30T11:18:39",1596129519.821,7347707,-76,39,"a71850b36037"
"2020-07-30T11:18:40",1596129520.036,7347922,-71,37,"a71850b36037"
"2020-07-30T11:18:40",1596129520.455,7348341,-71,38,"a71850b36037"
"2020-07-30T11:18:40",1596129520.66,7348546,-74,39,"a71850b36037"
"2020-07-30T11:18:41",1596129521.068,7348954,-69,37,"a71850b36037"
"2020-07-30T11:18:41",1596129521.279,7349165,-70,38,"a71850b36037"
"2020-07-30T11:18:41",1596129521.705,7349591,-75,39,"a71850b36037"
"2020-07-30T11:18:41",1596129521.915,7349801,-70,37,"a71850b36037"
"2020-07-30T11:18:42",1596129522.325,7350211,-68,38,"a71850b36037"
"2020-07-30T11:18:42",1596129522.539,7350425,-72,39,"a71850b36037"
"2020-07-30T11:18:42",1596129522.95,7350836,-70,37,"a71850b36037"
"2020-07-30T11:18:43",1596129523.155,7351041,-68,38,"a71850b36037"
"2020-07-30T11:18:43",1596129523.573,7351459,-81,39,"a71850b36037"
"2020-07-30T11:18:43",1596129523.785,7351671,-71,37,"a71850b36037"
"2020-07-30T11:18:44",1596129524.196,7352082,-70,38,"a71850b36037"
"2020-07-30T11:18:44",1596129524.41,7352296,-80,39,"a71850b36037"
"2020-07-30T11:18:44",1596129524.825,7352711,-71,37,"a71850b36037"
"2020-07-30T11:18:45",1596129525.035,7352921,-70,38,"a71850b36037"
"2020-07-30T11:18:45",1596129525.441,7353327,-78,39,"a71850b36037"
"2020-07-30T11:18:45",1596129525.651,7353537,-69,37,"a71850b36037"
"2020-07-30T11:18:46",1596129526.073,7353959,-69,38,"a71850b36037"
"2020-07-30T11:18:46",1596129526.281,7354167,-76,39,"a71850b36037"
"2020-07-30T11:18:46",1596129526.697,7354583,-70,37,"a71850b36037"
"2020-07-30T11:18:46",1596129526.906,7354792,-69,38,"a71850b36037"
"2020-07-30T11:18:47",1596129527.321,7355207,-77,39,"a71850b36037"
"2020-07-30T11:18:47",1596129527.531,7355417,-70,37,"a71850b36037"
"2020-07-30T11:18:47",1596129527.948,7355834,-69,38,"a71850b36037"
"2020-07-30T11:18:48",1596129528.779,7356665,-69,38,"a71850b36037"
"2020-07-30T11:18:49",1596129529.417,7357303,-70,37,"a71850b36037"
"2020-07-30T11:18:49",1596129529.827,7357713,-68,38,"a71850b36037"
"2020-07-30T11:18:50",1596129530.035,7357921,-75,39,"a71850b36037"
"2020-07-30T11:18:50",1596129530.449,7358335,-70,37,"a71850b36037"
"2020-07-30T11:18:50",1596129530.66,7358546,-68,38,"a71850b36037"
"2020-07-30T11:18:51",1596129531.073,7358959,-75,39,"a71850b36037"
"2020-07-30T11:18:51",1596129531.285,7359171,-69,37,"a71850b36037"
"2020-07-30T11:18:51",1596129531.696,7359582,-68,38,"a71850b36037"
"2020-07-30T11:18:51",1596129531.905,7359791,-75,39,"a71850b36037"
"2020-07-30T11:18:52",1596129532.328,7360214,-69,37,"a71850b36037"
"2020-07-30T11:18:52",1596129532.948,7360834,-74,39,"a71850b36037"
"2020-07-30T11:18:53",1596129533.158,7361044,-69,37,"a71850b36037"
"2020-07-30T11:18:53",1596129533.576,7361462,-68,38,"a71850b36037"
"2020-07-30T11:18:53",1596129533.785,7361671,-74,39,"a71850b36037"
"2020-07-30T11:18:54",1596129534.2,7362086,-81,37,"a71850b36037"
"2020-07-30T11:18:54",1596129534.405,7362291,-75,38,"a71850b36037"
"2020-07-30T11:18:54",1596129534.821,7362707,-71,39,"a71850b36037"
"2020-07-30T11:18:55",1596129535.031,7362917,-69,37,"a71850b36037"
"2020-07-30T11:18:55",1596129535.448,7363334,-72,38,"a71850b36037"
"2020-07-30T11:18:56",1596129536.075,7363961,-69,37,"a71850b36037"
"2020-07-30T11:18:56",1596129536.698,7364584,-71,39,"a71850b36037"
"2020-07-30T11:18:56",1596129536.904,7364790,-69,37,"a71850b36037"
"2020-07-30T11:18:57",1596129537.319,7365205,-72,38,"a71850b36037"
"2020-07-30T11:18:57",1596129537.529,7365415,-72,39,"a71850b36037"
"2020-07-30T11:18:57",1596129537.953,7365839,-69,37,"a71850b36037"
"2020-07-30T11:18:58",1596129538.161,7366047,-72,38,"a71850b36037"
"2020-07-30T11:18:58",1596129538.574,7366460,-74,39,"a71850b36037"
"2020-07-30T11:18:58",1596129538.779,7366665,-71,37,"a71850b36037"
"2020-07-30T11:18:59",1596129539.19,7367076,-70,38,"a71850b36037"
"2020-07-30T11:18:59",1596129539.819,7367705,-66,37,"a71850b36037"
"2020-07-30T11:19:00",1596129540.028,7367914,-60,38,"a71850b36037"
"2020-07-30T11:19:00",1596129540.442,7368328,-68,39,"a71850b36037"
"2020-07-30T11:19:00",1596129540.655,7368541,-61,37,"a71850b36037"
"2020-07-30T11:19:01",1596129541.069,7368955,-58,38,"a71850b36037"
"2020-07-30T11:19:01",1596129541.281,7369167,-58,39,"a71850b36037"
"2020-07-30T11:19:01",1596129541.693,7369579,-58,37,"a71850b36037"
"2020-07-30T11:19:01",1596129541.9,7369786,-57,38,"a71850b36037"
"2020-07-30T11:19:02",1596129542.525,7370411,-58,37,"a71850b36037"
"2020-07-30T11:19:03",1596129543.151,7371037,-58,39,"a71850b36037"
"2020-07-30T11:19:03",1596129543.564,7371450,-58,37,"a71850b36037"
"2020-07-30T11:19:03",1596129543.772,7371658,-57,38,"a71850b36037"
"2020-07-30T11:19:04",1596129544.193,7372079,-58,39,"a71850b36037"
"2020-07-30T11:19:04",1596129544.397,7372283,-58,37,"a71850b36037"
"2020-07-30T11:19:04",1596129544.812,7372698,-57,38,"a71850b36037"
"2020-07-30T11:19:05",1596129545.025,7372911,-57,39,"a71850b36037"
"2020-07-30T11:19:05",1596129545.435,7373321,-58,37,"a71850b36037"
"2020-07-30T11:19:05",1596129545.648,7373534,-57,38,"a71850b36037"
"2020-07-30T11:19:06",1596129546.271,7374157,-58,37,"a71850b36037"
"2020-07-30T11:19:06",1596129546.69,7374576,-57,38,"a71850b36037"
"2020-07-30T11:19:06",1596129546.9,7374786,-58,39,"a71850b36037"
"2020-07-30T11:19:07",1596129547.313,7375199,-58,37,"a71850b36037"
"2020-07-30T11:19:07",1596129547.526,7375412,-57,38,"a71850b36037"
"2020-07-30T11:19:07",1596129547.936,7375822,-58,39,"a71850b36037"
"2020-07-30T11:19:08",1596129548.148,7376034,-58,37,"a71850b36037"
"2020-07-30T11:19:08",1596129548.562,7376448,-57,38,"a71850b36037"
"2020-07-30T11:19:08",1596129548.775,7376661,-58,39,"a71850b36037"
"2020-07-30T11:19:09",1596129549.194,7377080,-58,37,"a71850b36037"
"2020-07-30T11:19:09",1596129549.401,7377287,-57,38,"a71850b36037"
"2020-07-30T11:19:10",1596129550.025,7377911,-58,37,"a71850b36037"
"2020-07-30T11:19:10",1596129550.445,7378331,-57,38,"a71850b36037"
"2020-07-30T11:19:11",1596129551.068,7378954,-58,37,"a71850b36037"
"2020-07-30T11:19:11",1596129551.276,7379162,-57,38,"a71850b36037"
"2020-07-30T11:19:11",1596129551.688,7379574,-58,39,"a71850b36037"
"2020-07-30T11:19:11",1596129551.897,7379783,-58,37,"a71850b36037"
"2020-07-30T11:19:12",1596129552.312,7380198,-57,38,"a71850b36037"
"2020-07-30T11:19:12",1596129552.526,7380412,-58,39,"a71850b36037"
"2020-07-30T11:19:12",1596129552.94,7380826,-58,37,"a71850b36037"
"2020-07-30T11:19:13",1596129553.153,7381039,-57,38,"a71850b36037"
"2020-07-30T11:19:13",1596129553.569,7381455,-57,39,"a71850b36037"
"2020-07-30T11:19:14",1596129554.191,7382077,-57,38,"a71850b36037"
"2020-07-30T11:19:14",1596129554.401,7382287,-58,39,"a71850b36037"
"2020-07-30T11:19:14",1596129554.816,7382702,-61,37,"a71850b36037"
"2020-07-30T11:19:15",1596129555.03,7382916,-59,38,"a71850b36037"
"2020-07-30T11:19:15",1596129555.448,7383334,-58,39,"a71850b36037"
"2020-07-30T11:19:15",1596129555.655,7383541,-58,37,"a71850b36037"
"2020-07-30T11:19:16",1596129556.068,7383954,-58,38,"a71850b36037"
"2020-07-30T11:19:16",1596129556.283,7384169,-59,39,"a71850b36037"
"2020-07-30T11:19:16",1596129556.693,7384579,-59,37,"a71850b36037"
"2020-07-30T11:19:16",1596129556.9,7384786,-57,38,"a71850b36037"
"2020-07-30T11:19:17",1596129557.317,7385203,-57,39,"a71850b36037"
"2020-07-30T11:19:17",1596129557.946,7385832,-57,38,"a71850b36037"
"2020-07-30T11:19:19",1596129559.201,7387087,-57,39,"a71850b36037"
"2020-07-30T11:19:19",1596129559.416,7387302,-57,37,"a71850b36037"
"2020-07-30T11:19:19",1596129559.831,7387717,-57,38,"a71850b36037"
"2020-07-30T11:19:20",1596129560.04,7387926,-57,39,"a71850b36037"
"2020-07-30T11:19:20",1596129560.451,7388337,-58,37,"a71850b36037"
"2020-07-30T11:19:20",1596129560.662,7388548,-62,38,"a71850b36037"
"2020-07-30T11:19:21",1596129561.079,7388965,-62,39,"a71850b36037"
"2020-07-30T11:19:21",1596129561.286,7389172,-62,37,"a71850b36037"
"2020-07-30T11:19:21",1596129561.701,7389587,-57,38,"a71850b36037"
"2020-07-30T11:19:22",1596129562.539,7390425,-57,38,"a71850b36037"
"2020-07-30T11:19:23",1596129563.577,7391463,-57,38,"a71850b36037"
"2020-07-30T11:19:23",1596129563.784,7391670,-58,39,"a71850b36037"
"2020-07-30T11:19:24",1596129564.205,7392091,-58,37,"a71850b36037"
"2020-07-30T11:19:24",1596129564.409,7392295,-57,38,"a71850b36037"
"2020-07-30T11:19:24",1596129564.824,7392710,-58,39,"a71850b36037"
"2020-07-30T11:19:25",1596129565.031,7392917,-58,37,"a71850b36037"
"2020-07-30T11:19:26",1596129566.706,7394592,-58,39,"a71850b36037"
"2020-07-30T11:19:27",1596129567.34,7395226,-57,38,"a71850b36037"
"2020-07-30T11:19:27",1596129567.546,7395432,-57,39,"a71850b36037"
"2020-07-30T11:19:28",1596129568.58,7396466,-58,39,"a71850b36037"
"2020-07-30T11:19:28",1596129568.791,7396677,-58,37,"a71850b36037"
"2020-07-30T11:19:29",1596129569.203,7397089,-57,38,"a71850b36037"
"2020-07-30T11:19:29",1596129569.416,7397302,-58,39,"a71850b36037"
"2020-07-30T11:19:30",1596129570.445,7398331,-58,39,"a71850b36037"
"2020-07-30T11:19:30",1596129570.658,7398544,-58,37,"a71850b36037"
"2020-07-30T11:19:31",1596129571.077,7398963,-57,38,"a71850b36037"
"2020-07-30T11:19:31",1596129571.281,7399167,-57,39,"a71850b36037"
"2020-07-30T11:19:31",1596129571.694,7399580,-58,37,"a71850b36037"
"2020-07-30T11:19:31",1596129571.906,7399792,-57,38,"a71850b36037"
"2020-07-30T11:19:32",1596129572.324,7400210,-58,39,"a71850b36037"
"2020-07-30T11:19:32",1596129572.535,7400421,-58,37,"a71850b36037"
"2020-07-30T11:19:33",1596129573.78,7401666,-57,38,"a71850b36037"
"2020-07-30T11:19:34",1596129574.199,7402085,-58,39,"a71850b36037"
"2020-07-30T11:19:34",1596129574.411,7402297,-58,37,"a71850b36037"
"2020-07-30T11:19:34",1596129574.823,7402709,-57,38,"a71850b36037"
"2020-07-30T11:19:35",1596129575.029,7402915,-58,39,"a71850b36037"
"2020-07-30T11:19:35",1596129575.442,7403328,-58,37,"a71850b36037"
"2020-07-30T11:19:35",1596129575.651,7403537,-57,38,"a71850b36037"
"2020-07-30T11:19:36",1596129576.069,7403955,-57,39,"a71850b36037"
"2020-07-30T11:19:36",1596129576.276,7404162,-58,37,"a71850b36037"
"2020-07-30T11:19:36",1596129576.906,7404792,-58,39,"a71850b36037"
"2020-07-30T11:19:37",1596129577.32,7405206,-58,37,"a71850b36037"
"2020-07-30T11:19:37",1596129577.526,7405412,-57,38,"a71850b36037"
"2020-07-30T11:19:37",1596129577.943,7405829,-57,39,"a71850b36037"
"2020-07-30T11:19:38",1596129578.158,7406044,-58,37,"a71850b36037"
"2020-07-30T11:19:38",1596129578.568,7406454,-57,38,"a71850b36037"
"2020-07-30T11:19:38",1596129578.781,7406667,-58,39,"a71850b36037"
"2020-07-30T11:19:39",1596129579.189,7407075,-58,37,"a71850b36037"
"2020-07-30T11:19:39",1596129579.396,7407282,-57,38,"a71850b36037"
"2020-07-30T11:19:41",1596129581.068,7408954,-58,37,"a71850b36037"
"2020-07-30T11:19:41",1596129581.276,7409162,-57,38,"a71850b36037"
"2020-07-30T11:19:41",1596129581.687,7409573,-57,39,"a71850b36037"
"2020-07-30T11:19:41",1596129581.901,7409787,-58,37,"a71850b36037"
"2020-07-30T11:19:42",1596129582.317,7410203,-61,38,"a71850b36037"
"2020-07-30T11:19:42",1596129582.524,7410410,-61,39,"a71850b36037"
"2020-07-30T11:19:43",1596129583.151,7411037,-58,38,"a71850b36037"
"2020-07-30T11:19:43",1596129583.776,7411662,-60,37,"a71850b36037"
"2020-07-30T11:19:44",1596129584.186,7412072,-54,38,"a71850b36037"
"2020-07-30T11:19:44",1596129584.4,7412286,-59,39,"a71850b36037"
"2020-07-30T11:19:44",1596129584.813,7412699,-61,37,"a71850b36037"
"2020-07-30T11:19:45",1596129585.019,7412905,-57,38,"a71850b36037"
"2020-07-30T11:19:45",1596129585.441,7413327,-61,39,"a71850b36037"
"2020-07-30T11:19:45",1596129585.648,7413534,-59,37,"a71850b36037"
"2020-07-30T11:19:46",1596129586.9,7414786,-57,38,"a71850b36037"
"2020-07-30T11:19:47",1596129587.521,7415407,-58,37,"a71850b36037"
"2020-07-30T11:19:47",1596129587.94,7415826,-57,38,"a71850b36037"
"2020-07-30T11:19:48",1596129588.146,7416032,-57,39,"a71850b36037"
"2020-07-30T11:19:48",1596129588.565,7416451,-58,37,"a71850b36037"
"2020-07-30T11:19:48",1596129588.771,7416657,-57,38,"a71850b36037"
"2020-07-30T11:19:49",1596129589.183,7417069,-57,39,"a71850b36037"
"2020-07-30T11:19:49",1596129589.394,7417280,-57,37,"a71850b36037"
"2020-07-30T11:19:49",1596129589.816,7417702,-57,38,"a71850b36037"
"2020-07-30T11:19:51",1596129591.056,7418942,-58,39,"a71850b36037"
"2020-07-30T11:19:51",1596129591.267,7419153,-54,37,"a71850b36037"
"2020-07-30T11:19:51",1596129591.679,7419565,-67,38,"a71850b36037"
"2020-07-30T11:19:51",1596129591.887,7419773,-57,39,"a71850b36037"
"2020-07-30T11:19:52",1596129592.308,7420194,-57,37,"a71850b36037"
"2020-07-30T11:19:52",1596129592.514,7420400,-57,38,"a71850b36037"
"2020-07-30T11:19:53",1596129593.552,7421438,-57,38,"a71850b36037"
"2020-07-30T11:19:53",1596129593.759,7421645,-57,39,"a71850b36037"
"2020-07-30T11:19:54",1596129594.176,7422062,-59,37,"a71850b36037"
"2020-07-30T11:19:54",1596129594.387,7422273,-58,38,"a71850b36037"
"2020-07-30T11:19:54",1596129594.802,7422688,-58,39,"a71850b36037"
"2020-07-30T11:19:55",1596129595.007,7422893,-58,37,"a71850b36037"
"2020-07-30T11:19:55",1596129595.427,7423313,-57,38,"a71850b36037"
"2020-07-30T11:19:55",1596129595.635,7423521,-57,39,"a71850b36037"
"2020-07-30T11:19:56",1596129596.05,7423936,-57,37,"a71850b36037"
"2020-07-30T11:19:56",1596129596.262,7424148,-57,38,"a71850b36037"
"2020-07-30T11:19:56",1596129596.672,7424558,-57,39,"a71850b36037"
"2020-07-30T11:19:56",1596129596.887,7424773,-58,37,"a71850b36037"
"2020-07-30T11:19:57",1596129597.297,7425183,-57,38,"a71850b36037"
"2020-07-30T11:19:57",1596129597.504,7425390,-58,39,"a71850b36037"
"2020-07-30T11:19:57",1596129597.923,7425809,-58,37,"a71850b36037"
"2020-07-30T11:19:58",1596129598.128,7426014,-58,38,"a71850b36037"
"2020-07-30T11:19:58",1596129598.543,7426429,-57,39,"a71850b36037"
"2020-07-30T11:19:58",1596129598.756,7426642,-58,37,"a71850b36037"
"2020-07-30T11:19:59",1596129599.17,7427056,-58,38,"a71850b36037"
"2020-07-30T11:19:59",1596129599.382,7427268,-58,39,"a71850b36037"
"2020-07-30T11:19:59",1596129599.797,7427683,-57,37,"a71850b36037"
"2020-07-30T11:20:00",1596129600.01,7427896,-60,38,"a71850b36037"
"2020-07-30T11:20:00",1596129600.418,7428304,-60,39,"a71850b36037"
"2020-07-30T11:20:00",1596129600.627,7428513,-59,37,"a71850b36037"
"2020-07-30T11:20:01",1596129601.041,7428927,-57,38,"a71850b36037"
"2020-07-30T11:20:01",1596129601.251,7429137,-57,39,"a71850b36037"
"2020-07-30T11:20:01",1596129601.661,7429547,-57,37,"a71850b36037"
"2020-07-30T11:20:01",1596129601.873,7429759,-57,38,"a71850b36037"
"2020-07-30T11:20:02",1596129602.288,7430174,-57,39,"a71850b36037"
"2020-07-30T11:20:02",1596129602.499,7430385,-58,37,"a71850b36037"
"2020-07-30T11:20:02",1596129602.911,7430797,-57,38,"a71850b36037"
"2020-07-30T11:20:03",1596129603.547,7431433,-58,37,"a71850b36037"
"2020-07-30T11:20:03",1596129603.757,7431643,-57,38,"a71850b36037"
"2020-07-30T11:20:04",1596129604.171,7432057,-58,39,"a71850b36037"
"2020-07-30T11:20:04",1596129604.382,7432268,-58,37,"a71850b36037"
"2020-07-30T11:20:04",1596129604.8,7432686,-57,38,"a71850b36037"
"2020-07-30T11:20:05",1596129605.418,7433304,-58,37,"a71850b36037"
"2020-07-30T11:20:05",1596129605.626,7433512,-57,38,"a71850b36037"
"2020-07-30T11:20:06",1596129606.247,7434133,-58,37,"a71850b36037"
"2020-07-30T11:20:06",1596129606.657,7434543,-57,38,"a71850b36037"
"2020-07-30T11:20:06",1596129606.871,7434757,-57,39,"a71850b36037"
"2020-07-30T11:20:07",1596129607.284,7435170,-58,37,"a71850b36037"
"2020-07-30T11:20:07",1596129607.499,7435385,-57,38,"a71850b36037"
"2020-07-30T11:20:07",1596129607.909,7435795,-57,39,"a71850b36037"
"2020-07-30T11:20:08",1596129608.114,7436000,-58,37,"a71850b36037"
"2020-07-30T11:20:08",1596129608.536,7436422,-57,38,"a71850b36037"
"2020-07-30T11:20:08",1596129608.749,7436635,-57,39,"a71850b36037"
"2020-07-30T11:20:09",1596129609.163,7437049,-58,37,"a71850b36037"
"2020-07-30T11:20:09",1596129609.37,7437256,-57,38,"a71850b36037"
"2020-07-30T11:20:09",1596129609.787,7437673,-57,39,"a71850b36037"
"2020-07-30T11:20:09",1596129609.997,7437883,-59,37,"a71850b36037"
"2020-07-30T11:20:10",1596129610.417,7438303,-57,38,"a71850b36037"
"2020-07-30T11:20:10",1596129610.627,7438513,-58,39,"a71850b36037"
"2020-07-30T11:20:11",1596129611.036,7438922,-57,37,"a71850b36037"
"2020-07-30T11:20:11",1596129611.245,7439131,-57,38,"a71850b36037"
"2020-07-30T11:20:11",1596129611.661,7439547,-58,39,"a71850b36037"
"2020-07-30T11:20:11",1596129611.871,7439757,-57,37,"a71850b36037"
"2020-07-30T11:20:12",1596129612.291,7440177,-58,38,"a71850b36037"
"2020-07-30T11:20:12",1596129612.902,7440788,-58,37,"a71850b36037"
"2020-07-30T11:20:14",1596129614.15,7442036,-57,38,"a71850b36037"
"2020-07-30T11:20:14",1596129614.361,7442247,-58,39,"a71850b36037"
"2020-07-30T11:20:14",1596129614.777,7442663,-58,37,"a71850b36037"
"2020-07-30T11:20:14",1596129614.992,7442878,-57,38,"a71850b36037"
"2020-07-30T11:20:15",1596129615.612,7443498,-58,37,"a71850b36037"
"2020-07-30T11:20:16",1596129616.02,7443906,-57,38,"a71850b36037"
"2020-07-30T11:20:16",1596129616.229,7444115,-57,39,"a71850b36037"
"2020-07-30T11:20:16",1596129616.647,7444533,-58,37,"a71850b36037"
"2020-07-30T11:20:16",1596129616.855,7444741,-57,38,"a71850b36037"
"2020-07-30T11:20:17",1596129617.268,7445154,-58,39,"a71850b36037"
"2020-07-30T11:20:17",1596129617.48,7445366,-58,37,"a71850b36037"
"2020-07-30T11:20:17",1596129617.892,7445778,-58,38,"a71850b36037"
"2020-07-30T11:20:18",1596129618.104,7445990,-57,39,"a71850b36037"
"2020-07-30T11:20:18",1596129618.513,7446399,-58,37,"a71850b36037"
"2020-07-30T11:20:18",1596129618.718,7446604,-56,38,"a71850b36037"
"2020-07-30T11:20:19",1596129619.133,7447019,-57,39,"a71850b36037"
"2020-07-30T11:20:19",1596129619.347,7447233,-57,37,"a71850b36037"
"2020-07-30T11:20:19",1596129619.761,7447647,-57,38,"a71850b36037"
"2020-07-30T11:20:19",1596129619.974,7447860,-57,39,"a71850b36037"
"2020-07-30T11:20:20",1596129620.59,7448476,-57,38,"a71850b36037"
"2020-07-30T11:20:21",1596129621.632,7449518,-57,38,"a71850b36037"
"2020-07-30T11:20:21",1596129621.842,7449728,-57,39,"a71850b36037"
"2020-07-30T11:20:22",1596129622.254,7450140,-57,37,"a71850b36037"
"2020-07-30T11:20:22",1596129622.466,7450352,-57,38,"a71850b36037"
"2020-07-30T11:20:22",1596129622.882,7450768,-57,39,"a71850b36037"
"2020-07-30T11:20:23",1596129623.924,7451810,-57,39,"a71850b36037"
"2020-07-30T11:20:24",1596129624.132,7452018,-58,37,"a71850b36037"
"2020-07-30T11:20:24",1596129624.757,7452643,-58,39,"a71850b36037"
"2020-07-30T11:20:25",1596129625.378,7453264,-57,38,"a71850b36037"
"2020-07-30T11:20:25",1596129625.801,7453687,-58,39,"a71850b36037"
"2020-07-30T11:20:26",1596129626.003,7453889,-58,37,"a71850b36037"
"2020-07-30T11:20:26",1596129626.217,7454103,-57,38,"a71850b36037"
"2020-07-30T11:20:26",1596129626.421,7454307,-57,38,"a71850b36037"
"2020-07-30T11:20:26",1596129626.628,7454514,-58,39,"a71850b36037"
"2020-07-30T11:20:27",1596129627.257,7455143,-57,38,"a71850b36037"
"2020-07-30T11:20:28",1596129628.503,7456389,-58,39,"a71850b36037"
"2020-07-30T11:20:29",1596129629.133,7457019,-57,38,"a71850b36037"
"2020-07-30T11:20:29",1596129629.744,7457630,-59,37,"a71850b36037"
"2020-07-30T11:20:30",1596129630.161,7458047,-58,38,"a71850b36037"
"2020-07-30T11:20:30",1596129630.362,7458248,-57,39,"a71850b36037"
"2020-07-30T11:20:30",1596129630.781,7458667,-59,37,"a71850b36037"
"2020-07-30T11:20:30",1596129630.991,7458877,-57,38,"a71850b36037"
"2020-07-30T11:20:31",1596129631.404,7459290,-58,39,"a71850b36037"
"2020-07-30T11:20:31",1596129631.611,7459497,-58,37,"a71850b36037"
"2020-07-30T11:20:32",1596129632.028,7459914,-57,38,"a71850b36037"
"2020-07-30T11:20:32",1596129632.238,7460124,-57,39,"a71850b36037"
"2020-07-30T11:20:32",1596129632.656,7460542,-58,37,"a71850b36037"
"2020-07-30T11:20:32",1596129632.864,7460750,-57,38,"a71850b36037"
"2020-07-30T11:20:33",1596129633.281,7461167,-57,39,"a71850b36037"
"2020-07-30T11:20:33",1596129633.484,7461370,-58,37,"a71850b36037"
"2020-07-30T11:20:35",1596129635.168,7463054,-57,39,"a71850b36037"
"2020-07-30T11:20:35",1596129635.369,7463255,-58,37,"a71850b36037"
"2020-07-30T11:20:35",1596129635.792,7463678,-57,38,"a71850b36037"
"2020-07-30T11:20:36",1596129636.415,7464301,-58,37,"a71850b36037"
"2020-07-30T11:20:36",1596129636.617,7464503,-57,38,"a71850b36037"
"2020-07-30T11:20:37",1596129637.035,7464921,-57,39,"a71850b36037"
"2020-07-30T11:20:37",1596129637.243,7465129,-58,37,"a71850b36037"
"2020-07-30T11:20:38",1596129638.491,7466377,-58,38,"a71850b36037"
"2020-07-30T11:20:39",1596129639.122,7467008,-58,37,"a71850b36037"
"2020-07-30T11:20:39",1596129639.542,7467428,-58,38,"a71850b36037"
"2020-07-30T11:20:39",1596129639.744,7467630,-57,39,"a71850b36037"
"2020-07-30T11:20:40",1596129640.168,7468054,-57,37,"a71850b36037"
"2020-07-30T11:20:40",1596129640.372,7468258,-59,38,"a71850b36037"
"2020-07-30T11:20:40",1596129640.794,7468680,-57,39,"a71850b36037"
"2020-07-30T11:20:40",1596129640.995,7468881,-61,37,"a71850b36037"
"2020-07-30T11:20:42",1596129642.232,7470118,-57,38,"a71850b36037"
"2020-07-30T11:20:42",1596129642.657,7470543,-57,39,"a71850b36037"
"2020-07-30T11:20:43",1596129643.893,7471779,-59,37,"a71850b36037"
"2020-07-30T11:20:44",1596129644.097,7471983,-57,38,"a71850b36037"
"2020-07-30T11:20:44",1596129644.512,7472398,-58,39,"a71850b36037"
"2020-07-30T11:20:44",1596129644.722,7472608,-58,37,"a71850b36037"
"2020-07-30T11:20:45",1596129645.137,7473023,-57,38,"a71850b36037"
"2020-07-30T11:20:45",1596129645.345,7473231,-57,39,"a71850b36037"
"2020-07-30T11:20:45",1596129645.766,7473652,-57,37,"a71850b36037"
"2020-07-30T11:20:45",1596129645.972,7473858,-57,38,"a71850b36037"
"2020-07-30T11:20:46",1596129646.384,7474270,-58,39,"a71850b36037"
"2020-07-30T11:20:46",1596129646.598,7474484,-58,37,"a71850b36037"
"2020-07-30T11:20:47",1596129647.009,7474895,-57,38,"a71850b36037"
"2020-07-30T11:20:47",1596129647.22,7475106,-57,39,"a71850b36037"
"2020-07-30T11:20:47",1596129647.639,7475525,-58,37,"a71850b36037"
"2020-07-30T11:20:47",1596129647.848,7475734,-57,38,"a71850b36037"
"2020-07-30T11:20:48",1596129648.264,7476150,-57,39,"a71850b36037"
"2020-07-30T11:20:48",1596129648.473,7476359,-58,37,"a71850b36037"
"2020-07-30T11:20:48",1596129648.888,7476774,-57,38,"a71850b36037"
"2020-07-30T11:20:49",1596129649.1,7476986,-57,39,"a71850b36037"
"2020-07-30T11:20:50",1596129650.343,7478229,-58,37,"a71850b36037"
"2020-07-30T11:20:50",1596129650.756,7478642,-57,38,"a71850b36037"
"2020-07-30T11:20:50",1596129650.972,7478858,-57,39,"a71850b36037"
"2020-07-30T11:20:51",1596129651.382,7479268,-58,37,"a71850b36037"
"2020-07-30T11:20:51",1596129651.596,7479482,-57,38,"a71850b36037"
"2020-07-30T11:20:52",1596129652.006,7479892,-57,39,"a71850b36037"
"2020-07-30T11:20:52",1596129652.217,7480103,-58,37,"a71850b36037"
"2020-07-30T11:20:52",1596129652.633,7480519,-57,38,"a71850b36037"
"2020-07-30T11:20:52",1596129652.838,7480724,-57,39,"a71850b36037"
"2020-07-30T11:20:53",1596129653.462,7481348,-57,38,"a71850b36037"
"2020-07-30T11:20:53",1596129653.881,7481767,-63,39,"a71850b36037"
"2020-07-30T11:20:54",1596129654.09,7481976,-61,37,"a71850b36037"
"2020-07-30T11:20:54",1596129654.5,7482386,-57,38,"a71850b36037"
"2020-07-30T11:20:54",1596129654.711,7482597,-56,39,"a71850b36037"
"2020-07-30T11:20:55",1596129655.128,7483014,-57,37,"a71850b36037"
"2020-07-30T11:20:55",1596129655.338,7483224,-57,38,"a71850b36037"
"2020-07-30T11:20:55",1596129655.754,7483640,-57,39,"a71850b36037"
"2020-07-30T11:20:55",1596129655.958,7483844,-57,37,"a71850b36037"
"2020-07-30T11:20:56",1596129656.372,7484258,-58,38,"a71850b36037"
"2020-07-30T11:20:56",1596129656.58,7484466,-61,39,"a71850b36037"
"2020-07-30T11:20:56",1596129656.996,7484882,-64,37,"a71850b36037"
"2020-07-30T11:20:57",1596129657.205,7485091,-56,38,"a71850b36037"
"2020-07-30T11:20:57",1596129657.619,7485505,-57,39,"a71850b36037"
"2020-07-30T11:20:57",1596129657.833,7485719,-58,37,"a71850b36037"
"2020-07-30T11:20:58",1596129658.246,7486132,-57,38,"a71850b36037"
"2020-07-30T11:20:58",1596129658.453,7486339,-57,39,"a71850b36037"
"2020-07-30T11:20:58",1596129658.873,7486759,-58,37,"a71850b36037"
"2020-07-30T11:20:59",1596129659.492,7487378,-57,39,"a71850b36037"
"2020-07-30T11:21:00",1596129660.117,7488003,-57,38,"a71850b36037"
"2020-07-30T11:21:00",1596129660.325,7488211,-57,39,"a71850b36037"
"2020-07-30T11:21:00",1596129660.744,7488630,-58,37,"a71850b36037"
"2020-07-30T11:21:00",1596129660.955,7488841,-57,38,"a71850b36037"
"2020-07-30T11:21:01",1596129661.371,7489257,-57,39,"a71850b36037"
"2020-07-30T11:21:01",1596129661.581,7489467,-57,37,"a71850b36037"
"2020-07-30T11:21:02",1596129662.611,7490497,-60,37,"a71850b36037"
"2020-07-30T11:21:02",1596129662.82,7490706,-59,38,"a71850b36037"
"2020-07-30T11:21:03",1596129663.244,7491130,-58,39,"a71850b36037"
"2020-07-30T11:21:03",1596129663.448,7491334,-57,37,"a71850b36037"
"2020-07-30T11:21:03",1596129663.869,7491755,-59,38,"a71850b36037"
"2020-07-30T11:21:04",1596129664.075,7491961,-59,39,"a71850b36037"
"2020-07-30T11:21:04",1596129664.487,7492373,-65,37,"a71850b36037"
"2020-07-30T11:21:04",1596129664.702,7492588,-59,38,"a71850b36037"
"2020-07-30T11:21:05",1596129665.117,7493003,-59,39,"a71850b36037"
"2020-07-30T11:21:05",1596129665.325,7493211,-58,37,"a71850b36037"
"2020-07-30T11:21:06",1596129666.362,7494248,-58,37,"a71850b36037"
"2020-07-30T11:21:06",1596129666.574,7494460,-57,38,"a71850b36037"
"2020-07-30T11:21:06",1596129666.983,7494869,-57,39,"a71850b36037"
"2020-07-30T11:21:07",1596129667.193,7495079,-58,37,"a71850b36037"
"2020-07-30T11:21:07",1596129667.606,7495492,-57,38,"a71850b36037"
"2020-07-30T11:21:07",1596129667.82,7495706,-57,39,"a71850b36037"
"2020-07-30T11:21:08",1596129668.234,7496120,-58,37,"a71850b36037"
"2020-07-30T11:21:08",1596129668.854,7496740,-57,39,"a71850b36037"
"2020-07-30T11:21:09",1596129669.063,7496949,-57,37,"a71850b36037"
"2020-07-30T11:21:09",1596129669.483,7497369,-57,38,"a71850b36037"
"2020-07-30T11:21:09",1596129669.693,7497579,-57,39,"a71850b36037"
"2020-07-30T11:21:10",1596129670.1,7497986,-58,37,"a71850b36037"
"2020-07-30T11:21:10",1596129670.312,7498198,-57,38,"a71850b36037"
"2020-07-30T11:21:10",1596129670.73,7498616,-57,39,"a71850b36037"
"2020-07-30T11:21:10",1596129670.943,7498829,-58,37,"a71850b36037"
"2020-07-30T11:21:11",1596129671.357,7499243,-57,38,"a71850b36037"
"2020-07-30T11:21:11",1596129671.565,7499451,-57,39,"a71850b36037"
"2020-07-30T11:21:11",1596129671.983,7499869,-58,37,"a71850b36037"
"2020-07-30T11:21:12",1596129672.596,7500482,-57,39,"a71850b36037"
"2020-07-30T11:21:12",1596129672.81,7500696,-57,37,"a71850b36037"
"2020-07-30T11:21:13",1596129673.225,7501111,-57,38,"a71850b36037"
"2020-07-30T11:21:13",1596129673.433,7501319,-57,39,"a71850b36037"
"2020-07-30T11:21:13",1596129673.85,7501736,-58,37,"a71850b36037"
"2020-07-30T11:21:14",1596129674.061,7501947,-57,38,"a71850b36037"
"2020-07-30T11:21:14",1596129674.477,7502363,-57,39,"a71850b36037"
"2020-07-30T11:21:14",1596129674.683,7502569,-58,37,"a71850b36037"
"2020-07-30T11:21:15",1596129675.098,7502984,-57,38,"a71850b36037"
"2020-07-30T11:21:15",1596129675.719,7503605,-58,37,"a71850b36037"
"2020-07-30T11:21:15",1596129675.93,7503816,-57,38,"a71850b36037"
"2020-07-30T11:21:16",1596129676.348,7504234,-57,39,"a71850b36037"
"2020-07-30T11:21:16",1596129676.558,7504444,-58,37,"a71850b36037"
"2020-07-30T11:21:16",1596129676.969,7504855,-57,38,"a71850b36037"
"2020-07-30T11:21:17",1596129677.18,7505066,-57,39,"a71850b36037"
"2020-07-30T11:21:17",1596129677.59,7505476,-58,37,"a71850b36037"
"2020-07-30T11:21:17",1596129677.799,7505685,-58,38,"a71850b36037"
"2020-07-30T11:21:18",1596129678.839,7506725,-64,38,"a71850b36037"
"2020-07-30T11:21:19",1596129679.055,7506941,-61,39,"a71850b36037"
"2020-07-30T11:21:19",1596129679.465,7507351,-59,37,"a71850b36037"
"2020-07-30T11:21:19",1596129679.676,7507562,-59,38,"a71850b36037"
"2020-07-30T11:21:20",1596129680.091,7507977,-57,39,"a71850b36037"
"2020-07-30T11:21:20",1596129680.297,7508183,-57,37,"a71850b36037"
"2020-07-30T11:21:20",1596129680.716,7508602,-57,38,"a71850b36037"
"2020-07-30T11:21:20",1596129680.924,7508810,-57,39,"a71850b36037"
"2020-07-30T11:21:21",1596129681.343,7509229,-58,37,"a71850b36037"
"2020-07-30T11:21:21",1596129681.969,7509855,-57,39,"a71850b36037"
"2020-07-30T11:21:22",1596129682.174,7510060,-57,37,"a71850b36037"
"2020-07-30T11:21:22",1596129682.59,7510476,-57,38,"a71850b36037"
"2020-07-30T11:21:22",1596129682.798,7510684,-57,39,"a71850b36037"
"2020-07-30T11:21:23",1596129683.214,7511100,-58,37,"a71850b36037"
"2020-07-30T11:21:23",1596129683.427,7511313,-57,38,"a71850b36037"
"2020-07-30T11:21:23",1596129683.835,7511721,-57,39,"a71850b36037"
"2020-07-30T11:21:24",1596129684.044,7511930,-58,37,"a71850b36037"
"2020-07-30T11:21:24",1596129684.461,7512347,-57,38,"a71850b36037"
"2020-07-30T11:21:24",1596129684.676,7512562,-57,39,"a71850b36037"
"2020-07-30T11:21:25",1596129685.083,7512969,-58,37,"a71850b36037"
"2020-07-30T11:21:25",1596129685.289,7513175,-57,38,"a71850b36037"
"2020-07-30T11:21:25",1596129685.713,7513599,-57,39,"a71850b36037"
"2020-07-30T11:21:25",1596129685.921,7513807,-59,37,"a71850b36037"
"2020-07-30T11:21:26",1596129686.328,7514214,-57,38,"a71850b36037"
"2020-07-30T11:21:26",1596129686.541,7514427,-58,39,"a71850b36037"
"2020-07-30T11:21:26",1596129686.958,7514844,-57,37,"a71850b36037"
"2020-07-30T11:21:27",1596129687.168,7515054,-57,38,"a71850b36037"
"2020-07-30T11:21:27",1596129687.584,7515470,-59,39,"a71850b36037"
"2020-07-30T11:21:27",1596129687.795,7515681,-57,37,"a71850b36037"
"2020-07-30T11:21:28",1596129688.204,7516090,-59,38,"a71850b36037"
"2020-07-30T11:21:28",1596129688.419,7516305,-57,39,"a71850b36037"
"2020-07-30T11:21:28",1596129688.832,7516718,-56,37,"a71850b36037"
"2020-07-30T11:21:29",1596129689.042,7516928,-58,38,"a71850b36037"
"2020-07-30T11:21:29",1596129689.456,7517342,-57,39,"a71850b36037"
"2020-07-30T11:21:29",1596129689.661,7517547,-58,37,"a71850b36037"
"2020-07-30T11:21:30",1596129690.076,7517962,-57,38,"a71850b36037"
"2020-07-30T11:21:30",1596129690.285,7518171,-57,39,"a71850b36037"
"2020-07-30T11:21:30",1596129690.701,7518587,-57,37,"a71850b36037"
"2020-07-30T11:21:31",1596129691.952,7519838,-57,38,"a71850b36037"
"2020-07-30T11:21:32",1596129692.159,7520045,-57,39,"a71850b36037"
"2020-07-30T11:21:32",1596129692.573,7520459,-58,37,"a71850b36037"
"2020-07-30T11:21:32",1596129692.782,7520668,-57,38,"a71850b36037"
"2020-07-30T11:21:33",1596129693.193,7521079,-57,39,"a71850b36037"
"2020-07-30T11:21:33",1596129693.405,7521291,-58,37,"a71850b36037"
"2020-07-30T11:21:33",1596129693.823,7521709,-57,38,"a71850b36037"
"2020-07-30T11:21:34",1596129694.037,7521923,-57,39,"a71850b36037"
"2020-07-30T11:21:34",1596129694.449,7522335,-58,37,"a71850b36037"
"2020-07-30T11:21:35",1596129695.072,7522958,-57,39,"a71850b36037"
"2020-07-30T11:21:35",1596129695.699,7523585,-58,38,"a71850b36037"
"2020-07-30T11:21:35",1596129695.909,7523795,-58,39,"a71850b36037"
"2020-07-30T11:21:36",1596129696.323,7524209,-57,37,"a71850b36037"
"2020-07-30T11:21:36",1596129696.529,7524415,-62,38,"a71850b36037"
"2020-07-30T11:21:36",1596129696.945,7524831,-66,39,"a71850b36037"
"2020-07-30T11:21:37",1596129697.154,7525040,-59,37,"a71850b36037"
"2020-07-30T11:21:37",1596129697.363,7525249,-64,37,"a71850b36037"
"2020-07-30T11:21:37",1596129697.573,7525459,-57,38,"a71850b36037"
"2020-07-30T11:21:37",1596129697.779,7525665,-59,39,"a71850b36037"
"2020-07-30T11:21:38",1596129698.199,7526085,-58,37,"a71850b36037"
"2020-07-30T11:21:38",1596129698.817,7526703,-58,39,"a71850b36037"
"2020-07-30T11:21:39",1596129699.028,7526914,-57,37,"a71850b36037"
"2020-07-30T11:21:39",1596129699.449,7527335,-57,38,"a71850b36037"
"2020-07-30T11:21:39",1596129699.653,7527539,-53,39,"a71850b36037"
"2020-07-30T11:21:40",1596129700.07,7527956,-53,37,"a71850b36037"
"2020-07-30T11:21:40",1596129700.698,7528584,-53,39,"a71850b36037"
"2020-07-30T11:21:40",1596129700.909,7528795,-54,37,"a71850b36037"
"2020-07-30T11:21:41",1596129701.321,7529207,-54,38,"a71850b36037"
"2020-07-30T11:21:41",1596129701.531,7529417,-53,39,"a71850b36037"
"2020-07-30T11:21:42",1596129702.155,7530041,-54,38,"a71850b36037"
"2020-07-30T11:21:42",1596129702.36,7530246,-54,38,"a71850b36037"
"2020-07-30T11:21:42",1596129702.564,7530450,-54,39,"a71850b36037"
"2020-07-30T11:21:42",1596129702.986,7530872,-56,37,"a71850b36037"
"2020-07-30T11:21:43",1596129703.193,7531079,-58,38,"a71850b36037"
"2020-07-30T11:21:43",1596129703.407,7531293,-56,39,"a71850b36037"
"2020-07-30T11:21:43",1596129703.816,7531702,-60,37,"a71850b36037"
"2020-07-30T11:21:44",1596129704.441,7532327,-60,39,"a71850b36037"
"2020-07-30T11:21:44",1596129704.655,7532541,-64,37,"a71850b36037"
"2020-07-30T11:21:45",1596129705.061,7532947,-63,38,"a71850b36037"
"2020-07-30T11:21:45",1596129705.484,7533370,-69,39,"a71850b36037"
"2020-07-30T11:21:45",1596129705.688,7533574,-65,37,"a71850b36037"
"2020-07-30T11:21:46",1596129706.106,7533992,-72,38,"a71850b36037"
"2020-07-30T11:21:46",1596129706.314,7534200,-78,39,"a71850b36037"
"2020-07-30T11:21:46",1596129706.733,7534619,-69,37,"a71850b36037"
"2020-07-30T11:21:46",1596129706.935,7534821,-68,38,"a71850b36037"
"2020-07-30T11:21:47",1596129707.352,7535238,-75,39,"a71850b36037"
"2020-07-30T11:21:47",1596129707.562,7535448,-67,37,"a71850b36037"
"2020-07-30T11:21:48",1596129708.183,7536069,-72,39,"a71850b36037"
"2020-07-30T11:21:48",1596129708.604,7536490,-67,37,"a71850b36037"
"2020-07-30T11:21:48",1596129708.81,7536696,-56,38,"a71850b36037"
"2020-07-30T11:21:49",1596129709.229,7537115,-63,39,"a71850b36037"
"2020-07-30T11:21:49",1596129709.432,7537318,-61,37,"a71850b36037"
"2020-07-30T11:21:49",1596129709.853,7537739,-56,38,"a71850b36037"
"2020-07-30T11:21:50",1596129710.059,7537945,-57,39,"a71850b36037"
"2020-07-30T11:21:50",1596129710.479,7538365,-57,37,"a71850b36037"
"2020-07-30T11:21:51",1596129711.31,7539196,-58,37,"a71850b36037"
"2020-07-30T11:21:51",1596129711.93,7539816,-57,39,"a71850b36037"
"2020-07-30T11:21:52",1596129712.355,7540241,-58,37,"a71850b36037"
"2020-07-30T11:21:52",1596129712.555,7540441,-57,38,"a71850b36037"
"2020-07-30T11:21:52",1596129712.979,7540865,-57,39,"a71850b36037"
"2020-07-30T11:21:53",1596129713.183,7541069,-58,37,"a71850b36037"
"2020-07-30T11:21:53",1596129713.6,7541486,-57,38,"a71850b36037"
"2020-07-30T11:21:53",1596129713.803,7541689,-57,39,"a71850b36037"
"2020-07-30T11:21:54",1596129714.226,7542112,-58,37,"a71850b36037"
"2020-07-30T11:21:54",1596129714.43,7542316,-57,38,"a71850b36037"
"2020-07-30T11:21:54",1596129714.854,7542740,-57,39,"a71850b36037"
"2020-07-30T11:21:55",1596129715.055,7542941,-58,37,"a71850b36037"
"2020-07-30T11:21:55",1596129715.47,7543356,-57,38,"a71850b36037"
"2020-07-30T11:21:55",1596129715.678,7543564,-57,39,"a71850b36037"
"2020-07-30T11:21:56",1596129716.099,7543985,-58,37,"a71850b36037"
"2020-07-30T11:21:56",1596129716.301,7544187,-57,38,"a71850b36037"
"2020-07-30T11:21:56",1596129716.723,7544609,-57,39,"a71850b36037"
"2020-07-30T11:21:56",1596129716.925,7544811,-58,37,"a71850b36037"
"2020-07-30T11:21:57",1596129717.348,7545234,-57,38,"a71850b36037"
"2020-07-30T11:21:57",1596129717.553,7545439,-58,39,"a71850b36037"
"2020-07-30T11:21:57",1596129717.973,7545859,-57,37,"a71850b36037"
"2020-07-30T11:21:58",1596129718.18,7546066,-57,38,"a71850b36037"
"2020-07-30T11:21:58",1596129718.802,7546688,-58,37,"a71850b36037"
"2020-07-30T11:21:59",1596129719.219,7547105,-57,38,"a71850b36037"
"2020-07-30T11:21:59",1596129719.429,7547315,-57,39,"a71850b36037"
"2020-07-30T11:21:59",1596129719.841,7547727,-58,37,"a71850b36037"
"2020-07-30T11:22:00",1596129720.048,7547934,-57,38,"a71850b36037"
"2020-07-30T11:22:00",1596129720.469,7548355,-57,39,"a71850b36037"
"2020-07-30T11:22:00",1596129720.671,7548557,-58,37,"a71850b36037"
"2020-07-30T11:22:01",1596129721.098,7548984,-57,38,"a71850b36037"
"2020-07-30T11:22:01",1596129721.3,7549186,-57,39,"a71850b36037"
"2020-07-30T11:22:01",1596129721.72,7549606,-58,37,"a71850b36037"
"2020-07-30T11:22:01",1596129721.923,7549809,-57,38,"a71850b36037"
"2020-07-30T11:22:02",1596129722.342,7550228,-57,39,"a71850b36037"
"2020-07-30T11:22:02",1596129722.548,7550434,-58,37,"a71850b36037"
"2020-07-30T11:22:02",1596129722.975,7550861,-57,38,"a71850b36037"
"2020-07-30T11:22:03",1596129723.177,7551063,-57,39,"a71850b36037"
"2020-07-30T11:22:03",1596129723.598,7551484,-58,37,"a71850b36037"
"2020-07-30T11:22:03",1596129723.8,7551686,-57,38,"a71850b36037"
"2020-07-30T11:22:04",1596129724.221,7552107,-57,39,"a71850b36037"
"2020-07-30T11:22:04",1596129724.425,7552311,-58,37,"a71850b36037"
"2020-07-30T11:22:05",1596129725.464,7553350,-58,37,"a71850b36037"
"2020-07-30T11:22:05",1596129725.669,7553555,-57,38,"a71850b36037"
"2020-07-30T11:22:06",1596129726.094,7553980,-57,39,"a71850b36037"
"2020-07-30T11:22:06",1596129726.298,7554184,-58,37,"a71850b36037"
"2020-07-30T11:22:06",1596129726.718,7554604,-57,38,"a71850b36037"
"2020-07-30T11:22:06",1596129726.927,7554813,-57,39,"a71850b36037"
"2020-07-30T11:22:07",1596129727.348,7555234,-57,37,"a71850b36037"
"2020-07-30T11:22:07",1596129727.55,7555436,-57,38,"a71850b36037"
"2020-07-30T11:22:07",1596129727.969,7555855,-59,39,"a71850b36037"
"2020-07-30T11:22:08",1596129728.174,7556060,-57,37,"a71850b36037"
"2020-07-30T11:22:08",1596129728.584,7556470,-59,38,"a71850b36037"
"2020-07-30T11:22:08",1596129728.794,7556680,-58,39,"a71850b36037"
"2020-07-30T11:22:09",1596129729.208,7557094,-63,37,"a71850b36037"
"2020-07-30T11:22:09",1596129729.417,7557303,-57,38,"a71850b36037"
"2020-07-30T11:22:09",1596129729.84,7557726,-58,39,"a71850b36037"
"2020-07-30T11:22:10",1596129730.045,7557931,-58,37,"a71850b36037"
"2020-07-30T11:22:10",1596129730.466,7558352,-57,38,"a71850b36037"
"2020-07-30T11:22:10",1596129730.669,7558555,-57,39,"a71850b36037"
"2020-07-30T11:22:11",1596129731.089,7558975,-57,37,"a71850b36037"
"2020-07-30T11:22:11",1596129731.299,7559185,-57,38,"a71850b36037"
"2020-07-30T11:22:11",1596129731.71,7559596,-57,39,"a71850b36037"
"2020-07-30T11:22:11",1596129731.92,7559806,-58,37,"a71850b36037"
"2020-07-30T11:22:12",1596129732.545,7560431,-57,39,"a71850b36037"
"2020-07-30T11:22:13",1596129733.173,7561059,-57,38,"a71850b36037"
"2020-07-30T11:22:13",1596129733.583,7561469,-58,39,"a71850b36037"
"2020-07-30T11:22:13",1596129733.794,7561680,-58,37,"a71850b36037"
"2020-07-30T11:22:14",1596129734.208,7562094,-57,38,"a71850b36037"
"2020-07-30T11:22:14",1596129734.418,7562304,-59,39,"a71850b36037"
"2020-07-30T11:22:14",1596129734.833,7562719,-58,37,"a71850b36037"
"2020-07-30T11:22:15",1596129735.041,7562927,-57,38,"a71850b36037"
"2020-07-30T11:22:15",1596129735.464,7563350,-57,39,"a71850b36037"
"2020-07-30T11:22:16",1596129736.082,7563968,-58,38,"a71850b36037"
"2020-07-30T11:22:16",1596129736.292,7564178,-57,39,"a71850b36037"
"2020-07-30T11:22:16",1596129736.709,7564595,-61,37,"a71850b36037"
"2020-07-30T11:22:16",1596129736.913,7564799,-59,38,"a71850b36037"
"2020-07-30T11:22:17",1596129737.329,7565215,-56,39,"a71850b36037"
"2020-07-30T11:22:17",1596129737.535,7565421,-58,37,"a71850b36037"
"2020-07-30T11:22:17",1596129737.95,7565836,-57,38,"a71850b36037"
"2020-07-30T11:22:18",1596129738.785,7566671,-66,38,"a71850b36037"
"2020-07-30T11:22:19",1596129739.196,7567082,-57,39,"a71850b36037"
"2020-07-30T11:22:19",1596129739.409,7567295,-57,37,"a71850b36037"
"2020-07-30T11:22:19",1596129739.825,7567711,-57,38,"a71850b36037"
"2020-07-30T11:22:20",1596129740.036,7567922,-56,39,"a71850b36037"
"2020-07-30T11:22:20",1596129740.451,7568337,-57,37,"a71850b36037"
"2020-07-30T11:22:20",1596129740.663,7568549,-57,38,"a71850b36037"
"2020-07-30T11:22:21",1596129741.071,7568957,-56,39,"a71850b36037"
"2020-07-30T11:22:21",1596129741.69,7569576,-58,38,"a71850b36037"
"2020-07-30T11:22:21",1596129741.904,7569790,-57,39,"a71850b36037"
"2020-07-30T11:22:22",1596129742.323,7570209,-58,37,"a71850b36037"
"2020-07-30T11:22:22",1596129742.527,7570413,-58,38,"a71850b36037"
"2020-07-30T11:22:22",1596129742.943,7570829,-57,39,"a71850b36037"
"2020-07-30T11:22:23",1596129743.157,7571043,-58,37,"a71850b36037"
"2020-07-30T11:22:23",1596129743.569,7571455,-53,38,"a71850b36037"
"2020-07-30T11:22:23",1596129743.78,7571666,-57,39,"a71850b36037"
"2020-07-30T11:22:24",1596129744.4,7572286,-61,38,"a71850b36037"
"2020-07-30T11:22:25",1596129745.442,7573328,-57,38,"a71850b36037"
"2020-07-30T11:22:25",1596129745.651,7573537,-57,39,"a71850b36037"
"2020-07-30T11:22:26",1596129746.069,7573955,-57,37,"a71850b36037"
"2020-07-30T11:22:26",1596129746.276,7574162,-57,38,"a71850b36037"
"2020-07-30T11:22:26",1596129746.689,7574575,-60,39,"a71850b36037"
"2020-07-30T11:22:26",1596129746.899,7574785,-60,37,"a71850b36037"
"2020-07-30T11:22:27",1596129747.319,7575205,-58,38,"a71850b36037"
"2020-07-30T11:22:27",1596129747.528,7575414,-58,39,"a71850b36037"
"2020-07-30T11:22:27",1596129747.945,7575831,-61,37,"a71850b36037"
"2020-07-30T11:22:28",1596129748.562,7576448,-57,39,"a71850b36037"