"time","epoch_time","boot_time","rssi","ch","mac"
"1969-12-31T19:06:23",3983.175,3983175,-22,38,"b6857bad6616"
"1969-12-31T19:06:25",3985.642,3985642,-20,39,"b6857bad6616"
"1969-12-31T19:06:28",3988.108,3988108,-23,37,"b6857bad6616"
"1969-12-31T19:06:30",3990.362,3990362,-22,38,"b6857bad6616"
"1969-12-31T19:06:32",3992.832,3992832,-20,39,"b6857bad6616"
"1969-12-31T19:06:35",3995.303,3995303,-22,37,"b6857bad6616"
"1969-12-31T19:06:37",3997.564,3997564,-22,38,"b6857bad6616"
"1969-12-31T19:06:40",4000.032,4000032,-20,39,"b6857bad6616"
"1969-12-31T19:06:42",4002.502,4002502,-31,37,"b6857bad6616"
"1969-12-31T19:06:44",4004.765,4004765,-32,38,"b6857bad6616"
"1969-12-31T19:06:47",4007.234,4007234,-22,39,"b6857bad6616"
"1969-12-31T19:06:51",4011.966,4011966,-27,38,"b6857bad6616"
"1969-12-31T19:06:54",4014.433,4014433,-32,39,"b6857bad6616"
"1969-12-31T19:06:56",4016.902,4016902,-35,37,"b6857bad6616"
"1969-12-31T19:06:59",4019.168,4019168,-26,38,"b6857bad6616"
"1969-12-31T19:07:01",4021.642,4021642,-32,39,"b6857bad6616"
"1969-12-31T19:07:04",4024.115,4024115,-39,37,"b6857bad6616"
"1969-12-31T19:07:06",4026.369,4026369,-35,38,"b6857bad6616"
"1969-12-31T19:07:08",4028.837,4028837,-31,39,"b6857bad6616"
"1969-12-31T19:07:11",4031.302,4031302,-30,37,"b6857bad6616"
"1969-12-31T19:07:13",4033.565,4033565,-29,38,"b6857bad6616"
"1969-12-31T19:07:16",4036.027,4036027,-41,39,"b6857bad6616"
"1969-12-31T19:07:18",4038.496,4038496,-38,37,"b6857bad6616"
"1969-12-31T19:07:20",4040.749,4040749,-38,38,"b6857bad6616"
"1969-12-31T19:07:23",4043.217,4043217,-36,39,"b6857bad6616"
"1969-12-31T19:07:25",4045.678,4045678,-36,37,"b6857bad6616"
"1969-12-31T19:07:27",4047.94,4047940,-35,38,"b6857bad6616"
"1969-12-31T19:07:30",4050.406,4050406,-36,39,"b6857bad6616"
"1969-12-31T19:07:32",4052.871,4052871,-29,37,"b6857bad6616"
"1969-12-31T19:07:35",4055.333,4055333,-29,38,"b6857bad6616"
"1969-12-31T19:07:37",4057.598,4057598,-31,39,"b6857bad6616"
"1969-12-31T19:07:40",4060.056,4060056,-28,37,"b6857bad6616"
"1969-12-31T19:07:42",4062.522,4062522,-29,38,"b6857bad6616"
"1969-12-31T19:07:44",4064.785,4064785,-29,39,"b6857bad6616"
"1969-12-31T19:07:47",4067.243,4067243,-28,37,"b6857bad6616"
"1969-12-31T19:07:49",4069.708,4069708,-27,38,"b6857bad6616"
"1969-12-31T19:07:51",4071.966,4071966,-32,39,"b6857bad6616"
"1969-12-31T19:07:54",4074.436,4074436,-28,37,"b6857bad6616"
"1969-12-31T19:07:56",4076.898,4076898,-30,38,"b6857bad6616"
"1969-12-31T19:07:59",4079.16,4079160,-29,39,"b6857bad6616"
"1969-12-31T19:08:01",4081.628,4081628,-35,37,"b6857bad6616"
"1969-12-31T19:08:04",4084.089,4084089,-33,38,"b6857bad6616"
"1969-12-31T19:08:06",4086.348,4086348,-27,39,"b6857bad6616"
"1969-12-31T19:08:08",4088.813,4088813,-39,37,"b6857bad6616"
"1969-12-31T19:08:11",4091.275,4091275,-27,38,"b6857bad6616"
"1969-12-31T19:08:13",4093.536,4093536,-36,39,"b6857bad6616"
"1969-12-31T19:08:13",4093.74,4093740,-53,39,"b6857bad6616"
"1969-12-31T19:08:16",4096.002,4096002,-43,37,"b6857bad6616"
"1969-12-31T19:08:18",4098.471,4098471,-32,38,"b6857bad6616"
"1969-12-31T19:08:20",4100.737,4100737,-41,39,"b6857bad6616"
"1969-12-31T19:08:23",4103.201,4103201,-58,37,"b6857bad6616"
"1969-12-31T19:08:25",4105.676,4105676,-38,38,"b6857bad6616"
"1969-12-31T19:08:28",4108.136,4108136,-38,39,"b6857bad6616"
"1969-12-31T19:08:30",4110.405,4110405,-38,37,"b6857bad6616"
"1969-12-31T19:08:32",4112.865,4112865,-44,38,"b6857bad6616"
"1969-12-31T19:08:37",4117.594,4117594,-43,37,"b6857bad6616"
"1969-12-31T19:08:40",4120.06,4120060,-43,38,"b6857bad6616"
"1969-12-31T19:08:42",4122.523,4122523,-31,39,"b6857bad6616"
"1969-12-31T19:08:44",4124.789,4124789,-34,37,"b6857bad6616"
"1969-12-31T19:08:47",4127.251,4127251,-33,38,"b6857bad6616"
"1969-12-31T19:08:49",4129.716,4129716,-37,39,"b6857bad6616"
"1969-12-31T19:08:51",4131.971,4131971,-33,37,"b6857bad6616"
"1969-12-31T19:08:54",4134.438,4134438,-33,38,"b6857bad6616"
"1969-12-31T19:08:56",4136.899,4136899,-38,39,"b6857bad6616"
"1969-12-31T19:08:59",4139.162,4139162,-35,37,"b6857bad6616"
"1969-12-31T19:09:01",4141.623,4141623,-34,38,"b6857bad6616"
"1969-12-31T19:09:04",4144.092,4144092,-36,39,"b6857bad6616"
"1969-12-31T19:09:06",4146.355,4146355,-35,37,"b6857bad6616"
"1969-12-31T19:09:08",4148.811,4148811,-34,38,"b6857bad6616"
"1969-12-31T19:09:11",4151.283,4151283,-35,39,"b6857bad6616"
"1969-12-31T19:09:13",4153.536,4153536,-35,37,"b6857bad6616"
"1969-12-31T19:09:16",4156.006,4156006,-33,38,"b6857bad6616"
"1969-12-31T19:09:18",4158.471,4158471,-35,39,"b6857bad6616"
"1969-12-31T19:09:20",4160.93,4160930,-35,37,"b6857bad6616"
"1969-12-31T19:09:23",4163.191,4163191,-34,38,"b6857bad6616"
"1969-12-31T19:09:25",4165.656,4165656,-37,39,"b6857bad6616"
"1969-12-31T19:09:28",4168.123,4168123,-35,37,"b6857bad6616"
"1969-12-31T19:09:30",4170.384,4170384,-36,38,"b6857bad6616"
"1969-12-31T19:09:32",4172.848,4172848,-36,39,"b6857bad6616"
"1969-12-31T19:09:35",4175.316,4175316,-35,37,"b6857bad6616"
"1969-12-31T19:09:37",4177.582,4177582,-34,38,"b6857bad6616"
"1969-12-31T19:09:40",4180.044,4180044,-36,39,"b6857bad6616"
"1969-12-31T19:09:42",4182.515,4182515,-35,37,"b6857bad6616"
"1969-12-31T19:09:44",4184.781,4184781,-34,38,"b6857bad6616"
"1969-12-31T19:09:47",4187.243,4187243,-35,39,"b6857bad6616"
"1969-12-31T19:09:49",4189.706,4189706,-36,37,"b6857bad6616"
"1969-12-31T19:09:51",4191.97,4191970,-34,38,"b6857bad6616"
"1969-12-31T19:09:54",4194.44,4194440,-40,39,"b6857bad6616"
"1969-12-31T19:09:56",4196.909,4196909,-36,37,"b6857bad6616"
"1969-12-31T19:09:59",4199.18,4199180,-35,38,"b6857bad6616"
"1969-12-31T19:10:01",4201.64,4201640,-37,39,"b6857bad6616"
"1969-12-31T19:10:06",4206.371,4206371,-36,38,"b6857bad6616"
"1969-12-31T19:10:08",4208.841,4208841,-38,39,"b6857bad6616"
"1969-12-31T19:10:11",4211.308,4211308,-38,37,"b6857bad6616"
"1969-12-31T19:10:13",4213.567,4213567,-35,38,"b6857bad6616"
"1969-12-31T19:10:16",4216.034,4216034,-38,39,"b6857bad6616"
"1969-12-31T19:10:18",4218.493,4218493,-36,37,"b6857bad6616"
"1969-12-31T19:10:20",4220.763,4220763,-35,38,"b6857bad6616"
"1969-12-31T19:10:23",4223.226,4223226,-37,39,"b6857bad6616"
"1969-12-31T19:10:25",4225.695,4225695,-36,37,"b6857bad6616"
"1969-12-31T19:10:27",4227.954,4227954,-52,38,"b6857bad6616"
"1969-12-31T19:10:30",4230.416,4230416,-65,39,"b6857bad6616"
"1969-12-31T19:10:32",4232.881,4232881,-54,37,"b6857bad6616"
"1969-12-31T19:10:35",4235.142,4235142,-59,38,"b6857bad6616"
"1969-12-31T19:10:37",4237.603,4237603,-60,39,"b6857bad6616"
"1969-12-31T19:10:40",4240.07,4240070,-61,37,"b6857bad6616"
"1969-12-31T19:10:42",4242.54,4242540,-58,38,"b6857bad6616"
"1969-12-31T19:10:44",4244.802,4244802,-60,39,"b6857bad6616"
"1969-12-31T19:10:47",4247.273,4247273,-59,37,"b6857bad6616"
"1969-12-31T19:10:49",4249.73,4249730,-59,38,"b6857bad6616"
"1969-12-31T19:10:51",4251.993,4251993,-63,39,"b6857bad6616"
"1969-12-31T19:10:54",4254.461,4254461,-54,37,"b6857bad6616"
"1969-12-31T19:10:59",4259.195,4259195,-71,39,"b6857bad6616"
"1969-12-31T19:11:01",4261.664,4261664,-54,37,"b6857bad6616"
"1969-12-31T19:11:04",4264.129,4264129,-69,38,"b6857bad6616"
"1969-12-31T19:11:06",4266.397,4266397,-71,39,"b6857bad6616"
"1969-12-31T19:11:08",4268.861,4268861,-54,37,"b6857bad6616"
"1969-12-31T19:11:11",4271.329,4271329,-69,38,"b6857bad6616"
"1969-12-31T19:11:13",4273.599,4273599,-67,39,"b6857bad6616"
"1969-12-31T19:11:18",4278.338,4278338,-69,38,"b6857bad6616"
"1969-12-31T19:11:20",4280.803,4280803,-67,39,"b6857bad6616"
"1969-12-31T19:11:23",4283.272,4283272,-55,37,"b6857bad6616"
"1969-12-31T19:11:28",4288.001,4288001,-75,39,"b6857bad6616"
"1969-12-31T19:11:30",4290.462,4290462,-53,37,"b6857bad6616"
"1969-12-31T19:11:32",4292.928,4292928,-63,38,"b6857bad6616"
"1969-12-31T19:11:35",4295.193,4295193,-81,39,"b6857bad6616"
"1969-12-31T19:11:37",4297.662,4297662,-52,37,"b6857bad6616"
"1969-12-31T19:11:40",4300.128,4300128,-62,38,"b6857bad6616"
"1969-12-31T19:11:42",4302.394,4302394,-79,39,"b6857bad6616"
"1969-12-31T19:11:44",4304.86,4304860,-53,37,"b6857bad6616"
"1969-12-31T19:11:47",4307.328,4307328,-70,38,"b6857bad6616"
"1969-12-31T19:11:49",4309.592,4309592,-93,39,"b6857bad6616"
"1969-12-31T19:11:52",4312.061,4312061,-52,37,"b6857bad6616"
"1969-12-31T19:11:54",4314.528,4314528,-65,38,"b6857bad6616"
"1969-12-31T19:11:56",4316.792,4316792,-73,39,"b6857bad6616"
"1969-12-31T19:11:59",4319.255,4319255,-52,37,"b6857bad6616"
"1969-12-31T19:12:01",4321.722,4321722,-63,38,"b6857bad6616"
"1969-12-31T19:12:03",4323.981,4323981,-76,39,"b6857bad6616"
"1969-12-31T19:12:08",4328.909,4328909,-66,38,"b6857bad6616"
"1969-12-31T19:12:11",4331.168,4331168,-76,39,"b6857bad6616"
"1969-12-31T19:12:13",4333.627,4333627,-53,37,"b6857bad6616"
"1969-12-31T19:12:16",4336.098,4336098,-65,38,"b6857bad6616"
"1969-12-31T19:12:18",4338.357,4338357,-80,39,"b6857bad6616"
"1969-12-31T19:12:20",4340.822,4340822,-53,37,"b6857bad6616"
"1969-12-31T19:12:25",4345.55,4345550,-80,39,"b6857bad6616"
"1969-12-31T19:12:30",4350.479,4350479,-65,38,"b6857bad6616"
"1969-12-31T19:12:32",4352.738,4352738,-80,39,"b6857bad6616"
"1969-12-31T19:12:35",4355.203,4355203,-53,37,"b6857bad6616"
"1969-12-31T19:12:37",4357.664,4357664,-66,38,"b6857bad6616"
"1969-12-31T19:12:40",4360.128,4360128,-72,39,"b6857bad6616"
"1969-12-31T19:12:42",4362.388,4362388,-51,37,"b6857bad6616"
"1969-12-31T19:12:47",4367.319,4367319,-74,39,"b6857bad6616"
"1969-12-31T19:12:49",4369.574,4369574,-51,37,"b6857bad6616"
"1969-12-31T19:12:52",4372.047,4372047,-65,38,"b6857bad6616"
"1969-12-31T19:12:56",4376.763,4376763,-52,37,"b6857bad6616"
"1969-12-31T19:13:01",4381.698,4381698,-80,39,"b6857bad6616"
"1969-12-31T19:13:03",4383.961,4383961,-53,37,"b6857bad6616"
"1969-12-31T19:13:06",4386.421,4386421,-62,38,"b6857bad6616"
"1969-12-31T19:13:16",4396.072,4396072,-76,39,"b6857bad6616"
"1969-12-31T19:13:18",4398.535,4398535,-52,37,"b6857bad6616"
"1969-12-31T19:13:20",4400.799,4400799,-67,38,"b6857bad6616"
"1969-12-31T19:13:23",4403.266,4403266,-75,39,"b6857bad6616"
"1969-12-31T19:13:25",4405.733,4405733,-52,37,"b6857bad6616"
"1969-12-31T19:13:27",4407.995,4407995,-64,38,"b6857bad6616"
"1969-12-31T19:13:30",4410.456,4410456,-69,39,"b6857bad6616"
"1969-12-31T19:13:32",4412.929,4412929,-53,37,"b6857bad6616"
"1969-12-31T19:13:35",4415.182,4415182,-79,38,"b6857bad6616"
"1969-12-31T19:13:37",4417.649,4417649,-70,39,"b6857bad6616"
"1969-12-31T19:13:40",4420.117,4420117,-53,37,"b6857bad6616"
"1969-12-31T19:13:44",4424.84,4424840,-67,39,"b6857bad6616"
"1969-12-31T19:13:52",4432.039,4432039,-74,39,"b6857bad6616"
"1969-12-31T19:13:54",4434.505,4434505,-52,37,"b6857bad6616"
"1969-12-31T19:13:56",4436.768,4436768,-68,38,"b6857bad6616"
"1969-12-31T19:13:59",4439.237,4439237,-69,39,"b6857bad6616"
"1969-12-31T19:14:01",4441.701,4441701,-53,37,"b6857bad6616"
"1969-12-31T19:14:03",4443.963,4443963,-66,38,"b6857bad6616"
"1969-12-31T19:14:06",4446.428,4446428,-71,39,"b6857bad6616"
"1969-12-31T19:14:08",4448.89,4448890,-52,37,"b6857bad6616"
"1969-12-31T19:14:11",4451.156,4451156,-67,38,"b6857bad6616"
"1969-12-31T19:14:13",4453.625,4453625,-72,39,"b6857bad6616"
"1969-12-31T19:14:16",4456.096,4456096,-52,37,"b6857bad6616"
"1969-12-31T19:14:18",4458.356,4458356,-67,38,"b6857bad6616"
"1969-12-31T19:14:20",4460.819,4460819,-71,39,"b6857bad6616"
"1969-12-31T19:14:23",4463.283,4463283,-52,37,"b6857bad6616"
"1969-12-31T19:14:25",4465.547,4465547,-67,38,"b6857bad6616"
"1969-12-31T19:14:28",4468.016,4468016,-71,39,"b6857bad6616"
"1969-12-31T19:14:32",4472.749,4472749,-65,38,"b6857bad6616"
"1969-12-31T19:14:35",4475.217,4475217,-72,39,"b6857bad6616"
"1969-12-31T19:14:39",4479.937,4479937,-67,38,"b6857bad6616"
"1969-12-31T19:14:42",4482.4,4482400,-71,39,"b6857bad6616"
"1969-12-31T19:14:47",4487.339,4487339,-63,38,"b6857bad6616"
"1969-12-31T19:14:49",4489.595,4489595,-65,39,"b6857bad6616"
"1969-12-31T19:14:52",4492.065,4492065,-53,37,"b6857bad6616"
"1969-12-31T19:14:54",4494.528,4494528,-55,38,"b6857bad6616"
"1969-12-31T19:14:56",4496.782,4496782,-47,39,"b6857bad6616"
"1969-12-31T19:14:59",4499.252,4499252,-44,37,"b6857bad6616"
"1969-12-31T19:15:01",4501.725,4501725,-54,38,"b6857bad6616"
"1969-12-31T19:15:03",4503.991,4503991,-78,39,"b6857bad6616"
"1969-12-31T19:15:06",4506.466,4506466,-57,37,"b6857bad6616"
"1969-12-31T19:15:11",4511.186,4511186,-72,39,"b6857bad6616"
"1969-12-31T19:15:13",4513.656,4513656,-72,37,"b6857bad6616"
"1969-12-31T19:15:16",4516.124,4516124,-48,38,"b6857bad6616"
"1969-12-31T19:15:18",4518.382,4518382,-62,39,"b6857bad6616"
"1969-12-31T19:15:20",4520.85,4520850,-46,37,"b6857bad6616"
"1969-12-31T19:15:25",4525.587,4525587,-53,39,"b6857bad6616"
"1969-12-31T19:15:28",4528.053,4528053,-49,37,"b6857bad6616"
"1969-12-31T19:15:30",4530.517,4530517,-68,38,"b6857bad6616"
"1969-12-31T19:15:32",4532.774,4532774,-68,39,"b6857bad6616"
"1969-12-31T19:15:35",4535.248,4535248,-54,37,"b6857bad6616"
"1969-12-31T19:15:37",4537.719,4537719,-57,38,"b6857bad6616"
"1969-12-31T19:15:39",4539.978,4539978,-68,39,"b6857bad6616"
"1969-12-31T19:15:42",4542.446,4542446,-49,37,"b6857bad6616"
"1969-12-31T19:15:44",4544.906,4544906,-55,38,"b6857bad6616"
"1969-12-31T19:15:47",4547.175,4547175,-68,39,"b6857bad6616"
"1969-12-31T19:15:49",4549.64,4549640,-47,37,"b6857bad6616"
"1969-12-31T19:15:52",4552.107,4552107,-57,38,"b6857bad6616"
"1969-12-31T19:15:54",4554.366,4554366,-63,39,"b6857bad6616"
"1969-12-31T19:15:56",4556.83,4556830,-58,37,"b6857bad6616"
"1969-12-31T19:15:59",4559.3,4559300,-62,38,"b6857bad6616"
"1969-12-31T19:16:01",4561.555,4561555,-71,39,"b6857bad6616"
"1969-12-31T19:16:04",4564.017,4564017,-66,37,"b6857bad6616"
"1969-12-31T19:16:06",4566.489,4566489,-57,38,"b6857bad6616"
"1969-12-31T19:16:08",4568.741,4568741,-63,39,"b6857bad6616"
"1969-12-31T19:16:11",4571.21,4571210,-64,37,"b6857bad6616"
"1969-12-31T19:16:13",4573.676,4573676,-60,38,"b6857bad6616"
"1969-12-31T19:16:16",4576.135,4576135,-58,39,"b6857bad6616"
"1969-12-31T19:16:18",4578.395,4578395,-62,37,"b6857bad6616"
"1969-12-31T19:16:20",4580.857,4580857,-74,38,"b6857bad6616"
"1969-12-31T19:16:23",4583.32,4583320,-57,39,"b6857bad6616"
"1969-12-31T19:16:25",4585.583,4585583,-49,37,"b6857bad6616"
"1969-12-31T19:16:30",4590.518,4590518,-64,39,"b6857bad6616"
"1969-12-31T19:16:32",4592.774,4592774,-59,37,"b6857bad6616"
"1969-12-31T19:16:35",4595.239,4595239,-53,38,"b6857bad6616"
"1969-12-31T19:16:37",4597.701,4597701,-70,39,"b6857bad6616"
"1969-12-31T19:16:39",4599.966,4599966,-56,37,"b6857bad6616"
"1969-12-31T19:16:42",4602.435,4602435,-76,38,"b6857bad6616"
"1969-12-31T19:16:44",4604.895,4604895,-60,39,"b6857bad6616"
"1969-12-31T19:16:47",4607.158,4607158,-54,37,"b6857bad6616"
"1969-12-31T19:16:49",4609.633,4609633,-60,38,"b6857bad6616"
"1969-12-31T19:16:52",4612.098,4612098,-61,39,"b6857bad6616"
"1969-12-31T19:16:54",4614.363,4614363,-67,37,"b6857bad6616"
"1969-12-31T19:16:56",4616.828,4616828,-63,38,"b6857bad6616"
"1969-12-31T19:16:59",4619.289,4619289,-58,39,"b6857bad6616"
"1969-12-31T19:17:01",4621.551,4621551,-51,37,"b6857bad6616"
"1969-12-31T19:17:04",4624.015,4624015,-57,38,"b6857bad6616"
"1969-12-31T19:17:06",4626.478,4626478,-65,39,"b6857bad6616"
"1969-12-31T19:17:08",4628.737,4628737,-54,37,"b6857bad6616"
"1969-12-31T19:17:11",4631.209,4631209,-55,38,"b6857bad6616"
"1969-12-31T19:17:16",4636.133,4636133,-54,37,"b6857bad6616"
"1969-12-31T19:17:18",4638.393,4638393,-61,38,"b6857bad6616"
"1969-12-31T19:17:20",4640.868,4640868,-59,39,"b6857bad6616"
"1969-12-31T19:17:23",4643.331,4643331,-56,37,"b6857bad6616"
"1969-12-31T19:17:25",4645.599,4645599,-40,38,"b6857bad6616"
"1969-12-31T19:17:28",4648.07,4648070,-45,39,"b6857bad6616"
"1969-12-31T19:17:30",4650.536,4650536,-48,37,"b6857bad6616"
"1969-12-31T19:17:32",4652.803,4652803,-48,38,"b6857bad6616"
"1969-12-31T19:17:35",4655.271,4655271,-35,39,"b6857bad6616"
"1969-12-31T19:17:37",4657.732,4657732,-52,37,"b6857bad6616"
"1969-12-31T19:17:40",4660.002,4660002,-60,38,"b6857bad6616"
"1969-12-31T19:17:42",4662.464,4662464,-40,39,"b6857bad6616"
"1969-12-31T19:17:44",4664.928,4664928,-62,37,"b6857bad6616"
"1969-12-31T19:17:49",4669.663,4669663,-66,39,"b6857bad6616"
"1969-12-31T19:17:52",4672.135,4672135,-80,37,"b6857bad6616"
"1969-12-31T19:17:54",4674.387,4674387,-82,38,"b6857bad6616"
"1969-12-31T19:17:56",4676.853,4676853,-60,39,"b6857bad6616"
"1969-12-31T19:17:59",4679.314,4679314,-69,37,"b6857bad6616"
"1969-12-31T19:18:04",4684.045,4684045,-74,39,"b6857bad6616"
"1969-12-31T19:18:06",4686.509,4686509,-65,37,"b6857bad6616"
"1969-12-31T19:18:08",4688.773,4688773,-68,38,"b6857bad6616"
"1969-12-31T19:18:11",4691.239,4691239,-69,39,"b6857bad6616"
"1969-12-31T19:18:13",4693.708,4693708,-68,37,"b6857bad6616"
"1969-12-31T19:18:15",4695.977,4695977,-65,38,"b6857bad6616"
"1969-12-31T19:18:18",4698.438,4698438,-64,39,"b6857bad6616"
"1969-12-31T19:18:20",4700.907,4700907,-78,37,"b6857bad6616"
"1969-12-31T19:18:23",4703.173,4703173,-77,38,"b6857bad6616"
"1969-12-31T19:18:25",4705.641,4705641,-66,39,"b6857bad6616"
"1969-12-31T19:18:28",4708.102,4708102,-68,37,"b6857bad6616"
"1969-12-31T19:18:30",4710.362,4710362,-69,38,"b6857bad6616"
"1969-12-31T19:18:32",4712.833,4712833,-64,39,"b6857bad6616"
"1969-12-31T19:18:35",4715.298,4715298,-63,37,"b6857bad6616"
"1969-12-31T19:18:37",4717.556,4717556,-62,38,"b6857bad6616"
"1969-12-31T19:18:40",4720.032,4720032,-69,39,"b6857bad6616"
"1969-12-31T19:18:42",4722.498,4722498,-67,37,"b6857bad6616"
"1969-12-31T19:18:44",4724.756,4724756,-67,38,"b6857bad6616"
"1969-12-31T19:18:47",4727.233,4727233,-79,39,"b6857bad6616"
"1969-12-31T19:18:49",4729.695,4729695,-66,37,"b6857bad6616"
"1969-12-31T19:18:51",4731.957,4731957,-75,38,"b6857bad6616"
"1969-12-31T19:18:54",4734.418,4734418,-62,39,"b6857bad6616"
"1969-12-31T19:18:56",4736.886,4736886,-77,37,"b6857bad6616"
"1969-12-31T19:18:59",4739.149,4739149,-63,38,"b6857bad6616"
"1969-12-31T19:19:01",4741.619,4741619,-67,39,"b6857bad6616"
"1969-12-31T19:19:04",4744.084,4744084,-67,37,"b6857bad6616"
"1969-12-31T19:19:08",4748.816,4748816,-68,39,"b6857bad6616"
"1969-12-31T19:19:11",4751.274,4751274,-69,37,"b6857bad6616"
"1969-12-31T19:19:16",4756.006,4756006,-68,39,"b6857bad6616"
"1969-12-31T19:19:18",4758.478,4758478,-74,37,"b6857bad6616"
"1969-12-31T19:19:20",4760.938,4760938,-81,38,"b6857bad6616"
"1969-12-31T19:19:23",4763.194,4763194,-68,39,"b6857bad6616"
"1969-12-31T19:19:28",4768.131,4768131,-44,38,"b6857bad6616"
"1969-12-31T19:19:30",4770.393,4770393,-35,39,"b6857bad6616"
"1969-12-31T19:19:32",4772.853,4772853,-39,37,"b6857bad6616"
"1969-12-31T19:19:35",4775.322,4775322,-38,38,"b6857bad6616"
"1969-12-31T19:19:37",4777.591,4777591,-38,39,"b6857bad6616"
"1969-12-31T19:19:40",4780.061,4780061,-48,37,"b6857bad6616"
"1969-12-31T19:19:42",4782.521,4782521,-38,38,"b6857bad6616"
"1969-12-31T19:19:44",4784.777,4784777,-40,39,"b6857bad6616"
"1969-12-31T19:19:47",4787.244,4787244,-42,37,"b6857bad6616"
"1969-12-31T19:19:49",4789.718,4789718,-43,38,"b6857bad6616"
"1969-12-31T19:19:51",4791.981,4791981,-43,39,"b6857bad6616"
"1969-12-31T19:19:56",4796.917,4796917,-40,38,"b6857bad6616"
"1969-12-31T19:19:59",4799.183,4799183,-42,39,"b6857bad6616"
"1969-12-31T19:20:04",4804.109,4804109,-40,38,"b6857bad6616"
"1969-12-31T19:20:06",4806.365,4806365,-46,39,"b6857bad6616"
"1969-12-31T19:20:08",4808.836,4808836,-41,37,"b6857bad6616"
"1969-12-31T19:20:11",4811.309,4811309,-41,38,"b6857bad6616"
"1969-12-31T19:20:13",4813.566,4813566,-43,39,"b6857bad6616"
"1969-12-31T19:20:16",4816.041,4816041,-41,37,"b6857bad6616"
"1969-12-31T19:20:18",4818.506,4818506,-41,38,"b6857bad6616"
"1969-12-31T19:20:20",4820.77,4820770,-42,39,"b6857bad6616"
"1969-12-31T19:20:23",4823.246,4823246,-41,37,"b6857bad6616"
"1969-12-31T19:20:25",4825.702,4825702,-42,38,"b6857bad6616"
"1969-12-31T19:20:27",4827.972,4827972,-42,39,"b6857bad6616"
"1969-12-31T19:20:30",4830.432,4830432,-42,37,"b6857bad6616"
"1969-12-31T19:20:32",4832.907,4832907,-42,38,"b6857bad6616"
"1969-12-31T19:20:35",4835.163,4835163,-45,39,"b6857bad6616"
"1969-12-31T19:20:37",4837.636,4837636,-42,37,"b6857bad6616"
"1969-12-31T19:20:40",4840.098,4840098,-41,38,"b6857bad6616"
"1969-12-31T19:20:42",4842.365,4842365,-48,39,"b6857bad6616"
"1969-12-31T19:20:44",4844.824,4844824,-41,37,"b6857bad6616"
"1969-12-31T19:20:47",4847.299,4847299,-41,38,"b6857bad6616"
"1969-12-31T19:20:49",4849.57,4849570,-52,39,"b6857bad6616"
"1969-12-31T19:20:52",4852.033,4852033,-41,37,"b6857bad6616"
"1969-12-31T19:20:54",4854.494,4854494,-41,38,"b6857bad6616"
"1969-12-31T19:20:56",4856.764,4856764,-52,39,"b6857bad6616"
"1969-12-31T19:20:59",4859.229,4859229,-40,37,"b6857bad6616"
"1969-12-31T19:21:01",4861.701,4861701,-41,38,"b6857bad6616"
"1969-12-31T19:21:03",4863.96,4863960,-48,39,"b6857bad6616"
"1969-12-31T19:21:06",4866.429,4866429,-41,37,"b6857bad6616"
"1969-12-31T19:21:08",4868.895,4868895,-41,38,"b6857bad6616"
"1969-12-31T19:21:11",4871.157,4871157,-51,39,"b6857bad6616"
"1969-12-31T19:21:13",4873.63,4873630,-41,37,"b6857bad6616"
"1969-12-31T19:21:16",4876.089,4876089,-41,38,"b6857bad6616"
"1969-12-31T19:21:18",4878.348,4878348,-51,39,"b6857bad6616"
"1969-12-31T19:21:20",4880.817,4880817,-41,37,"b6857bad6616"
"1969-12-31T19:21:23",4883.284,4883284,-41,38,"b6857bad6616"
"1969-12-31T19:21:25",4885.545,4885545,-47,39,"b6857bad6616"
"1969-12-31T19:21:28",4888.016,4888016,-41,37,"b6857bad6616"
"1969-12-31T19:21:30",4890.475,4890475,-41,38,"b6857bad6616"
"1969-12-31T19:21:32",4892.74,4892740,-50,39,"b6857bad6616"
"1969-12-31T19:21:35",4895.199,4895199,-41,37,"b6857bad6616"
"1969-12-31T19:21:37",4897.664,4897664,-41,38,"b6857bad6616"
"1969-12-31T19:21:40",4900.132,4900132,-48,39,"b6857bad6616"