"time","epoch_time","boot_time","rssi","ch","mac"
"2020-07-30T11:35:24",1596130524.479,1975701,-59,39,"98859d9e1a3a"
"2020-07-30T11:35:24",1596130524.687,1975909,-57,37,"98859d9e1a3a"
"2020-07-30T11:35:25",1596130525.106,1976328,-54,38,"98859d9e1a3a"
"2020-07-30T11:35:25",1596130525.316,1976538,-59,39,"98859d9e1a3a"
"2020-07-30T11:35:25",1596130525.727,1976949,-57,37,"98859d9e1a3a"
"2020-07-30T11:35:25",1596130525.941,1977163,-53,38,"98859d9e1a3a"
"2020-07-30T11:35:26",1596130526.359,1977581,-59,39,"98859d9e1a3a"
"2020-07-30T11:35:26",1596130526.566,1977788,-57,37,"98859d9e1a3a"
"2020-07-30T11:35:26",1596130526.977,1978199,-53,38,"98859d9e1a3a"
"2020-07-30T11:35:27",1596130527.19,1978412,-59,39,"98859d9e1a3a"
"2020-07-30T11:35:27",1596130527.604,1978826,-57,37,"98859d9e1a3a"
"2020-07-30T11:35:27",1596130527.818,1979040,-54,38,"98859d9e1a3a"
"2020-07-30T11:35:28",1596130528.232,1979454,-59,39,"98859d9e1a3a"
"2020-07-30T11:35:28",1596130528.437,1979659,-57,37,"98859d9e1a3a"
"2020-07-30T11:35:28",1596130528.858,1980080,-54,38,"98859d9e1a3a"
"2020-07-30T11:35:29",1596130529.478,1980700,-57,37,"98859d9e1a3a"
"2020-07-30T11:35:29",1596130529.688,1980910,-54,38,"98859d9e1a3a"
"2020-07-30T11:35:30",1596130530.105,1981327,-59,39,"98859d9e1a3a"
"2020-07-30T11:35:30",1596130530.309,1981531,-57,37,"98859d9e1a3a"
"2020-07-30T11:35:30",1596130530.723,1981945,-54,38,"98859d9e1a3a"
"2020-07-30T11:35:30",1596130530.937,1982159,-59,39,"98859d9e1a3a"
"2020-07-30T11:35:31",1596130531.351,1982573,-57,37,"98859d9e1a3a"
"2020-07-30T11:35:31",1596130531.561,1982783,-54,38,"98859d9e1a3a"
"2020-07-30T11:35:31",1596130531.98,1983202,-59,39,"98859d9e1a3a"
"2020-07-30T11:35:32",1596130532.186,1983408,-57,37,"98859d9e1a3a"
"2020-07-30T11:35:32",1596130532.602,1983824,-54,38,"98859d9e1a3a"
"2020-07-30T11:35:32",1596130532.812,1984034,-59,39,"98859d9e1a3a"
"2020-07-30T11:35:33",1596130533.443,1984665,-54,38,"98859d9e1a3a"
"2020-07-30T11:35:33",1596130533.851,1985073,-59,39,"98859d9e1a3a"
"2020-07-30T11:35:34",1596130534.063,1985285,-57,37,"98859d9e1a3a"
"2020-07-30T11:35:34",1596130534.476,1985698,-54,38,"98859d9e1a3a"
"2020-07-30T11:35:34",1596130534.684,1985906,-59,39,"98859d9e1a3a"
"2020-07-30T11:35:35",1596130535.101,1986323,-57,37,"98859d9e1a3a"
"2020-07-30T11:35:35",1596130535.315,1986537,-54,38,"98859d9e1a3a"
"2020-07-30T11:35:35",1596130535.729,1986951,-59,39,"98859d9e1a3a"
"2020-07-30T11:35:35",1596130535.937,1987159,-57,37,"98859d9e1a3a"
"2020-07-30T11:35:36",1596130536.35,1987572,-54,38,"98859d9e1a3a"
"2020-07-30T11:35:36",1596130536.563,1987785,-59,39,"98859d9e1a3a"
"2020-07-30T11:35:36",1596130536.979,1988201,-57,37,"98859d9e1a3a"
"2020-07-30T11:35:37",1596130537.184,1988406,-54,38,"98859d9e1a3a"
"2020-07-30T11:35:37",1596130537.605,1988827,-59,39,"98859d9e1a3a"
"2020-07-30T11:35:37",1596130537.811,1989033,-57,37,"98859d9e1a3a"
"2020-07-30T11:35:38",1596130538.226,1989448,-54,38,"98859d9e1a3a"
"2020-07-30T11:35:38",1596130538.44,1989662,-59,39,"98859d9e1a3a"
"2020-07-30T11:35:38",1596130538.854,1990076,-57,37,"98859d9e1a3a"
"2020-07-30T11:35:39",1596130539.066,1990288,-53,38,"98859d9e1a3a"
"2020-07-30T11:35:39",1596130539.473,1990695,-59,39,"98859d9e1a3a"
"2020-07-30T11:35:39",1596130539.687,1990909,-57,37,"98859d9e1a3a"
"2020-07-30T11:35:40",1596130540.102,1991324,-54,38,"98859d9e1a3a"
"2020-07-30T11:35:40",1596130540.317,1991539,-59,39,"98859d9e1a3a"
"2020-07-30T11:35:40",1596130540.728,1991950,-56,37,"98859d9e1a3a"
"2020-07-30T11:35:40",1596130540.941,1992163,-53,38,"98859d9e1a3a"
"2020-07-30T11:35:41",1596130541.356,1992578,-59,39,"98859d9e1a3a"
"2020-07-30T11:35:41",1596130541.568,1992790,-57,37,"98859d9e1a3a"
"2020-07-30T11:35:41",1596130541.979,1993201,-53,38,"98859d9e1a3a"
"2020-07-30T11:35:42",1596130542.191,1993413,-59,39,"98859d9e1a3a"
"2020-07-30T11:35:42",1596130542.601,1993823,-57,37,"98859d9e1a3a"
"2020-07-30T11:35:42",1596130542.807,1994029,-54,38,"98859d9e1a3a"
"2020-07-30T11:35:43",1596130543.227,1994449,-59,39,"98859d9e1a3a"
"2020-07-30T11:35:43",1596130543.437,1994659,-57,37,"98859d9e1a3a"
"2020-07-30T11:35:44",1596130544.06,1995282,-59,39,"98859d9e1a3a"
"2020-07-30T11:35:44",1596130544.476,1995698,-57,37,"98859d9e1a3a"
"2020-07-30T11:35:44",1596130544.683,1995905,-53,38,"98859d9e1a3a"
"2020-07-30T11:35:45",1596130545.099,1996321,-59,39,"98859d9e1a3a"
"2020-07-30T11:35:45",1596130545.306,1996528,-57,37,"98859d9e1a3a"
"2020-07-30T11:35:45",1596130545.729,1996951,-54,38,"98859d9e1a3a"
"2020-07-30T11:35:45",1596130545.935,1997157,-59,39,"98859d9e1a3a"
"2020-07-30T11:35:46",1596130546.351,1997573,-57,37,"98859d9e1a3a"
"2020-07-30T11:35:46",1596130546.557,1997779,-54,38,"98859d9e1a3a"
"2020-07-30T11:35:46",1596130546.978,1998200,-59,39,"98859d9e1a3a"
"2020-07-30T11:35:47",1596130547.183,1998405,-57,37,"98859d9e1a3a"
"2020-07-30T11:35:47",1596130547.602,1998824,-54,38,"98859d9e1a3a"
"2020-07-30T11:35:47",1596130547.817,1999039,-59,39,"98859d9e1a3a"
"2020-07-30T11:35:48",1596130548.223,1999445,-57,37,"98859d9e1a3a"
"2020-07-30T11:35:48",1596130548.435,1999657,-54,38,"98859d9e1a3a"
"2020-07-30T11:35:48",1596130548.85,2000072,-59,39,"98859d9e1a3a"
"2020-07-30T11:35:49",1596130549.066,2000288,-57,37,"98859d9e1a3a"
"2020-07-30T11:35:49",1596130549.477,2000699,-54,38,"98859d9e1a3a"
"2020-07-30T11:35:49",1596130549.69,2000912,-59,39,"98859d9e1a3a"
"2020-07-30T11:35:50",1596130550.103,2001325,-57,37,"98859d9e1a3a"
"2020-07-30T11:35:50",1596130550.307,2001529,-54,38,"98859d9e1a3a"
"2020-07-30T11:35:50",1596130550.72,2001942,-59,39,"98859d9e1a3a"
"2020-07-30T11:35:50",1596130550.929,2002151,-57,37,"98859d9e1a3a"
"2020-07-30T11:35:51",1596130551.348,2002570,-54,38,"98859d9e1a3a"
"2020-07-30T11:35:51",1596130551.557,2002779,-59,39,"98859d9e1a3a"
"2020-07-30T11:35:51",1596130551.975,2003197,-57,37,"98859d9e1a3a"
"2020-07-30T11:35:52",1596130552.184,2003406,-54,38,"98859d9e1a3a"
"2020-07-30T11:35:52",1596130552.596,2003818,-59,39,"98859d9e1a3a"
"2020-07-30T11:35:52",1596130552.808,2004030,-57,37,"98859d9e1a3a"
"2020-07-30T11:35:53",1596130553.221,2004443,-54,38,"98859d9e1a3a"
"2020-07-30T11:35:53",1596130553.428,2004650,-60,39,"98859d9e1a3a"
"2020-07-30T11:35:53",1596130553.847,2005069,-56,37,"98859d9e1a3a"
"2020-07-30T11:35:54",1596130554.058,2005280,-53,38,"98859d9e1a3a"
"2020-07-30T11:35:54",1596130554.477,2005699,-59,39,"98859d9e1a3a"
"2020-07-30T11:35:54",1596130554.682,2005904,-54,37,"98859d9e1a3a"
"2020-07-30T11:35:55",1596130555.098,2006320,-53,38,"98859d9e1a3a"
"2020-07-30T11:35:55",1596130555.311,2006533,-57,39,"98859d9e1a3a"
"2020-07-30T11:35:55",1596130555.73,2006952,-55,37,"98859d9e1a3a"
"2020-07-30T11:35:55",1596130555.939,2007161,-53,38,"98859d9e1a3a"
"2020-07-30T11:35:56",1596130556.353,2007575,-57,39,"98859d9e1a3a"
"2020-07-30T11:35:56",1596130556.563,2007785,-53,37,"98859d9e1a3a"
"2020-07-30T11:35:56",1596130556.979,2008201,-56,38,"98859d9e1a3a"
"2020-07-30T11:35:57",1596130557.19,2008412,-64,39,"98859d9e1a3a"
"2020-07-30T11:35:57",1596130557.598,2008820,-58,37,"98859d9e1a3a"
"2020-07-30T11:35:57",1596130557.812,2009034,-52,38,"98859d9e1a3a"
"2020-07-30T11:35:58",1596130558.227,2009449,-59,39,"98859d9e1a3a"
"2020-07-30T11:35:58",1596130558.438,2009660,-56,37,"98859d9e1a3a"
"2020-07-30T11:35:58",1596130558.85,2010072,-53,38,"98859d9e1a3a"
"2020-07-30T11:35:59",1596130559.057,2010279,-59,39,"98859d9e1a3a"
"2020-07-30T11:35:59",1596130559.475,2010697,-56,37,"98859d9e1a3a"
"2020-07-30T11:35:59",1596130559.683,2010905,-53,38,"98859d9e1a3a"
"2020-07-30T11:36:00",1596130560.099,2011321,-59,39,"98859d9e1a3a"
"2020-07-30T11:36:00",1596130560.313,2011535,-56,37,"98859d9e1a3a"
"2020-07-30T11:36:00",1596130560.728,2011950,-53,38,"98859d9e1a3a"
"2020-07-30T11:36:00",1596130560.937,2012159,-59,39,"98859d9e1a3a"
"2020-07-30T11:36:01",1596130561.349,2012571,-56,37,"98859d9e1a3a"
"2020-07-30T11:36:01",1596130561.558,2012780,-53,38,"98859d9e1a3a"
"2020-07-30T11:36:01",1596130561.972,2013194,-59,39,"98859d9e1a3a"
"2020-07-30T11:36:02",1596130562.183,2013405,-56,37,"98859d9e1a3a"
"2020-07-30T11:36:02",1596130562.589,2013811,-53,38,"98859d9e1a3a"
"2020-07-30T11:36:02",1596130562.805,2014027,-58,39,"98859d9e1a3a"
"2020-07-30T11:36:03",1596130563.219,2014441,-56,37,"98859d9e1a3a"
"2020-07-30T11:36:03",1596130563.43,2014652,-53,38,"98859d9e1a3a"
"2020-07-30T11:36:03",1596130563.841,2015063,-59,39,"98859d9e1a3a"
"2020-07-30T11:36:04",1596130564.055,2015277,-55,37,"98859d9e1a3a"
"2020-07-30T11:36:04",1596130564.471,2015693,-53,38,"98859d9e1a3a"
"2020-07-30T11:36:04",1596130564.682,2015904,-59,39,"98859d9e1a3a"
"2020-07-30T11:36:05",1596130565.093,2016315,-56,37,"98859d9e1a3a"
"2020-07-30T11:36:05",1596130565.303,2016525,-53,38,"98859d9e1a3a"
"2020-07-30T11:36:05",1596130565.718,2016940,-59,39,"98859d9e1a3a"
"2020-07-30T11:36:05",1596130565.924,2017146,-56,37,"98859d9e1a3a"
"2020-07-30T11:36:06",1596130566.338,2017560,-53,38,"98859d9e1a3a"
"2020-07-30T11:36:06",1596130566.544,2017766,-58,39,"98859d9e1a3a"
"2020-07-30T11:36:06",1596130566.965,2018187,-55,37,"98859d9e1a3a"
"2020-07-30T11:36:07",1596130567.168,2018390,-53,38,"98859d9e1a3a"
"2020-07-30T11:36:07",1596130567.588,2018810,-59,39,"98859d9e1a3a"
"2020-07-30T11:36:07",1596130567.792,2019014,-55,37,"98859d9e1a3a"
"2020-07-30T11:36:08",1596130568.21,2019432,-53,38,"98859d9e1a3a"
"2020-07-30T11:36:08",1596130568.837,2020059,-53,37,"98859d9e1a3a"
"2020-07-30T11:36:09",1596130569.051,2020273,-53,38,"98859d9e1a3a"
"2020-07-30T11:36:09",1596130569.463,2020685,-61,39,"98859d9e1a3a"
"2020-07-30T11:36:09",1596130569.668,2020890,-57,37,"98859d9e1a3a"
"2020-07-30T11:36:10",1596130570.083,2021305,-55,38,"98859d9e1a3a"
"2020-07-30T11:36:10",1596130570.288,2021510,-65,39,"98859d9e1a3a"
"2020-07-30T11:36:10",1596130570.709,2021931,-56,37,"98859d9e1a3a"
"2020-07-30T11:36:10",1596130570.919,2022141,-52,38,"98859d9e1a3a"
"2020-07-30T11:36:11",1596130571.328,2022550,-60,39,"98859d9e1a3a"
"2020-07-30T11:36:11",1596130571.536,2022758,-57,37,"98859d9e1a3a"
"2020-07-30T11:36:11",1596130571.956,2023178,-53,38,"98859d9e1a3a"
"2020-07-30T11:36:12",1596130572.163,2023385,-58,39,"98859d9e1a3a"
"2020-07-30T11:36:12",1596130572.581,2023803,-56,37,"98859d9e1a3a"
"2020-07-30T11:36:12",1596130572.786,2024008,-53,38,"98859d9e1a3a"
"2020-07-30T11:36:13",1596130573.205,2024427,-58,39,"98859d9e1a3a"
"2020-07-30T11:36:13",1596130573.417,2024639,-56,37,"98859d9e1a3a"
"2020-07-30T11:36:13",1596130573.828,2025050,-53,38,"98859d9e1a3a"
"2020-07-30T11:36:14",1596130574.038,2025260,-59,39,"98859d9e1a3a"
"2020-07-30T11:36:14",1596130574.448,2025670,-56,37,"98859d9e1a3a"
"2020-07-30T11:36:14",1596130574.66,2025882,-53,38,"98859d9e1a3a"
"2020-07-30T11:36:15",1596130575.078,2026300,-58,39,"98859d9e1a3a"
"2020-07-30T11:36:15",1596130575.291,2026513,-55,37,"98859d9e1a3a"
"2020-07-30T11:36:15",1596130575.7,2026922,-53,38,"98859d9e1a3a"
"2020-07-30T11:36:15",1596130575.914,2027136,-59,39,"98859d9e1a3a"
"2020-07-30T11:36:16",1596130576.328,2027550,-56,37,"98859d9e1a3a"
"2020-07-30T11:36:16",1596130576.542,2027764,-53,38,"98859d9e1a3a"
"2020-07-30T11:36:16",1596130576.956,2028178,-59,39,"98859d9e1a3a"
"2020-07-30T11:36:17",1596130577.167,2028389,-56,37,"98859d9e1a3a"
"2020-07-30T11:36:17",1596130577.579,2028801,-53,38,"98859d9e1a3a"
"2020-07-30T11:36:17",1596130577.788,2029010,-59,39,"98859d9e1a3a"
"2020-07-30T11:36:18",1596130578.202,2029424,-56,37,"98859d9e1a3a"
"2020-07-30T11:36:18",1596130578.411,2029633,-54,38,"98859d9e1a3a"
"2020-07-30T11:36:18",1596130578.827,2030049,-59,39,"98859d9e1a3a"
"2020-07-30T11:36:19",1596130579.035,2030257,-55,37,"98859d9e1a3a"
"2020-07-30T11:36:19",1596130579.454,2030676,-54,38,"98859d9e1a3a"
"2020-07-30T11:36:19",1596130579.662,2030884,-57,39,"98859d9e1a3a"
"2020-07-30T11:36:20",1596130580.074,2031296,-53,37,"98859d9e1a3a"
"2020-07-30T11:36:20",1596130580.287,2031509,-57,38,"98859d9e1a3a"
"2020-07-30T11:36:20",1596130580.701,2031923,-63,39,"98859d9e1a3a"
"2020-07-30T11:36:20",1596130580.908,2032130,-58,37,"98859d9e1a3a"
"2020-07-30T11:36:21",1596130581.329,2032551,-61,38,"98859d9e1a3a"
"2020-07-30T11:36:21",1596130581.542,2032764,-69,39,"98859d9e1a3a"
"2020-07-30T11:36:22",1596130582.169,2033391,-58,38,"98859d9e1a3a"
"2020-07-30T11:36:22",1596130582.582,2033804,-59,39,"98859d9e1a3a"
"2020-07-30T11:36:22",1596130582.798,2034020,-56,37,"98859d9e1a3a"
"2020-07-30T11:36:23",1596130583.212,2034434,-53,38,"98859d9e1a3a"
"2020-07-30T11:36:23",1596130583.424,2034646,-58,39,"98859d9e1a3a"
"2020-07-30T11:36:23",1596130583.832,2035054,-56,37,"98859d9e1a3a"
"2020-07-30T11:36:24",1596130584.042,2035264,-53,38,"98859d9e1a3a"
"2020-07-30T11:36:24",1596130584.462,2035684,-59,39,"98859d9e1a3a"
"2020-07-30T11:36:24",1596130584.672,2035894,-56,37,"98859d9e1a3a"
"2020-07-30T11:36:25",1596130585.083,2036305,-53,38,"98859d9e1a3a"
"2020-07-30T11:36:25",1596130585.298,2036520,-59,39,"98859d9e1a3a"
"2020-07-30T11:36:25",1596130585.71,2036932,-56,37,"98859d9e1a3a"
"2020-07-30T11:36:25",1596130585.918,2037140,-53,38,"98859d9e1a3a"
"2020-07-30T11:36:26",1596130586.34,2037562,-59,39,"98859d9e1a3a"
"2020-07-30T11:36:26",1596130586.553,2037775,-56,37,"98859d9e1a3a"
"2020-07-30T11:36:27",1596130587.17,2038392,-59,39,"98859d9e1a3a"
"2020-07-30T11:36:27",1596130587.588,2038810,-56,37,"98859d9e1a3a"
"2020-07-30T11:36:27",1596130587.8,2039022,-53,38,"98859d9e1a3a"
"2020-07-30T11:36:28",1596130588.214,2039436,-58,39,"98859d9e1a3a"
"2020-07-30T11:36:28",1596130588.423,2039645,-56,37,"98859d9e1a3a"
"2020-07-30T11:36:28",1596130588.84,2040062,-53,38,"98859d9e1a3a"
"2020-07-30T11:36:29",1596130589.047,2040269,-58,39,"98859d9e1a3a"
"2020-07-30T11:36:29",1596130589.464,2040686,-56,37,"98859d9e1a3a"
"2020-07-30T11:36:29",1596130589.675,2040897,-53,38,"98859d9e1a3a"
"2020-07-30T11:36:30",1596130590.089,2041311,-58,39,"98859d9e1a3a"
"2020-07-30T11:36:30",1596130590.299,2041521,-56,37,"98859d9e1a3a"
"2020-07-30T11:36:30",1596130590.712,2041934,-53,38,"98859d9e1a3a"
"2020-07-30T11:36:30",1596130590.916,2042138,-59,39,"98859d9e1a3a"
"2020-07-30T11:36:31",1596130591.332,2042554,-55,37,"98859d9e1a3a"
"2020-07-30T11:36:31",1596130591.546,2042768,-54,38,"98859d9e1a3a"
"2020-07-30T11:36:31",1596130591.957,2043179,-63,39,"98859d9e1a3a"
"2020-07-30T11:36:32",1596130592.169,2043391,-59,37,"98859d9e1a3a"
"2020-07-30T11:36:32",1596130592.584,2043806,-60,38,"98859d9e1a3a"
"2020-07-30T11:36:32",1596130592.789,2044011,-66,39,"98859d9e1a3a"
"2020-07-30T11:36:33",1596130593.209,2044431,-56,37,"98859d9e1a3a"
"2020-07-30T11:36:33",1596130593.419,2044641,-53,38,"98859d9e1a3a"
"2020-07-30T11:36:33",1596130593.831,2045053,-57,39,"98859d9e1a3a"
"2020-07-30T11:36:34",1596130594.042,2045264,-55,37,"98859d9e1a3a"
"2020-07-30T11:36:34",1596130594.454,2045676,-53,38,"98859d9e1a3a"
"2020-07-30T11:36:34",1596130594.663,2045885,-59,39,"98859d9e1a3a"
"2020-07-30T11:36:35",1596130595.078,2046300,-57,37,"98859d9e1a3a"
"2020-07-30T11:36:35",1596130595.286,2046508,-54,38,"98859d9e1a3a"
"2020-07-30T11:36:35",1596130595.703,2046925,-60,39,"98859d9e1a3a"
"2020-07-30T11:36:35",1596130595.912,2047134,-63,37,"98859d9e1a3a"
"2020-07-30T11:36:36",1596130596.329,2047551,-61,38,"98859d9e1a3a"
"2020-07-30T11:36:36",1596130596.543,2047765,-60,39,"98859d9e1a3a"
"2020-07-30T11:36:36",1596130596.962,2048184,-55,37,"98859d9e1a3a"
"2020-07-30T11:36:37",1596130597.17,2048392,-53,38,"98859d9e1a3a"
"2020-07-30T11:36:37",1596130597.584,2048806,-57,39,"98859d9e1a3a"
"2020-07-30T11:36:37",1596130597.79,2049012,-56,37,"98859d9e1a3a"
"2020-07-30T11:36:38",1596130598.202,2049424,-53,38,"98859d9e1a3a"
"2020-07-30T11:36:38",1596130598.415,2049637,-59,39,"98859d9e1a3a"
"2020-07-30T11:36:38",1596130598.834,2050056,-56,37,"98859d9e1a3a"
"2020-07-30T11:36:39",1596130599.039,2050261,-53,38,"98859d9e1a3a"
"2020-07-30T11:36:39",1596130599.452,2050674,-59,39,"98859d9e1a3a"
"2020-07-30T11:36:39",1596130599.66,2050882,-55,37,"98859d9e1a3a"
"2020-07-30T11:36:40",1596130600.079,2051301,-53,38,"98859d9e1a3a"
"2020-07-30T11:36:40",1596130600.294,2051516,-59,39,"98859d9e1a3a"
"2020-07-30T11:36:40",1596130600.71,2051932,-56,37,"98859d9e1a3a"
"2020-07-30T11:36:40",1596130600.92,2052142,-53,38,"98859d9e1a3a"
"2020-07-30T11:36:41",1596130601.335,2052557,-59,39,"98859d9e1a3a"
"2020-07-30T11:36:41",1596130601.545,2052767,-56,37,"98859d9e1a3a"
"2020-07-30T11:36:41",1596130601.96,2053182,-53,38,"98859d9e1a3a"
"2020-07-30T11:36:42",1596130602.165,2053387,-58,39,"98859d9e1a3a"
"2020-07-30T11:36:42",1596130602.58,2053802,-56,37,"98859d9e1a3a"
"2020-07-30T11:36:42",1596130602.789,2054011,-53,38,"98859d9e1a3a"
"2020-07-30T11:36:43",1596130603.207,2054429,-59,39,"98859d9e1a3a"
"2020-07-30T11:36:43",1596130603.414,2054636,-56,37,"98859d9e1a3a"
"2020-07-30T11:36:43",1596130603.829,2055051,-53,38,"98859d9e1a3a"
"2020-07-30T11:36:44",1596130604.044,2055266,-59,39,"98859d9e1a3a"
"2020-07-30T11:36:44",1596130604.46,2055682,-56,37,"98859d9e1a3a"
"2020-07-30T11:36:44",1596130604.666,2055888,-53,38,"98859d9e1a3a"
"2020-07-30T11:36:45",1596130605.082,2056304,-59,39,"98859d9e1a3a"
"2020-07-30T11:36:45",1596130605.295,2056517,-56,37,"98859d9e1a3a"
"2020-07-30T11:36:45",1596130605.707,2056929,-57,38,"98859d9e1a3a"
"2020-07-30T11:36:45",1596130605.915,2057137,-61,39,"98859d9e1a3a"
"2020-07-30T11:36:46",1596130606.333,2057555,-58,37,"98859d9e1a3a"
"2020-07-30T11:36:46",1596130606.544,2057766,-56,38,"98859d9e1a3a"
"2020-07-30T11:36:46",1596130606.952,2058174,-66,39,"98859d9e1a3a"
"2020-07-30T11:36:47",1596130607.167,2058389,-62,37,"98859d9e1a3a"
"2020-07-30T11:36:47",1596130607.58,2058802,-60,38,"98859d9e1a3a"
"2020-07-30T11:36:47",1596130607.789,2059011,-69,39,"98859d9e1a3a"
"2020-07-30T11:36:48",1596130608.2,2059422,-59,37,"98859d9e1a3a"
"2020-07-30T11:36:48",1596130608.408,2059630,-57,38,"98859d9e1a3a"
"2020-07-30T11:36:48",1596130608.832,2060054,-57,39,"98859d9e1a3a"
"2020-07-30T11:36:49",1596130609.04,2060262,-56,37,"98859d9e1a3a"
"2020-07-30T11:36:49",1596130609.452,2060674,-53,38,"98859d9e1a3a"
"2020-07-30T11:36:49",1596130609.659,2060881,-59,39,"98859d9e1a3a"
"2020-07-30T11:36:50",1596130610.078,2061300,-55,37,"98859d9e1a3a"
"2020-07-30T11:36:50",1596130610.291,2061513,-53,38,"98859d9e1a3a"
"2020-07-30T11:36:50",1596130610.702,2061924,-58,39,"98859d9e1a3a"
"2020-07-30T11:36:50",1596130610.91,2062132,-56,37,"98859d9e1a3a"
"2020-07-30T11:36:51",1596130611.331,2062553,-53,38,"98859d9e1a3a"
"2020-07-30T11:36:51",1596130611.543,2062765,-59,39,"98859d9e1a3a"
"2020-07-30T11:36:51",1596130611.956,2063178,-56,37,"98859d9e1a3a"
"2020-07-30T11:36:52",1596130612.163,2063385,-53,38,"98859d9e1a3a"
"2020-07-30T11:36:52",1596130612.579,2063801,-59,39,"98859d9e1a3a"
"2020-07-30T11:36:52",1596130612.794,2064016,-56,37,"98859d9e1a3a"
"2020-07-30T11:36:53",1596130613.202,2064424,-53,38,"98859d9e1a3a"
"2020-07-30T11:36:53",1596130613.418,2064640,-59,39,"98859d9e1a3a"
"2020-07-30T11:36:53",1596130613.83,2065052,-56,37,"98859d9e1a3a"
"2020-07-30T11:36:54",1596130614.04,2065262,-53,38,"98859d9e1a3a"
"2020-07-30T11:36:54",1596130614.454,2065676,-59,39,"98859d9e1a3a"
"2020-07-30T11:36:54",1596130614.661,2065883,-56,37,"98859d9e1a3a"
"2020-07-30T11:36:55",1596130615.075,2066297,-53,38,"98859d9e1a3a"
"2020-07-30T11:36:55",1596130615.29,2066512,-59,39,"98859d9e1a3a"
"2020-07-30T11:36:55",1596130615.702,2066924,-56,37,"98859d9e1a3a"
"2020-07-30T11:36:55",1596130615.913,2067135,-53,38,"98859d9e1a3a"
"2020-07-30T11:36:56",1596130616.325,2067547,-59,39,"98859d9e1a3a"
"2020-07-30T11:36:56",1596130616.539,2067761,-56,37,"98859d9e1a3a"
"2020-07-30T11:36:56",1596130616.95,2068172,-53,38,"98859d9e1a3a"
"2020-07-30T11:36:57",1596130617.165,2068387,-59,39,"98859d9e1a3a"
"2020-07-30T11:36:57",1596130617.577,2068799,-56,37,"98859d9e1a3a"
"2020-07-30T11:36:57",1596130617.787,2069009,-53,38,"98859d9e1a3a"
"2020-07-30T11:36:58",1596130618.203,2069425,-59,39,"98859d9e1a3a"
"2020-07-30T11:36:58",1596130618.415,2069637,-56,37,"98859d9e1a3a"
"2020-07-30T11:36:58",1596130618.83,2070052,-53,38,"98859d9e1a3a"
"2020-07-30T11:36:59",1596130619.044,2070266,-59,39,"98859d9e1a3a"
"2020-07-30T11:36:59",1596130619.461,2070683,-56,37,"98859d9e1a3a"
"2020-07-30T11:36:59",1596130619.671,2070893,-54,38,"98859d9e1a3a"
"2020-07-30T11:37:00",1596130620.09,2071312,-59,39,"98859d9e1a3a"
"2020-07-30T11:37:00",1596130620.295,2071517,-56,37,"98859d9e1a3a"
"2020-07-30T11:37:00",1596130620.713,2071935,-53,38,"98859d9e1a3a"
"2020-07-30T11:37:00",1596130620.926,2072148,-58,39,"98859d9e1a3a"
"2020-07-30T11:37:01",1596130621.333,2072555,-56,37,"98859d9e1a3a"
"2020-07-30T11:37:01",1596130621.541,2072763,-53,38,"98859d9e1a3a"
"2020-07-30T11:37:01",1596130621.962,2073184,-59,39,"98859d9e1a3a"
"2020-07-30T11:37:02",1596130622.174,2073396,-55,37,"98859d9e1a3a"
"2020-07-30T11:37:02",1596130622.581,2073803,-53,38,"98859d9e1a3a"
"2020-07-30T11:37:02",1596130622.79,2074012,-59,39,"98859d9e1a3a"
"2020-07-30T11:37:03",1596130623.202,2074424,-56,37,"98859d9e1a3a"
"2020-07-30T11:37:03",1596130623.414,2074636,-53,38,"98859d9e1a3a"
"2020-07-30T11:37:03",1596130623.828,2075050,-59,39,"98859d9e1a3a"
"2020-07-30T11:37:04",1596130624.043,2075265,-56,37,"98859d9e1a3a"
"2020-07-30T11:37:04",1596130624.46,2075682,-53,38,"98859d9e1a3a"
"2020-07-30T11:37:04",1596130624.665,2075887,-59,39,"98859d9e1a3a"
"2020-07-30T11:37:05",1596130625.081,2076303,-56,37,"98859d9e1a3a"
"2020-07-30T11:37:05",1596130625.286,2076508,-53,38,"98859d9e1a3a"
"2020-07-30T11:37:05",1596130625.704,2076926,-59,39,"98859d9e1a3a"
"2020-07-30T11:37:05",1596130625.915,2077137,-56,37,"98859d9e1a3a"
"2020-07-30T11:37:06",1596130626.331,2077553,-53,38,"98859d9e1a3a"
"2020-07-30T11:37:06",1596130626.541,2077763,-59,39,"98859d9e1a3a"
"2020-07-30T11:37:06",1596130626.954,2078176,-56,37,"98859d9e1a3a"
"2020-07-30T11:37:07",1596130627.162,2078384,-53,38,"98859d9e1a3a"
"2020-07-30T11:37:07",1596130627.582,2078804,-59,39,"98859d9e1a3a"
"2020-07-30T11:37:07",1596130627.791,2079013,-56,37,"98859d9e1a3a"
"2020-07-30T11:37:08",1596130628.207,2079429,-53,38,"98859d9e1a3a"
"2020-07-30T11:37:08",1596130628.414,2079636,-59,39,"98859d9e1a3a"
"2020-07-30T11:37:08",1596130628.833,2080055,-56,37,"98859d9e1a3a"
"2020-07-30T11:37:09",1596130629.044,2080266,-53,38,"98859d9e1a3a"
"2020-07-30T11:37:09",1596130629.452,2080674,-59,39,"98859d9e1a3a"
"2020-07-30T11:37:09",1596130629.667,2080889,-56,37,"98859d9e1a3a"
"2020-07-30T11:37:10",1596130630.084,2081306,-53,38,"98859d9e1a3a"
"2020-07-30T11:37:10",1596130630.29,2081512,-58,39,"98859d9e1a3a"
"2020-07-30T11:37:10",1596130630.704,2081926,-55,37,"98859d9e1a3a"
"2020-07-30T11:37:10",1596130630.91,2082132,-52,38,"98859d9e1a3a"
"2020-07-30T11:37:11",1596130631.328,2082550,-58,39,"98859d9e1a3a"
"2020-07-30T11:37:11",1596130631.536,2082758,-56,37,"98859d9e1a3a"
"2020-07-30T11:37:11",1596130631.957,2083179,-53,38,"98859d9e1a3a"
"2020-07-30T11:37:12",1596130632.167,2083389,-59,39,"98859d9e1a3a"
"2020-07-30T11:37:12",1596130632.579,2083801,-56,37,"98859d9e1a3a"
"2020-07-30T11:37:12",1596130632.786,2084008,-53,38,"98859d9e1a3a"
"2020-07-30T11:37:13",1596130633.204,2084426,-58,39,"98859d9e1a3a"
"2020-07-30T11:37:13",1596130633.41,2084632,-56,37,"98859d9e1a3a"
"2020-07-30T11:37:13",1596130633.831,2085053,-53,38,"98859d9e1a3a"
"2020-07-30T11:37:14",1596130634.044,2085266,-58,39,"98859d9e1a3a"
"2020-07-30T11:37:14",1596130634.461,2085683,-56,37,"98859d9e1a3a"
"2020-07-30T11:37:14",1596130634.671,2085893,-54,38,"98859d9e1a3a"
"2020-07-30T11:37:15",1596130635.082,2086304,-58,39,"98859d9e1a3a"
"2020-07-30T11:37:15",1596130635.296,2086518,-56,37,"98859d9e1a3a"
"2020-07-30T11:37:15",1596130635.706,2086928,-53,38,"98859d9e1a3a"
"2020-07-30T11:37:15",1596130635.918,2087140,-58,39,"98859d9e1a3a"
"2020-07-30T11:37:16",1596130636.335,2087557,-56,37,"98859d9e1a3a"
"2020-07-30T11:37:16",1596130636.542,2087764,-53,38,"98859d9e1a3a"
"2020-07-30T11:37:16",1596130636.954,2088176,-59,39,"98859d9e1a3a"
"2020-07-30T11:37:17",1596130637.166,2088388,-56,37,"98859d9e1a3a"
"2020-07-30T11:37:17",1596130637.585,2088807,-53,38,"98859d9e1a3a"
"2020-07-30T11:37:17",1596130637.796,2089018,-58,39,"98859d9e1a3a"
"2020-07-30T11:37:18",1596130638.206,2089428,-56,37,"98859d9e1a3a"
"2020-07-30T11:37:18",1596130638.415,2089637,-53,38,"98859d9e1a3a"
"2020-07-30T11:37:18",1596130638.833,2090055,-59,39,"98859d9e1a3a"
"2020-07-30T11:37:19",1596130639.052,2090274,-56,37,"98859d9e1a3a"
"2020-07-30T11:37:19",1596130639.463,2090685,-53,38,"98859d9e1a3a"
"2020-07-30T11:37:19",1596130639.676,2090898,-59,39,"98859d9e1a3a"
"2020-07-30T11:37:20",1596130640.086,2091308,-56,37,"98859d9e1a3a"
"2020-07-30T11:37:20",1596130640.298,2091520,-53,38,"98859d9e1a3a"
"2020-07-30T11:37:20",1596130640.718,2091940,-58,39,"98859d9e1a3a"
"2020-07-30T11:37:21",1596130641.332,2092554,-53,38,"98859d9e1a3a"
"2020-07-30T11:37:21",1596130641.536,2092758,-58,39,"98859d9e1a3a"
"2020-07-30T11:37:21",1596130641.952,2093174,-56,37,"98859d9e1a3a"
"2020-07-30T11:37:22",1596130642.161,2093383,-53,38,"98859d9e1a3a"
"2020-07-30T11:37:22",1596130642.576,2093798,-58,39,"98859d9e1a3a"
"2020-07-30T11:37:22",1596130642.781,2094003,-56,37,"98859d9e1a3a"
"2020-07-30T11:37:23",1596130643.196,2094418,-53,38,"98859d9e1a3a"
"2020-07-30T11:37:23",1596130643.407,2094629,-58,39,"98859d9e1a3a"
"2020-07-30T11:37:23",1596130643.821,2095043,-57,37,"98859d9e1a3a"
"2020-07-30T11:37:24",1596130644.031,2095253,-55,38,"98859d9e1a3a"
"2020-07-30T11:37:24",1596130644.452,2095674,-64,39,"98859d9e1a3a"
"2020-07-30T11:37:24",1596130644.661,2095883,-59,37,"98859d9e1a3a"
"2020-07-30T11:37:25",1596130645.077,2096299,-55,38,"98859d9e1a3a"
"2020-07-30T11:37:25",1596130645.286,2096508,-59,39,"98859d9e1a3a"
"2020-07-30T11:37:25",1596130645.701,2096923,-56,37,"98859d9e1a3a"
"2020-07-30T11:37:25",1596130645.914,2097136,-53,38,"98859d9e1a3a"
"2020-07-30T11:37:26",1596130646.327,2097549,-58,39,"98859d9e1a3a"
"2020-07-30T11:37:26",1596130646.535,2097757,-56,37,"98859d9e1a3a"
"2020-07-30T11:37:26",1596130646.958,2098180,-53,38,"98859d9e1a3a"
"2020-07-30T11:37:27",1596130647.164,2098386,-59,39,"98859d9e1a3a"
"2020-07-30T11:37:27",1596130647.578,2098800,-56,37,"98859d9e1a3a"
"2020-07-30T11:37:27",1596130647.789,2099011,-53,38,"98859d9e1a3a"
"2020-07-30T11:37:28",1596130648.201,2099423,-58,39,"98859d9e1a3a"
"2020-07-30T11:37:28",1596130648.412,2099634,-56,37,"98859d9e1a3a"
"2020-07-30T11:37:28",1596130648.822,2100044,-53,38,"98859d9e1a3a"
"2020-07-30T11:37:29",1596130649.035,2100257,-58,39,"98859d9e1a3a"
"2020-07-30T11:37:29",1596130649.444,2100666,-56,37,"98859d9e1a3a"
"2020-07-30T11:37:29",1596130649.659,2100881,-53,38,"98859d9e1a3a"
"2020-07-30T11:37:30",1596130650.069,2101291,-59,39,"98859d9e1a3a"
"2020-07-30T11:37:30",1596130650.284,2101506,-56,37,"98859d9e1a3a"
"2020-07-30T11:37:30",1596130650.692,2101914,-53,38,"98859d9e1a3a"
"2020-07-30T11:37:30",1596130650.901,2102123,-59,39,"98859d9e1a3a"
"2020-07-30T11:37:31",1596130651.321,2102543,-56,37,"98859d9e1a3a"
"2020-07-30T11:37:31",1596130651.532,2102754,-53,38,"98859d9e1a3a"
"2020-07-30T11:37:31",1596130651.944,2103166,-59,39,"98859d9e1a3a"
"2020-07-30T11:37:32",1596130652.15,2103372,-56,37,"98859d9e1a3a"
"2020-07-30T11:37:32",1596130652.565,2103787,-53,38,"98859d9e1a3a"
"2020-07-30T11:37:32",1596130652.772,2103994,-59,39,"98859d9e1a3a"
"2020-07-30T11:37:33",1596130653.189,2104411,-56,37,"98859d9e1a3a"
"2020-07-30T11:37:33",1596130653.402,2104624,-53,38,"98859d9e1a3a"
"2020-07-30T11:37:33",1596130653.811,2105033,-59,39,"98859d9e1a3a"
"2020-07-30T11:37:34",1596130654.022,2105244,-56,37,"98859d9e1a3a"
"2020-07-30T11:37:34",1596130654.441,2105663,-57,38,"98859d9e1a3a"
"2020-07-30T11:37:34",1596130654.647,2105869,-61,39,"98859d9e1a3a"
"2020-07-30T11:37:35",1596130655.062,2106284,-58,37,"98859d9e1a3a"
"2020-07-30T11:37:35",1596130655.27,2106492,-53,38,"98859d9e1a3a"
"2020-07-30T11:37:35",1596130655.691,2106913,-59,39,"98859d9e1a3a"
"2020-07-30T11:37:35",1596130655.9,2107122,-56,37,"98859d9e1a3a"
"2020-07-30T11:37:36",1596130656.311,2107533,-53,38,"98859d9e1a3a"
"2020-07-30T11:37:36",1596130656.526,2107748,-57,39,"98859d9e1a3a"
"2020-07-30T11:37:36",1596130656.938,2108160,-56,37,"98859d9e1a3a"
"2020-07-30T11:37:37",1596130657.142,2108364,-53,38,"98859d9e1a3a"
"2020-07-30T11:37:37",1596130657.562,2108784,-57,39,"98859d9e1a3a"
"2020-07-30T11:37:37",1596130657.772,2108994,-53,37,"98859d9e1a3a"
"2020-07-30T11:37:38",1596130658.192,2109414,-53,38,"98859d9e1a3a"
"2020-07-30T11:37:38",1596130658.397,2109619,-60,39,"98859d9e1a3a"
"2020-07-30T11:37:38",1596130658.814,2110036,-56,37,"98859d9e1a3a"
"2020-07-30T11:37:39",1596130659.018,2110240,-57,38,"98859d9e1a3a"
"2020-07-30T11:37:39",1596130659.437,2110659,-60,39,"98859d9e1a3a"
"2020-07-30T11:37:39",1596130659.652,2110874,-57,37,"98859d9e1a3a"
"2020-07-30T11:37:40",1596130660.058,2111280,-56,38,"98859d9e1a3a"
"2020-07-30T11:37:40",1596130660.269,2111491,-60,39,"98859d9e1a3a"
"2020-07-30T11:37:40",1596130660.682,2111904,-57,37,"98859d9e1a3a"
"2020-07-30T11:37:40",1596130660.896,2112118,-56,38,"98859d9e1a3a"
"2020-07-30T11:37:41",1596130661.933,2113155,-56,38,"98859d9e1a3a"
"2020-07-30T11:37:42",1596130662.147,2113369,-60,39,"98859d9e1a3a"
"2020-07-30T11:37:42",1596130662.562,2113784,-57,37,"98859d9e1a3a"
"2020-07-30T11:37:42",1596130662.767,2113989,-56,38,"98859d9e1a3a"
"2020-07-30T11:37:43",1596130663.181,2114403,-60,39,"98859d9e1a3a"
"2020-07-30T11:37:43",1596130663.39,2114612,-57,37,"98859d9e1a3a"
"2020-07-30T11:37:43",1596130663.811,2115033,-56,38,"98859d9e1a3a"
"2020-07-30T11:37:44",1596130664.02,2115242,-60,39,"98859d9e1a3a"
"2020-07-30T11:37:44",1596130664.432,2115654,-57,37,"98859d9e1a3a"
"2020-07-30T11:37:44",1596130664.642,2115864,-56,38,"98859d9e1a3a"
"2020-07-30T11:37:45",1596130665.062,2116284,-59,39,"98859d9e1a3a"
"2020-07-30T11:37:45",1596130665.275,2116497,-57,37,"98859d9e1a3a"
"2020-07-30T11:37:45",1596130665.687,2116909,-56,38,"98859d9e1a3a"
"2020-07-30T11:37:45",1596130665.893,2117115,-60,39,"98859d9e1a3a"
"2020-07-30T11:37:46",1596130666.315,2117537,-60,37,"98859d9e1a3a"
"2020-07-30T11:37:46",1596130666.522,2117744,-58,38,"98859d9e1a3a"
"2020-07-30T11:37:46",1596130666.93,2118152,-59,39,"98859d9e1a3a"
"2020-07-30T11:37:47",1596130667.142,2118364,-56,37,"98859d9e1a3a"
"2020-07-30T11:37:47",1596130667.558,2118780,-57,38,"98859d9e1a3a"
"2020-07-30T11:37:47",1596130667.763,2118985,-68,39,"98859d9e1a3a"
"2020-07-30T11:37:48",1596130668.182,2119404,-59,37,"98859d9e1a3a"
"2020-07-30T11:37:48",1596130668.392,2119614,-53,38,"98859d9e1a3a"
"2020-07-30T11:37:48",1596130668.812,2120034,-58,39,"98859d9e1a3a"
"2020-07-30T11:37:49",1596130669.022,2120244,-56,37,"98859d9e1a3a"
"2020-07-30T11:37:49",1596130669.432,2120654,-53,38,"98859d9e1a3a"
"2020-07-30T11:37:49",1596130669.64,2120862,-58,39,"98859d9e1a3a"
"2020-07-30T11:37:50",1596130670.054,2121276,-56,37,"98859d9e1a3a"
"2020-07-30T11:37:50",1596130670.261,2121483,-53,38,"98859d9e1a3a"
"2020-07-30T11:37:50",1596130670.677,2121899,-58,39,"98859d9e1a3a"
"2020-07-30T11:37:50",1596130670.89,2122112,-56,37,"98859d9e1a3a"
"2020-07-30T11:37:51",1596130671.307,2122529,-53,38,"98859d9e1a3a"
"2020-07-30T11:37:51",1596130671.517,2122739,-58,39,"98859d9e1a3a"
"2020-07-30T11:37:52",1596130672.554,2123776,-59,39,"98859d9e1a3a"
"2020-07-30T11:37:53",1596130673.181,2124403,-53,38,"98859d9e1a3a"
"2020-07-30T11:37:53",1596130673.387,2124609,-58,39,"98859d9e1a3a"
"2020-07-30T11:37:53",1596130673.802,2125024,-56,37,"98859d9e1a3a"
"2020-07-30T11:37:54",1596130674.014,2125236,-53,38,"98859d9e1a3a"
"2020-07-30T11:37:54",1596130674.428,2125650,-58,39,"98859d9e1a3a"
"2020-07-30T11:37:54",1596130674.638,2125860,-56,37,"98859d9e1a3a"
"2020-07-30T11:37:55",1596130675.052,2126274,-53,38,"98859d9e1a3a"
"2020-07-30T11:37:55",1596130675.263,2126485,-59,39,"98859d9e1a3a"
"2020-07-30T11:37:55",1596130675.683,2126905,-56,37,"98859d9e1a3a"
"2020-07-30T11:37:55",1596130675.892,2127114,-53,38,"98859d9e1a3a"
"2020-07-30T11:37:56",1596130676.312,2127534,-59,39,"98859d9e1a3a"
"2020-07-30T11:37:56",1596130676.523,2127745,-56,37,"98859d9e1a3a"
"2020-07-30T11:37:56",1596130676.935,2128157,-53,38,"98859d9e1a3a"
"2020-07-30T11:37:57",1596130677.141,2128363,-59,39,"98859d9e1a3a"
"2020-07-30T11:37:57",1596130677.559,2128781,-56,37,"98859d9e1a3a"
"2020-07-30T11:37:57",1596130677.767,2128989,-53,38,"98859d9e1a3a"
"2020-07-30T11:37:58",1596130678.179,2129401,-58,39,"98859d9e1a3a"
"2020-07-30T11:37:58",1596130678.389,2129611,-56,37,"98859d9e1a3a"
"2020-07-30T11:37:58",1596130678.806,2130028,-53,38,"98859d9e1a3a"
"2020-07-30T11:37:59",1596130679.021,2130243,-59,39,"98859d9e1a3a"
"2020-07-30T11:37:59",1596130679.432,2130654,-56,37,"98859d9e1a3a"
"2020-07-30T11:37:59",1596130679.643,2130865,-53,38,"98859d9e1a3a"
"2020-07-30T11:38:00",1596130680.053,2131275,-57,39,"98859d9e1a3a"
"2020-07-30T11:38:00",1596130680.268,2131490,-56,37,"98859d9e1a3a"
"2020-07-30T11:38:00",1596130680.681,2131903,-53,38,"98859d9e1a3a"
"2020-07-30T11:38:00",1596130680.891,2132113,-58,39,"98859d9e1a3a"
"2020-07-30T11:38:01",1596130681.308,2132530,-56,37,"98859d9e1a3a"
"2020-07-30T11:38:01",1596130681.515,2132737,-53,38,"98859d9e1a3a"
"2020-07-30T11:38:01",1596130681.922,2133144,-63,39,"98859d9e1a3a"
"2020-07-30T11:38:02",1596130682.133,2133355,-57,37,"98859d9e1a3a"
"2020-07-30T11:38:02",1596130682.557,2133779,-56,38,"98859d9e1a3a"
"2020-07-30T11:38:02",1596130682.762,2133984,-67,39,"98859d9e1a3a"
"2020-07-30T11:38:03",1596130683.183,2134405,-57,37,"98859d9e1a3a"
"2020-07-30T11:38:03",1596130683.388,2134610,-52,38,"98859d9e1a3a"
"2020-07-30T11:38:03",1596130683.807,2135029,-58,39,"98859d9e1a3a"
"2020-07-30T11:38:04",1596130684.013,2135235,-56,37,"98859d9e1a3a"
"2020-07-30T11:38:04",1596130684.427,2135649,-53,38,"98859d9e1a3a"
"2020-07-30T11:38:04",1596130684.634,2135856,-58,39,"98859d9e1a3a"
"2020-07-30T11:38:05",1596130685.056,2136278,-56,37,"98859d9e1a3a"
"2020-07-30T11:38:05",1596130685.26,2136482,-53,38,"98859d9e1a3a"
"2020-07-30T11:38:05",1596130685.679,2136901,-59,39,"98859d9e1a3a"
"2020-07-30T11:38:05",1596130685.883,2137105,-56,37,"98859d9e1a3a"
"2020-07-30T11:38:06",1596130686.296,2137518,-53,38,"98859d9e1a3a"
"2020-07-30T11:38:06",1596130686.92,2138142,-56,37,"98859d9e1a3a"
"2020-07-30T11:38:07",1596130687.132,2138354,-53,38,"98859d9e1a3a"
"2020-07-30T11:38:07",1596130687.548,2138770,-58,39,"98859d9e1a3a"
"2020-07-30T11:38:07",1596130687.757,2138979,-55,37,"98859d9e1a3a"
"2020-07-30T11:38:08",1596130688.17,2139392,-53,38,"98859d9e1a3a"
"2020-07-30T11:38:08",1596130688.382,2139604,-59,39,"98859d9e1a3a"
"2020-07-30T11:38:08",1596130688.793,2140015,-56,37,"98859d9e1a3a"
"2020-07-30T11:38:09",1596130689.008,2140230,-53,38,"98859d9e1a3a"
"2020-07-30T11:38:09",1596130689.627,2140849,-56,37,"98859d9e1a3a"
"2020-07-30T11:38:10",1596130690.042,2141264,-53,38,"98859d9e1a3a"
"2020-07-30T11:38:10",1596130690.254,2141476,-58,39,"98859d9e1a3a"
"2020-07-30T11:38:10",1596130690.667,2141889,-56,37,"98859d9e1a3a"
"2020-07-30T11:38:10",1596130690.881,2142103,-53,38,"98859d9e1a3a"
"2020-07-30T11:38:11",1596130691.295,2142517,-59,39,"98859d9e1a3a"
"2020-07-30T11:38:11",1596130691.501,2142723,-54,37,"98859d9e1a3a"
"2020-07-30T11:38:11",1596130691.922,2143144,-53,38,"98859d9e1a3a"
"2020-07-30T11:38:12",1596130692.126,2143348,-58,39,"98859d9e1a3a"
"2020-07-30T11:38:12",1596130692.753,2143975,-53,38,"98859d9e1a3a"
"2020-07-30T11:38:13",1596130693.173,2144395,-57,39,"98859d9e1a3a"
"2020-07-30T11:38:13",1596130693.378,2144600,-56,37,"98859d9e1a3a"
"2020-07-30T11:38:13",1596130693.804,2145026,-54,38,"98859d9e1a3a"
"2020-07-30T11:38:14",1596130694.008,2145230,-62,39,"98859d9e1a3a"
"2020-07-30T11:38:14",1596130694.424,2145646,-61,37,"98859d9e1a3a"
"2020-07-30T11:38:14",1596130694.639,2145861,-52,38,"98859d9e1a3a"
"2020-07-30T11:38:15",1596130695.049,2146271,-60,39,"98859d9e1a3a"
"2020-07-30T11:38:15",1596130695.261,2146483,-56,37,"98859d9e1a3a"
"2020-07-30T11:38:15",1596130695.674,2146896,-53,38,"98859d9e1a3a"
"2020-07-30T11:38:15",1596130695.88,2147102,-59,39,"98859d9e1a3a"
"2020-07-30T11:38:16",1596130696.299,2147521,-56,37,"98859d9e1a3a"
"2020-07-30T11:38:16",1596130696.51,2147732,-53,38,"98859d9e1a3a"
"2020-07-30T11:38:16",1596130696.923,2148145,-59,39,"98859d9e1a3a"
"2020-07-30T11:38:17",1596130697.133,2148355,-56,37,"98859d9e1a3a"
"2020-07-30T11:38:17",1596130697.549,2148771,-53,38,"98859d9e1a3a"
"2020-07-30T11:38:17",1596130697.757,2148979,-57,39,"98859d9e1a3a"
"2020-07-30T11:38:18",1596130698.167,2149389,-56,37,"98859d9e1a3a"
"2020-07-30T11:38:18",1596130698.379,2149601,-53,38,"98859d9e1a3a"
"2020-07-30T11:38:18",1596130698.798,2150020,-58,39,"98859d9e1a3a"
"2020-07-30T11:38:19",1596130699.004,2150226,-56,37,"98859d9e1a3a"
"2020-07-30T11:38:19",1596130699.418,2150640,-53,38,"98859d9e1a3a"
"2020-07-30T11:38:19",1596130699.632,2150854,-58,39,"98859d9e1a3a"
"2020-07-30T11:38:20",1596130700.044,2151266,-56,37,"98859d9e1a3a"
"2020-07-30T11:38:20",1596130700.253,2151475,-53,38,"98859d9e1a3a"
"2020-07-30T11:38:20",1596130700.666,2151888,-58,39,"98859d9e1a3a"
"2020-07-30T11:38:20",1596130700.875,2152097,-56,37,"98859d9e1a3a"
"2020-07-30T11:38:21",1596130701.289,2152511,-53,38,"98859d9e1a3a"
"2020-07-30T11:38:21",1596130701.497,2152719,-59,39,"98859d9e1a3a"
"2020-07-30T11:38:21",1596130701.914,2153136,-56,37,"98859d9e1a3a"
"2020-07-30T11:38:22",1596130702.127,2153349,-53,38,"98859d9e1a3a"
"2020-07-30T11:38:22",1596130702.544,2153766,-58,39,"98859d9e1a3a"
"2020-07-30T11:38:22",1596130702.75,2153972,-56,37,"98859d9e1a3a"
"2020-07-30T11:38:23",1596130703.17,2154392,-53,38,"98859d9e1a3a"
"2020-07-30T11:38:23",1596130703.374,2154596,-59,39,"98859d9e1a3a"
"2020-07-30T11:38:23",1596130703.789,2155011,-56,37,"98859d9e1a3a"
"2020-07-30T11:38:23",1596130703.994,2155216,-53,38,"98859d9e1a3a"
"2020-07-30T11:38:24",1596130704.41,2155632,-59,39,"98859d9e1a3a"
"2020-07-30T11:38:24",1596130704.624,2155846,-56,37,"98859d9e1a3a"
"2020-07-30T11:38:25",1596130705.036,2156258,-53,38,"98859d9e1a3a"
"2020-07-30T11:38:25",1596130705.25,2156472,-58,39,"98859d9e1a3a"
"2020-07-30T11:38:25",1596130705.661,2156883,-56,37,"98859d9e1a3a"
"2020-07-30T11:38:25",1596130705.872,2157094,-53,38,"98859d9e1a3a"
"2020-07-30T11:38:26",1596130706.29,2157512,-58,39,"98859d9e1a3a"
"2020-07-30T11:38:26",1596130706.498,2157720,-55,37,"98859d9e1a3a"
"2020-07-30T11:38:26",1596130706.906,2158128,-53,38,"98859d9e1a3a"
"2020-07-30T11:38:27",1596130707.117,2158339,-57,39,"98859d9e1a3a"
"2020-07-30T11:38:27",1596130707.536,2158758,-56,37,"98859d9e1a3a"
"2020-07-30T11:38:27",1596130707.746,2158968,-53,38,"98859d9e1a3a"
"2020-07-30T11:38:27",1596130707.946,2159168,-53,38,"98859d9e1a3a"
"2020-07-30T11:38:28",1596130708.159,2159381,-58,39,"98859d9e1a3a"
"2020-07-30T11:38:28",1596130708.373,2159595,-56,37,"98859d9e1a3a"
"2020-07-30T11:38:28",1596130708.781,2160003,-56,38,"98859d9e1a3a"
"2020-07-30T11:38:28",1596130708.991,2160213,-58,39,"98859d9e1a3a"
"2020-07-30T11:38:29",1596130709.194,2160416,-60,39,"98859d9e1a3a"
"2020-07-30T11:38:29",1596130709.408,2160630,-57,37,"98859d9e1a3a"
"2020-07-30T11:38:29",1596130709.617,2160839,-57,38,"98859d9e1a3a"
"2020-07-30T11:38:30",1596130710.037,2161259,-65,39,"98859d9e1a3a"
"2020-07-30T11:38:30",1596130710.248,2161470,-64,37,"98859d9e1a3a"
"2020-07-30T11:38:30",1596130710.664,2161886,-61,38,"98859d9e1a3a"
"2020-07-30T11:38:30",1596130710.873,2162095,-65,39,"98859d9e1a3a"
"2020-07-30T11:38:31",1596130711.29,2162512,-67,37,"98859d9e1a3a"
"2020-07-30T11:38:31",1596130711.498,2162720,-60,38,"98859d9e1a3a"
"2020-07-30T11:38:31",1596130711.909,2163131,-63,39,"98859d9e1a3a"
"2020-07-30T11:38:32",1596130712.12,2163342,-54,37,"98859d9e1a3a"
"2020-07-30T11:38:32",1596130712.531,2163753,-52,38,"98859d9e1a3a"
"2020-07-30T11:38:32",1596130712.744,2163966,-58,39,"98859d9e1a3a"
"2020-07-30T11:38:33",1596130713.153,2164375,-56,37,"98859d9e1a3a"
"2020-07-30T11:38:33",1596130713.363,2164585,-54,38,"98859d9e1a3a"
"2020-07-30T11:38:33",1596130713.568,2164790,-53,38,"98859d9e1a3a"
"2020-07-30T11:38:33",1596130713.783,2165005,-57,39,"98859d9e1a3a"
"2020-07-30T11:38:33",1596130713.993,2165215,-55,37,"98859d9e1a3a"
"2020-07-30T11:38:34",1596130714.414,2165636,-53,38,"98859d9e1a3a"
"2020-07-30T11:38:34",1596130714.624,2165846,-58,39,"98859d9e1a3a"
"2020-07-30T11:38:35",1596130715.039,2166261,-54,37,"98859d9e1a3a"
"2020-07-30T11:38:35",1596130715.245,2166467,-53,38,"98859d9e1a3a"
"2020-07-30T11:38:35",1596130715.663,2166885,-59,39,"98859d9e1a3a"
"2020-07-30T11:38:35",1596130715.875,2167097,-56,37,"98859d9e1a3a"
"2020-07-30T11:38:36",1596130716.286,2167508,-53,38,"98859d9e1a3a"
"2020-07-30T11:38:36",1596130716.492,2167714,-59,39,"98859d9e1a3a"
"2020-07-30T11:38:36",1596130716.909,2168131,-56,37,"98859d9e1a3a"
"2020-07-30T11:38:37",1596130717.122,2168344,-53,38,"98859d9e1a3a"
"2020-07-30T11:38:37",1596130717.535,2168757,-59,39,"98859d9e1a3a"
"2020-07-30T11:38:37",1596130717.748,2168970,-56,37,"98859d9e1a3a"
"2020-07-30T11:38:38",1596130718.157,2169379,-53,38,"98859d9e1a3a"
"2020-07-30T11:38:38",1596130718.369,2169591,-59,39,"98859d9e1a3a"
"2020-07-30T11:38:38",1596130718.781,2170003,-56,37,"98859d9e1a3a"
"2020-07-30T11:38:38",1596130718.994,2170216,-53,38,"98859d9e1a3a"
"2020-07-30T11:38:39",1596130719.406,2170628,-58,39,"98859d9e1a3a"
"2020-07-30T11:38:39",1596130719.618,2170840,-56,37,"98859d9e1a3a"
"2020-07-30T11:38:39",1596130719.822,2171044,-56,37,"98859d9e1a3a"
"2020-07-30T11:38:40",1596130720.03,2171252,-53,38,"98859d9e1a3a"
"2020-07-30T11:38:40",1596130720.445,2171667,-58,39,"98859d9e1a3a"
"2020-07-30T11:38:40",1596130720.658,2171880,-56,37,"98859d9e1a3a"
"2020-07-30T11:38:40",1596130720.865,2172087,-53,38,"98859d9e1a3a"
"2020-07-30T11:38:41",1596130721.279,2172501,-59,39,"98859d9e1a3a"
"2020-07-30T11:38:41",1596130721.696,2172918,-56,37,"98859d9e1a3a"
"2020-07-30T11:38:41",1596130721.902,2173124,-53,38,"98859d9e1a3a"
"2020-07-30T11:38:42",1596130722.317,2173539,-58,39,"98859d9e1a3a"
"2020-07-30T11:38:42",1596130722.525,2173747,-56,37,"98859d9e1a3a"
"2020-07-30T11:38:42",1596130722.94,2174162,-53,38,"98859d9e1a3a"
"2020-07-30T11:38:43",1596130723.144,2174366,-58,39,"98859d9e1a3a"
"2020-07-30T11:38:43",1596130723.565,2174787,-56,37,"98859d9e1a3a"
"2020-07-30T11:38:43",1596130723.774,2174996,-53,38,"98859d9e1a3a"
"2020-07-30T11:38:44",1596130724.189,2175411,-58,39,"98859d9e1a3a"
"2020-07-30T11:38:44",1596130724.397,2175619,-56,37,"98859d9e1a3a"
"2020-07-30T11:38:44",1596130724.82,2176042,-53,38,"98859d9e1a3a"
"2020-07-30T11:38:45",1596130725.028,2176250,-58,39,"98859d9e1a3a"
"2020-07-30T11:38:45",1596130725.239,2176461,-56,37,"98859d9e1a3a"
"2020-07-30T11:38:45",1596130725.443,2176665,-56,37,"98859d9e1a3a"
"2020-07-30T11:38:45",1596130725.648,2176870,-53,38,"98859d9e1a3a"
"2020-07-30T11:38:46",1596130726.065,2177287,-58,39,"98859d9e1a3a"
"2020-07-30T11:38:46",1596130726.276,2177498,-56,37,"98859d9e1a3a"
"2020-07-30T11:38:46",1596130726.689,2177911,-53,38,"98859d9e1a3a"
"2020-07-30T11:38:46",1596130726.895,2178117,-58,39,"98859d9e1a3a"
"2020-07-30T11:38:47",1596130727.309,2178531,-56,37,"98859d9e1a3a"
"2020-07-30T11:38:47",1596130727.524,2178746,-53,38,"98859d9e1a3a"
"2020-07-30T11:38:47",1596130727.935,2179157,-59,39,"98859d9e1a3a"
"2020-07-30T11:38:48",1596130728.145,2179367,-56,37,"98859d9e1a3a"
"2020-07-30T11:38:48",1596130728.558,2179780,-53,38,"98859d9e1a3a"
"2020-07-30T11:38:48",1596130728.771,2179993,-58,39,"98859d9e1a3a"
"2020-07-30T11:38:49",1596130729.186,2180408,-56,37,"98859d9e1a3a"
"2020-07-30T11:38:49",1596130729.396,2180618,-53,38,"98859d9e1a3a"
"2020-07-30T11:38:49",1596130729.807,2181029,-58,39,"98859d9e1a3a"
"2020-07-30T11:38:50",1596130730.015,2181237,-56,37,"98859d9e1a3a"
"2020-07-30T11:38:50",1596130730.424,2181646,-53,38,"98859d9e1a3a"
"2020-07-30T11:38:50",1596130730.636,2181858,-58,39,"98859d9e1a3a"
"2020-07-30T11:38:51",1596130731.05,2182272,-56,37,"98859d9e1a3a"
"2020-07-30T11:38:51",1596130731.264,2182486,-53,38,"98859d9e1a3a"
"2020-07-30T11:38:51",1596130731.68,2182902,-58,39,"98859d9e1a3a"
"2020-07-30T11:38:51",1596130731.889,2183111,-56,37,"98859d9e1a3a"
"2020-07-30T11:38:52",1596130732.3,2183522,-53,38,"98859d9e1a3a"
"2020-07-30T11:38:52",1596130732.513,2183735,-58,39,"98859d9e1a3a"
"2020-07-30T11:38:52",1596130732.925,2184147,-56,37,"98859d9e1a3a"
"2020-07-30T11:38:53",1596130733.138,2184360,-53,38,"98859d9e1a3a"
"2020-07-30T11:38:53",1596130733.549,2184771,-58,39,"98859d9e1a3a"
"2020-07-30T11:38:53",1596130733.76,2184982,-56,37,"98859d9e1a3a"
"2020-07-30T11:38:54",1596130734.177,2185399,-53,38,"98859d9e1a3a"
"2020-07-30T11:38:54",1596130734.386,2185608,-59,39,"98859d9e1a3a"
"2020-07-30T11:38:54",1596130734.804,2186026,-56,37,"98859d9e1a3a"
"2020-07-30T11:38:55",1596130735.013,2186235,-53,38,"98859d9e1a3a"
"2020-07-30T11:38:55",1596130735.42,2186642,-58,39,"98859d9e1a3a"
"2020-07-30T11:38:55",1596130735.631,2186853,-56,37,"98859d9e1a3a"
"2020-07-30T11:38:56",1596130736.05,2187272,-53,38,"98859d9e1a3a"
"2020-07-30T11:38:56",1596130736.262,2187484,-58,39,"98859d9e1a3a"
"2020-07-30T11:38:56",1596130736.676,2187898,-56,37,"98859d9e1a3a"
"2020-07-30T11:38:56",1596130736.88,2188102,-53,38,"98859d9e1a3a"
"2020-07-30T11:38:57",1596130737.297,2188519,-59,39,"98859d9e1a3a"
"2020-07-30T11:38:57",1596130737.51,2188732,-56,37,"98859d9e1a3a"
"2020-07-30T11:38:57",1596130737.921,2189143,-53,38,"98859d9e1a3a"
"2020-07-30T11:38:58",1596130738.136,2189358,-59,39,"98859d9e1a3a"
"2020-07-30T11:38:58",1596130738.544,2189766,-56,37,"98859d9e1a3a"
"2020-07-30T11:38:58",1596130738.758,2189980,-53,38,"98859d9e1a3a"
"2020-07-30T11:38:59",1596130739.164,2190386,-58,39,"98859d9e1a3a"
"2020-07-30T11:38:59",1596130739.376,2190598,-56,37,"98859d9e1a3a"
"2020-07-30T11:38:59",1596130739.795,2191017,-53,38,"98859d9e1a3a"
"2020-07-30T11:39:00",1596130740.005,2191227,-59,39,"98859d9e1a3a"
"2020-07-30T11:39:00",1596130740.415,2191637,-56,37,"98859d9e1a3a"
"2020-07-30T11:39:00",1596130740.628,2191850,-53,38,"98859d9e1a3a"
"2020-07-30T11:39:01",1596130741.043,2192265,-59,39,"98859d9e1a3a"
"2020-07-30T11:39:01",1596130741.247,2192469,-56,37,"98859d9e1a3a"
"2020-07-30T11:39:01",1596130741.663,2192885,-53,38,"98859d9e1a3a"
"2020-07-30T11:39:01",1596130741.872,2193094,-58,39,"98859d9e1a3a"
"2020-07-30T11:39:02",1596130742.293,2193515,-56,37,"98859d9e1a3a"
"2020-07-30T11:39:02",1596130742.499,2193721,-53,38,"98859d9e1a3a"
"2020-07-30T11:39:02",1596130742.915,2194137,-58,39,"98859d9e1a3a"
"2020-07-30T11:39:03",1596130743.125,2194347,-54,37,"98859d9e1a3a"
"2020-07-30T11:39:03",1596130743.541,2194763,-55,38,"98859d9e1a3a"
"2020-07-30T11:39:03",1596130743.755,2194977,-61,39,"98859d9e1a3a"
"2020-07-30T11:39:04",1596130744.169,2195391,-59,37,"98859d9e1a3a"
"2020-07-30T11:39:04",1596130744.379,2195601,-56,38,"98859d9e1a3a"
"2020-07-30T11:39:04",1596130744.793,2196015,-57,39,"98859d9e1a3a"
"2020-07-30T11:39:05",1596130745.007,2196229,-55,37,"98859d9e1a3a"
"2020-07-30T11:39:05",1596130745.418,2196640,-53,38,"98859d9e1a3a"
"2020-07-30T11:39:05",1596130745.625,2196847,-57,39,"98859d9e1a3a"
"2020-07-30T11:39:06",1596130746.041,2197263,-56,37,"98859d9e1a3a"
"2020-07-30T11:39:06",1596130746.254,2197476,-53,38,"98859d9e1a3a"
"2020-07-30T11:39:06",1596130746.67,2197892,-58,39,"98859d9e1a3a"
"2020-07-30T11:39:06",1596130746.875,2198097,-56,37,"98859d9e1a3a"
"2020-07-30T11:39:07",1596130747.286,2198508,-53,38,"98859d9e1a3a"
"2020-07-30T11:39:07",1596130747.498,2198720,-58,39,"98859d9e1a3a"
"2020-07-30T11:39:07",1596130747.92,2199142,-56,37,"98859d9e1a3a"
"2020-07-30T11:39:08",1596130748.129,2199351,-53,38,"98859d9e1a3a"
"2020-07-30T11:39:08",1596130748.54,2199762,-58,39,"98859d9e1a3a"
"2020-07-30T11:39:08",1596130748.755,2199977,-56,37,"98859d9e1a3a"
"2020-07-30T11:39:09",1596130749.164,2200386,-53,38,"98859d9e1a3a"
"2020-07-30T11:39:09",1596130749.369,2200591,-59,39,"98859d9e1a3a"
"2020-07-30T11:39:09",1596130749.787,2201009,-54,37,"98859d9e1a3a"
"2020-07-30T11:39:09",1596130749.995,2201217,-53,38,"98859d9e1a3a"
"2020-07-30T11:39:10",1596130750.625,2201847,-56,37,"98859d9e1a3a"
"2020-07-30T11:39:11",1596130751.039,2202261,-53,38,"98859d9e1a3a"
"2020-07-30T11:39:11",1596130751.248,2202470,-58,39,"98859d9e1a3a"
"2020-07-30T11:39:11",1596130751.667,2202889,-55,37,"98859d9e1a3a"
"2020-07-30T11:39:11",1596130751.88,2203102,-53,38,"98859d9e1a3a"
"2020-07-30T11:39:12",1596130752.287,2203509,-59,39,"98859d9e1a3a"
"2020-07-30T11:39:12",1596130752.496,2203718,-55,37,"98859d9e1a3a"
"2020-07-30T11:39:12",1596130752.917,2204139,-53,38,"98859d9e1a3a"
"2020-07-30T11:39:13",1596130753.127,2204349,-58,39,"98859d9e1a3a"
"2020-07-30T11:39:13",1596130753.54,2204762,-56,37,"98859d9e1a3a"
"2020-07-30T11:39:13",1596130753.745,2204967,-53,38,"98859d9e1a3a"
"2020-07-30T11:39:14",1596130754.166,2205388,-58,39,"98859d9e1a3a"
"2020-07-30T11:39:14",1596130754.371,2205593,-56,37,"98859d9e1a3a"
"2020-07-30T11:39:14",1596130754.789,2206011,-53,38,"98859d9e1a3a"
"2020-07-30T11:39:14",1596130754.997,2206219,-58,39,"98859d9e1a3a"
"2020-07-30T11:39:15",1596130755.416,2206638,-56,37,"98859d9e1a3a"
"2020-07-30T11:39:15",1596130755.62,2206842,-53,38,"98859d9e1a3a"
"2020-07-30T11:39:16",1596130756.034,2207256,-58,39,"98859d9e1a3a"
"2020-07-30T11:39:16",1596130756.249,2207471,-56,37,"98859d9e1a3a"
"2020-07-30T11:39:16",1596130756.664,2207886,-53,38,"98859d9e1a3a"
"2020-07-30T11:39:16",1596130756.875,2208097,-58,39,"98859d9e1a3a"
"2020-07-30T11:39:17",1596130757.286,2208508,-56,37,"98859d9e1a3a"
"2020-07-30T11:39:17",1596130757.5,2208722,-53,38,"98859d9e1a3a"
"2020-07-30T11:39:17",1596130757.916,2209138,-59,39,"98859d9e1a3a"
"2020-07-30T11:39:18",1596130758.126,2209348,-56,37,"98859d9e1a3a"
"2020-07-30T11:39:18",1596130758.756,2209978,-59,39,"98859d9e1a3a"
"2020-07-30T11:39:19",1596130759.169,2210391,-56,37,"98859d9e1a3a"
"2020-07-30T11:39:19",1596130759.385,2210607,-53,38,"98859d9e1a3a"
"2020-07-30T11:39:19",1596130759.8,2211022,-58,39,"98859d9e1a3a"
"2020-07-30T11:39:20",1596130760.01,2211232,-56,37,"98859d9e1a3a"
"2020-07-30T11:39:20",1596130760.431,2211653,-53,38,"98859d9e1a3a"
"2020-07-30T11:39:20",1596130760.636,2211858,-59,39,"98859d9e1a3a"
"2020-07-30T11:39:21",1596130761.051,2212273,-56,37,"98859d9e1a3a"
"2020-07-30T11:39:21",1596130761.266,2212488,-53,38,"98859d9e1a3a"
"2020-07-30T11:39:21",1596130761.68,2212902,-58,39,"98859d9e1a3a"
"2020-07-30T11:39:21",1596130761.889,2213111,-56,37,"98859d9e1a3a"
"2020-07-30T11:39:22",1596130762.305,2213527,-53,38,"98859d9e1a3a"
"2020-07-30T11:39:22",1596130762.509,2213731,-58,39,"98859d9e1a3a"
"2020-07-30T11:39:22",1596130762.927,2214149,-56,37,"98859d9e1a3a"
"2020-07-30T11:39:23",1596130763.136,2214358,-53,38,"98859d9e1a3a"
"2020-07-30T11:39:23",1596130763.549,2214771,-59,39,"98859d9e1a3a"
"2020-07-30T11:39:23",1596130763.755,2214977,-56,37,"98859d9e1a3a"
"2020-07-30T11:39:24",1596130764.172,2215394,-53,38,"98859d9e1a3a"
"2020-07-30T11:39:24",1596130764.378,2215600,-58,39,"98859d9e1a3a"
"2020-07-30T11:39:24",1596130764.794,2216016,-56,37,"98859d9e1a3a"
"2020-07-30T11:39:25",1596130765.008,2216230,-53,38,"98859d9e1a3a"
"2020-07-30T11:39:25",1596130765.419,2216641,-58,39,"98859d9e1a3a"
"2020-07-30T11:39:25",1596130765.631,2216853,-56,37,"98859d9e1a3a"
"2020-07-30T11:39:26",1596130766.047,2217269,-53,38,"98859d9e1a3a"
"2020-07-30T11:39:26",1596130766.256,2217478,-59,39,"98859d9e1a3a"
"2020-07-30T11:39:26",1596130766.667,2217889,-56,37,"98859d9e1a3a"
"2020-07-30T11:39:26",1596130766.881,2218103,-53,38,"98859d9e1a3a"
"2020-07-30T11:39:27",1596130767.291,2218513,-58,39,"98859d9e1a3a"
"2020-07-30T11:39:27",1596130767.503,2218725,-56,37,"98859d9e1a3a"
"2020-07-30T11:39:27",1596130767.921,2219143,-53,38,"98859d9e1a3a"
"2020-07-30T11:39:28",1596130768.13,2219352,-59,39,"98859d9e1a3a"
"2020-07-30T11:39:28",1596130768.544,2219766,-56,37,"98859d9e1a3a"
"2020-07-30T11:39:28",1596130768.752,2219974,-53,38,"98859d9e1a3a"
"2020-07-30T11:39:29",1596130769.168,2220390,-58,39,"98859d9e1a3a"
"2020-07-30T11:39:29",1596130769.381,2220603,-56,37,"98859d9e1a3a"
"2020-07-30T11:39:29",1596130769.796,2221018,-53,38,"98859d9e1a3a"
"2020-07-30T11:39:30",1596130770.006,2221228,-58,39,"98859d9e1a3a"
"2020-07-30T11:39:30",1596130770.422,2221644,-56,37,"98859d9e1a3a"
"2020-07-30T11:39:30",1596130770.631,2221853,-53,38,"98859d9e1a3a"
"2020-07-30T11:39:31",1596130771.048,2222270,-58,39,"98859d9e1a3a"
"2020-07-30T11:39:31",1596130771.258,2222480,-56,37,"98859d9e1a3a"
"2020-07-30T11:39:31",1596130771.676,2222898,-53,38,"98859d9e1a3a"
"2020-07-30T11:39:31",1596130771.881,2223103,-58,39,"98859d9e1a3a"
"2020-07-30T11:39:32",1596130772.291,2223513,-56,37,"98859d9e1a3a"
"2020-07-30T11:39:32",1596130772.5,2223722,-53,38,"98859d9e1a3a"
"2020-07-30T11:39:32",1596130772.918,2224140,-58,39,"98859d9e1a3a"
"2020-07-30T11:39:33",1596130773.126,2224348,-56,37,"98859d9e1a3a"
"2020-07-30T11:39:33",1596130773.547,2224769,-53,38,"98859d9e1a3a"
"2020-07-30T11:39:33",1596130773.756,2224978,-58,39,"98859d9e1a3a"
"2020-07-30T11:39:34",1596130774.377,2225599,-53,38,"98859d9e1a3a"
"2020-07-30T11:39:34",1596130774.793,2226015,-58,39,"98859d9e1a3a"
"2020-07-30T11:39:35",1596130775.007,2226229,-56,37,"98859d9e1a3a"
"2020-07-30T11:39:35",1596130775.422,2226644,-53,38,"98859d9e1a3a"
"2020-07-30T11:39:35",1596130775.628,2226850,-59,39,"98859d9e1a3a"
"2020-07-30T11:39:36",1596130776.044,2227266,-56,37,"98859d9e1a3a"
"2020-07-30T11:39:36",1596130776.257,2227479,-53,38,"98859d9e1a3a"
"2020-07-30T11:39:36",1596130776.674,2227896,-58,39,"98859d9e1a3a"
"2020-07-30T11:39:36",1596130776.877,2228099,-56,37,"98859d9e1a3a"
"2020-07-30T11:39:37",1596130777.29,2228512,-53,38,"98859d9e1a3a"
"2020-07-30T11:39:37",1596130777.919,2229141,-56,37,"98859d9e1a3a"
"2020-07-30T11:39:38",1596130778.126,2229348,-53,38,"98859d9e1a3a"
"2020-07-30T11:39:38",1596130778.542,2229764,-59,39,"98859d9e1a3a"
"2020-07-30T11:39:38",1596130778.756,2229978,-56,37,"98859d9e1a3a"
"2020-07-30T11:39:39",1596130779.166,2230388,-53,38,"98859d9e1a3a"
"2020-07-30T11:39:39",1596130779.374,2230596,-59,39,"98859d9e1a3a"
"2020-07-30T11:39:39",1596130779.795,2231017,-56,37,"98859d9e1a3a"
"2020-07-30T11:39:40",1596130780,2231222,-53,38,"98859d9e1a3a"
"2020-07-30T11:39:40",1596130780.417,2231639,-58,39,"98859d9e1a3a"
"2020-07-30T11:39:40",1596130780.631,2231853,-56,37,"98859d9e1a3a"
"2020-07-30T11:39:41",1596130781.037,2232259,-53,38,"98859d9e1a3a"
"2020-07-30T11:39:41",1596130781.248,2232470,-59,39,"98859d9e1a3a"
"2020-07-30T11:39:41",1596130781.665,2232887,-56,37,"98859d9e1a3a"
"2020-07-30T11:39:41",1596130781.869,2233091,-53,38,"98859d9e1a3a"
"2020-07-30T11:39:42",1596130782.292,2233514,-58,39,"98859d9e1a3a"
"2020-07-30T11:39:42",1596130782.499,2233721,-56,37,"98859d9e1a3a"
"2020-07-30T11:39:42",1596130782.911,2234133,-53,38,"98859d9e1a3a"
"2020-07-30T11:39:43",1596130783.123,2234345,-58,39,"98859d9e1a3a"
"2020-07-30T11:39:43",1596130783.532,2234754,-56,37,"98859d9e1a3a"
"2020-07-30T11:39:43",1596130783.743,2234965,-53,38,"98859d9e1a3a"
"2020-07-30T11:39:44",1596130784.159,2235381,-58,39,"98859d9e1a3a"
"2020-07-30T11:39:44",1596130784.371,2235593,-56,37,"98859d9e1a3a"
"2020-07-30T11:39:44",1596130784.786,2236008,-53,38,"98859d9e1a3a"
"2020-07-30T11:39:44",1596130784.996,2236218,-58,39,"98859d9e1a3a"
"2020-07-30T11:39:45",1596130785.412,2236634,-56,37,"98859d9e1a3a"
"2020-07-30T11:39:45",1596130785.619,2236841,-53,38,"98859d9e1a3a"
"2020-07-30T11:39:46",1596130786.034,2237256,-58,39,"98859d9e1a3a"
"2020-07-30T11:39:46",1596130786.247,2237469,-56,37,"98859d9e1a3a"
"2020-07-30T11:39:46",1596130786.664,2237886,-53,38,"98859d9e1a3a"
"2020-07-30T11:39:46",1596130786.873,2238095,-58,39,"98859d9e1a3a"
"2020-07-30T11:39:47",1596130787.283,2238505,-56,37,"98859d9e1a3a"
"2020-07-30T11:39:47",1596130787.496,2238718,-53,38,"98859d9e1a3a"
"2020-07-30T11:39:47",1596130787.918,2239140,-58,39,"98859d9e1a3a"
"2020-07-30T11:39:48",1596130788.127,2239349,-56,37,"98859d9e1a3a"
"2020-07-30T11:39:48",1596130788.543,2239765,-53,38,"98859d9e1a3a"
"2020-07-30T11:39:48",1596130788.747,2239969,-59,39,"98859d9e1a3a"
"2020-07-30T11:39:49",1596130789.171,2240393,-56,37,"98859d9e1a3a"
"2020-07-30T11:39:49",1596130789.378,2240600,-53,38,"98859d9e1a3a"
"2020-07-30T11:39:49",1596130789.797,2241019,-58,39,"98859d9e1a3a"
"2020-07-30T11:39:50",1596130790.005,2241227,-55,37,"98859d9e1a3a"
"2020-07-30T11:39:50",1596130790.419,2241641,-53,38,"98859d9e1a3a"
"2020-07-30T11:39:50",1596130790.626,2241848,-58,39,"98859d9e1a3a"
"2020-07-30T11:39:51",1596130791.041,2242263,-56,37,"98859d9e1a3a"
"2020-07-30T11:39:51",1596130791.253,2242475,-53,38,"98859d9e1a3a"
"2020-07-30T11:39:51",1596130791.667,2242889,-57,39,"98859d9e1a3a"
"2020-07-30T11:39:52",1596130792.293,2243515,-56,38,"98859d9e1a3a"
"2020-07-30T11:39:52",1596130792.498,2243720,-66,39,"98859d9e1a3a"
"2020-07-30T11:39:52",1596130792.917,2244139,-62,37,"98859d9e1a3a"
"2020-07-30T11:39:53",1596130793.123,2244345,-62,38,"98859d9e1a3a"
"2020-07-30T11:39:53",1596130793.54,2244762,-62,39,"98859d9e1a3a"
"2020-07-30T11:39:53",1596130793.746,2244968,-59,37,"98859d9e1a3a"
"2020-07-30T11:39:54",1596130794.16,2245382,-54,38,"98859d9e1a3a"
"2020-07-30T11:39:54",1596130794.368,2245590,-59,39,"98859d9e1a3a"
"2020-07-30T11:39:54",1596130794.787,2246009,-56,37,"98859d9e1a3a"
"2020-07-30T11:39:54",1596130794.997,2246219,-53,38,"98859d9e1a3a"
"2020-07-30T11:39:55",1596130795.409,2246631,-59,39,"98859d9e1a3a"
"2020-07-30T11:39:55",1596130795.62,2246842,-56,37,"98859d9e1a3a"
"2020-07-30T11:39:56",1596130796.03,2247252,-53,38,"98859d9e1a3a"
"2020-07-30T11:39:56",1596130796.245,2247467,-58,39,"98859d9e1a3a"
"2020-07-30T11:39:56",1596130796.658,2247880,-56,37,"98859d9e1a3a"
"2020-07-30T11:39:56",1596130796.871,2248093,-53,38,"98859d9e1a3a"
"2020-07-30T11:39:57",1596130797.286,2248508,-58,39,"98859d9e1a3a"
"2020-07-30T11:39:57",1596130797.491,2248713,-56,37,"98859d9e1a3a"
"2020-07-30T11:39:57",1596130797.911,2249133,-53,38,"98859d9e1a3a"
"2020-07-30T11:39:58",1596130798.117,2249339,-58,39,"98859d9e1a3a"
"2020-07-30T11:39:58",1596130798.527,2249749,-56,37,"98859d9e1a3a"
"2020-07-30T11:39:58",1596130798.742,2249964,-53,38,"98859d9e1a3a"
"2020-07-30T11:39:59",1596130799.16,2250382,-59,39,"98859d9e1a3a"
"2020-07-30T11:39:59",1596130799.369,2250591,-56,37,"98859d9e1a3a"
"2020-07-30T11:39:59",1596130799.78,2251002,-53,38,"98859d9e1a3a"
"2020-07-30T11:39:59",1596130799.991,2251213,-59,39,"98859d9e1a3a"
"2020-07-30T11:40:00",1596130800.403,2251625,-56,37,"98859d9e1a3a"
"2020-07-30T11:40:00",1596130800.613,2251835,-53,38,"98859d9e1a3a"
"2020-07-30T11:40:01",1596130801.034,2252256,-58,39,"98859d9e1a3a"
"2020-07-30T11:40:01",1596130801.245,2252467,-56,37,"98859d9e1a3a"
"2020-07-30T11:40:01",1596130801.659,2252881,-53,38,"98859d9e1a3a"
"2020-07-30T11:40:01",1596130801.868,2253090,-58,39,"98859d9e1a3a"
"2020-07-30T11:40:02",1596130802.283,2253505,-56,37,"98859d9e1a3a"
"2020-07-30T11:40:02",1596130802.489,2253711,-53,38,"98859d9e1a3a"
"2020-07-30T11:40:02",1596130802.905,2254127,-58,39,"98859d9e1a3a"
"2020-07-30T11:40:03",1596130803.118,2254340,-55,37,"98859d9e1a3a"
"2020-07-30T11:40:03",1596130803.524,2254746,-53,38,"98859d9e1a3a"
"2020-07-30T11:40:03",1596130803.735,2254957,-58,39,"98859d9e1a3a"
"2020-07-30T11:40:04",1596130804.155,2255377,-59,37,"98859d9e1a3a"
"2020-07-30T11:40:04",1596130804.363,2255585,-59,38,"98859d9e1a3a"
"2020-07-30T11:40:04",1596130804.779,2256001,-61,39,"98859d9e1a3a"
"2020-07-30T11:40:04",1596130804.988,2256210,-65,37,"98859d9e1a3a"
"2020-07-30T11:40:05",1596130805.408,2256630,-53,38,"98859d9e1a3a"
"2020-07-30T11:40:05",1596130805.617,2256839,-57,39,"98859d9e1a3a"
"2020-07-30T11:40:06",1596130806.037,2257259,-57,37,"98859d9e1a3a"
"2020-07-30T11:40:06",1596130806.247,2257469,-54,38,"98859d9e1a3a"
"2020-07-30T11:40:06",1596130806.658,2257880,-58,39,"98859d9e1a3a"
"2020-07-30T11:40:06",1596130806.871,2258093,-56,37,"98859d9e1a3a"
"2020-07-30T11:40:07",1596130807.288,2258510,-53,38,"98859d9e1a3a"
"2020-07-30T11:40:07",1596130807.494,2258716,-58,39,"98859d9e1a3a"
"2020-07-30T11:40:07",1596130807.912,2259134,-56,37,"98859d9e1a3a"
"2020-07-30T11:40:08",1596130808.126,2259348,-53,38,"98859d9e1a3a"
"2020-07-30T11:40:08",1596130808.538,2259760,-58,39,"98859d9e1a3a"
"2020-07-30T11:40:08",1596130808.748,2259970,-55,37,"98859d9e1a3a"
"2020-07-30T11:40:09",1596130809.163,2260385,-53,38,"98859d9e1a3a"
"2020-07-30T11:40:09",1596130809.374,2260596,-59,39,"98859d9e1a3a"
"2020-07-30T11:40:09",1596130809.783,2261005,-55,37,"98859d9e1a3a"
"2020-07-30T11:40:09",1596130809.998,2261220,-53,38,"98859d9e1a3a"
"2020-07-30T11:40:10",1596130810.41,2261632,-58,39,"98859d9e1a3a"
"2020-07-30T11:40:11",1596130811.043,2262265,-53,38,"98859d9e1a3a"
"2020-07-30T11:40:11",1596130811.247,2262469,-58,39,"98859d9e1a3a"
"2020-07-30T11:40:11",1596130811.662,2262884,-55,37,"98859d9e1a3a"
"2020-07-30T11:40:11",1596130811.872,2263094,-54,38,"98859d9e1a3a"
"2020-07-30T11:40:12",1596130812.29,2263512,-58,39,"98859d9e1a3a"
"2020-07-30T11:40:12",1596130812.496,2263718,-54,37,"98859d9e1a3a"
"2020-07-30T11:40:12",1596130812.907,2264129,-54,38,"98859d9e1a3a"
"2020-07-30T11:40:13",1596130813.123,2264345,-59,39,"98859d9e1a3a"
"2020-07-30T11:40:13",1596130813.538,2264760,-62,37,"98859d9e1a3a"
"2020-07-30T11:40:13",1596130813.752,2264974,-55,38,"98859d9e1a3a"
"2020-07-30T11:40:14",1596130814.163,2265385,-63,39,"98859d9e1a3a"
"2020-07-30T11:40:14",1596130814.37,2265592,-61,37,"98859d9e1a3a"
"2020-07-30T11:40:14",1596130814.791,2266013,-53,38,"98859d9e1a3a"
"2020-07-30T11:40:15",1596130815.001,2266223,-57,39,"98859d9e1a3a"
"2020-07-30T11:40:15",1596130815.416,2266638,-56,37,"98859d9e1a3a"
"2020-07-30T11:40:15",1596130815.623,2266845,-53,38,"98859d9e1a3a"
"2020-07-30T11:40:16",1596130816.039,2267261,-59,39,"98859d9e1a3a"
"2020-07-30T11:40:16",1596130816.247,2267469,-56,37,"98859d9e1a3a"
"2020-07-30T11:40:16",1596130816.665,2267887,-53,38,"98859d9e1a3a"
"2020-07-30T11:40:16",1596130816.876,2268098,-58,39,"98859d9e1a3a"
"2020-07-30T11:40:17",1596130817.289,2268511,-56,37,"98859d9e1a3a"
"2020-07-30T11:40:17",1596130817.499,2268721,-53,38,"98859d9e1a3a"
"2020-07-30T11:40:17",1596130817.918,2269140,-58,39,"98859d9e1a3a"
"2020-07-30T11:40:18",1596130818.128,2269350,-56,37,"98859d9e1a3a"
"2020-07-30T11:40:18",1596130818.542,2269764,-53,38,"98859d9e1a3a"
"2020-07-30T11:40:18",1596130818.746,2269968,-58,39,"98859d9e1a3a"
"2020-07-30T11:40:19",1596130819.164,2270386,-56,37,"98859d9e1a3a"
"2020-07-30T11:40:19",1596130819.378,2270600,-53,38,"98859d9e1a3a"
"2020-07-30T11:40:19",1596130819.791,2271013,-58,39,"98859d9e1a3a"
"2020-07-30T11:40:20",1596130820.001,2271223,-56,37,"98859d9e1a3a"
"2020-07-30T11:40:20",1596130820.409,2271631,-53,38,"98859d9e1a3a"
"2020-07-30T11:40:20",1596130820.623,2271845,-58,39,"98859d9e1a3a"
"2020-07-30T11:40:21",1596130821.038,2272260,-53,37,"98859d9e1a3a"
"2020-07-30T11:40:21",1596130821.248,2272470,-55,38,"98859d9e1a3a"
"2020-07-30T11:40:21",1596130821.664,2272886,-60,39,"98859d9e1a3a"
"2020-07-30T11:40:21",1596130821.879,2273101,-58,37,"98859d9e1a3a"
"2020-07-30T11:40:22",1596130822.289,2273511,-56,38,"98859d9e1a3a"
"2020-07-30T11:40:22",1596130822.5,2273722,-63,39,"98859d9e1a3a"
"2020-07-30T11:40:22",1596130822.92,2274142,-58,37,"98859d9e1a3a"
"2020-07-30T11:40:23",1596130823.126,2274348,-57,38,"98859d9e1a3a"
"2020-07-30T11:40:23",1596130823.54,2274762,-61,39,"98859d9e1a3a"
"2020-07-30T11:40:23",1596130823.747,2274969,-56,37,"98859d9e1a3a"
"2020-07-30T11:40:24",1596130824.165,2275387,-53,38,"98859d9e1a3a"
"2020-07-30T11:40:24",1596130824.368,2275590,-58,39,"98859d9e1a3a"
"2020-07-30T11:40:24",1596130824.783,2276005,-57,37,"98859d9e1a3a"
"2020-07-30T11:40:24",1596130824.992,2276214,-52,38,"98859d9e1a3a"
"2020-07-30T11:40:25",1596130825.409,2276631,-59,39,"98859d9e1a3a"
"2020-07-30T11:40:25",1596130825.617,2276839,-56,37,"98859d9e1a3a"
"2020-07-30T11:40:26",1596130826.034,2277256,-53,38,"98859d9e1a3a"
"2020-07-30T11:40:26",1596130826.24,2277462,-59,39,"98859d9e1a3a"
"2020-07-30T11:40:26",1596130826.659,2277881,-55,37,"98859d9e1a3a"
"2020-07-30T11:40:26",1596130826.869,2278091,-53,38,"98859d9e1a3a"
"2020-07-30T11:40:27",1596130827.28,2278502,-59,39,"98859d9e1a3a"
"2020-07-30T11:40:27",1596130827.495,2278717,-56,37,"98859d9e1a3a"
"2020-07-30T11:40:27",1596130827.912,2279134,-53,38,"98859d9e1a3a"
"2020-07-30T11:40:28",1596130828.119,2279341,-59,39,"98859d9e1a3a"
"2020-07-30T11:40:28",1596130828.529,2279751,-56,37,"98859d9e1a3a"
"2020-07-30T11:40:28",1596130828.743,2279965,-53,38,"98859d9e1a3a"
"2020-07-30T11:40:29",1596130829.156,2280378,-59,39,"98859d9e1a3a"
"2020-07-30T11:40:29",1596130829.368,2280590,-56,37,"98859d9e1a3a"
"2020-07-30T11:40:29",1596130829.783,2281005,-53,38,"98859d9e1a3a"
"2020-07-30T11:40:29",1596130829.993,2281215,-57,39,"98859d9e1a3a"
"2020-07-30T11:40:30",1596130830.402,2281624,-56,37,"98859d9e1a3a"
"2020-07-30T11:40:30",1596130830.609,2281831,-54,38,"98859d9e1a3a"
"2020-07-30T11:40:31",1596130831.023,2282245,-58,39,"98859d9e1a3a"
"2020-07-30T11:40:31",1596130831.23,2282452,-54,37,"98859d9e1a3a"
"2020-07-30T11:40:31",1596130831.653,2282875,-53,38,"98859d9e1a3a"
"2020-07-30T11:40:31",1596130831.861,2283083,-56,39,"98859d9e1a3a"
"2020-07-30T11:40:32",1596130832.272,2283494,-57,37,"98859d9e1a3a"
"2020-07-30T11:40:32",1596130832.483,2283705,-56,38,"98859d9e1a3a"
"2020-07-30T11:40:32",1596130832.901,2284123,-63,39,"98859d9e1a3a"
"2020-07-30T11:40:33",1596130833.105,2284327,-57,37,"98859d9e1a3a"
"2020-07-30T11:40:33",1596130833.524,2284746,-56,38,"98859d9e1a3a"
"2020-07-30T11:40:33",1596130833.729,2284951,-64,39,"98859d9e1a3a"
"2020-07-30T11:40:34",1596130834.143,2285365,-57,37,"98859d9e1a3a"
"2020-07-30T11:40:34",1596130834.359,2285581,-52,38,"98859d9e1a3a"
"2020-07-30T11:40:34",1596130834.779,2286001,-59,39,"98859d9e1a3a"
"2020-07-30T11:40:34",1596130834.989,2286211,-56,37,"98859d9e1a3a"
"2020-07-30T11:40:35",1596130835.4,2286622,-58,38,"98859d9e1a3a"
"2020-07-30T11:40:35",1596130835.607,2286829,-61,39,"98859d9e1a3a"
"2020-07-30T11:40:36",1596130836.025,2287247,-63,37,"98859d9e1a3a"
"2020-07-30T11:40:36",1596130836.236,2287458,-56,38,"98859d9e1a3a"
"2020-07-30T11:40:36",1596130836.646,2287868,-58,39,"98859d9e1a3a"
"2020-07-30T11:40:36",1596130836.859,2288081,-56,37,"98859d9e1a3a"
"2020-07-30T11:40:37",1596130837.272,2288494,-53,38,"98859d9e1a3a"
"2020-07-30T11:40:37",1596130837.479,2288701,-58,39,"98859d9e1a3a"
"2020-07-30T11:40:37",1596130837.899,2289121,-56,37,"98859d9e1a3a"
"2020-07-30T11:40:38",1596130838.112,2289334,-52,38,"98859d9e1a3a"
"2020-07-30T11:40:38",1596130838.519,2289741,-58,39,"98859d9e1a3a"
"2020-07-30T11:40:38",1596130838.733,2289955,-56,37,"98859d9e1a3a"
"2020-07-30T11:40:39",1596130839.149,2290371,-53,38,"98859d9e1a3a"
"2020-07-30T11:40:39",1596130839.355,2290577,-58,39,"98859d9e1a3a"
"2020-07-30T11:40:39",1596130839.769,2290991,-56,37,"98859d9e1a3a"
"2020-07-30T11:40:39",1596130839.98,2291202,-53,38,"98859d9e1a3a"
"2020-07-30T11:40:40",1596130840.392,2291614,-58,39,"98859d9e1a3a"
"2020-07-30T11:40:40",1596130840.606,2291828,-56,37,"98859d9e1a3a"
"2020-07-30T11:40:41",1596130841.025,2292247,-53,38,"98859d9e1a3a"
"2020-07-30T11:40:41",1596130841.229,2292451,-58,39,"98859d9e1a3a"
"2020-07-30T11:40:41",1596130841.644,2292866,-56,37,"98859d9e1a3a"
"2020-07-30T11:40:41",1596130841.859,2293081,-53,38,"98859d9e1a3a"
"2020-07-30T11:40:42",1596130842.269,2293491,-59,39,"98859d9e1a3a"
"2020-07-30T11:40:42",1596130842.484,2293706,-56,37,"98859d9e1a3a"
"2020-07-30T11:40:42",1596130842.895,2294117,-53,38,"98859d9e1a3a"
"2020-07-30T11:40:43",1596130843.105,2294327,-59,39,"98859d9e1a3a"
"2020-07-30T11:40:43",1596130843.523,2294745,-56,37,"98859d9e1a3a"
"2020-07-30T11:40:43",1596130843.734,2294956,-53,38,"98859d9e1a3a"
"2020-07-30T11:40:44",1596130844.145,2295367,-58,39,"98859d9e1a3a"
"2020-07-30T11:40:44",1596130844.354,2295576,-56,37,"98859d9e1a3a"
"2020-07-30T11:40:44",1596130844.77,2295992,-53,38,"98859d9e1a3a"
"2020-07-30T11:40:44",1596130844.985,2296207,-58,39,"98859d9e1a3a"
"2020-07-30T11:40:45",1596130845.399,2296621,-56,37,"98859d9e1a3a"
"2020-07-30T11:40:45",1596130845.609,2296831,-53,38,"98859d9e1a3a"
"2020-07-30T11:40:46",1596130846.025,2297247,-58,39,"98859d9e1a3a"
"2020-07-30T11:40:46",1596130846.232,2297454,-56,37,"98859d9e1a3a"
"2020-07-30T11:40:46",1596130846.643,2297865,-53,38,"98859d9e1a3a"
"2020-07-30T11:40:46",1596130846.851,2298073,-59,39,"98859d9e1a3a"
"2020-07-30T11:40:47",1596130847.267,2298489,-56,37,"98859d9e1a3a"
"2020-07-30T11:40:47",1596130847.475,2298697,-53,38,"98859d9e1a3a"
"2020-07-30T11:40:47",1596130847.894,2299116,-58,39,"98859d9e1a3a"
"2020-07-30T11:40:48",1596130848.099,2299321,-56,37,"98859d9e1a3a"
"2020-07-30T11:40:48",1596130848.519,2299741,-53,38,"98859d9e1a3a"
"2020-07-30T11:40:48",1596130848.729,2299951,-58,39,"98859d9e1a3a"
"2020-07-30T11:40:49",1596130849.15,2300372,-56,37,"98859d9e1a3a"
"2020-07-30T11:40:49",1596130849.359,2300581,-53,38,"98859d9e1a3a"
"2020-07-30T11:40:49",1596130849.773,2300995,-58,39,"98859d9e1a3a"
"2020-07-30T11:40:49",1596130849.99,2301212,-56,37,"98859d9e1a3a"
"2020-07-30T11:40:50",1596130850.399,2301621,-53,38,"98859d9e1a3a"
"2020-07-30T11:40:50",1596130850.612,2301834,-58,39,"98859d9e1a3a"
"2020-07-30T11:40:51",1596130851.024,2302246,-56,37,"98859d9e1a3a"
"2020-07-30T11:40:51",1596130851.229,2302451,-53,38,"98859d9e1a3a"
"2020-07-30T11:40:51",1596130851.646,2302868,-58,39,"98859d9e1a3a"
"2020-07-30T11:40:51",1596130851.856,2303078,-56,37,"98859d9e1a3a"
"2020-07-30T11:40:52",1596130852.272,2303494,-53,38,"98859d9e1a3a"
"2020-07-30T11:40:52",1596130852.487,2303709,-58,39,"98859d9e1a3a"
"2020-07-30T11:40:52",1596130852.895,2304117,-56,37,"98859d9e1a3a"
"2020-07-30T11:40:53",1596130853.11,2304332,-53,38,"98859d9e1a3a"
"2020-07-30T11:40:53",1596130853.526,2304748,-58,39,"98859d9e1a3a"
"2020-07-30T11:40:53",1596130853.735,2304957,-56,37,"98859d9e1a3a"
"2020-07-30T11:40:54",1596130854.146,2305368,-53,38,"98859d9e1a3a"
"2020-07-30T11:40:54",1596130854.358,2305580,-58,39,"98859d9e1a3a"
"2020-07-30T11:40:54",1596130854.773,2305995,-56,37,"98859d9e1a3a"
"2020-07-30T11:40:54",1596130854.985,2306207,-53,38,"98859d9e1a3a"
"2020-07-30T11:40:55",1596130855.4,2306622,-58,39,"98859d9e1a3a"
"2020-07-30T11:40:55",1596130855.604,2306826,-56,37,"98859d9e1a3a"
"2020-07-30T11:40:56",1596130856.022,2307244,-53,38,"98859d9e1a3a"
"2020-07-30T11:40:56",1596130856.234,2307456,-58,39,"98859d9e1a3a"
"2020-07-30T11:40:56",1596130856.644,2307866,-56,37,"98859d9e1a3a"
"2020-07-30T11:40:56",1596130856.853,2308075,-53,38,"98859d9e1a3a"
"2020-07-30T11:40:57",1596130857.274,2308496,-59,39,"98859d9e1a3a"
"2020-07-30T11:40:57",1596130857.489,2308711,-56,37,"98859d9e1a3a"
"2020-07-30T11:40:57",1596130857.898,2309120,-53,38,"98859d9e1a3a"
"2020-07-30T11:40:58",1596130858.107,2309329,-61,39,"98859d9e1a3a"
"2020-07-30T11:40:58",1596130858.528,2309750,-67,37,"98859d9e1a3a"
"2020-07-30T11:40:58",1596130858.739,2309961,-55,38,"98859d9e1a3a"
"2020-07-30T11:40:59",1596130859.155,2310377,-62,39,"98859d9e1a3a"
"2020-07-30T11:40:59",1596130859.364,2310586,-56,37,"98859d9e1a3a"
"2020-07-30T11:40:59",1596130859.774,2310996,-54,38,"98859d9e1a3a"
"2020-07-30T11:40:59",1596130859.986,2311208,-58,39,"98859d9e1a3a"
"2020-07-30T11:41:00",1596130860.402,2311624,-53,37,"98859d9e1a3a"
"2020-07-30T11:41:00",1596130860.61,2311832,-53,38,"98859d9e1a3a"
"2020-07-30T11:41:01",1596130861.029,2312251,-59,39,"98859d9e1a3a"
"2020-07-30T11:41:01",1596130861.24,2312462,-56,37,"98859d9e1a3a"
"2020-07-30T11:41:01",1596130861.652,2312874,-54,38,"98859d9e1a3a"
"2020-07-30T11:41:01",1596130861.865,2313087,-59,39,"98859d9e1a3a"
"2020-07-30T11:41:02",1596130862.281,2313503,-54,37,"98859d9e1a3a"
"2020-07-30T11:41:02",1596130862.494,2313716,-53,38,"98859d9e1a3a"
"2020-07-30T11:41:02",1596130862.909,2314131,-58,39,"98859d9e1a3a"
"2020-07-30T11:41:03",1596130863.115,2314337,-56,37,"98859d9e1a3a"
"2020-07-30T11:41:03",1596130863.528,2314750,-53,38,"98859d9e1a3a"
"2020-07-30T11:41:03",1596130863.736,2314958,-59,39,"98859d9e1a3a"
"2020-07-30T11:41:04",1596130864.153,2315375,-53,37,"98859d9e1a3a"
"2020-07-30T11:41:04",1596130864.368,2315590,-51,38,"98859d9e1a3a"
"2020-07-30T11:41:04",1596130864.991,2316213,-56,37,"98859d9e1a3a"
"2020-07-30T11:41:05",1596130865.611,2316833,-66,39,"98859d9e1a3a"
"2020-07-30T11:41:06",1596130866.026,2317248,-62,37,"98859d9e1a3a"
"2020-07-30T11:41:06",1596130866.241,2317463,-54,38,"98859d9e1a3a"
"2020-07-30T11:41:06",1596130866.653,2317875,-62,39,"98859d9e1a3a"
"2020-07-30T11:41:06",1596130866.858,2318080,-57,37,"98859d9e1a3a"
"2020-07-30T11:41:07",1596130867.278,2318500,-53,38,"98859d9e1a3a"
"2020-07-30T11:41:07",1596130867.487,2318709,-58,39,"98859d9e1a3a"
"2020-07-30T11:41:07",1596130867.901,2319123,-56,37,"98859d9e1a3a"
"2020-07-30T11:41:08",1596130868.111,2319333,-53,38,"98859d9e1a3a"
"2020-07-30T11:41:08",1596130868.522,2319744,-59,39,"98859d9e1a3a"
"2020-07-30T11:41:08",1596130868.734,2319956,-56,37,"98859d9e1a3a"
"2020-07-30T11:41:09",1596130869.151,2320373,-53,38,"98859d9e1a3a"
"2020-07-30T11:41:09",1596130869.361,2320583,-58,39,"98859d9e1a3a"
"2020-07-30T11:41:09",1596130869.775,2320997,-56,37,"98859d9e1a3a"
"2020-07-30T11:41:09",1596130869.987,2321209,-53,38,"98859d9e1a3a"
"2020-07-30T11:41:10",1596130870.399,2321621,-58,39,"98859d9e1a3a"
"2020-07-30T11:41:10",1596130870.608,2321830,-56,37,"98859d9e1a3a"
"2020-07-30T11:41:11",1596130871.021,2322243,-53,38,"98859d9e1a3a"
"2020-07-30T11:41:11",1596130871.234,2322456,-58,39,"98859d9e1a3a"
"2020-07-30T11:41:11",1596130871.644,2322866,-56,37,"98859d9e1a3a"
"2020-07-30T11:41:11",1596130871.861,2323083,-53,38,"98859d9e1a3a"
"2020-07-30T11:41:12",1596130872.273,2323495,-59,39,"98859d9e1a3a"
"2020-07-30T11:41:12",1596130872.491,2323713,-55,37,"98859d9e1a3a"
"2020-07-30T11:41:13",1596130873.112,2324334,-58,39,"98859d9e1a3a"
"2020-07-30T11:41:13",1596130873.528,2324750,-56,37,"98859d9e1a3a"
"2020-07-30T11:41:13",1596130873.738,2324960,-53,38,"98859d9e1a3a"
"2020-07-30T11:41:14",1596130874.152,2325374,-58,39,"98859d9e1a3a"
"2020-07-30T11:41:14",1596130874.362,2325584,-56,37,"98859d9e1a3a"
"2020-07-30T11:41:14",1596130874.779,2326001,-53,38,"98859d9e1a3a"
"2020-07-30T11:41:14",1596130874.986,2326208,-58,39,"98859d9e1a3a"
"2020-07-30T11:41:15",1596130875.396,2326618,-56,37,"98859d9e1a3a"
"2020-07-30T11:41:15",1596130875.606,2326828,-53,38,"98859d9e1a3a"
"2020-07-30T11:41:16",1596130876.02,2327242,-59,39,"98859d9e1a3a"
"2020-07-30T11:41:16",1596130876.233,2327455,-55,37,"98859d9e1a3a"
"2020-07-30T11:41:16",1596130876.645,2327867,-53,38,"98859d9e1a3a"
"2020-07-30T11:41:16",1596130876.854,2328076,-58,39,"98859d9e1a3a"
"2020-07-30T11:41:17",1596130877.276,2328498,-53,37,"98859d9e1a3a"
"2020-07-30T11:41:17",1596130877.484,2328706,-53,38,"98859d9e1a3a"
"2020-07-30T11:41:17",1596130877.897,2329119,-58,39,"98859d9e1a3a"
"2020-07-30T11:41:18",1596130878.112,2329334,-56,37,"98859d9e1a3a"
"2020-07-30T11:41:18",1596130878.522,2329744,-52,38,"98859d9e1a3a"
"2020-07-30T11:41:18",1596130878.734,2329956,-57,39,"98859d9e1a3a"
"2020-07-30T11:41:19",1596130879.15,2330372,-54,37,"98859d9e1a3a"
"2020-07-30T11:41:19",1596130879.361,2330583,-54,38,"98859d9e1a3a"
"2020-07-30T11:41:19",1596130879.771,2330993,-58,39,"98859d9e1a3a"
"2020-07-30T11:41:19",1596130879.979,2331201,-56,37,"98859d9e1a3a"
"2020-07-30T11:41:20",1596130880.393,2331615,-53,38,"98859d9e1a3a"
"2020-07-30T11:41:20",1596130880.598,2331820,-58,39,"98859d9e1a3a"
"2020-07-30T11:41:21",1596130881.017,2332239,-56,37,"98859d9e1a3a"
"2020-07-30T11:41:21",1596130881.226,2332448,-53,38,"98859d9e1a3a"
"2020-07-30T11:41:21",1596130881.643,2332865,-58,39,"98859d9e1a3a"
"2020-07-30T11:41:21",1596130881.85,2333072,-56,37,"98859d9e1a3a"
"2020-07-30T11:41:22",1596130882.271,2333493,-53,38,"98859d9e1a3a"
"2020-07-30T11:41:22",1596130882.48,2333702,-58,39,"98859d9e1a3a"
"2020-07-30T11:41:22",1596130882.896,2334118,-56,37,"98859d9e1a3a"
"2020-07-30T11:41:23",1596130883.102,2334324,-53,38,"98859d9e1a3a"
"2020-07-30T11:41:23",1596130883.52,2334742,-59,39,"98859d9e1a3a"
"2020-07-30T11:41:23",1596130883.727,2334949,-56,37,"98859d9e1a3a"
"2020-07-30T11:41:24",1596130884.142,2335364,-53,38,"98859d9e1a3a"
"2020-07-30T11:41:24",1596130884.352,2335574,-58,39,"98859d9e1a3a"
"2020-07-30T11:41:24",1596130884.761,2335983,-55,37,"98859d9e1a3a"
"2020-07-30T11:41:24",1596130884.971,2336193,-53,38,"98859d9e1a3a"
"2020-07-30T11:41:25",1596130885.385,2336607,-58,39,"98859d9e1a3a"
"2020-07-30T11:41:25",1596130885.6,2336822,-56,37,"98859d9e1a3a"
"2020-07-30T11:41:26",1596130886.021,2337243,-53,38,"98859d9e1a3a"
"2020-07-30T11:41:26",1596130886.23,2337452,-58,39,"98859d9e1a3a"
"2020-07-30T11:41:26",1596130886.643,2337865,-53,37,"98859d9e1a3a"
"2020-07-30T11:41:26",1596130886.855,2338077,-53,38,"98859d9e1a3a"
"2020-07-30T11:41:27",1596130887.266,2338488,-59,39,"98859d9e1a3a"
"2020-07-30T11:41:27",1596130887.48,2338702,-56,37,"98859d9e1a3a"
"2020-07-30T11:41:27",1596130887.895,2339117,-53,38,"98859d9e1a3a"
"2020-07-30T11:41:28",1596130888.105,2339327,-59,39,"98859d9e1a3a"
"2020-07-30T11:41:28",1596130888.516,2339738,-56,37,"98859d9e1a3a"
"2020-07-30T11:41:28",1596130888.726,2339948,-55,38,"98859d9e1a3a"
"2020-07-30T11:41:29",1596130889.144,2340366,-65,39,"98859d9e1a3a"
"2020-07-30T11:41:29",1596130889.352,2340574,-66,37,"98859d9e1a3a"
"2020-07-30T11:41:29",1596130889.771,2340993,-59,38,"98859d9e1a3a"
"2020-07-30T11:41:29",1596130889.982,2341204,-62,39,"98859d9e1a3a"
"2020-07-30T11:41:30",1596130890.4,2341622,-62,37,"98859d9e1a3a"
"2020-07-30T11:41:30",1596130890.61,2341832,-58,38,"98859d9e1a3a"
"2020-07-30T11:41:31",1596130891.026,2342248,-61,39,"98859d9e1a3a"
"2020-07-30T11:41:31",1596130891.237,2342459,-62,37,"98859d9e1a3a"
"2020-07-30T11:41:31",1596130891.647,2342869,-57,38,"98859d9e1a3a"
"2020-07-30T11:41:31",1596130891.853,2343075,-61,39,"98859d9e1a3a"
"2020-07-30T11:41:32",1596130892.276,2343498,-62,37,"98859d9e1a3a"
"2020-07-30T11:41:32",1596130892.486,2343708,-57,38,"98859d9e1a3a"
"2020-07-30T11:41:32",1596130892.896,2344118,-61,39,"98859d9e1a3a"
"2020-07-30T11:41:33",1596130893.107,2344329,-61,37,"98859d9e1a3a"
"2020-07-30T11:41:33",1596130893.522,2344744,-57,38,"98859d9e1a3a"
"2020-07-30T11:41:33",1596130893.736,2344958,-61,39,"98859d9e1a3a"
"2020-07-30T11:41:34",1596130894.151,2345373,-61,37,"98859d9e1a3a"
"2020-07-30T11:41:34",1596130894.362,2345584,-57,38,"98859d9e1a3a"
"2020-07-30T11:41:34",1596130894.773,2345995,-63,39,"98859d9e1a3a"
"2020-07-30T11:41:34",1596130894.984,2346206,-61,37,"98859d9e1a3a"
"2020-07-30T11:41:35",1596130895.401,2346623,-52,38,"98859d9e1a3a"
"2020-07-30T11:41:35",1596130895.61,2346832,-57,39,"98859d9e1a3a"
"2020-07-30T11:41:36",1596130896.026,2347248,-54,37,"98859d9e1a3a"
"2020-07-30T11:41:36",1596130896.229,2347451,-54,38,"98859d9e1a3a"
"2020-07-30T11:41:36",1596130896.647,2347869,-60,39,"98859d9e1a3a"
"2020-07-30T11:41:36",1596130896.852,2348074,-56,37,"98859d9e1a3a"
"2020-07-30T11:41:37",1596130897.271,2348493,-52,38,"98859d9e1a3a"
"2020-07-30T11:41:37",1596130897.482,2348704,-59,39,"98859d9e1a3a"
"2020-07-30T11:41:37",1596130897.894,2349116,-56,37,"98859d9e1a3a"
"2020-07-30T11:41:38",1596130898.107,2349329,-54,38,"98859d9e1a3a"
"2020-07-30T11:41:38",1596130898.523,2349745,-60,39,"98859d9e1a3a"
"2020-07-30T11:41:38",1596130898.734,2349956,-57,37,"98859d9e1a3a"
"2020-07-30T11:41:39",1596130899.147,2350369,-56,38,"98859d9e1a3a"
"2020-07-30T11:41:39",1596130899.351,2350573,-60,39,"98859d9e1a3a"
"2020-07-30T11:41:39",1596130899.768,2350990,-57,37,"98859d9e1a3a"
"2020-07-30T11:41:39",1596130899.98,2351202,-56,38,"98859d9e1a3a"
"2020-07-30T11:41:40",1596130900.393,2351615,-60,39,"98859d9e1a3a"