"time","epoch_time","boot_time","rssi","ch","mac"
"2020-07-29T14:00:38",1596052838.82,2139048,-80,39,"067d45fab320"
"2020-07-29T14:00:39",1596052839.023,2139251,-80,37,"067d45fab320"
"2020-07-29T14:00:39",1596052839.436,2139664,-78,38,"067d45fab320"
"2020-07-29T14:00:39",1596052839.639,2139867,-80,39,"067d45fab320"
"2020-07-29T14:00:40",1596052840.057,2140285,-79,37,"067d45fab320"
"2020-07-29T14:00:40",1596052840.466,2140694,-78,38,"067d45fab320"
"2020-07-29T14:00:40",1596052840.666,2140894,-79,39,"067d45fab320"
"2020-07-29T14:00:41",1596052841.079,2141307,-79,37,"067d45fab320"
"2020-07-29T14:00:41",1596052841.288,2141516,-78,38,"067d45fab320"
"2020-07-29T14:00:41",1596052841.7,2141928,-79,39,"067d45fab320"
"2020-07-29T14:00:41",1596052841.904,2142132,-79,37,"067d45fab320"
"2020-07-29T14:00:42",1596052842.312,2142540,-77,38,"067d45fab320"
"2020-07-29T14:00:42",1596052842.519,2142747,-79,39,"067d45fab320"
"2020-07-29T14:00:42",1596052842.928,2143156,-78,37,"067d45fab320"
"2020-07-29T14:00:43",1596052843.134,2143362,-77,38,"067d45fab320"
"2020-07-29T14:00:43",1596052843.553,2143781,-79,39,"067d45fab320"
"2020-07-29T14:00:43",1596052843.753,2143981,-80,37,"067d45fab320"
"2020-07-29T14:00:44",1596052844.166,2144394,-78,38,"067d45fab320"
"2020-07-29T14:00:44",1596052844.368,2144596,-80,39,"067d45fab320"
"2020-07-29T14:00:44",1596052844.783,2145011,-79,37,"067d45fab320"
"2020-07-29T14:00:45",1596052845.396,2145624,-79,39,"067d45fab320"
"2020-07-29T14:00:45",1596052845.604,2145832,-79,37,"067d45fab320"
"2020-07-29T14:00:46",1596052846.017,2146245,-77,38,"067d45fab320"
"2020-07-29T14:00:46",1596052846.218,2146446,-79,39,"067d45fab320"
"2020-07-29T14:00:46",1596052846.637,2146865,-78,37,"067d45fab320"
"2020-07-29T14:00:46",1596052846.838,2147066,-77,38,"067d45fab320"
"2020-07-29T14:00:47",1596052847.246,2147474,-79,39,"067d45fab320"
"2020-07-29T14:00:47",1596052847.453,2147681,-78,37,"067d45fab320"
"2020-07-29T14:00:47",1596052847.657,2147885,-78,37,"067d45fab320"
"2020-07-29T14:00:47",1596052847.864,2148092,-76,38,"067d45fab320"
"2020-07-29T14:00:48",1596052848.273,2148501,-79,39,"067d45fab320"
"2020-07-29T14:00:48",1596052848.487,2148715,-78,37,"067d45fab320"
"2020-07-29T14:00:48",1596052848.895,2149123,-77,38,"067d45fab320"
"2020-07-29T14:00:49",1596052849.103,2149331,-81,39,"067d45fab320"
"2020-07-29T14:00:49",1596052849.507,2149735,-79,37,"067d45fab320"
"2020-07-29T14:00:49",1596052849.715,2149943,-76,38,"067d45fab320"
"2020-07-29T14:00:50",1596052850.126,2150354,-82,39,"067d45fab320"
"2020-07-29T14:00:50",1596052850.749,2150977,-82,38,"067d45fab320"
"2020-07-29T14:00:50",1596052850.953,2151181,-83,39,"067d45fab320"
"2020-07-29T14:00:51",1596052851.354,2151582,-86,37,"067d45fab320"
"2020-07-29T14:00:51",1596052851.974,2152202,-88,39,"067d45fab320"
"2020-07-29T14:00:52",1596052852.174,2152402,-82,37,"067d45fab320"
"2020-07-29T14:00:52",1596052852.59,2152818,-77,38,"067d45fab320"
"2020-07-29T14:00:52",1596052852.799,2153027,-81,39,"067d45fab320"
"2020-07-29T14:00:53",1596052853.213,2153441,-90,37,"067d45fab320"
"2020-07-29T14:00:53",1596052853.419,2153647,-78,38,"067d45fab320"
"2020-07-29T14:00:53",1596052853.825,2154053,-81,39,"067d45fab320"
"2020-07-29T14:00:54",1596052854.033,2154261,-81,37,"067d45fab320"
"2020-07-29T14:00:54",1596052854.646,2154874,-70,39,"067d45fab320"
"2020-07-29T14:00:55",1596052855.059,2155287,-71,37,"067d45fab320"
"2020-07-29T14:00:55",1596052855.466,2155694,-69,38,"067d45fab320"
"2020-07-29T14:00:55",1596052855.674,2155902,-69,39,"067d45fab320"
"2020-07-29T14:00:56",1596052856.086,2156314,-70,37,"067d45fab320"
"2020-07-29T14:00:56",1596052856.295,2156523,-69,38,"067d45fab320"
"2020-07-29T14:00:56",1596052856.699,2156927,-68,39,"067d45fab320"
"2020-07-29T14:00:56",1596052856.905,2157133,-70,37,"067d45fab320"
"2020-07-29T14:00:57",1596052857.315,2157543,-69,38,"067d45fab320"
"2020-07-29T14:00:57",1596052857.517,2157745,-68,39,"067d45fab320"
"2020-07-29T14:00:57",1596052857.939,2158167,-70,37,"067d45fab320"
"2020-07-29T14:00:58",1596052858.14,2158368,-69,38,"067d45fab320"
"2020-07-29T14:00:58",1596052858.757,2158985,-70,37,"067d45fab320"
"2020-07-29T14:00:59",1596052859.166,2159394,-69,38,"067d45fab320"
"2020-07-29T14:00:59",1596052859.369,2159597,-69,39,"067d45fab320"
"2020-07-29T14:00:59",1596052859.783,2160011,-70,37,"067d45fab320"
"2020-07-29T14:00:59",1596052859.986,2160214,-68,38,"067d45fab320"
"2020-07-29T14:01:00",1596052860.407,2160635,-69,39,"067d45fab320"
"2020-07-29T14:01:00",1596052860.611,2160839,-67,37,"067d45fab320"
"2020-07-29T14:01:01",1596052861.019,2161247,-65,38,"067d45fab320"
"2020-07-29T14:01:01",1596052861.227,2161455,-64,39,"067d45fab320"
"2020-07-29T14:01:01",1596052861.634,2161862,-64,37,"067d45fab320"
"2020-07-29T14:01:01",1596052861.838,2162066,-63,38,"067d45fab320"
"2020-07-29T14:01:02",1596052862.246,2162474,-64,39,"067d45fab320"
"2020-07-29T14:01:02",1596052862.453,2162681,-65,37,"067d45fab320"
"2020-07-29T14:01:02",1596052862.658,2162886,-65,37,"067d45fab320"
"2020-07-29T14:01:03",1596052863.083,2163311,-64,39,"067d45fab320"
"2020-07-29T14:01:03",1596052863.489,2163717,-65,37,"067d45fab320"
"2020-07-29T14:01:03",1596052863.898,2164126,-63,38,"067d45fab320"
"2020-07-29T14:01:04",1596052864.108,2164336,-64,39,"067d45fab320"
"2020-07-29T14:01:04",1596052864.515,2164743,-65,37,"067d45fab320"
"2020-07-29T14:01:04",1596052864.716,2164944,-63,38,"067d45fab320"
"2020-07-29T14:01:05",1596052865.131,2165359,-64,39,"067d45fab320"
"2020-07-29T14:01:05",1596052865.342,2165570,-65,37,"067d45fab320"
"2020-07-29T14:01:05",1596052865.745,2165973,-63,38,"067d45fab320"
"2020-07-29T14:01:05",1596052865.953,2166181,-64,39,"067d45fab320"
"2020-07-29T14:01:06",1596052866.362,2166590,-65,37,"067d45fab320"
"2020-07-29T14:01:06",1596052866.567,2166795,-63,38,"067d45fab320"
"2020-07-29T14:01:06",1596052866.984,2167212,-65,39,"067d45fab320"
"2020-07-29T14:01:07",1596052867.193,2167421,-65,37,"067d45fab320"
"2020-07-29T14:01:07",1596052867.601,2167829,-63,38,"067d45fab320"
"2020-07-29T14:01:07",1596052867.81,2168038,-63,39,"067d45fab320"
"2020-07-29T14:01:08",1596052868.219,2168447,-63,37,"067d45fab320"
"2020-07-29T14:01:08",1596052868.424,2168652,-67,38,"067d45fab320"
"2020-07-29T14:01:09",1596052869.049,2169277,-66,37,"067d45fab320"
"2020-07-29T14:01:09",1596052869.455,2169683,-63,38,"067d45fab320"
"2020-07-29T14:01:09",1596052869.661,2169889,-64,39,"067d45fab320"
"2020-07-29T14:01:10",1596052870.077,2170305,-66,37,"067d45fab320"
"2020-07-29T14:01:10",1596052870.283,2170511,-63,38,"067d45fab320"
"2020-07-29T14:01:10",1596052870.69,2170918,-64,39,"067d45fab320"
"2020-07-29T14:01:10",1596052870.897,2171125,-65,37,"067d45fab320"
"2020-07-29T14:01:11",1596052871.31,2171538,-63,38,"067d45fab320"
"2020-07-29T14:01:11",1596052871.719,2171947,-64,39,"067d45fab320"
"2020-07-29T14:01:11",1596052871.92,2172148,-64,37,"067d45fab320"
"2020-07-29T14:01:12",1596052872.335,2172563,-63,38,"067d45fab320"
"2020-07-29T14:01:12",1596052872.541,2172769,-64,39,"067d45fab320"
"2020-07-29T14:01:12",1596052872.956,2173184,-64,37,"067d45fab320"
"2020-07-29T14:01:13",1596052873.16,2173388,-63,38,"067d45fab320"
"2020-07-29T14:01:13",1596052873.57,2173798,-64,39,"067d45fab320"
"2020-07-29T14:01:13",1596052873.779,2174007,-65,37,"067d45fab320"
"2020-07-29T14:01:14",1596052874.184,2174412,-63,38,"067d45fab320"
"2020-07-29T14:01:14",1596052874.387,2174615,-64,39,"067d45fab320"
"2020-07-29T14:01:14",1596052874.801,2175029,-65,37,"067d45fab320"
"2020-07-29T14:01:15",1596052875.009,2175237,-63,38,"067d45fab320"
"2020-07-29T14:01:15",1596052875.419,2175647,-64,39,"067d45fab320"
"2020-07-29T14:01:15",1596052875.628,2175856,-64,37,"067d45fab320"
"2020-07-29T14:01:16",1596052876.038,2176266,-63,38,"067d45fab320"
"2020-07-29T14:01:16",1596052876.241,2176469,-64,39,"067d45fab320"
"2020-07-29T14:01:16",1596052876.857,2177085,-63,38,"067d45fab320"
"2020-07-29T14:01:17",1596052877.263,2177491,-64,39,"067d45fab320"
"2020-07-29T14:01:17",1596052877.886,2178114,-63,38,"067d45fab320"
"2020-07-29T14:01:18",1596052878.092,2178320,-64,39,"067d45fab320"
"2020-07-29T14:01:18",1596052878.705,2178933,-63,38,"067d45fab320"
"2020-07-29T14:01:18",1596052878.906,2179134,-63,38,"067d45fab320"
"2020-07-29T14:01:19",1596052879.114,2179342,-65,39,"067d45fab320"
"2020-07-29T14:01:19",1596052879.527,2179755,-64,37,"067d45fab320"
"2020-07-29T14:01:19",1596052879.735,2179963,-63,38,"067d45fab320"
"2020-07-29T14:01:20",1596052880.148,2180376,-64,39,"067d45fab320"
"2020-07-29T14:01:20",1596052880.35,2180578,-64,37,"067d45fab320"
"2020-07-29T14:01:20",1596052880.76,2180988,-63,38,"067d45fab320"
"2020-07-29T14:01:21",1596052881.369,2181597,-64,37,"067d45fab320"
"2020-07-29T14:01:21",1596052881.578,2181806,-63,38,"067d45fab320"
"2020-07-29T14:01:21",1596052881.994,2182222,-64,39,"067d45fab320"
"2020-07-29T14:01:22",1596052882.197,2182425,-65,37,"067d45fab320"
"2020-07-29T14:01:22",1596052882.609,2182837,-63,38,"067d45fab320"
"2020-07-29T14:01:22",1596052882.813,2183041,-65,39,"067d45fab320"
"2020-07-29T14:01:23",1596052883.22,2183448,-65,37,"067d45fab320"
"2020-07-29T14:01:23",1596052883.426,2183654,-63,38,"067d45fab320"
"2020-07-29T14:01:23",1596052883.837,2184065,-64,39,"067d45fab320"
"2020-07-29T14:01:24",1596052884.042,2184270,-65,37,"067d45fab320"
"2020-07-29T14:01:24",1596052884.462,2184690,-63,38,"067d45fab320"
"2020-07-29T14:01:24",1596052884.662,2184890,-64,39,"067d45fab320"
"2020-07-29T14:01:25",1596052885.073,2185301,-65,37,"067d45fab320"
"2020-07-29T14:01:25",1596052885.279,2185507,-63,38,"067d45fab320"
"2020-07-29T14:01:25",1596052885.689,2185917,-64,39,"067d45fab320"
"2020-07-29T14:01:25",1596052885.898,2186126,-64,37,"067d45fab320"
"2020-07-29T14:01:26",1596052886.304,2186532,-63,38,"067d45fab320"
"2020-07-29T14:01:26",1596052886.924,2187152,-64,37,"067d45fab320"
"2020-07-29T14:01:27",1596052887.339,2187567,-63,38,"067d45fab320"
"2020-07-29T14:01:27",1596052887.541,2187769,-64,39,"067d45fab320"
"2020-07-29T14:01:27",1596052887.949,2188177,-64,37,"067d45fab320"
"2020-07-29T14:01:28",1596052888.158,2188386,-63,38,"067d45fab320"
"2020-07-29T14:01:28",1596052888.57,2188798,-64,39,"067d45fab320"
"2020-07-29T14:01:28",1596052888.775,2189003,-64,37,"067d45fab320"
"2020-07-29T14:01:29",1596052889.19,2189418,-63,38,"067d45fab320"
"2020-07-29T14:01:29",1596052889.393,2189621,-64,39,"067d45fab320"
"2020-07-29T14:01:29",1596052889.804,2190032,-64,37,"067d45fab320"
"2020-07-29T14:01:30",1596052890.013,2190241,-63,38,"067d45fab320"
"2020-07-29T14:01:30",1596052890.423,2190651,-64,39,"067d45fab320"
"2020-07-29T14:01:30",1596052890.624,2190852,-64,37,"067d45fab320"
"2020-07-29T14:01:31",1596052891.033,2191261,-63,38,"067d45fab320"
"2020-07-29T14:01:31",1596052891.238,2191466,-64,39,"067d45fab320"
"2020-07-29T14:01:31",1596052891.66,2191888,-64,37,"067d45fab320"
"2020-07-29T14:01:31",1596052891.863,2192091,-63,38,"067d45fab320"
"2020-07-29T14:01:32",1596052892.269,2192497,-64,39,"067d45fab320"
"2020-07-29T14:01:32",1596052892.478,2192706,-64,37,"067d45fab320"
"2020-07-29T14:01:32",1596052892.887,2193115,-63,38,"067d45fab320"
"2020-07-29T14:01:33",1596052893.091,2193319,-64,39,"067d45fab320"
"2020-07-29T14:01:33",1596052893.504,2193732,-64,37,"067d45fab320"
"2020-07-29T14:01:33",1596052893.707,2193935,-63,38,"067d45fab320"
"2020-07-29T14:01:34",1596052894.125,2194353,-65,39,"067d45fab320"
"2020-07-29T14:01:34",1596052894.329,2194557,-64,37,"067d45fab320"
"2020-07-29T14:01:34",1596052894.536,2194764,-65,37,"067d45fab320"
"2020-07-29T14:01:34",1596052894.738,2194966,-64,38,"067d45fab320"
"2020-07-29T14:01:35",1596052895.146,2195374,-66,39,"067d45fab320"
"2020-07-29T14:01:35",1596052895.352,2195580,-65,37,"067d45fab320"
"2020-07-29T14:01:35",1596052895.762,2195990,-66,38,"067d45fab320"
"2020-07-29T14:01:35",1596052895.965,2196193,-68,39,"067d45fab320"
"2020-07-29T14:01:36",1596052896.384,2196612,-68,37,"067d45fab320"
"2020-07-29T14:01:36",1596052896.593,2196821,-67,38,"067d45fab320"
"2020-07-29T14:01:37",1596052897.005,2197233,-65,39,"067d45fab320"
"2020-07-29T14:01:37",1596052897.213,2197441,-64,37,"067d45fab320"
"2020-07-29T14:01:37",1596052897.619,2197847,-63,38,"067d45fab320"
"2020-07-29T14:01:37",1596052897.829,2198057,-64,39,"067d45fab320"
"2020-07-29T14:01:38",1596052898.236,2198464,-66,37,"067d45fab320"
"2020-07-29T14:01:38",1596052898.438,2198666,-63,38,"067d45fab320"
"2020-07-29T14:01:38",1596052898.86,2199088,-64,39,"067d45fab320"
"2020-07-29T14:01:39",1596052899.064,2199292,-64,37,"067d45fab320"
"2020-07-29T14:01:39",1596052899.474,2199702,-63,38,"067d45fab320"
"2020-07-29T14:01:39",1596052899.684,2199912,-65,39,"067d45fab320"
"2020-07-29T14:01:40",1596052900.09,2200318,-64,37,"067d45fab320"
"2020-07-29T14:01:40",1596052900.293,2200521,-63,38,"067d45fab320"
"2020-07-29T14:01:40",1596052900.709,2200937,-64,39,"067d45fab320"
"2020-07-29T14:01:40",1596052900.908,2201136,-64,37,"067d45fab320"
"2020-07-29T14:01:41",1596052901.319,2201547,-63,38,"067d45fab320"
"2020-07-29T14:01:41",1596052901.528,2201756,-64,39,"067d45fab320"
"2020-07-29T14:01:41",1596052901.935,2202163,-64,37,"067d45fab320"
"2020-07-29T14:01:42",1596052902.145,2202373,-63,38,"067d45fab320"
"2020-07-29T14:01:42",1596052902.554,2202782,-64,39,"067d45fab320"
"2020-07-29T14:01:42",1596052902.765,2202993,-65,37,"067d45fab320"
"2020-07-29T14:01:42",1596052902.969,2203197,-64,37,"067d45fab320"
"2020-07-29T14:01:43",1596052903.168,2203396,-63,38,"067d45fab320"
"2020-07-29T14:01:43",1596052903.589,2203817,-64,39,"067d45fab320"
"2020-07-29T14:01:43",1596052903.794,2204022,-64,37,"067d45fab320"
"2020-07-29T14:01:44",1596052904.203,2204431,-63,38,"067d45fab320"
"2020-07-29T14:01:44",1596052904.413,2204641,-64,39,"067d45fab320"
"2020-07-29T14:01:44",1596052904.819,2205047,-64,37,"067d45fab320"
"2020-07-29T14:01:45",1596052905.028,2205256,-63,38,"067d45fab320"
"2020-07-29T14:01:45",1596052905.436,2205664,-64,39,"067d45fab320"
"2020-07-29T14:01:45",1596052905.642,2205870,-64,37,"067d45fab320"
"2020-07-29T14:01:46",1596052906.061,2206289,-63,38,"067d45fab320"
"2020-07-29T14:01:46",1596052906.263,2206491,-64,39,"067d45fab320"
"2020-07-29T14:01:46",1596052906.674,2206902,-64,37,"067d45fab320"
"2020-07-29T14:01:46",1596052906.88,2207108,-63,38,"067d45fab320"
"2020-07-29T14:01:47",1596052907.286,2207514,-64,39,"067d45fab320"
"2020-07-29T14:01:47",1596052907.491,2207719,-64,37,"067d45fab320"
"2020-07-29T14:01:47",1596052907.9,2208128,-63,38,"067d45fab320"
"2020-07-29T14:01:48",1596052908.109,2208337,-64,39,"067d45fab320"
"2020-07-29T14:01:48",1596052908.52,2208748,-64,37,"067d45fab320"
"2020-07-29T14:01:48",1596052908.73,2208958,-63,38,"067d45fab320"
"2020-07-29T14:01:49",1596052909.137,2209365,-64,39,"067d45fab320"
"2020-07-29T14:01:49",1596052909.344,2209572,-64,37,"067d45fab320"
"2020-07-29T14:01:49",1596052909.755,2209983,-63,38,"067d45fab320"
"2020-07-29T14:01:49",1596052909.961,2210189,-64,39,"067d45fab320"
"2020-07-29T14:01:50",1596052910.369,2210597,-64,37,"067d45fab320"
"2020-07-29T14:01:50",1596052910.575,2210803,-63,38,"067d45fab320"
"2020-07-29T14:01:50",1596052910.99,2211218,-64,39,"067d45fab320"
"2020-07-29T14:01:51",1596052911.396,2211624,-64,37,"067d45fab320"
"2020-07-29T14:01:51",1596052911.605,2211833,-63,38,"067d45fab320"
"2020-07-29T14:01:52",1596052912.015,2212243,-63,39,"067d45fab320"
"2020-07-29T14:01:52",1596052912.225,2212453,-65,37,"067d45fab320"
"2020-07-29T14:01:52",1596052912.635,2212863,-70,38,"067d45fab320"
"2020-07-29T14:01:52",1596052912.843,2213071,-70,39,"067d45fab320"
"2020-07-29T14:01:53",1596052913.256,2213484,-73,37,"067d45fab320"
"2020-07-29T14:01:53",1596052913.464,2213692,-72,38,"067d45fab320"
"2020-07-29T14:01:53",1596052913.875,2214103,-70,39,"067d45fab320"
"2020-07-29T14:01:54",1596052914.076,2214304,-75,37,"067d45fab320"
"2020-07-29T14:01:54",1596052914.495,2214723,-71,38,"067d45fab320"
"2020-07-29T14:01:54",1596052914.697,2214925,-72,39,"067d45fab320"
"2020-07-29T14:01:55",1596052915.307,2215535,-73,38,"067d45fab320"
"2020-07-29T14:01:55",1596052915.722,2215950,-71,39,"067d45fab320"
"2020-07-29T14:01:55",1596052915.93,2216158,-71,37,"067d45fab320"
"2020-07-29T14:01:56",1596052916.337,2216565,-70,38,"067d45fab320"
"2020-07-29T14:01:56",1596052916.546,2216774,-71,39,"067d45fab320"
"2020-07-29T14:01:56",1596052916.964,2217192,-74,37,"067d45fab320"
"2020-07-29T14:01:57",1596052917.167,2217395,-72,38,"067d45fab320"
"2020-07-29T14:01:57",1596052917.576,2217804,-72,39,"067d45fab320"
"2020-07-29T14:01:57",1596052917.78,2218008,-74,37,"067d45fab320"
"2020-07-29T14:01:58",1596052918.195,2218423,-72,38,"067d45fab320"
"2020-07-29T14:01:58",1596052918.404,2218632,-72,39,"067d45fab320"
"2020-07-29T14:01:58",1596052918.82,2219048,-73,37,"067d45fab320"
"2020-07-29T14:01:59",1596052919.022,2219250,-73,38,"067d45fab320"
"2020-07-29T14:01:59",1596052919.433,2219661,-72,39,"067d45fab320"
"2020-07-29T14:01:59",1596052919.844,2220072,-74,37,"067d45fab320"
"2020-07-29T14:02:00",1596052920.047,2220275,-73,38,"067d45fab320"
"2020-07-29T14:02:00",1596052920.465,2220693,-72,39,"067d45fab320"
"2020-07-29T14:02:00",1596052920.67,2220898,-74,37,"067d45fab320"
"2020-07-29T14:02:01",1596052921.074,2221302,-72,38,"067d45fab320"
"2020-07-29T14:02:01",1596052921.28,2221508,-72,39,"067d45fab320"
"2020-07-29T14:02:01",1596052921.692,2221920,-73,37,"067d45fab320"
"2020-07-29T14:02:01",1596052921.895,2222123,-71,38,"067d45fab320"
"2020-07-29T14:02:02",1596052922.306,2222534,-71,39,"067d45fab320"
"2020-07-29T14:02:02",1596052922.516,2222744,-73,37,"067d45fab320"
"2020-07-29T14:02:02",1596052922.927,2223155,-71,38,"067d45fab320"
"2020-07-29T14:02:03",1596052923.127,2223355,-72,39,"067d45fab320"
"2020-07-29T14:02:03",1596052923.537,2223765,-77,37,"067d45fab320"
"2020-07-29T14:02:04",1596052924.156,2224384,-69,39,"067d45fab320"
"2020-07-29T14:02:04",1596052924.363,2224591,-77,37,"067d45fab320"
"2020-07-29T14:02:04",1596052924.767,2224995,-63,38,"067d45fab320"
"2020-07-29T14:02:04",1596052924.974,2225202,-64,39,"067d45fab320"
"2020-07-29T14:02:05",1596052925.395,2225623,-64,37,"067d45fab320"
"2020-07-29T14:02:05",1596052925.594,2225822,-63,38,"067d45fab320"
"2020-07-29T14:02:06",1596052926.006,2226234,-64,39,"067d45fab320"
"2020-07-29T14:02:06",1596052926.209,2226437,-64,37,"067d45fab320"
"2020-07-29T14:02:06",1596052926.625,2226853,-63,38,"067d45fab320"
"2020-07-29T14:02:06",1596052926.828,2227056,-64,39,"067d45fab320"
"2020-07-29T14:02:07",1596052927.033,2227261,-64,39,"067d45fab320"
"2020-07-29T14:02:07",1596052927.239,2227467,-64,37,"067d45fab320"
"2020-07-29T14:02:07",1596052927.657,2227885,-63,38,"067d45fab320"
"2020-07-29T14:02:07",1596052927.858,2228086,-64,39,"067d45fab320"
"2020-07-29T14:02:08",1596052928.275,2228503,-64,37,"067d45fab320"
"2020-07-29T14:02:08",1596052928.48,2228708,-63,38,"067d45fab320"
"2020-07-29T14:02:08",1596052928.891,2229119,-64,39,"067d45fab320"
"2020-07-29T14:02:09",1596052929.093,2229321,-64,37,"067d45fab320"
"2020-07-29T14:02:09",1596052929.505,2229733,-63,38,"067d45fab320"
"2020-07-29T14:02:09",1596052929.714,2229942,-64,39,"067d45fab320"
"2020-07-29T14:02:10",1596052930.124,2230352,-64,37,"067d45fab320"
"2020-07-29T14:02:10",1596052930.334,2230562,-63,38,"067d45fab320"
"2020-07-29T14:02:10",1596052930.744,2230972,-65,39,"067d45fab320"
"2020-07-29T14:02:10",1596052930.951,2231179,-66,37,"067d45fab320"
"2020-07-29T14:02:11",1596052931.365,2231593,-68,38,"067d45fab320"
"2020-07-29T14:02:11",1596052931.565,2231793,-69,39,"067d45fab320"
"2020-07-29T14:02:11",1596052931.978,2232206,-65,37,"067d45fab320"
"2020-07-29T14:02:12",1596052932.179,2232407,-63,38,"067d45fab320"
"2020-07-29T14:02:12",1596052932.6,2232828,-64,39,"067d45fab320"
"2020-07-29T14:02:12",1596052932.805,2233033,-64,37,"067d45fab320"
"2020-07-29T14:02:13",1596052933.411,2233639,-62,39,"067d45fab320"
"2020-07-29T14:02:13",1596052933.831,2234059,-82,37,"067d45fab320"
"2020-07-29T14:02:14",1596052934.034,2234262,-68,38,"067d45fab320"
"2020-07-29T14:02:14",1596052934.645,2234873,-64,37,"067d45fab320"
"2020-07-29T14:02:15",1596052935.059,2235287,-63,38,"067d45fab320"
"2020-07-29T14:02:15",1596052935.266,2235494,-64,39,"067d45fab320"
"2020-07-29T14:02:15",1596052935.685,2235913,-65,37,"067d45fab320"
"2020-07-29T14:02:15",1596052935.887,2236115,-63,38,"067d45fab320"
"2020-07-29T14:02:16",1596052936.095,2236323,-63,38,"067d45fab320"
"2020-07-29T14:02:16",1596052936.301,2236529,-63,39,"067d45fab320"
"2020-07-29T14:02:16",1596052936.711,2236939,-64,37,"067d45fab320"
"2020-07-29T14:02:16",1596052936.915,2237143,-63,38,"067d45fab320"
"2020-07-29T14:02:17",1596052937.328,2237556,-64,39,"067d45fab320"
"2020-07-29T14:02:17",1596052937.534,2237762,-64,37,"067d45fab320"
"2020-07-29T14:02:17",1596052937.937,2238165,-63,38,"067d45fab320"
"2020-07-29T14:02:18",1596052938.14,2238368,-64,39,"067d45fab320"
"2020-07-29T14:02:18",1596052938.558,2238786,-64,37,"067d45fab320"
"2020-07-29T14:02:18",1596052938.763,2238991,-63,38,"067d45fab320"
"2020-07-29T14:02:19",1596052939.17,2239398,-65,39,"067d45fab320"
"2020-07-29T14:02:19",1596052939.998,2240226,-64,39,"067d45fab320"
"2020-07-29T14:02:20",1596052940.407,2240635,-64,37,"067d45fab320"
"2020-07-29T14:02:20",1596052940.615,2240843,-63,38,"067d45fab320"
"2020-07-29T14:02:21",1596052941.025,2241253,-63,39,"067d45fab320"
"2020-07-29T14:02:21",1596052941.64,2241868,-91,38,"067d45fab320"
"2020-07-29T14:02:21",1596052941.843,2242071,-69,39,"067d45fab320"
"2020-07-29T14:02:22",1596052942.261,2242489,-77,37,"067d45fab320"
"2020-07-29T14:02:22",1596052942.465,2242693,-68,38,"067d45fab320"
"2020-07-29T14:02:22",1596052942.875,2243103,-75,39,"067d45fab320"
"2020-07-29T14:02:23",1596052943.081,2243309,-77,37,"067d45fab320"
"2020-07-29T14:02:23",1596052943.492,2243720,-74,38,"067d45fab320"
"2020-07-29T14:02:23",1596052943.699,2243927,-76,39,"067d45fab320"
"2020-07-29T14:02:23",1596052943.905,2244133,-77,39,"067d45fab320"
"2020-07-29T14:02:24",1596052944.114,2244342,-78,37,"067d45fab320"
"2020-07-29T14:02:24",1596052944.325,2244553,-76,38,"067d45fab320"
"2020-07-29T14:02:24",1596052944.527,2244755,-76,38,"067d45fab320"
"2020-07-29T14:02:24",1596052944.731,2244959,-78,39,"067d45fab320"
"2020-07-29T14:02:25",1596052945.144,2245372,-81,37,"067d45fab320"
"2020-07-29T14:02:25",1596052945.345,2245573,-75,38,"067d45fab320"
"2020-07-29T14:02:25",1596052945.758,2245986,-72,39,"067d45fab320"
"2020-07-29T14:02:25",1596052945.959,2246187,-69,37,"067d45fab320"
"2020-07-29T14:02:26",1596052946.373,2246601,-70,38,"067d45fab320"
"2020-07-29T14:02:26",1596052946.582,2246810,-71,39,"067d45fab320"
"2020-07-29T14:02:26",1596052946.988,2247216,-68,37,"067d45fab320"
"2020-07-29T14:02:27",1596052947.194,2247422,-65,38,"067d45fab320"
"2020-07-29T14:02:27",1596052947.603,2247831,-65,39,"067d45fab320"
"2020-07-29T14:02:27",1596052947.813,2248041,-72,37,"067d45fab320"
"2020-07-29T14:02:28",1596052948.221,2248449,-63,38,"067d45fab320"
"2020-07-29T14:02:28",1596052948.424,2248652,-65,39,"067d45fab320"
"2020-07-29T14:02:28",1596052948.841,2249069,-64,37,"067d45fab320"
"2020-07-29T14:02:29",1596052949.043,2249271,-63,38,"067d45fab320"
"2020-07-29T14:02:29",1596052949.458,2249686,-64,39,"067d45fab320"
"2020-07-29T14:02:29",1596052949.66,2249888,-65,37,"067d45fab320"
"2020-07-29T14:02:30",1596052950.075,2250303,-63,38,"067d45fab320"
"2020-07-29T14:02:30",1596052950.275,2250503,-64,39,"067d45fab320"
"2020-07-29T14:02:30",1596052950.689,2250917,-65,37,"067d45fab320"
"2020-07-29T14:02:30",1596052950.89,2251118,-63,38,"067d45fab320"
"2020-07-29T14:02:31",1596052951.3,2251528,-64,39,"067d45fab320"
"2020-07-29T14:02:31",1596052951.514,2251742,-64,37,"067d45fab320"
"2020-07-29T14:02:31",1596052951.72,2251948,-64,37,"067d45fab320"
"2020-07-29T14:02:31",1596052951.925,2252153,-63,38,"067d45fab320"
"2020-07-29T14:02:32",1596052952.335,2252563,-64,39,"067d45fab320"
"2020-07-29T14:02:32",1596052952.535,2252763,-64,37,"067d45fab320"
"2020-07-29T14:02:32",1596052952.95,2253178,-63,38,"067d45fab320"
"2020-07-29T14:02:33",1596052953.151,2253379,-64,39,"067d45fab320"
"2020-07-29T14:02:33",1596052953.565,2253793,-65,37,"067d45fab320"
"2020-07-29T14:02:34",1596052954.185,2254413,-64,39,"067d45fab320"
"2020-07-29T14:02:34",1596052954.392,2254620,-64,37,"067d45fab320"
"2020-07-29T14:02:34",1596052954.802,2255030,-63,38,"067d45fab320"
"2020-07-29T14:02:35",1596052955.004,2255232,-64,39,"067d45fab320"
"2020-07-29T14:02:35",1596052955.419,2255647,-64,37,"067d45fab320"
"2020-07-29T14:02:35",1596052955.628,2255856,-63,38,"067d45fab320"
"2020-07-29T14:02:36",1596052956.038,2256266,-64,39,"067d45fab320"
"2020-07-29T14:02:36",1596052956.239,2256467,-64,37,"067d45fab320"
"2020-07-29T14:02:36",1596052956.655,2256883,-63,38,"067d45fab320"
"2020-07-29T14:02:36",1596052956.865,2257093,-64,39,"067d45fab320"
"2020-07-29T14:02:37",1596052957.272,2257500,-64,37,"067d45fab320"
"2020-07-29T14:02:37",1596052957.476,2257704,-63,38,"067d45fab320"
"2020-07-29T14:02:37",1596052957.887,2258115,-64,39,"067d45fab320"
"2020-07-29T14:02:38",1596052958.097,2258325,-64,37,"067d45fab320"
"2020-07-29T14:02:38",1596052958.5,2258728,-63,38,"067d45fab320"
"2020-07-29T14:02:38",1596052958.707,2258935,-64,39,"067d45fab320"
"2020-07-29T14:02:39",1596052959.123,2259351,-64,37,"067d45fab320"
"2020-07-29T14:02:39",1596052959.325,2259553,-63,38,"067d45fab320"
"2020-07-29T14:02:39",1596052959.527,2259755,-63,38,"067d45fab320"
"2020-07-29T14:02:39",1596052959.736,2259964,-64,39,"067d45fab320"
"2020-07-29T14:02:40",1596052960.144,2260372,-64,37,"067d45fab320"
"2020-07-29T14:02:40",1596052960.353,2260581,-63,38,"067d45fab320"
"2020-07-29T14:02:40",1596052960.765,2260993,-64,39,"067d45fab320"
"2020-07-29T14:02:40",1596052960.967,2261195,-64,37,"067d45fab320"
"2020-07-29T14:02:41",1596052961.381,2261609,-63,38,"067d45fab320"
"2020-07-29T14:02:41",1596052961.584,2261812,-64,39,"067d45fab320"
"2020-07-29T14:02:41",1596052961.996,2262224,-64,37,"067d45fab320"
"2020-07-29T14:02:42",1596052962.201,2262429,-63,38,"067d45fab320"
"2020-07-29T14:02:42",1596052962.817,2263045,-65,37,"067d45fab320"
"2020-07-29T14:02:43",1596052963.226,2263454,-63,38,"067d45fab320"
"2020-07-29T14:02:43",1596052963.43,2263658,-64,39,"067d45fab320"
"2020-07-29T14:02:43",1596052963.847,2264075,-65,37,"067d45fab320"
"2020-07-29T14:02:44",1596052964.051,2264279,-63,38,"067d45fab320"
"2020-07-29T14:02:44",1596052964.463,2264691,-64,39,"067d45fab320"
"2020-07-29T14:02:44",1596052964.672,2264900,-63,37,"067d45fab320"
"2020-07-29T14:02:45",1596052965.076,2265304,-63,38,"067d45fab320"
"2020-07-29T14:02:45",1596052965.286,2265514,-64,39,"067d45fab320"
"2020-07-29T14:02:45",1596052965.693,2265921,-64,37,"067d45fab320"
"2020-07-29T14:02:45",1596052965.901,2266129,-63,38,"067d45fab320"
"2020-07-29T14:02:46",1596052966.32,2266548,-64,39,"067d45fab320"
"2020-07-29T14:02:46",1596052966.526,2266754,-64,37,"067d45fab320"
"2020-07-29T14:02:46",1596052966.936,2267164,-63,38,"067d45fab320"
"2020-07-29T14:02:47",1596052967.141,2267369,-64,39,"067d45fab320"
"2020-07-29T14:02:47",1596052967.551,2267779,-63,37,"067d45fab320"
"2020-07-29T14:02:47",1596052967.96,2268188,-63,38,"067d45fab320"
"2020-07-29T14:02:48",1596052968.164,2268392,-64,39,"067d45fab320"
"2020-07-29T14:02:48",1596052968.578,2268806,-64,37,"067d45fab320"
"2020-07-29T14:02:48",1596052968.782,2269010,-63,38,"067d45fab320"
"2020-07-29T14:02:49",1596052969.195,2269423,-64,39,"067d45fab320"
"2020-07-29T14:02:49",1596052969.401,2269629,-64,37,"067d45fab320"
"2020-07-29T14:02:49",1596052969.808,2270036,-63,38,"067d45fab320"
"2020-07-29T14:02:50",1596052970.016,2270244,-64,39,"067d45fab320"
"2020-07-29T14:02:50",1596052970.426,2270654,-64,37,"067d45fab320"
"2020-07-29T14:02:50",1596052970.635,2270863,-63,38,"067d45fab320"
"2020-07-29T14:02:51",1596052971.046,2271274,-64,39,"067d45fab320"
"2020-07-29T14:02:51",1596052971.247,2271475,-65,37,"067d45fab320"
"2020-07-29T14:02:51",1596052971.658,2271886,-63,38,"067d45fab320"
"2020-07-29T14:02:51",1596052971.865,2272093,-64,39,"067d45fab320"
"2020-07-29T14:02:52",1596052972.278,2272506,-63,37,"067d45fab320"
"2020-07-29T14:02:52",1596052972.487,2272715,-64,38,"067d45fab320"
"2020-07-29T14:02:52",1596052972.897,2273125,-65,39,"067d45fab320"
"2020-07-29T14:02:53",1596052973.107,2273335,-69,37,"067d45fab320"
"2020-07-29T14:02:53",1596052973.515,2273743,-75,38,"067d45fab320"
"2020-07-29T14:02:54",1596052974.128,2274356,-71,37,"067d45fab320"
"2020-07-29T14:02:54",1596052974.337,2274565,-67,38,"067d45fab320"
"2020-07-29T14:02:54",1596052974.748,2274976,-66,39,"067d45fab320"
"2020-07-29T14:02:54",1596052974.951,2275179,-65,37,"067d45fab320"
"2020-07-29T14:02:55",1596052975.155,2275383,-65,37,"067d45fab320"
"2020-07-29T14:02:55",1596052975.36,2275588,-63,38,"067d45fab320"
"2020-07-29T14:02:55",1596052975.574,2275802,-65,39,"067d45fab320"
"2020-07-29T14:02:55",1596052975.782,2276010,-64,39,"067d45fab320"
"2020-07-29T14:02:55",1596052975.987,2276215,-64,37,"067d45fab320"
"2020-07-29T14:02:56",1596052976.396,2276624,-63,38,"067d45fab320"
"2020-07-29T14:02:56",1596052976.597,2276825,-64,39,"067d45fab320"
"2020-07-29T14:02:57",1596052977.01,2277238,-64,37,"067d45fab320"
"2020-07-29T14:02:57",1596052977.218,2277446,-64,38,"067d45fab320"
"2020-07-29T14:02:57",1596052977.626,2277854,-70,39,"067d45fab320"
"2020-07-29T14:02:57",1596052977.831,2278059,-72,37,"067d45fab320"
"2020-07-29T14:02:58",1596052978.246,2278474,-71,38,"067d45fab320"
"2020-07-29T14:02:58",1596052978.452,2278680,-70,39,"067d45fab320"
"2020-07-29T14:02:58",1596052978.862,2279090,-73,37,"067d45fab320"
"2020-07-29T14:02:59",1596052979.069,2279297,-72,38,"067d45fab320"
"2020-07-29T14:02:59",1596052979.477,2279705,-67,39,"067d45fab320"
"2020-07-29T14:02:59",1596052979.679,2279907,-69,37,"067d45fab320"
"2020-07-29T14:03:00",1596052980.088,2280316,-62,38,"067d45fab320"
"2020-07-29T14:03:00",1596052980.297,2280525,-64,39,"067d45fab320"
"2020-07-29T14:03:00",1596052980.911,2281139,-64,38,"067d45fab320"
"2020-07-29T14:03:01",1596052981.321,2281549,-64,39,"067d45fab320"
"2020-07-29T14:03:01",1596052981.527,2281755,-65,37,"067d45fab320"
"2020-07-29T14:03:01",1596052981.945,2282173,-65,38,"067d45fab320"
"2020-07-29T14:03:02",1596052982.147,2282375,-68,39,"067d45fab320"
"2020-07-29T14:03:02",1596052982.558,2282786,-69,37,"067d45fab320"
"2020-07-29T14:03:02",1596052982.764,2282992,-70,38,"067d45fab320"
"2020-07-29T14:03:03",1596052983.176,2283404,-77,39,"067d45fab320"
"2020-07-29T14:03:03",1596052983.585,2283813,-79,37,"067d45fab320"
"2020-07-29T14:03:03",1596052983.794,2284022,-72,38,"067d45fab320"
"2020-07-29T14:03:04",1596052984.205,2284433,-66,39,"067d45fab320"
"2020-07-29T14:03:04",1596052984.408,2284636,-73,37,"067d45fab320"
"2020-07-29T14:03:04",1596052984.826,2285054,-64,38,"067d45fab320"
"2020-07-29T14:03:05",1596052985.026,2285254,-63,39,"067d45fab320"
"2020-07-29T14:03:05",1596052985.44,2285668,-64,37,"067d45fab320"
"2020-07-29T14:03:05",1596052985.65,2285878,-63,38,"067d45fab320"
"2020-07-29T14:03:06",1596052986.059,2286287,-64,39,"067d45fab320"
"2020-07-29T14:03:06",1596052986.261,2286489,-64,37,"067d45fab320"
"2020-07-29T14:03:06",1596052986.675,2286903,-63,38,"067d45fab320"
"2020-07-29T14:03:06",1596052986.878,2287106,-64,39,"067d45fab320"
"2020-07-29T14:03:07",1596052987.285,2287513,-64,37,"067d45fab320"
"2020-07-29T14:03:07",1596052987.491,2287719,-63,38,"067d45fab320"
"2020-07-29T14:03:07",1596052987.905,2288133,-65,39,"067d45fab320"
"2020-07-29T14:03:08",1596052988.106,2288334,-65,37,"067d45fab320"
"2020-07-29T14:03:08",1596052988.518,2288746,-63,38,"067d45fab320"
"2020-07-29T14:03:08",1596052988.728,2288956,-65,39,"067d45fab320"
"2020-07-29T14:03:09",1596052989.13,2289358,-71,37,"067d45fab320"
"2020-07-29T14:03:09",1596052989.336,2289564,-80,38,"067d45fab320"
"2020-07-29T14:03:09",1596052989.754,2289982,-68,39,"067d45fab320"
"2020-07-29T14:03:09",1596052989.958,2290186,-63,37,"067d45fab320"
"2020-07-29T14:03:10",1596052990.37,2290598,-63,38,"067d45fab320"
"2020-07-29T14:03:10",1596052990.985,2291213,-64,37,"067d45fab320"
"2020-07-29T14:03:11",1596052991.391,2291619,-63,38,"067d45fab320"
"2020-07-29T14:03:11",1596052991.6,2291828,-64,39,"067d45fab320"
"2020-07-29T14:03:12",1596052992.012,2292240,-64,37,"067d45fab320"
"2020-07-29T14:03:12",1596052992.216,2292444,-63,38,"067d45fab320"
"2020-07-29T14:03:12",1596052992.627,2292855,-64,39,"067d45fab320"
"2020-07-29T14:03:12",1596052992.835,2293063,-64,37,"067d45fab320"
"2020-07-29T14:03:13",1596052993.246,2293474,-63,38,"067d45fab320"
"2020-07-29T14:03:13",1596052993.453,2293681,-64,39,"067d45fab320"
"2020-07-29T14:03:13",1596052993.862,2294090,-64,37,"067d45fab320"
"2020-07-29T14:03:14",1596052994.066,2294294,-63,38,"067d45fab320"
"2020-07-29T14:03:14",1596052994.48,2294708,-64,39,"067d45fab320"
"2020-07-29T14:03:14",1596052994.689,2294917,-64,37,"067d45fab320"
"2020-07-29T14:03:15",1596052995.105,2295333,-63,38,"067d45fab320"
"2020-07-29T14:03:15",1596052995.311,2295539,-64,39,"067d45fab320"
"2020-07-29T14:03:15",1596052995.719,2295947,-64,37,"067d45fab320"
"2020-07-29T14:03:15",1596052995.926,2296154,-63,38,"067d45fab320"
"2020-07-29T14:03:16",1596052996.33,2296558,-64,39,"067d45fab320"
"2020-07-29T14:03:16",1596052996.533,2296761,-63,37,"067d45fab320"
"2020-07-29T14:03:16",1596052996.947,2297175,-63,38,"067d45fab320"
"2020-07-29T14:03:17",1596052997.156,2297384,-64,39,"067d45fab320"
"2020-07-29T14:03:17",1596052997.561,2297789,-64,37,"067d45fab320"
"2020-07-29T14:03:17",1596052997.766,2297994,-63,38,"067d45fab320"
"2020-07-29T14:03:18",1596052998.183,2298411,-64,39,"067d45fab320"
"2020-07-29T14:03:18",1596052998.794,2299022,-63,38,"067d45fab320"
"2020-07-29T14:03:19",1596052999.208,2299436,-64,39,"067d45fab320"
"2020-07-29T14:03:19",1596052999.41,2299638,-63,37,"067d45fab320"
"2020-07-29T14:03:19",1596052999.826,2300054,-63,38,"067d45fab320"
"2020-07-29T14:03:20",1596053000.027,2300255,-64,39,"067d45fab320"
"2020-07-29T14:03:20",1596053000.446,2300674,-64,37,"067d45fab320"
"2020-07-29T14:03:20",1596053000.651,2300879,-63,38,"067d45fab320"
"2020-07-29T14:03:21",1596053001.058,2301286,-64,39,"067d45fab320"
"2020-07-29T14:03:21",1596053001.676,2301904,-63,38,"067d45fab320"
"2020-07-29T14:03:22",1596053002.293,2302521,-64,37,"067d45fab320"
"2020-07-29T14:03:23",1596053003.119,2303347,-65,37,"067d45fab320"
"2020-07-29T14:03:23",1596053003.524,2303752,-63,38,"067d45fab320"
"2020-07-29T14:03:23",1596053003.727,2303955,-65,39,"067d45fab320"
"2020-07-29T14:03:24",1596053004.146,2304374,-65,37,"067d45fab320"
"2020-07-29T14:03:24",1596053004.351,2304579,-63,38,"067d45fab320"
"2020-07-29T14:03:24",1596053004.762,2304990,-66,39,"067d45fab320"
"2020-07-29T14:03:24",1596053004.972,2305200,-69,37,"067d45fab320"
"2020-07-29T14:03:25",1596053005.379,2305607,-73,38,"067d45fab320"
"2020-07-29T14:03:25",1596053005.58,2305808,-73,39,"067d45fab320"
"2020-07-29T14:03:25",1596053005.991,2306219,-73,37,"067d45fab320"
"2020-07-29T14:03:26",1596053006.199,2306427,-71,38,"067d45fab320"
"2020-07-29T14:03:26",1596053006.402,2306630,-69,38,"067d45fab320"
"2020-07-29T14:03:26",1596053006.611,2306839,-70,39,"067d45fab320"
"2020-07-29T14:03:27",1596053007.02,2307248,-70,37,"067d45fab320"
"2020-07-29T14:03:27",1596053007.227,2307455,-67,38,"067d45fab320"
"2020-07-29T14:03:27",1596053007.641,2307869,-75,39,"067d45fab320"
"2020-07-29T14:03:27",1596053007.842,2308070,-75,37,"067d45fab320"
"2020-07-29T14:03:28",1596053008.25,2308478,-73,38,"067d45fab320"
"2020-07-29T14:03:28",1596053008.459,2308687,-75,39,"067d45fab320"
"2020-07-29T14:03:28",1596053008.871,2309099,-78,37,"067d45fab320"
"2020-07-29T14:03:29",1596053009.072,2309300,-78,38,"067d45fab320"
"2020-07-29T14:03:29",1596053009.485,2309713,-72,39,"067d45fab320"
"2020-07-29T14:03:29",1596053009.696,2309924,-73,37,"067d45fab320"
"2020-07-29T14:03:30",1596053010.103,2310331,-76,38,"067d45fab320"
"2020-07-29T14:03:30",1596053010.308,2310536,-73,39,"067d45fab320"
"2020-07-29T14:03:30",1596053010.717,2310945,-75,37,"067d45fab320"
"2020-07-29T14:03:30",1596053010.927,2311155,-71,38,"067d45fab320"
"2020-07-29T14:03:31",1596053011.337,2311565,-68,39,"067d45fab320"
"2020-07-29T14:03:31",1596053011.549,2311777,-69,37,"067d45fab320"
"2020-07-29T14:03:31",1596053011.956,2312184,-69,38,"067d45fab320"
"2020-07-29T14:03:32",1596053012.156,2312384,-73,39,"067d45fab320"
"2020-07-29T14:03:32",1596053012.575,2312803,-73,37,"067d45fab320"
"2020-07-29T14:03:32",1596053012.777,2313005,-66,38,"067d45fab320"
"2020-07-29T14:03:33",1596053013.194,2313422,-63,39,"067d45fab320"
"2020-07-29T14:03:33",1596053013.395,2313623,-66,37,"067d45fab320"
"2020-07-29T14:03:33",1596053013.595,2313823,-64,37,"067d45fab320"
"2020-07-29T14:03:33",1596053013.806,2314034,-63,38,"067d45fab320"
"2020-07-29T14:03:34",1596053014.016,2314244,-65,39,"067d45fab320"
"2020-07-29T14:03:34",1596053014.217,2314445,-65,39,"067d45fab320"
"2020-07-29T14:03:34",1596053014.422,2314650,-64,37,"067d45fab320"
"2020-07-29T14:03:34",1596053014.835,2315063,-64,38,"067d45fab320"
"2020-07-29T14:03:35",1596053015.038,2315266,-63,39,"067d45fab320"
"2020-07-29T14:03:35",1596053015.456,2315684,-64,37,"067d45fab320"
"2020-07-29T14:03:36",1596053016.073,2316301,-64,39,"067d45fab320"
"2020-07-29T14:03:36",1596053016.278,2316506,-65,37,"067d45fab320"
"2020-07-29T14:03:36",1596053016.689,2316917,-63,38,"067d45fab320"
"2020-07-29T14:03:36",1596053016.89,2317118,-64,39,"067d45fab320"
"2020-07-29T14:03:37",1596053017.306,2317534,-64,37,"067d45fab320"
"2020-07-29T14:03:37",1596053017.514,2317742,-63,38,"067d45fab320"
"2020-07-29T14:03:37",1596053017.919,2318147,-65,39,"067d45fab320"
"2020-07-29T14:03:38",1596053018.126,2318354,-64,37,"067d45fab320"
"2020-07-29T14:03:38",1596053018.546,2318774,-63,38,"067d45fab320"
"2020-07-29T14:03:38",1596053018.755,2318983,-63,39,"067d45fab320"
"2020-07-29T14:03:39",1596053019.165,2319393,-72,37,"067d45fab320"
"2020-07-29T14:03:39",1596053019.366,2319594,-75,38,"067d45fab320"
"2020-07-29T14:03:39",1596053019.776,2320004,-68,39,"067d45fab320"
"2020-07-29T14:03:40",1596053020.398,2320626,-62,38,"067d45fab320"
"2020-07-29T14:03:40",1596053020.598,2320826,-64,39,"067d45fab320"
"2020-07-29T14:03:41",1596053021.008,2321236,-66,37,"067d45fab320"
"2020-07-29T14:03:41",1596053021.222,2321450,-63,38,"067d45fab320"
"2020-07-29T14:03:41",1596053021.627,2321855,-64,39,"067d45fab320"
"2020-07-29T14:03:41",1596053021.837,2322065,-64,37,"067d45fab320"
"2020-07-29T14:03:42",1596053022.24,2322468,-63,38,"067d45fab320"
"2020-07-29T14:03:42",1596053022.655,2322883,-64,39,"067d45fab320"
"2020-07-29T14:03:42",1596053022.856,2323084,-66,37,"067d45fab320"
"2020-07-29T14:03:43",1596053023.274,2323502,-67,38,"067d45fab320"
"2020-07-29T14:03:43",1596053023.475,2323703,-73,39,"067d45fab320"
"2020-07-29T14:03:43",1596053023.889,2324117,-63,37,"067d45fab320"
"2020-07-29T14:03:44",1596053024.099,2324327,-63,38,"067d45fab320"
"2020-07-29T14:03:44",1596053024.508,2324736,-65,39,"067d45fab320"
"2020-07-29T14:03:44",1596053024.71,2324938,-64,37,"067d45fab320"
"2020-07-29T14:03:45",1596053025.119,2325347,-63,38,"067d45fab320"
"2020-07-29T14:03:45",1596053025.321,2325549,-65,39,"067d45fab320"
"2020-07-29T14:03:45",1596053025.73,2325958,-65,37,"067d45fab320"
"2020-07-29T14:03:45",1596053025.942,2326170,-63,38,"067d45fab320"
"2020-07-29T14:03:46",1596053026.351,2326579,-64,39,"067d45fab320"
"2020-07-29T14:03:46",1596053026.556,2326784,-64,37,"067d45fab320"
"2020-07-29T14:03:46",1596053026.971,2327199,-63,38,"067d45fab320"
"2020-07-29T14:03:47",1596053027.179,2327407,-64,39,"067d45fab320"
"2020-07-29T14:03:47",1596053027.582,2327810,-64,37,"067d45fab320"
"2020-07-29T14:03:47",1596053027.788,2328016,-63,38,"067d45fab320"
"2020-07-29T14:03:48",1596053028.205,2328433,-64,39,"067d45fab320"
"2020-07-29T14:03:48",1596053028.416,2328644,-64,37,"067d45fab320"
"2020-07-29T14:03:48",1596053028.831,2329059,-63,38,"067d45fab320"
"2020-07-29T14:03:49",1596053029.031,2329259,-64,39,"067d45fab320"
"2020-07-29T14:03:49",1596053029.438,2329666,-64,37,"067d45fab320"
"2020-07-29T14:03:49",1596053029.647,2329875,-63,38,"067d45fab320"
"2020-07-29T14:03:50",1596053030.056,2330284,-64,39,"067d45fab320"
"2020-07-29T14:03:50",1596053030.263,2330491,-64,37,"067d45fab320"
"2020-07-29T14:03:50",1596053030.47,2330698,-65,37,"067d45fab320"
"2020-07-29T14:03:50",1596053030.672,2330900,-66,38,"067d45fab320"
"2020-07-29T14:03:51",1596053031.093,2331321,-72,39,"067d45fab320"
"2020-07-29T14:03:51",1596053031.298,2331526,-73,37,"067d45fab320"
"2020-07-29T14:03:51",1596053031.707,2331935,-63,38,"067d45fab320"
"2020-07-29T14:03:51",1596053031.916,2332144,-64,39,"067d45fab320"
"2020-07-29T14:03:52",1596053032.324,2332552,-65,37,"067d45fab320"
"2020-07-29T14:03:52",1596053032.533,2332761,-63,38,"067d45fab320"
"2020-07-29T14:03:52",1596053032.938,2333166,-64,39,"067d45fab320"
"2020-07-29T14:03:53",1596053033.149,2333377,-65,37,"067d45fab320"
"2020-07-29T14:03:53",1596053033.564,2333792,-63,38,"067d45fab320"
"2020-07-29T14:03:53",1596053033.768,2333996,-64,39,"067d45fab320"
"2020-07-29T14:03:54",1596053034.177,2334405,-64,37,"067d45fab320"
"2020-07-29T14:03:54",1596053034.385,2334613,-63,38,"067d45fab320"
"2020-07-29T14:03:54",1596053034.795,2335023,-64,39,"067d45fab320"
"2020-07-29T14:03:55",1596053035.005,2335233,-64,37,"067d45fab320"
"2020-07-29T14:03:55",1596053035.414,2335642,-63,38,"067d45fab320"
"2020-07-29T14:03:55",1596053035.622,2335850,-64,39,"067d45fab320"
"2020-07-29T14:03:56",1596053036.028,2336256,-64,37,"067d45fab320"
"2020-07-29T14:03:56",1596053036.231,2336459,-63,38,"067d45fab320"
"2020-07-29T14:03:56",1596053036.646,2336874,-64,39,"067d45fab320"
"2020-07-29T14:03:56",1596053036.849,2337077,-64,37,"067d45fab320"
"2020-07-29T14:03:57",1596053037.878,2338106,-65,37,"067d45fab320"
"2020-07-29T14:03:58",1596053038.09,2338318,-63,38,"067d45fab320"
"2020-07-29T14:03:58",1596053038.503,2338731,-63,39,"067d45fab320"
"2020-07-29T14:03:58",1596053038.707,2338935,-63,37,"067d45fab320"
"2020-07-29T14:03:59",1596053039.116,2339344,-68,38,"067d45fab320"
"2020-07-29T14:03:59",1596053039.529,2339757,-65,39,"067d45fab320"
"2020-07-29T14:03:59",1596053039.73,2339958,-63,37,"067d45fab320"
"2020-07-29T14:04:00",1596053040.348,2340576,-65,39,"067d45fab320"
"2020-07-29T14:04:00",1596053040.766,2340994,-65,37,"067d45fab320"
"2020-07-29T14:04:00",1596053040.966,2341194,-63,38,"067d45fab320"
"2020-07-29T14:04:01",1596053041.378,2341606,-65,39,"067d45fab320"
"2020-07-29T14:04:01",1596053041.579,2341807,-64,37,"067d45fab320"
"2020-07-29T14:04:01",1596053041.993,2342221,-63,38,"067d45fab320"
"2020-07-29T14:04:02",1596053042.193,2342421,-67,39,"067d45fab320"
"2020-07-29T14:04:02",1596053042.607,2342835,-71,37,"067d45fab320"
"2020-07-29T14:04:02",1596053042.812,2343040,-66,38,"067d45fab320"
"2020-07-29T14:04:03",1596053043.224,2343452,-63,39,"067d45fab320"
"2020-07-29T14:04:03",1596053043.434,2343662,-64,37,"067d45fab320"
"2020-07-29T14:04:03",1596053043.843,2344071,-63,38,"067d45fab320"
"2020-07-29T14:04:04",1596053044.046,2344274,-64,39,"067d45fab320"
"2020-07-29T14:04:04",1596053044.462,2344690,-65,37,"067d45fab320"
"2020-07-29T14:04:04",1596053044.663,2344891,-64,38,"067d45fab320"
"2020-07-29T14:04:05",1596053045.075,2345303,-64,39,"067d45fab320"
"2020-07-29T14:04:05",1596053045.288,2345516,-64,37,"067d45fab320"
"2020-07-29T14:04:05",1596053045.697,2345925,-63,38,"067d45fab320"
"2020-07-29T14:04:05",1596053045.9,2346128,-64,39,"067d45fab320"
"2020-07-29T14:04:06",1596053046.312,2346540,-64,37,"067d45fab320"
"2020-07-29T14:04:06",1596053046.513,2346741,-63,38,"067d45fab320"
"2020-07-29T14:04:06",1596053046.926,2347154,-64,39,"067d45fab320"
"2020-07-29T14:04:07",1596053047.136,2347364,-64,37,"067d45fab320"
"2020-07-29T14:04:07",1596053047.339,2347567,-64,37,"067d45fab320"
"2020-07-29T14:04:07",1596053047.549,2347777,-63,38,"067d45fab320"
"2020-07-29T14:04:07",1596053047.959,2348187,-64,39,"067d45fab320"
"2020-07-29T14:04:08",1596053048.167,2348395,-64,37,"067d45fab320"
"2020-07-29T14:04:08",1596053048.577,2348805,-63,38,"067d45fab320"
"2020-07-29T14:04:08",1596053048.787,2349015,-64,39,"067d45fab320"
"2020-07-29T14:04:09",1596053049.191,2349419,-65,37,"067d45fab320"
"2020-07-29T14:04:09",1596053049.4,2349628,-63,38,"067d45fab320"
"2020-07-29T14:04:09",1596053049.809,2350037,-64,39,"067d45fab320"
"2020-07-29T14:04:10",1596053050.023,2350251,-64,37,"067d45fab320"
"2020-07-29T14:04:10",1596053050.436,2350664,-63,38,"067d45fab320"
"2020-07-29T14:04:10",1596053050.638,2350866,-64,39,"067d45fab320"
"2020-07-29T14:04:11",1596053051.043,2351271,-65,37,"067d45fab320"
"2020-07-29T14:04:11",1596053051.249,2351477,-62,38,"067d45fab320"
"2020-07-29T14:04:11",1596053051.662,2351890,-65,39,"067d45fab320"
"2020-07-29T14:04:11",1596053051.869,2352097,-68,37,"067d45fab320"
"2020-07-29T14:04:12",1596053052.282,2352510,-70,38,"067d45fab320"
"2020-07-29T14:04:12",1596053052.492,2352720,-70,39,"067d45fab320"
"2020-07-29T14:04:12",1596053052.896,2353124,-67,37,"067d45fab320"
"2020-07-29T14:04:13",1596053053.106,2353334,-65,38,"067d45fab320"
"2020-07-29T14:04:13",1596053053.512,2353740,-63,39,"067d45fab320"
"2020-07-29T14:04:14",1596053054.129,2354357,-63,38,"067d45fab320"
"2020-07-29T14:04:14",1596053054.337,2354565,-64,39,"067d45fab320"
"2020-07-29T14:04:14",1596053054.756,2354984,-65,37,"067d45fab320"
"2020-07-29T14:04:14",1596053054.962,2355190,-63,38,"067d45fab320"
"2020-07-29T14:04:15",1596053055.579,2355807,-64,37,"067d45fab320"
"2020-07-29T14:04:15",1596053055.989,2356217,-63,38,"067d45fab320"
"2020-07-29T14:04:16",1596053056.399,2356627,-64,39,"067d45fab320"
"2020-07-29T14:04:16",1596053056.606,2356834,-64,37,"067d45fab320"
"2020-07-29T14:04:17",1596053057.014,2357242,-63,38,"067d45fab320"
"2020-07-29T14:04:17",1596053057.627,2357855,-64,37,"067d45fab320"
"2020-07-29T14:04:17",1596053057.837,2358065,-63,38,"067d45fab320"
"2020-07-29T14:04:18",1596053058.249,2358477,-64,39,"067d45fab320"
"2020-07-29T14:04:18",1596053058.454,2358682,-64,37,"067d45fab320"
"2020-07-29T14:04:18",1596053058.861,2359089,-63,38,"067d45fab320"
"2020-07-29T14:04:19",1596053059.068,2359296,-64,39,"067d45fab320"
"2020-07-29T14:04:19",1596053059.473,2359701,-64,37,"067d45fab320"
"2020-07-29T14:04:19",1596053059.682,2359910,-63,38,"067d45fab320"
"2020-07-29T14:04:20",1596053060.096,2360324,-64,39,"067d45fab320"
"2020-07-29T14:04:20",1596053060.299,2360527,-64,37,"067d45fab320"
"2020-07-29T14:04:20",1596053060.714,2360942,-63,38,"067d45fab320"
"2020-07-29T14:04:20",1596053060.916,2361144,-64,39,"067d45fab320"
"2020-07-29T14:04:21",1596053061.323,2361551,-64,37,"067d45fab320"
"2020-07-29T14:04:21",1596053061.951,2362179,-64,39,"067d45fab320"
"2020-07-29T14:04:22",1596053062.151,2362379,-64,37,"067d45fab320"
"2020-07-29T14:04:22",1596053062.559,2362787,-63,38,"067d45fab320"
"2020-07-29T14:04:22",1596053062.769,2362997,-64,39,"067d45fab320"
"2020-07-29T14:04:23",1596053063.171,2363399,-64,37,"067d45fab320"
"2020-07-29T14:04:23",1596053063.586,2363814,-63,38,"067d45fab320"
"2020-07-29T14:04:23",1596053063.795,2364023,-64,39,"067d45fab320"
"2020-07-29T14:04:24",1596053064.198,2364426,-64,37,"067d45fab320"
"2020-07-29T14:04:24",1596053064.407,2364635,-63,38,"067d45fab320"
"2020-07-29T14:04:24",1596053064.823,2365051,-64,39,"067d45fab320"
"2020-07-29T14:04:25",1596053065.029,2365257,-64,37,"067d45fab320"
"2020-07-29T14:04:25",1596053065.437,2365665,-63,38,"067d45fab320"
"2020-07-29T14:04:26",1596053066.048,2366276,-64,37,"067d45fab320"
"2020-07-29T14:04:26",1596053066.256,2366484,-63,38,"067d45fab320"
"2020-07-29T14:04:26",1596053066.667,2366895,-64,39,"067d45fab320"
"2020-07-29T14:04:27",1596053067.288,2367516,-63,38,"067d45fab320"
"2020-07-29T14:04:27",1596053067.494,2367722,-64,39,"067d45fab320"
"2020-07-29T14:04:27",1596053067.902,2368130,-64,37,"067d45fab320"
"2020-07-29T14:04:28",1596053068.108,2368336,-63,38,"067d45fab320"
"2020-07-29T14:04:28",1596053068.521,2368749,-64,39,"067d45fab320"
"2020-07-29T14:04:28",1596053068.724,2368952,-64,37,"067d45fab320"
"2020-07-29T14:04:29",1596053069.138,2369366,-63,38,"067d45fab320"
"2020-07-29T14:04:29",1596053069.339,2369567,-64,39,"067d45fab320"
"2020-07-29T14:04:29",1596053069.752,2369980,-64,37,"067d45fab320"
"2020-07-29T14:04:29",1596053069.962,2370190,-63,38,"067d45fab320"
"2020-07-29T14:04:30",1596053070.371,2370599,-64,39,"067d45fab320"
"2020-07-29T14:04:30",1596053070.577,2370805,-64,37,"067d45fab320"
"2020-07-29T14:04:30",1596053070.986,2371214,-63,38,"067d45fab320"
"2020-07-29T14:04:31",1596053071.394,2371622,-64,39,"067d45fab320"
"2020-07-29T14:04:31",1596053071.604,2371832,-64,37,"067d45fab320"
"2020-07-29T14:04:32",1596053072.015,2372243,-63,38,"067d45fab320"
"2020-07-29T14:04:32",1596053072.225,2372453,-64,39,"067d45fab320"
"2020-07-29T14:04:32",1596053072.637,2372865,-64,37,"067d45fab320"
"2020-07-29T14:04:32",1596053072.84,2373068,-63,38,"067d45fab320"
"2020-07-29T14:04:33",1596053073.252,2373480,-64,39,"067d45fab320"
"2020-07-29T14:04:33",1596053073.455,2373683,-64,37,"067d45fab320"
"2020-07-29T14:04:33",1596053073.866,2374094,-63,38,"067d45fab320"
"2020-07-29T14:04:34",1596053074.077,2374305,-64,39,"067d45fab320"
"2020-07-29T14:04:34",1596053074.491,2374719,-64,37,"067d45fab320"
"2020-07-29T14:04:34",1596053074.694,2374922,-63,38,"067d45fab320"
"2020-07-29T14:04:35",1596053075.106,2375334,-64,39,"067d45fab320"
"2020-07-29T14:04:35",1596053075.307,2375535,-64,37,"067d45fab320"
"2020-07-29T14:04:35",1596053075.718,2375946,-63,38,"067d45fab320"
"2020-07-29T14:04:35",1596053075.919,2376147,-64,39,"067d45fab320"
"2020-07-29T14:04:36",1596053076.338,2376566,-64,37,"067d45fab320"
"2020-07-29T14:04:36",1596053076.545,2376773,-63,38,"067d45fab320"
"2020-07-29T14:04:36",1596053076.949,2377177,-64,39,"067d45fab320"
"2020-07-29T14:04:37",1596053077.154,2377382,-64,37,"067d45fab320"
"2020-07-29T14:04:37",1596053077.569,2377797,-63,38,"067d45fab320"
"2020-07-29T14:04:37",1596053077.774,2378002,-64,39,"067d45fab320"
"2020-07-29T14:04:38",1596053078.187,2378415,-64,37,"067d45fab320"
"2020-07-29T14:04:38",1596053078.391,2378619,-63,38,"067d45fab320"
"2020-07-29T14:04:38",1596053078.803,2379031,-64,39,"067d45fab320"
"2020-07-29T14:04:39",1596053079.21,2379438,-64,37,"067d45fab320"
"2020-07-29T14:04:39",1596053079.417,2379645,-63,38,"067d45fab320"
"2020-07-29T14:04:39",1596053079.837,2380065,-65,39,"067d45fab320"
"2020-07-29T14:04:40",1596053080.038,2380266,-64,37,"067d45fab320"
"2020-07-29T14:04:40",1596053080.445,2380673,-67,38,"067d45fab320"
"2020-07-29T14:04:40",1596053080.653,2380881,-68,39,"067d45fab320"
"2020-07-29T14:04:41",1596053081.058,2381286,-75,37,"067d45fab320"
"2020-07-29T14:04:41",1596053081.277,2381505,-69,38,"067d45fab320"
"2020-07-29T14:04:41",1596053081.683,2381911,-75,39,"067d45fab320"
"2020-07-29T14:04:41",1596053081.892,2382120,-70,37,"067d45fab320"
"2020-07-29T14:04:42",1596053082.299,2382527,-67,38,"067d45fab320"
"2020-07-29T14:04:42",1596053082.506,2382734,-63,39,"067d45fab320"
"2020-07-29T14:04:42",1596053082.911,2383139,-63,37,"067d45fab320"
"2020-07-29T14:04:43",1596053083.119,2383347,-62,38,"067d45fab320"
"2020-07-29T14:04:43",1596053083.532,2383760,-70,39,"067d45fab320"
"2020-07-29T14:04:43",1596053083.74,2383968,-75,37,"067d45fab320"
"2020-07-29T14:04:44",1596053084.148,2384376,-62,38,"067d45fab320"
"2020-07-29T14:04:44",1596053084.354,2384582,-68,39,"067d45fab320"
"2020-07-29T14:04:44",1596053084.766,2384994,-63,37,"067d45fab320"
"2020-07-29T14:04:44",1596053084.969,2385197,-64,38,"067d45fab320"
"2020-07-29T14:04:45",1596053085.381,2385609,-64,39,"067d45fab320"
"2020-07-29T14:04:45",1596053085.582,2385810,-64,37,"067d45fab320"
"2020-07-29T14:04:46",1596053086.001,2386229,-63,38,"067d45fab320"
"2020-07-29T14:04:46",1596053086.205,2386433,-64,39,"067d45fab320"
"2020-07-29T14:04:47",1596053087.026,2387254,-63,38,"067d45fab320"
"2020-07-29T14:04:47",1596053087.233,2387461,-64,39,"067d45fab320"
"2020-07-29T14:04:47",1596053087.646,2387874,-69,37,"067d45fab320"
"2020-07-29T14:04:47",1596053087.847,2388075,-68,38,"067d45fab320"
"2020-07-29T14:04:48",1596053088.464,2388692,-75,37,"067d45fab320"
"2020-07-29T14:04:48",1596053088.875,2389103,-75,38,"067d45fab320"
"2020-07-29T14:04:49",1596053089.083,2389311,-74,39,"067d45fab320"
"2020-07-29T14:04:49",1596053089.492,2389720,-73,37,"067d45fab320"
"2020-07-29T14:04:49",1596053089.7,2389928,-72,38,"067d45fab320"
"2020-07-29T14:04:50",1596053090.109,2390337,-73,39,"067d45fab320"
"2020-07-29T14:04:50",1596053090.312,2390540,-74,37,"067d45fab320"
"2020-07-29T14:04:50",1596053090.726,2390954,-72,38,"067d45fab320"
"2020-07-29T14:04:50",1596053090.937,2391165,-71,39,"067d45fab320"
"2020-07-29T14:04:51",1596053091.348,2391576,-71,37,"067d45fab320"
"2020-07-29T14:04:51",1596053091.549,2391777,-69,38,"067d45fab320"
"2020-07-29T14:04:51",1596053091.963,2392191,-68,39,"067d45fab320"
"2020-07-29T14:04:52",1596053092.17,2392398,-69,37,"067d45fab320"
"2020-07-29T14:04:52",1596053092.575,2392803,-69,38,"067d45fab320"
"2020-07-29T14:04:52",1596053092.782,2393010,-69,39,"067d45fab320"
"2020-07-29T14:04:53",1596053093.193,2393421,-71,37,"067d45fab320"
"2020-07-29T14:04:53",1596053093.402,2393630,-64,38,"067d45fab320"
"2020-07-29T14:04:53",1596053093.81,2394038,-65,39,"067d45fab320"
"2020-07-29T14:04:54",1596053094.012,2394240,-65,37,"067d45fab320"
"2020-07-29T14:04:54",1596053094.22,2394448,-63,37,"067d45fab320"
"2020-07-29T14:04:54",1596053094.421,2394649,-63,38,"067d45fab320"
"2020-07-29T14:04:54",1596053094.831,2395059,-65,39,"067d45fab320"
"2020-07-29T14:04:55",1596053095.039,2395267,-65,37,"067d45fab320"
"2020-07-29T14:04:55",1596053095.449,2395677,-63,38,"067d45fab320"
"2020-07-29T14:04:55",1596053095.659,2395887,-64,39,"067d45fab320"
"2020-07-29T14:04:56",1596053096.068,2396296,-64,37,"067d45fab320"
"2020-07-29T14:04:56",1596053096.277,2396505,-63,38,"067d45fab320"
"2020-07-29T14:04:56",1596053096.688,2396916,-64,39,"067d45fab320"
"2020-07-29T14:04:56",1596053096.895,2397123,-64,37,"067d45fab320"
"2020-07-29T14:04:57",1596053097.302,2397530,-63,38,"067d45fab320"
"2020-07-29T14:04:57",1596053097.513,2397741,-64,39,"067d45fab320"
"2020-07-29T14:04:57",1596053097.927,2398155,-64,37,"067d45fab320"
"2020-07-29T14:04:58",1596053098.132,2398360,-63,38,"067d45fab320"
"2020-07-29T14:04:58",1596053098.54,2398768,-64,39,"067d45fab320"
"2020-07-29T14:04:58",1596053098.747,2398975,-64,37,"067d45fab320"
"2020-07-29T14:04:59",1596053099.153,2399381,-63,38,"067d45fab320"
"2020-07-29T14:04:59",1596053099.36,2399588,-64,39,"067d45fab320"
"2020-07-29T14:04:59",1596053099.776,2400004,-64,37,"067d45fab320"
"2020-07-29T14:04:59",1596053099.978,2400206,-63,38,"067d45fab320"
"2020-07-29T14:05:00",1596053100.388,2400616,-64,39,"067d45fab320"
"2020-07-29T14:05:00",1596053100.597,2400825,-64,37,"067d45fab320"
"2020-07-29T14:05:01",1596053101.004,2401232,-63,38,"067d45fab320"
"2020-07-29T14:05:01",1596053101.209,2401437,-64,39,"067d45fab320"
"2020-07-29T14:05:01",1596053101.62,2401848,-64,37,"067d45fab320"
"2020-07-29T14:05:01",1596053101.827,2402055,-63,38,"067d45fab320"
"2020-07-29T14:05:02",1596053102.032,2402260,-63,38,"067d45fab320"
"2020-07-29T14:05:02",1596053102.237,2402465,-64,39,"067d45fab320"
"2020-07-29T14:05:02",1596053102.65,2402878,-64,37,"067d45fab320"
"2020-07-29T14:05:02",1596053102.86,2403088,-63,38,"067d45fab320"
"2020-07-29T14:05:03",1596053103.269,2403497,-64,39,"067d45fab320"
"2020-07-29T14:05:03",1596053103.472,2403700,-64,37,"067d45fab320"
"2020-07-29T14:05:03",1596053103.88,2404108,-63,38,"067d45fab320"
"2020-07-29T14:05:04",1596053104.089,2404317,-67,39,"067d45fab320"
"2020-07-29T14:05:04",1596053104.501,2404729,-73,37,"067d45fab320"
"2020-07-29T14:05:04",1596053104.7,2404928,-70,38,"067d45fab320"
"2020-07-29T14:05:05",1596053105.121,2405349,-65,39,"067d45fab320"
"2020-07-29T14:05:05",1596053105.328,2405556,-67,37,"067d45fab320"
"2020-07-29T14:05:05",1596053105.728,2405956,-61,38,"067d45fab320"
"2020-07-29T14:05:06",1596053106.351,2406579,-65,37,"067d45fab320"
"2020-07-29T14:05:06",1596053106.554,2406782,-63,38,"067d45fab320"
"2020-07-29T14:05:06",1596053106.962,2407190,-63,39,"067d45fab320"
"2020-07-29T14:05:07",1596053107.172,2407400,-64,37,"067d45fab320"
"2020-07-29T14:05:07",1596053107.583,2407811,-64,38,"067d45fab320"
"2020-07-29T14:05:07",1596053107.793,2408021,-66,39,"067d45fab320"
"2020-07-29T14:05:08",1596053108.199,2408427,-64,37,"067d45fab320"
"2020-07-29T14:05:08",1596053108.401,2408629,-64,38,"067d45fab320"
"2020-07-29T14:05:08",1596053108.813,2409041,-67,39,"067d45fab320"
"2020-07-29T14:05:09",1596053109.013,2409241,-65,37,"067d45fab320"
"2020-07-29T14:05:09",1596053109.433,2409661,-64,38,"067d45fab320"
"2020-07-29T14:05:09",1596053109.837,2410065,-65,39,"067d45fab320"
"2020-07-29T14:05:10",1596053110.047,2410275,-65,37,"067d45fab320"
"2020-07-29T14:05:10",1596053110.458,2410686,-63,38,"067d45fab320"
"2020-07-29T14:05:10",1596053110.667,2410895,-64,39,"067d45fab320"
"2020-07-29T14:05:11",1596053111.079,2411307,-65,37,"067d45fab320"
"2020-07-29T14:05:11",1596053111.286,2411514,-63,38,"067d45fab320"
"2020-07-29T14:05:11",1596053111.698,2411926,-65,39,"067d45fab320"
"2020-07-29T14:05:11",1596053111.897,2412125,-65,37,"067d45fab320"
"2020-07-29T14:05:12",1596053112.311,2412539,-64,38,"067d45fab320"
"2020-07-29T14:05:12",1596053112.52,2412748,-64,39,"067d45fab320"
"2020-07-29T14:05:12",1596053112.928,2413156,-64,37,"067d45fab320"
"2020-07-29T14:05:13",1596053113.138,2413366,-64,38,"067d45fab320"
"2020-07-29T14:05:13",1596053113.547,2413775,-65,39,"067d45fab320"
"2020-07-29T14:05:13",1596053113.751,2413979,-65,37,"067d45fab320"
"2020-07-29T14:05:14",1596053114.166,2414394,-63,38,"067d45fab320"
"2020-07-29T14:05:14",1596053114.369,2414597,-64,39,"067d45fab320"
"2020-07-29T14:05:14",1596053114.788,2415016,-65,37,"067d45fab320"
"2020-07-29T14:05:14",1596053114.991,2415219,-63,38,"067d45fab320"
"2020-07-29T14:05:15",1596053115.404,2415632,-64,39,"067d45fab320"
"2020-07-29T14:05:15",1596053115.609,2415837,-65,37,"067d45fab320"
"2020-07-29T14:05:16",1596053116.019,2416247,-64,38,"067d45fab320"
"2020-07-29T14:05:16",1596053116.219,2416447,-65,39,"067d45fab320"
"2020-07-29T14:05:16",1596053116.626,2416854,-64,37,"067d45fab320"
"2020-07-29T14:05:16",1596053116.836,2417064,-63,38,"067d45fab320"
"2020-07-29T14:05:17",1596053117.251,2417479,-65,39,"067d45fab320"
"2020-07-29T14:05:17",1596053117.658,2417886,-64,37,"067d45fab320"
"2020-07-29T14:05:17",1596053117.861,2418089,-63,38,"067d45fab320"
"2020-07-29T14:05:18",1596053118.274,2418502,-65,39,"067d45fab320"
"2020-07-29T14:05:18",1596053118.483,2418711,-64,37,"067d45fab320"
"2020-07-29T14:05:18",1596053118.887,2419115,-63,38,"067d45fab320"
"2020-07-29T14:05:19",1596053119.506,2419734,-64,37,"067d45fab320"
"2020-07-29T14:05:19",1596053119.712,2419940,-63,38,"067d45fab320"
"2020-07-29T14:05:20",1596053120.127,2420355,-64,39,"067d45fab320"
"2020-07-29T14:05:20",1596053120.744,2420972,-63,38,"067d45fab320"
"2020-07-29T14:05:20",1596053120.944,2421172,-65,39,"067d45fab320"
"2020-07-29T14:05:21",1596053121.361,2421589,-64,37,"067d45fab320"
"2020-07-29T14:05:21",1596053121.979,2422207,-65,39,"067d45fab320"
"2020-07-29T14:05:22",1596053122.183,2422411,-64,37,"067d45fab320"
"2020-07-29T14:05:22",1596053122.593,2422821,-63,38,"067d45fab320"
"2020-07-29T14:05:22",1596053122.801,2423029,-64,39,"067d45fab320"
"2020-07-29T14:05:23",1596053123.212,2423440,-65,37,"067d45fab320"
"2020-07-29T14:05:23",1596053123.411,2423639,-64,38,"067d45fab320"
"2020-07-29T14:05:23",1596053123.825,2424053,-63,39,"067d45fab320"
"2020-07-29T14:05:24",1596053124.028,2424256,-64,37,"067d45fab320"
"2020-07-29T14:05:24",1596053124.44,2424668,-68,38,"067d45fab320"
"2020-07-29T14:05:24",1596053124.644,2424872,-66,39,"067d45fab320"
"2020-07-29T14:05:25",1596053125.06,2425288,-69,37,"067d45fab320"
"2020-07-29T14:05:25",1596053125.468,2425696,-74,38,"067d45fab320"
"2020-07-29T14:05:25",1596053125.67,2425898,-72,39,"067d45fab320"
"2020-07-29T14:05:26",1596053126.08,2426308,-76,37,"067d45fab320"
"2020-07-29T14:05:26",1596053126.289,2426517,-74,38,"067d45fab320"
"2020-07-29T14:05:26",1596053126.698,2426926,-72,39,"067d45fab320"
"2020-07-29T14:05:26",1596053126.908,2427136,-72,37,"067d45fab320"
"2020-07-29T14:05:27",1596053127.323,2427551,-72,38,"067d45fab320"
"2020-07-29T14:05:27",1596053127.523,2427751,-73,39,"067d45fab320"
"2020-07-29T14:05:27",1596053127.936,2428164,-76,37,"067d45fab320"
"2020-07-29T14:05:28",1596053128.143,2428371,-72,38,"067d45fab320"
"2020-07-29T14:05:28",1596053128.546,2428774,-72,39,"067d45fab320"
"2020-07-29T14:05:28",1596053128.753,2428981,-69,37,"067d45fab320"
"2020-07-29T14:05:29",1596053129.374,2429602,-65,39,"067d45fab320"
"2020-07-29T14:05:29",1596053129.788,2430016,-68,37,"067d45fab320"
"2020-07-29T14:05:29",1596053129.988,2430216,-62,38,"067d45fab320"
"2020-07-29T14:05:30",1596053130.4,2430628,-63,39,"067d45fab320"
"2020-07-29T14:05:30",1596053130.609,2430837,-66,37,"067d45fab320"
"2020-07-29T14:05:31",1596053131.018,2431246,-63,38,"067d45fab320"
"2020-07-29T14:05:31",1596053131.218,2431446,-64,39,"067d45fab320"
"2020-07-29T14:05:31",1596053131.631,2431859,-63,37,"067d45fab320"
"2020-07-29T14:05:31",1596053131.84,2432068,-63,38,"067d45fab320"
"2020-07-29T14:05:32",1596053132.249,2432477,-63,39,"067d45fab320"
"2020-07-29T14:05:32",1596053132.457,2432685,-64,37,"067d45fab320"
"2020-07-29T14:05:32",1596053132.87,2433098,-62,38,"067d45fab320"
"2020-07-29T14:05:33",1596053133.277,2433505,-63,39,"067d45fab320"
"2020-07-29T14:05:33",1596053133.486,2433714,-64,37,"067d45fab320"
"2020-07-29T14:05:33",1596053133.89,2434118,-63,38,"067d45fab320"
"2020-07-29T14:05:34",1596053134.102,2434330,-64,39,"067d45fab320"
"2020-07-29T14:05:34",1596053134.508,2434736,-64,37,"067d45fab320"
"2020-07-29T14:05:34",1596053134.715,2434943,-63,38,"067d45fab320"
"2020-07-29T14:05:35",1596053135.13,2435358,-64,39,"067d45fab320"
"2020-07-29T14:05:35",1596053135.337,2435565,-64,37,"067d45fab320"
"2020-07-29T14:05:35",1596053135.739,2435967,-64,38,"067d45fab320"
"2020-07-29T14:05:35",1596053135.948,2436176,-65,39,"067d45fab320"
"2020-07-29T14:05:36",1596053136.366,2436594,-64,37,"067d45fab320"
"2020-07-29T14:05:36",1596053136.571,2436799,-63,38,"067d45fab320"
"2020-07-29T14:05:36",1596053136.977,2437205,-63,39,"067d45fab320"
"2020-07-29T14:05:37",1596053137.185,2437413,-63,37,"067d45fab320"
"2020-07-29T14:05:37",1596053137.594,2437822,-74,38,"067d45fab320"
"2020-07-29T14:05:37",1596053137.801,2438029,-79,39,"067d45fab320"
"2020-07-29T14:05:38",1596053138.202,2438430,-68,37,"067d45fab320"
"2020-07-29T14:05:38",1596053138.409,2438637,-62,38,"067d45fab320"
"2020-07-29T14:05:38",1596053138.827,2439055,-65,39,"067d45fab320"
"2020-07-29T14:05:39",1596053139.034,2439262,-64,37,"067d45fab320"
"2020-07-29T14:05:39",1596053139.442,2439670,-63,38,"067d45fab320"
"2020-07-29T14:05:39",1596053139.646,2439874,-63,39,"067d45fab320"
"2020-07-29T14:05:40",1596053140.058,2440286,-64,37,"067d45fab320"
"2020-07-29T14:05:40",1596053140.667,2440895,-64,39,"067d45fab320"
"2020-07-29T14:05:41",1596053141.081,2441309,-64,37,"067d45fab320"
"2020-07-29T14:05:41",1596053141.296,2441524,-63,38,"067d45fab320"
"2020-07-29T14:05:41",1596053141.704,2441932,-64,39,"067d45fab320"
"2020-07-29T14:05:41",1596053141.911,2442139,-64,37,"067d45fab320"
"2020-07-29T14:05:42",1596053142.322,2442550,-63,38,"067d45fab320"
"2020-07-29T14:05:42",1596053142.524,2442752,-64,39,"067d45fab320"
"2020-07-29T14:05:42",1596053142.932,2443160,-64,37,"067d45fab320"
"2020-07-29T14:05:43",1596053143.137,2443365,-63,38,"067d45fab320"
"2020-07-29T14:05:43",1596053143.558,2443786,-64,39,"067d45fab320"
"2020-07-29T14:05:43",1596053143.767,2443995,-64,37,"067d45fab320"
"2020-07-29T14:05:44",1596053144.175,2444403,-63,38,"067d45fab320"
"2020-07-29T14:05:44",1596053144.377,2444605,-64,39,"067d45fab320"
"2020-07-29T14:05:44",1596053144.787,2445015,-64,37,"067d45fab320"
"2020-07-29T14:05:44",1596053144.992,2445220,-63,38,"067d45fab320"
"2020-07-29T14:05:45",1596053145.408,2445636,-64,39,"067d45fab320"
"2020-07-29T14:05:45",1596053145.61,2445838,-64,37,"067d45fab320"
"2020-07-29T14:05:46",1596053146.029,2446257,-63,38,"067d45fab320"
"2020-07-29T14:05:46",1596053146.23,2446458,-63,39,"067d45fab320"
"2020-07-29T14:05:46",1596053146.644,2446872,-65,37,"067d45fab320"
"2020-07-29T14:05:46",1596053146.848,2447076,-68,38,"067d45fab320"
"2020-07-29T14:05:47",1596053147.253,2447481,-66,39,"067d45fab320"
"2020-07-29T14:05:47",1596053147.459,2447687,-72,37,"067d45fab320"
"2020-07-29T14:05:47",1596053147.877,2448105,-70,38,"067d45fab320"
"2020-07-29T14:05:48",1596053148.079,2448307,-68,39,"067d45fab320"
"2020-07-29T14:05:48",1596053148.498,2448726,-68,37,"067d45fab320"
"2020-07-29T14:05:48",1596053148.701,2448929,-65,38,"067d45fab320"
"2020-07-29T14:05:48",1596053148.907,2449135,-62,38,"067d45fab320"
"2020-07-29T14:05:49",1596053149.112,2449340,-63,39,"067d45fab320"
"2020-07-29T14:05:49",1596053149.529,2449757,-64,37,"067d45fab320"
"2020-07-29T14:05:49",1596053149.733,2449961,-63,38,"067d45fab320"
"2020-07-29T14:05:50",1596053150.136,2450364,-64,39,"067d45fab320"
"2020-07-29T14:05:50",1596053150.345,2450573,-63,37,"067d45fab320"
"2020-07-29T14:05:50",1596053150.763,2450991,-63,38,"067d45fab320"
"2020-07-29T14:05:50",1596053150.963,2451191,-65,39,"067d45fab320"
"2020-07-29T14:05:51",1596053151.375,2451603,-65,37,"067d45fab320"
"2020-07-29T14:05:51",1596053151.576,2451804,-63,38,"067d45fab320"
"2020-07-29T14:05:51",1596053151.988,2452216,-64,39,"067d45fab320"
"2020-07-29T14:05:52",1596053152.198,2452426,-63,37,"067d45fab320"
"2020-07-29T14:05:52",1596053152.817,2453045,-72,39,"067d45fab320"
"2020-07-29T14:05:53",1596053153.23,2453458,-66,37,"067d45fab320"
"2020-07-29T14:05:53",1596053153.435,2453663,-62,38,"067d45fab320"
"2020-07-29T14:05:53",1596053153.848,2454076,-63,39,"067d45fab320"
"2020-07-29T14:05:54",1596053154.053,2454281,-65,37,"067d45fab320"
"2020-07-29T14:05:54",1596053154.463,2454691,-63,38,"067d45fab320"
"2020-07-29T14:05:54",1596053154.664,2454892,-63,39,"067d45fab320"
"2020-07-29T14:05:55",1596053155.078,2455306,-64,37,"067d45fab320"
"2020-07-29T14:05:55",1596053155.288,2455516,-63,38,"067d45fab320"
"2020-07-29T14:05:55",1596053155.708,2455936,-81,39,"067d45fab320"
"2020-07-29T14:05:56",1596053156.317,2456545,-67,38,"067d45fab320"
"2020-07-29T14:05:56",1596053156.528,2456756,-66,39,"067d45fab320"
"2020-07-29T14:05:56",1596053156.938,2457166,-69,37,"067d45fab320"
"2020-07-29T14:05:57",1596053157.142,2457370,-69,38,"067d45fab320"
"2020-07-29T14:05:57",1596053157.554,2457782,-72,39,"067d45fab320"
"2020-07-29T14:05:57",1596053157.969,2458197,-69,37,"067d45fab320"
"2020-07-29T14:05:58",1596053158.174,2458402,-62,38,"067d45fab320"
"2020-07-29T14:05:58",1596053158.578,2458806,-64,39,"067d45fab320"
"2020-07-29T14:05:58",1596053158.784,2459012,-63,37,"067d45fab320"
"2020-07-29T14:05:59",1596053159.194,2459422,-63,38,"067d45fab320"
"2020-07-29T14:05:59",1596053159.398,2459626,-64,39,"067d45fab320"
"2020-07-29T14:05:59",1596053159.807,2460035,-66,37,"067d45fab320"
"2020-07-29T14:06:00",1596053160.012,2460240,-66,38,"067d45fab320"
"2020-07-29T14:06:00",1596053160.435,2460663,-70,39,"067d45fab320"
"2020-07-29T14:06:00",1596053160.635,2460863,-86,37,"067d45fab320"
"2020-07-29T14:06:01",1596053161.048,2461276,-78,38,"067d45fab320"
"2020-07-29T14:06:01",1596053161.258,2461486,-77,39,"067d45fab320"
"2020-07-29T14:06:01",1596053161.665,2461893,-84,37,"067d45fab320"
"2020-07-29T14:06:01",1596053161.871,2462099,-79,38,"067d45fab320"
"2020-07-29T14:06:02",1596053162.279,2462507,-78,39,"067d45fab320"
"2020-07-29T14:06:02",1596053162.902,2463130,-80,38,"067d45fab320"
"2020-07-29T14:06:03",1596053163.108,2463336,-76,39,"067d45fab320"
"2020-07-29T14:06:03",1596053163.511,2463739,-81,37,"067d45fab320"
"2020-07-29T14:06:03",1596053163.718,2463946,-79,38,"067d45fab320"
"2020-07-29T14:06:04",1596053164.131,2464359,-78,39,"067d45fab320"
"2020-07-29T14:06:04",1596053164.341,2464569,-83,37,"067d45fab320"
"2020-07-29T14:06:04",1596053164.744,2464972,-78,38,"067d45fab320"
"2020-07-29T14:06:04",1596053164.952,2465180,-75,39,"067d45fab320"
"2020-07-29T14:06:05",1596053165.368,2465596,-80,37,"067d45fab320"
"2020-07-29T14:06:05",1596053165.776,2466004,-76,38,"067d45fab320"
"2020-07-29T14:06:05",1596053165.981,2466209,-75,39,"067d45fab320"
"2020-07-29T14:06:06",1596053166.393,2466621,-80,37,"067d45fab320"
"2020-07-29T14:06:06",1596053166.598,2466826,-77,38,"067d45fab320"
"2020-07-29T14:06:07",1596053167.011,2467239,-76,39,"067d45fab320"
"2020-07-29T14:06:07",1596053167.214,2467442,-81,37,"067d45fab320"
"2020-07-29T14:06:07",1596053167.628,2467856,-78,38,"067d45fab320"
"2020-07-29T14:06:07",1596053167.829,2468057,-76,39,"067d45fab320"
"2020-07-29T14:06:08",1596053168.239,2468467,-81,37,"067d45fab320"
"2020-07-29T14:06:08",1596053168.448,2468676,-78,38,"067d45fab320"
"2020-07-29T14:06:08",1596053168.855,2469083,-76,39,"067d45fab320"
"2020-07-29T14:06:09",1596053169.062,2469290,-80,37,"067d45fab320"
"2020-07-29T14:06:09",1596053169.472,2469700,-78,38,"067d45fab320"
"2020-07-29T14:06:09",1596053169.683,2469911,-77,39,"067d45fab320"
"2020-07-29T14:06:10",1596053170.293,2470521,-78,38,"067d45fab320"