time,epoch_time,boot_time,rssi,ch,mac
2020-07-27T16:42:47,1595889767,14999325,-52,38,b207634da63e
2020-07-27T16:42:49,1595889770,15001583,-56,39,b207634da63e
2020-07-27T16:42:51,1595889772,15004047,-41,37,b207634da63e
2020-07-27T16:42:54,1595889774,15006516,-51,38,b207634da63e
2020-07-27T16:42:59,1595889779,15011242,-41,37,b207634da63e
2020-07-27T16:43:01,1595889782,15013711,-51,38,b207634da63e
2020-07-27T16:43:03,1595889784,15015970,-56,39,b207634da63e
2020-07-27T16:43:06,1595889786,15018437,-41,37,b207634da63e
2020-07-27T16:43:08,1595889789,15020904,-53,38,b207634da63e
2020-07-27T16:43:11,1595889791,15023161,-54,39,b207634da63e
2020-07-27T16:43:13,1595889794,15025627,-41,37,b207634da63e
2020-07-27T16:43:16,1595889796,15028101,-48,38,b207634da63e
2020-07-27T16:43:18,1595889798,15030360,-61,39,b207634da63e
2020-07-27T16:43:20,1595889801,15032831,-40,37,b207634da63e
2020-07-27T16:43:23,1595889803,15035293,-49,38,b207634da63e
2020-07-27T16:43:25,1595889805,15037553,-59,39,b207634da63e
2020-07-27T16:43:27,1595889808,15040017,-40,37,b207634da63e
2020-07-27T16:43:30,1595889810,15042488,-46,38,b207634da63e
2020-07-27T16:43:32,1595889813,15044749,-59,39,b207634da63e
2020-07-27T16:43:35,1595889815,15047222,-41,37,b207634da63e
2020-07-27T16:43:37,1595889818,15049688,-50,38,b207634da63e
2020-07-27T16:43:39,1595889820,15051952,-59,39,b207634da63e
2020-07-27T16:43:42,1595889822,15054427,-41,37,b207634da63e
2020-07-27T16:43:44,1595889825,15056891,-52,38,b207634da63e
2020-07-27T16:43:47,1595889827,15059152,-57,39,b207634da63e
2020-07-27T16:43:49,1595889830,15061622,-41,37,b207634da63e
2020-07-27T16:43:52,1595889832,15064091,-51,38,b207634da63e
2020-07-27T16:43:54,1595889834,15066345,-56,39,b207634da63e
2020-07-27T16:43:56,1595889837,15068811,-41,37,b207634da63e
2020-07-27T16:43:59,1595889839,15071282,-52,38,b207634da63e
2020-07-27T16:44:01,1595889841,15073540,-57,39,b207634da63e
2020-07-27T16:44:03,1595889844,15076010,-41,37,b207634da63e
2020-07-27T16:44:06,1595889846,15078475,-46,38,b207634da63e
2020-07-27T16:44:08,1595889849,15080741,-61,39,b207634da63e
2020-07-27T16:44:11,1595889851,15083204,-41,37,b207634da63e
2020-07-27T16:44:13,1595889854,15085669,-47,38,b207634da63e
2020-07-27T16:44:15,1595889856,15087931,-60,39,b207634da63e
2020-07-27T16:44:18,1595889858,15090400,-40,37,b207634da63e
2020-07-27T16:44:20,1595889861,15092874,-49,38,b207634da63e
2020-07-27T16:44:25,1595889866,15097597,-41,37,b207634da63e
2020-07-27T16:44:27,1595889868,15100069,-51,38,b207634da63e
2020-07-27T16:44:30,1595889870,15102328,-59,39,b207634da63e
2020-07-27T16:44:32,1595889873,15104804,-41,37,b207634da63e
2020-07-27T16:44:35,1595889875,15107267,-50,38,b207634da63e
2020-07-27T16:44:37,1595889878,15109731,-57,39,b207634da63e
2020-07-27T16:44:39,1595889880,15111997,-41,37,b207634da63e
2020-07-27T16:44:42,1595889882,15114457,-51,38,b207634da63e
2020-07-27T16:44:44,1595889885,15116923,-57,39,b207634da63e
2020-07-27T16:44:47,1595889887,15119182,-41,37,b207634da63e
2020-07-27T16:44:49,1595889890,15121662,-52,38,b207634da63e
2020-07-27T16:44:54,1595889894,15126370,-41,37,b207634da63e
2020-07-27T16:44:56,1595889897,15128832,-50,38,b207634da63e
2020-07-27T16:44:59,1595889899,15131302,-57,39,b207634da63e
2020-07-27T16:45:01,1595889901,15133560,-41,37,b207634da63e
2020-07-27T16:45:03,1595889904,15136021,-51,38,b207634da63e
2020-07-27T16:45:08,1595889909,15140748,-41,37,b207634da63e
2020-07-27T16:45:11,1595889911,15143216,-51,38,b207634da63e
2020-07-27T16:45:13,1595889914,15145688,-57,39,b207634da63e
2020-07-27T16:45:15,1595889916,15147951,-41,37,b207634da63e
2020-07-27T16:45:18,1595889918,15150413,-51,38,b207634da63e
2020-07-27T16:45:20,1595889921,15152875,-57,39,b207634da63e
2020-07-27T16:45:23,1595889923,15155141,-41,37,b207634da63e
2020-07-27T16:45:25,1595889926,15157605,-50,38,b207634da63e
2020-07-27T16:45:28,1595889928,15160076,-62,39,b207634da63e
2020-07-27T16:45:30,1595889930,15162339,-41,37,b207634da63e
2020-07-27T16:45:32,1595889933,15164800,-50,38,b207634da63e
2020-07-27T16:45:39,1595889940,15171999,-51,38,b207634da63e
2020-07-27T16:45:42,1595889942,15174460,-58,39,b207634da63e
2020-07-27T16:45:44,1595889945,15176924,-41,37,b207634da63e
2020-07-27T16:45:47,1595889947,15179196,-51,38,b207634da63e
2020-07-27T16:45:49,1595889950,15181661,-59,39,b207634da63e
2020-07-27T16:45:52,1595889952,15184119,-41,37,b207634da63e
2020-07-27T16:45:54,1595889954,15186382,-48,38,b207634da63e
2020-07-27T16:45:56,1595889957,15188848,-56,39,b207634da63e
2020-07-27T16:45:59,1595889959,15191320,-41,37,b207634da63e
2020-07-27T16:46:03,1595889964,15196039,-54,39,b207634da63e
2020-07-27T16:46:06,1595889966,15198509,-41,37,b207634da63e
2020-07-27T16:46:11,1595889971,15203248,-55,39,b207634da63e
2020-07-27T16:46:13,1595889974,15205716,-41,37,b207634da63e
2020-07-27T16:46:15,1595889976,15207965,-52,38,b207634da63e
2020-07-27T16:46:18,1595889978,15210441,-57,39,b207634da63e
2020-07-27T16:46:20,1595889981,15212905,-41,37,b207634da63e
2020-07-27T16:46:23,1595889983,15215161,-51,38,b207634da63e
2020-07-27T16:46:25,1595889986,15217626,-57,39,b207634da63e
2020-07-27T16:46:28,1595889988,15220098,-41,37,b207634da63e
2020-07-27T16:46:30,1595889990,15222360,-50,38,b207634da63e
2020-07-27T16:46:32,1595889993,15224820,-57,39,b207634da63e
2020-07-27T16:46:35,1595889995,15227281,-42,37,b207634da63e
2020-07-27T16:46:37,1595889997,15229543,-51,38,b207634da63e
2020-07-27T16:46:39,1595890000,15232006,-55,39,b207634da63e
2020-07-27T16:46:42,1595890002,15234475,-41,37,b207634da63e
2020-07-27T16:46:44,1595890005,15236737,-51,38,b207634da63e
2020-07-27T16:46:47,1595890007,15239197,-56,39,b207634da63e
2020-07-27T16:46:49,1595890010,15241661,-41,37,b207634da63e
2020-07-27T16:46:52,1595890012,15244125,-52,38,b207634da63e
2020-07-27T16:46:54,1595890014,15246387,-56,39,b207634da63e
2020-07-27T16:46:56,1595890017,15248856,-41,37,b207634da63e
2020-07-27T16:46:59,1595890019,15251319,-50,38,b207634da63e
2020-07-27T16:47:01,1595890022,15253579,-55,39,b207634da63e
2020-07-27T16:47:06,1595890026,15258511,-50,38,b207634da63e
