"time","epoch_time","boot_time","rssi","ch","mac"
"2020-07-29T13:47:43",1596052063.788,1364056,-62,38,"067d45fab320"
"2020-07-29T13:47:44",1596052064.206,1364474,-62,39,"067d45fab320"
"2020-07-29T13:47:44",1596052064.411,1364679,-63,37,"067d45fab320"
"2020-07-29T13:47:44",1596052064.815,1365083,-62,38,"067d45fab320"
"2020-07-29T13:47:45",1596052065.025,1365293,-62,39,"067d45fab320"
"2020-07-29T13:47:45",1596052065.436,1365704,-63,37,"067d45fab320"
"2020-07-29T13:47:45",1596052065.846,1366114,-62,38,"067d45fab320"
"2020-07-29T13:47:46",1596052066.054,1366322,-62,39,"067d45fab320"
"2020-07-29T13:47:46",1596052066.266,1366534,-63,37,"067d45fab320"
"2020-07-29T13:47:46",1596052066.469,1366737,-63,37,"067d45fab320"
"2020-07-29T13:47:46",1596052066.67,1366938,-62,38,"067d45fab320"
"2020-07-29T13:47:47",1596052067.083,1367351,-62,39,"067d45fab320"
"2020-07-29T13:47:47",1596052067.291,1367559,-63,37,"067d45fab320"
"2020-07-29T13:47:47",1596052067.706,1367974,-62,38,"067d45fab320"
"2020-07-29T13:47:47",1596052067.908,1368176,-62,39,"067d45fab320"
"2020-07-29T13:47:48",1596052068.319,1368587,-63,37,"067d45fab320"
"2020-07-29T13:47:48",1596052068.527,1368795,-62,38,"067d45fab320"
"2020-07-29T13:47:48",1596052068.935,1369203,-62,39,"067d45fab320"
"2020-07-29T13:47:49",1596052069.141,1369409,-63,37,"067d45fab320"
"2020-07-29T13:47:49",1596052069.556,1369824,-62,38,"067d45fab320"
"2020-07-29T13:47:49",1596052069.757,1370025,-62,39,"067d45fab320"
"2020-07-29T13:47:50",1596052070.166,1370434,-63,37,"067d45fab320"
"2020-07-29T13:47:50",1596052070.368,1370636,-62,38,"067d45fab320"
"2020-07-29T13:47:50",1596052070.784,1371052,-61,39,"067d45fab320"
"2020-07-29T13:47:50",1596052070.99,1371258,-63,37,"067d45fab320"
"2020-07-29T13:47:51",1596052071.404,1371672,-62,38,"067d45fab320"
"2020-07-29T13:47:51",1596052071.608,1371876,-62,39,"067d45fab320"
"2020-07-29T13:47:52",1596052072.016,1372284,-63,37,"067d45fab320"
"2020-07-29T13:47:52",1596052072.223,1372491,-62,38,"067d45fab320"
"2020-07-29T13:47:52",1596052072.634,1372902,-61,39,"067d45fab320"
"2020-07-29T13:47:52",1596052072.843,1373111,-64,37,"067d45fab320"
"2020-07-29T13:47:53",1596052073.255,1373523,-62,38,"067d45fab320"
"2020-07-29T13:47:53",1596052073.465,1373733,-62,39,"067d45fab320"
"2020-07-29T13:47:53",1596052073.879,1374147,-63,37,"067d45fab320"
"2020-07-29T13:47:54",1596052074.079,1374347,-68,38,"067d45fab320"
"2020-07-29T13:47:54",1596052074.285,1374553,-68,38,"067d45fab320"
"2020-07-29T13:47:54",1596052074.488,1374756,-65,39,"067d45fab320"
"2020-07-29T13:47:54",1596052074.905,1375173,-71,37,"067d45fab320"
"2020-07-29T13:47:55",1596052075.108,1375376,-69,38,"067d45fab320"
"2020-07-29T13:47:55",1596052075.525,1375793,-72,39,"067d45fab320"
"2020-07-29T13:47:55",1596052075.732,1376000,-73,37,"067d45fab320"
"2020-07-29T13:47:56",1596052076.14,1376408,-70,38,"067d45fab320"
"2020-07-29T13:47:56",1596052076.349,1376617,-70,39,"067d45fab320"
"2020-07-29T13:47:56",1596052076.758,1377026,-72,37,"067d45fab320"
"2020-07-29T13:47:56",1596052076.96,1377228,-70,38,"067d45fab320"
"2020-07-29T13:47:57",1596052077.374,1377642,-63,39,"067d45fab320"
"2020-07-29T13:47:57",1596052077.584,1377852,-65,37,"067d45fab320"
"2020-07-29T13:47:57",1596052077.995,1378263,-76,38,"067d45fab320"
"2020-07-29T13:47:58",1596052078.206,1378474,-87,39,"067d45fab320"
"2020-07-29T13:47:58",1596052078.615,1378883,-84,37,"067d45fab320"
"2020-07-29T13:47:58",1596052078.817,1379085,-85,38,"067d45fab320"
"2020-07-29T13:47:59",1596052079.226,1379494,-87,39,"067d45fab320"
"2020-07-29T13:47:59",1596052079.43,1379698,-92,37,"067d45fab320"
"2020-07-29T13:47:59",1596052079.846,1380114,-91,38,"067d45fab320"
"2020-07-29T13:48:00",1596052080.046,1380314,-81,39,"067d45fab320"
"2020-07-29T13:48:00",1596052080.469,1380737,-83,37,"067d45fab320"
"2020-07-29T13:48:00",1596052080.672,1380940,-84,38,"067d45fab320"
"2020-07-29T13:48:01",1596052081.085,1381353,-81,39,"067d45fab320"
"2020-07-29T13:48:01",1596052081.289,1381557,-82,37,"067d45fab320"
"2020-07-29T13:48:01",1596052081.7,1381968,-82,38,"067d45fab320"
"2020-07-29T13:48:01",1596052081.905,1382173,-80,39,"067d45fab320"
"2020-07-29T13:48:02",1596052082.315,1382583,-79,37,"067d45fab320"
"2020-07-29T13:48:02",1596052082.518,1382786,-81,38,"067d45fab320"
"2020-07-29T13:48:02",1596052082.927,1383195,-80,39,"067d45fab320"
"2020-07-29T13:48:03",1596052083.344,1383612,-80,37,"067d45fab320"
"2020-07-29T13:48:03",1596052083.545,1383813,-82,38,"067d45fab320"
"2020-07-29T13:48:03",1596052083.96,1384228,-81,39,"067d45fab320"
"2020-07-29T13:48:04",1596052084.575,1384843,-81,38,"067d45fab320"
"2020-07-29T13:48:04",1596052084.78,1385048,-80,39,"067d45fab320"
"2020-07-29T13:48:05",1596052085.192,1385460,-80,37,"067d45fab320"
"2020-07-29T13:48:05",1596052085.397,1385665,-80,38,"067d45fab320"
"2020-07-29T13:48:05",1596052085.802,1386070,-81,39,"067d45fab320"
"2020-07-29T13:48:06",1596052086.01,1386278,-82,37,"067d45fab320"
"2020-07-29T13:48:06",1596052086.426,1386694,-62,38,"067d45fab320"
"2020-07-29T13:48:06",1596052086.627,1386895,-67,39,"067d45fab320"
"2020-07-29T13:48:07",1596052087.037,1387305,-73,37,"067d45fab320"
"2020-07-29T13:48:07",1596052087.656,1387924,-62,39,"067d45fab320"
"2020-07-29T13:48:07",1596052087.866,1388134,-64,37,"067d45fab320"
"2020-07-29T13:48:08",1596052088.274,1388542,-62,38,"067d45fab320"
"2020-07-29T13:48:08",1596052088.473,1388741,-61,39,"067d45fab320"
"2020-07-29T13:48:08",1596052088.886,1389154,-63,37,"067d45fab320"
"2020-07-29T13:48:09",1596052089.089,1389357,-62,38,"067d45fab320"
"2020-07-29T13:48:09",1596052089.508,1389776,-61,39,"067d45fab320"
"2020-07-29T13:48:09",1596052089.709,1389977,-63,37,"067d45fab320"
"2020-07-29T13:48:10",1596052090.123,1390391,-62,38,"067d45fab320"
"2020-07-29T13:48:10",1596052090.745,1391013,-64,37,"067d45fab320"
"2020-07-29T13:48:11",1596052091.357,1391625,-61,39,"067d45fab320"
"2020-07-29T13:48:11",1596052091.77,1392038,-63,37,"067d45fab320"
"2020-07-29T13:48:11",1596052091.969,1392237,-62,38,"067d45fab320"
"2020-07-29T13:48:12",1596052092.38,1392648,-61,39,"067d45fab320"
"2020-07-29T13:48:12",1596052092.591,1392859,-63,37,"067d45fab320"
"2020-07-29T13:48:13",1596052093.001,1393269,-62,38,"067d45fab320"
"2020-07-29T13:48:13",1596052093.206,1393474,-62,39,"067d45fab320"
"2020-07-29T13:48:13",1596052093.615,1393883,-63,37,"067d45fab320"
"2020-07-29T13:48:13",1596052093.816,1394084,-62,38,"067d45fab320"
"2020-07-29T13:48:14",1596052094.229,1394497,-61,39,"067d45fab320"
"2020-07-29T13:48:14",1596052094.436,1394704,-63,37,"067d45fab320"
"2020-07-29T13:48:14",1596052094.856,1395124,-62,38,"067d45fab320"
"2020-07-29T13:48:15",1596052095.057,1395325,-61,39,"067d45fab320"
"2020-07-29T13:48:15",1596052095.467,1395735,-63,37,"067d45fab320"
"2020-07-29T13:48:15",1596052095.669,1395937,-62,38,"067d45fab320"
"2020-07-29T13:48:16",1596052096.085,1396353,-61,39,"067d45fab320"
"2020-07-29T13:48:16",1596052096.286,1396554,-63,37,"067d45fab320"
"2020-07-29T13:48:16",1596052096.698,1396966,-61,38,"067d45fab320"
"2020-07-29T13:48:16",1596052096.902,1397170,-59,39,"067d45fab320"
"2020-07-29T13:48:17",1596052097.316,1397584,-75,37,"067d45fab320"
"2020-07-29T13:48:17",1596052097.526,1397794,-59,38,"067d45fab320"
"2020-07-29T13:48:18",1596052098.96,1399228,-61,39,"067d45fab320"
"2020-07-29T13:48:19",1596052099.167,1399435,-63,37,"067d45fab320"
"2020-07-29T13:48:19",1596052099.583,1399851,-62,38,"067d45fab320"
"2020-07-29T13:48:19",1596052099.786,1400054,-62,39,"067d45fab320"
"2020-07-29T13:48:20",1596052100.201,1400469,-64,37,"067d45fab320"
"2020-07-29T13:48:20",1596052100.407,1400675,-61,38,"067d45fab320"
"2020-07-29T13:48:20",1596052100.816,1401084,-61,39,"067d45fab320"
"2020-07-29T13:48:21",1596052101.016,1401284,-66,37,"067d45fab320"
"2020-07-29T13:48:21",1596052101.428,1401696,-61,38,"067d45fab320"
"2020-07-29T13:48:21",1596052101.638,1401906,-62,39,"067d45fab320"
"2020-07-29T13:48:22",1596052102.048,1402316,-64,37,"067d45fab320"
"2020-07-29T13:48:22",1596052102.255,1402523,-63,38,"067d45fab320"
"2020-07-29T13:48:22",1596052102.666,1402934,-61,39,"067d45fab320"
"2020-07-29T13:48:22",1596052102.868,1403136,-64,37,"067d45fab320"
"2020-07-29T13:48:23",1596052103.275,1403543,-61,38,"067d45fab320"
"2020-07-29T13:48:23",1596052103.482,1403750,-60,39,"067d45fab320"
"2020-07-29T13:48:24",1596052104.096,1404364,-62,38,"067d45fab320"
"2020-07-29T13:48:24",1596052104.515,1404783,-62,39,"067d45fab320"
"2020-07-29T13:48:24",1596052104.72,1404988,-64,37,"067d45fab320"
"2020-07-29T13:48:25",1596052105.127,1405395,-62,38,"067d45fab320"
"2020-07-29T13:48:25",1596052105.336,1405604,-62,39,"067d45fab320"
"2020-07-29T13:48:25",1596052105.74,1406008,-63,37,"067d45fab320"
"2020-07-29T13:48:26",1596052106.152,1406420,-62,38,"067d45fab320"
"2020-07-29T13:48:26",1596052106.357,1406625,-61,39,"067d45fab320"
"2020-07-29T13:48:26",1596052106.771,1407039,-64,37,"067d45fab320"
"2020-07-29T13:48:26",1596052106.976,1407244,-62,38,"067d45fab320"
"2020-07-29T13:48:27",1596052107.386,1407654,-61,39,"067d45fab320"
"2020-07-29T13:48:27",1596052107.591,1407859,-64,37,"067d45fab320"
"2020-07-29T13:48:28",1596052108,1408268,-63,38,"067d45fab320"
"2020-07-29T13:48:28",1596052108.208,1408476,-61,39,"067d45fab320"
"2020-07-29T13:48:28",1596052108.62,1408888,-64,37,"067d45fab320"
"2020-07-29T13:48:28",1596052108.82,1409088,-62,38,"067d45fab320"
"2020-07-29T13:48:29",1596052109.238,1409506,-64,39,"067d45fab320"
"2020-07-29T13:48:29",1596052109.448,1409716,-67,37,"067d45fab320"
"2020-07-29T13:48:29",1596052109.856,1410124,-71,38,"067d45fab320"
"2020-07-29T13:48:30",1596052110.066,1410334,-64,39,"067d45fab320"
"2020-07-29T13:48:30",1596052110.471,1410739,-65,37,"067d45fab320"
"2020-07-29T13:48:30",1596052110.681,1410949,-63,38,"067d45fab320"
"2020-07-29T13:48:31",1596052111.092,1411360,-66,39,"067d45fab320"
"2020-07-29T13:48:31",1596052111.297,1411565,-64,37,"067d45fab320"
"2020-07-29T13:48:31",1596052111.715,1411983,-60,38,"067d45fab320"
"2020-07-29T13:48:31",1596052111.916,1412184,-61,39,"067d45fab320"
"2020-07-29T13:48:32",1596052112.326,1412594,-64,37,"067d45fab320"
"2020-07-29T13:48:32",1596052112.535,1412803,-62,38,"067d45fab320"
"2020-07-29T13:48:32",1596052112.945,1413213,-61,39,"067d45fab320"
"2020-07-29T13:48:33",1596052113.151,1413419,-63,37,"067d45fab320"
"2020-07-29T13:48:33",1596052113.555,1413823,-62,38,"067d45fab320"
"2020-07-29T13:48:34",1596052114.176,1414444,-63,37,"067d45fab320"
"2020-07-29T13:48:34",1596052114.796,1415064,-61,39,"067d45fab320"
"2020-07-29T13:48:35",1596052115.205,1415473,-63,37,"067d45fab320"
"2020-07-29T13:48:35",1596052115.822,1416090,-61,39,"067d45fab320"
"2020-07-29T13:48:36",1596052116.023,1416291,-63,37,"067d45fab320"
"2020-07-29T13:48:36",1596052116.447,1416715,-62,38,"067d45fab320"
"2020-07-29T13:48:37",1596052117.267,1417535,-62,38,"067d45fab320"
"2020-07-29T13:48:37",1596052117.672,1417940,-61,39,"067d45fab320"
"2020-07-29T13:48:37",1596052117.878,1418146,-63,37,"067d45fab320"
"2020-07-29T13:48:38",1596052118.291,1418559,-62,38,"067d45fab320"
"2020-07-29T13:48:38",1596052118.496,1418764,-61,39,"067d45fab320"
"2020-07-29T13:48:38",1596052118.909,1419177,-64,37,"067d45fab320"
"2020-07-29T13:48:39",1596052119.114,1419382,-62,38,"067d45fab320"
"2020-07-29T13:48:39",1596052119.528,1419796,-62,39,"067d45fab320"
"2020-07-29T13:48:39",1596052119.728,1419996,-63,37,"067d45fab320"
"2020-07-29T13:48:40",1596052120.141,1420409,-62,38,"067d45fab320"
"2020-07-29T13:48:40",1596052120.341,1420609,-62,39,"067d45fab320"
"2020-07-29T13:48:40",1596052120.758,1421026,-64,37,"067d45fab320"
"2020-07-29T13:48:40",1596052120.959,1421227,-63,38,"067d45fab320"
"2020-07-29T13:48:41",1596052121.378,1421646,-61,39,"067d45fab320"
"2020-07-29T13:48:41",1596052121.582,1421850,-63,37,"067d45fab320"
"2020-07-29T13:48:41",1596052121.987,1422255,-69,38,"067d45fab320"
"2020-07-29T13:48:42",1596052122.397,1422665,-60,39,"067d45fab320"
"2020-07-29T13:48:42",1596052122.601,1422869,-63,37,"067d45fab320"
"2020-07-29T13:48:43",1596052123.01,1423278,-62,38,"067d45fab320"
"2020-07-29T13:48:43",1596052123.218,1423486,-61,39,"067d45fab320"
"2020-07-29T13:48:43",1596052123.629,1423897,-64,37,"067d45fab320"
"2020-07-29T13:48:43",1596052123.837,1424105,-62,38,"067d45fab320"
"2020-07-29T13:48:44",1596052124.247,1424515,-61,39,"067d45fab320"
"2020-07-29T13:48:44",1596052124.864,1425132,-63,38,"067d45fab320"
"2020-07-29T13:48:45",1596052125.065,1425333,-62,39,"067d45fab320"
"2020-07-29T13:48:45",1596052125.481,1425749,-73,37,"067d45fab320"
"2020-07-29T13:48:45",1596052125.684,1425952,-69,38,"067d45fab320"
"2020-07-29T13:48:46",1596052126.104,1426372,-62,39,"067d45fab320"
"2020-07-29T13:48:46",1596052126.304,1426572,-64,37,"067d45fab320"
"2020-07-29T13:48:46",1596052126.716,1426984,-63,38,"067d45fab320"
"2020-07-29T13:48:46",1596052126.92,1427188,-60,39,"067d45fab320"
"2020-07-29T13:48:47",1596052127.329,1427597,-64,37,"067d45fab320"
"2020-07-29T13:48:47",1596052127.539,1427807,-62,38,"067d45fab320"
"2020-07-29T13:48:47",1596052127.946,1428214,-61,39,"067d45fab320"
"2020-07-29T13:48:48",1596052128.156,1428424,-63,37,"067d45fab320"
"2020-07-29T13:48:48",1596052128.572,1428840,-62,38,"067d45fab320"
"2020-07-29T13:48:48",1596052128.778,1429046,-62,39,"067d45fab320"
"2020-07-29T13:48:49",1596052129.184,1429452,-63,37,"067d45fab320"
"2020-07-29T13:48:49",1596052129.391,1429659,-63,38,"067d45fab320"
"2020-07-29T13:48:49",1596052129.8,1430068,-62,39,"067d45fab320"
"2020-07-29T13:48:50",1596052130.211,1430479,-63,37,"067d45fab320"
"2020-07-29T13:48:50",1596052130.411,1430679,-61,38,"067d45fab320"
"2020-07-29T13:48:50",1596052130.833,1431101,-59,39,"067d45fab320"
"2020-07-29T13:48:51",1596052131.04,1431308,-64,37,"067d45fab320"
"2020-07-29T13:48:51",1596052131.455,1431723,-73,38,"067d45fab320"
"2020-07-29T13:48:52",1596052132.069,1432337,-63,37,"067d45fab320"
"2020-07-29T13:48:52",1596052132.686,1432954,-62,39,"067d45fab320"
"2020-07-29T13:48:53",1596052133.308,1433576,-62,38,"067d45fab320"
"2020-07-29T13:48:53",1596052133.511,1433779,-62,39,"067d45fab320"
"2020-07-29T13:48:53",1596052133.918,1434186,-64,37,"067d45fab320"
"2020-07-29T13:48:54",1596052134.126,1434394,-62,38,"067d45fab320"
"2020-07-29T13:48:54",1596052134.546,1434814,-62,39,"067d45fab320"
"2020-07-29T13:48:54",1596052134.75,1435018,-63,37,"067d45fab320"
"2020-07-29T13:48:55",1596052135.157,1435425,-62,38,"067d45fab320"
"2020-07-29T13:48:55",1596052135.362,1435630,-60,39,"067d45fab320"
"2020-07-29T13:48:55",1596052135.779,1436047,-64,37,"067d45fab320"
"2020-07-29T13:48:55",1596052135.985,1436253,-62,38,"067d45fab320"
"2020-07-29T13:48:56",1596052136.595,1436863,-70,37,"067d45fab320"
"2020-07-29T13:48:57",1596052137.007,1437275,-61,38,"067d45fab320"
"2020-07-29T13:48:57",1596052137.209,1437477,-60,39,"067d45fab320"
"2020-07-29T13:48:57",1596052137.625,1437893,-63,37,"067d45fab320"
"2020-07-29T13:48:58",1596052138.244,1438512,-62,39,"067d45fab320"
"2020-07-29T13:48:58",1596052138.656,1438924,-64,37,"067d45fab320"
"2020-07-29T13:48:58",1596052138.866,1439134,-62,38,"067d45fab320"
"2020-07-29T13:48:59",1596052139.27,1439538,-61,39,"067d45fab320"
"2020-07-29T13:48:59",1596052139.48,1439748,-64,37,"067d45fab320"
"2020-07-29T13:48:59",1596052139.886,1440154,-62,38,"067d45fab320"
"2020-07-29T13:49:00",1596052140.096,1440364,-62,39,"067d45fab320"
"2020-07-29T13:49:00",1596052140.51,1440778,-64,37,"067d45fab320"
"2020-07-29T13:49:00",1596052140.712,1440980,-62,38,"067d45fab320"
"2020-07-29T13:49:01",1596052141.122,1441390,-62,39,"067d45fab320"
"2020-07-29T13:49:01",1596052141.332,1441600,-64,37,"067d45fab320"
"2020-07-29T13:49:01",1596052141.737,1442005,-62,38,"067d45fab320"
"2020-07-29T13:49:01",1596052141.943,1442211,-61,39,"067d45fab320"
"2020-07-29T13:49:02",1596052142.35,1442618,-63,37,"067d45fab320"
"2020-07-29T13:49:02",1596052142.558,1442826,-62,38,"067d45fab320"
"2020-07-29T13:49:02",1596052142.977,1443245,-62,39,"067d45fab320"
"2020-07-29T13:49:03",1596052143.18,1443448,-63,37,"067d45fab320"
"2020-07-29T13:49:03",1596052143.585,1443853,-63,38,"067d45fab320"
"2020-07-29T13:49:03",1596052143.794,1444062,-62,39,"067d45fab320"
"2020-07-29T13:49:04",1596052144.206,1444474,-63,37,"067d45fab320"
"2020-07-29T13:49:04",1596052144.405,1444673,-61,38,"067d45fab320"
"2020-07-29T13:49:04",1596052144.82,1445088,-61,39,"067d45fab320"
"2020-07-29T13:49:05",1596052145.028,1445296,-64,37,"067d45fab320"
"2020-07-29T13:49:05",1596052145.435,1445703,-64,38,"067d45fab320"
"2020-07-29T13:49:05",1596052145.647,1445915,-60,39,"067d45fab320"
"2020-07-29T13:49:06",1596052146.054,1446322,-63,37,"067d45fab320"
"2020-07-29T13:49:06",1596052146.468,1446736,-62,38,"067d45fab320"
"2020-07-29T13:49:06",1596052146.669,1446937,-62,39,"067d45fab320"
"2020-07-29T13:49:07",1596052147.079,1447347,-63,37,"067d45fab320"
"2020-07-29T13:49:07",1596052147.284,1447552,-62,38,"067d45fab320"
"2020-07-29T13:49:07",1596052147.705,1447973,-62,39,"067d45fab320"
"2020-07-29T13:49:07",1596052147.906,1448174,-63,37,"067d45fab320"
"2020-07-29T13:49:08",1596052148.318,1448586,-62,38,"067d45fab320"
"2020-07-29T13:49:08",1596052148.527,1448795,-61,39,"067d45fab320"
"2020-07-29T13:49:08",1596052148.93,1449198,-63,37,"067d45fab320"
"2020-07-29T13:49:09",1596052149.14,1449408,-62,38,"067d45fab320"
"2020-07-29T13:49:09",1596052149.546,1449814,-62,39,"067d45fab320"
"2020-07-29T13:49:09",1596052149.756,1450024,-63,37,"067d45fab320"
"2020-07-29T13:49:10",1596052150.171,1450439,-62,38,"067d45fab320"
"2020-07-29T13:49:10",1596052150.784,1451052,-63,37,"067d45fab320"
"2020-07-29T13:49:10",1596052150.99,1451258,-62,38,"067d45fab320"
"2020-07-29T13:49:11",1596052151.398,1451666,-62,39,"067d45fab320"
"2020-07-29T13:49:11",1596052151.602,1451870,-63,37,"067d45fab320"
"2020-07-29T13:49:12",1596052152.02,1452288,-62,38,"067d45fab320"
"2020-07-29T13:49:12",1596052152.222,1452490,-62,39,"067d45fab320"
"2020-07-29T13:49:12",1596052152.637,1452905,-63,37,"067d45fab320"
"2020-07-29T13:49:12",1596052152.846,1453114,-62,38,"067d45fab320"
"2020-07-29T13:49:13",1596052153.254,1453522,-62,39,"067d45fab320"
"2020-07-29T13:49:13",1596052153.459,1453727,-63,37,"067d45fab320"
"2020-07-29T13:49:13",1596052153.873,1454141,-62,38,"067d45fab320"
"2020-07-29T13:49:14",1596052154.491,1454759,-63,37,"067d45fab320"
"2020-07-29T13:49:14",1596052154.904,1455172,-62,38,"067d45fab320"
"2020-07-29T13:49:15",1596052155.106,1455374,-62,39,"067d45fab320"
"2020-07-29T13:49:15",1596052155.516,1455784,-63,37,"067d45fab320"
"2020-07-29T13:49:15",1596052155.726,1455994,-62,38,"067d45fab320"
"2020-07-29T13:49:16",1596052156.137,1456405,-62,39,"067d45fab320"
"2020-07-29T13:49:16",1596052156.34,1456608,-63,37,"067d45fab320"
"2020-07-29T13:49:16",1596052156.752,1457020,-62,38,"067d45fab320"
"2020-07-29T13:49:16",1596052156.952,1457220,-62,39,"067d45fab320"
"2020-07-29T13:49:17",1596052157.366,1457634,-64,37,"067d45fab320"
"2020-07-29T13:49:17",1596052157.576,1457844,-62,38,"067d45fab320"
"2020-07-29T13:49:17",1596052157.984,1458252,-62,39,"067d45fab320"
"2020-07-29T13:49:18",1596052158.186,1458454,-63,37,"067d45fab320"
"2020-07-29T13:49:18",1596052158.595,1458863,-62,38,"067d45fab320"
"2020-07-29T13:49:18",1596052158.803,1459071,-62,39,"067d45fab320"
"2020-07-29T13:49:19",1596052159.216,1459484,-63,37,"067d45fab320"
"2020-07-29T13:49:19",1596052159.418,1459686,-62,38,"067d45fab320"
"2020-07-29T13:49:20",1596052160.046,1460314,-63,37,"067d45fab320"
"2020-07-29T13:49:20",1596052160.451,1460719,-62,38,"067d45fab320"
"2020-07-29T13:49:20",1596052160.657,1460925,-62,39,"067d45fab320"
"2020-07-29T13:49:21",1596052161.069,1461337,-63,37,"067d45fab320"
"2020-07-29T13:49:21",1596052161.276,1461544,-62,38,"067d45fab320"
"2020-07-29T13:49:21",1596052161.686,1461954,-62,39,"067d45fab320"
"2020-07-29T13:49:21",1596052161.894,1462162,-63,37,"067d45fab320"
"2020-07-29T13:49:22",1596052162.312,1462580,-62,38,"067d45fab320"
"2020-07-29T13:49:22",1596052162.716,1462984,-62,39,"067d45fab320"
"2020-07-29T13:49:22",1596052162.926,1463194,-63,37,"067d45fab320"
"2020-07-29T13:49:23",1596052163.339,1463607,-62,38,"067d45fab320"
"2020-07-29T13:49:23",1596052163.543,1463811,-62,39,"067d45fab320"
"2020-07-29T13:49:23",1596052163.949,1464217,-63,37,"067d45fab320"
"2020-07-29T13:49:24",1596052164.152,1464420,-62,38,"067d45fab320"
"2020-07-29T13:49:24",1596052164.57,1464838,-62,39,"067d45fab320"
"2020-07-29T13:49:25",1596052165.183,1465451,-62,38,"067d45fab320"
"2020-07-29T13:49:25",1596052165.391,1465659,-62,39,"067d45fab320"
"2020-07-29T13:49:25",1596052165.807,1466075,-63,37,"067d45fab320"
"2020-07-29T13:49:26",1596052166.016,1466284,-62,38,"067d45fab320"
"2020-07-29T13:49:26",1596052166.423,1466691,-62,39,"067d45fab320"
"2020-07-29T13:49:26",1596052166.633,1466901,-63,37,"067d45fab320"
"2020-07-29T13:49:27",1596052167.044,1467312,-62,38,"067d45fab320"
"2020-07-29T13:49:27",1596052167.252,1467520,-62,39,"067d45fab320"
"2020-07-29T13:49:27",1596052167.66,1467928,-63,37,"067d45fab320"
"2020-07-29T13:49:27",1596052167.865,1468133,-62,38,"067d45fab320"
"2020-07-29T13:49:28",1596052168.277,1468545,-61,39,"067d45fab320"
"2020-07-29T13:49:28",1596052168.896,1469164,-62,38,"067d45fab320"
"2020-07-29T13:49:29",1596052169.101,1469369,-62,39,"067d45fab320"
"2020-07-29T13:49:29",1596052169.717,1469985,-62,38,"067d45fab320"
"2020-07-29T13:49:30",1596052170.127,1470395,-62,39,"067d45fab320"
"2020-07-29T13:49:30",1596052170.333,1470601,-63,37,"067d45fab320"
"2020-07-29T13:49:30",1596052170.742,1471010,-62,38,"067d45fab320"
"2020-07-29T13:49:31",1596052171.154,1471422,-62,39,"067d45fab320"
"2020-07-29T13:49:31",1596052171.356,1471624,-63,37,"067d45fab320"
"2020-07-29T13:49:31",1596052171.773,1472041,-62,38,"067d45fab320"
"2020-07-29T13:49:31",1596052171.974,1472242,-62,39,"067d45fab320"
"2020-07-29T13:49:32",1596052172.384,1472652,-63,37,"067d45fab320"
"2020-07-29T13:49:32",1596052172.589,1472857,-62,38,"067d45fab320"
"2020-07-29T13:49:32",1596052172.998,1473266,-62,39,"067d45fab320"
"2020-07-29T13:49:33",1596052173.204,1473472,-63,37,"067d45fab320"
"2020-07-29T13:49:33",1596052173.621,1473889,-62,38,"067d45fab320"
"2020-07-29T13:49:33",1596052173.823,1474091,-62,39,"067d45fab320"
"2020-07-29T13:49:34",1596052174.238,1474506,-63,37,"067d45fab320"
"2020-07-29T13:49:34",1596052174.448,1474716,-62,38,"067d45fab320"
"2020-07-29T13:49:34",1596052174.857,1475125,-62,39,"067d45fab320"
"2020-07-29T13:49:35",1596052175.058,1475326,-63,37,"067d45fab320"
"2020-07-29T13:49:35",1596052175.673,1475941,-62,39,"067d45fab320"
"2020-07-29T13:49:36",1596052176.086,1476354,-64,37,"067d45fab320"
"2020-07-29T13:49:36",1596052176.291,1476559,-62,38,"067d45fab320"
"2020-07-29T13:49:36",1596052176.704,1476972,-62,39,"067d45fab320"
"2020-07-29T13:49:36",1596052176.912,1477180,-63,37,"067d45fab320"
"2020-07-29T13:49:37",1596052177.322,1477590,-62,38,"067d45fab320"
"2020-07-29T13:49:37",1596052177.528,1477796,-62,39,"067d45fab320"
"2020-07-29T13:49:37",1596052177.935,1478203,-63,37,"067d45fab320"
"2020-07-29T13:49:38",1596052178.553,1478821,-62,39,"067d45fab320"
"2020-07-29T13:49:38",1596052178.965,1479233,-63,37,"067d45fab320"
"2020-07-29T13:49:39",1596052179.168,1479436,-62,38,"067d45fab320"
"2020-07-29T13:49:39",1596052179.583,1479851,-62,39,"067d45fab320"
"2020-07-29T13:49:39",1596052179.786,1480054,-64,37,"067d45fab320"
"2020-07-29T13:49:40",1596052180.207,1480475,-62,38,"067d45fab320"
"2020-07-29T13:49:40",1596052180.408,1480676,-62,39,"067d45fab320"
"2020-07-29T13:49:40",1596052180.815,1481083,-63,37,"067d45fab320"
"2020-07-29T13:49:41",1596052181.018,1481286,-62,38,"067d45fab320"
"2020-07-29T13:49:41",1596052181.436,1481704,-62,39,"067d45fab320"
"2020-07-29T13:49:41",1596052181.646,1481914,-63,37,"067d45fab320"
"2020-07-29T13:49:42",1596052182.052,1482320,-62,38,"067d45fab320"
"2020-07-29T13:49:42",1596052182.262,1482530,-62,39,"067d45fab320"
"2020-07-29T13:49:42",1596052182.67,1482938,-63,37,"067d45fab320"
"2020-07-29T13:49:42",1596052182.87,1483138,-62,38,"067d45fab320"
"2020-07-29T13:49:43",1596052183.282,1483550,-62,39,"067d45fab320"
"2020-07-29T13:49:43",1596052183.494,1483762,-63,37,"067d45fab320"
"2020-07-29T13:49:43",1596052183.904,1484172,-62,38,"067d45fab320"
"2020-07-29T13:49:44",1596052184.107,1484375,-62,39,"067d45fab320"
"2020-07-29T13:49:44",1596052184.527,1484795,-63,37,"067d45fab320"
"2020-07-29T13:49:44",1596052184.736,1485004,-62,38,"067d45fab320"
"2020-07-29T13:49:45",1596052185.144,1485412,-62,39,"067d45fab320"
"2020-07-29T13:49:45",1596052185.348,1485616,-63,37,"067d45fab320"
"2020-07-29T13:49:45",1596052185.758,1486026,-62,38,"067d45fab320"
"2020-07-29T13:49:45",1596052185.97,1486238,-62,39,"067d45fab320"
"2020-07-29T13:49:46",1596052186.377,1486645,-63,37,"067d45fab320"
"2020-07-29T13:49:46",1596052186.585,1486853,-62,38,"067d45fab320"
"2020-07-29T13:49:47",1596052187.401,1487669,-63,37,"067d45fab320"
"2020-07-29T13:49:47",1596052187.608,1487876,-62,38,"067d45fab320"
"2020-07-29T13:49:48",1596052188.017,1488285,-62,39,"067d45fab320"
"2020-07-29T13:49:48",1596052188.225,1488493,-63,37,"067d45fab320"
"2020-07-29T13:49:48",1596052188.847,1489115,-62,39,"067d45fab320"
"2020-07-29T13:49:49",1596052189.253,1489521,-63,37,"067d45fab320"
"2020-07-29T13:49:49",1596052189.46,1489728,-62,38,"067d45fab320"
"2020-07-29T13:49:49",1596052189.863,1490131,-62,39,"067d45fab320"
"2020-07-29T13:49:50",1596052190.068,1490336,-63,37,"067d45fab320"
"2020-07-29T13:49:50",1596052190.485,1490753,-62,38,"067d45fab320"
"2020-07-29T13:49:50",1596052190.689,1490957,-62,39,"067d45fab320"
"2020-07-29T13:49:51",1596052191.107,1491375,-63,37,"067d45fab320"
"2020-07-29T13:49:51",1596052191.308,1491576,-62,38,"067d45fab320"
"2020-07-29T13:49:51",1596052191.924,1492192,-64,37,"067d45fab320"
"2020-07-29T13:49:52",1596052192.537,1492805,-60,39,"067d45fab320"
"2020-07-29T13:49:52",1596052192.949,1493217,-63,37,"067d45fab320"
"2020-07-29T13:49:53",1596052193.159,1493427,-62,38,"067d45fab320"
"2020-07-29T13:49:53",1596052193.568,1493836,-62,39,"067d45fab320"
"2020-07-29T13:49:53",1596052193.768,1494036,-63,37,"067d45fab320"
"2020-07-29T13:49:54",1596052194.188,1494456,-62,38,"067d45fab320"
"2020-07-29T13:49:54",1596052194.397,1494665,-60,39,"067d45fab320"
"2020-07-29T13:49:54",1596052194.803,1495071,-63,37,"067d45fab320"
"2020-07-29T13:49:55",1596052195.209,1495477,-62,38,"067d45fab320"
"2020-07-29T13:49:55",1596052195.411,1495679,-62,39,"067d45fab320"
"2020-07-29T13:49:55",1596052195.831,1496099,-63,37,"067d45fab320"
"2020-07-29T13:49:56",1596052196.04,1496308,-62,38,"067d45fab320"
"2020-07-29T13:49:56",1596052196.453,1496721,-62,39,"067d45fab320"
"2020-07-29T13:49:56",1596052196.654,1496922,-63,37,"067d45fab320"
"2020-07-29T13:49:57",1596052197.066,1497334,-62,38,"067d45fab320"
"2020-07-29T13:49:57",1596052197.27,1497538,-62,39,"067d45fab320"
"2020-07-29T13:49:57",1596052197.684,1497952,-63,37,"067d45fab320"
"2020-07-29T13:49:57",1596052197.893,1498161,-62,38,"067d45fab320"
"2020-07-29T13:49:58",1596052198.303,1498571,-62,39,"067d45fab320"
"2020-07-29T13:49:58",1596052198.51,1498778,-64,37,"067d45fab320"
"2020-07-29T13:49:58",1596052198.922,1499190,-62,38,"067d45fab320"
"2020-07-29T13:49:59",1596052199.123,1499391,-62,39,"067d45fab320"
"2020-07-29T13:49:59",1596052199.536,1499804,-63,37,"067d45fab320"
"2020-07-29T13:49:59",1596052199.741,1500009,-62,38,"067d45fab320"
"2020-07-29T13:50:00",1596052200.157,1500425,-62,39,"067d45fab320"
"2020-07-29T13:50:00",1596052200.367,1500635,-64,37,"067d45fab320"
"2020-07-29T13:50:00",1596052200.772,1501040,-62,38,"067d45fab320"
"2020-07-29T13:50:00",1596052200.98,1501248,-62,39,"067d45fab320"
"2020-07-29T13:50:01",1596052201.39,1501658,-63,37,"067d45fab320"
"2020-07-29T13:50:01",1596052201.597,1501865,-62,38,"067d45fab320"
"2020-07-29T13:50:02",1596052202.009,1502277,-62,39,"067d45fab320"
"2020-07-29T13:50:02",1596052202.209,1502477,-63,37,"067d45fab320"
"2020-07-29T13:50:02",1596052202.625,1502893,-62,38,"067d45fab320"
"2020-07-29T13:50:03",1596052203.238,1503506,-63,37,"067d45fab320"
"2020-07-29T13:50:03",1596052203.649,1503917,-62,38,"067d45fab320"
"2020-07-29T13:50:03",1596052203.85,1504118,-62,39,"067d45fab320"
"2020-07-29T13:50:04",1596052204.26,1504528,-64,37,"067d45fab320"
"2020-07-29T13:50:04",1596052204.47,1504738,-62,38,"067d45fab320"
"2020-07-29T13:50:04",1596052204.874,1505142,-62,39,"067d45fab320"
"2020-07-29T13:50:05",1596052205.088,1505356,-63,37,"067d45fab320"
"2020-07-29T13:50:05",1596052205.501,1505769,-62,38,"067d45fab320"
"2020-07-29T13:50:05",1596052205.706,1505974,-62,39,"067d45fab320"
"2020-07-29T13:50:06",1596052206.118,1506386,-64,37,"067d45fab320"
"2020-07-29T13:50:06",1596052206.731,1506999,-62,39,"067d45fab320"
"2020-07-29T13:50:06",1596052206.942,1507210,-63,37,"067d45fab320"
"2020-07-29T13:50:07",1596052207.345,1507613,-62,38,"067d45fab320"
"2020-07-29T13:50:07",1596052207.556,1507824,-62,39,"067d45fab320"
"2020-07-29T13:50:07",1596052207.963,1508231,-63,37,"067d45fab320"
"2020-07-29T13:50:08",1596052208.172,1508440,-62,38,"067d45fab320"
"2020-07-29T13:50:08",1596052208.579,1508847,-62,39,"067d45fab320"
"2020-07-29T13:50:08",1596052208.789,1509057,-64,37,"067d45fab320"
"2020-07-29T13:50:09",1596052209.196,1509464,-62,38,"067d45fab320"
"2020-07-29T13:50:09",1596052209.401,1509669,-62,39,"067d45fab320"
"2020-07-29T13:50:09",1596052209.817,1510085,-64,37,"067d45fab320"
"2020-07-29T13:50:10",1596052210.027,1510295,-62,38,"067d45fab320"
"2020-07-29T13:50:10",1596052210.438,1510706,-62,39,"067d45fab320"
"2020-07-29T13:50:10",1596052210.644,1510912,-64,37,"067d45fab320"
"2020-07-29T13:50:11",1596052211.048,1511316,-62,38,"067d45fab320"
"2020-07-29T13:50:11",1596052211.466,1511734,-62,39,"067d45fab320"
"2020-07-29T13:50:11",1596052211.673,1511941,-63,37,"067d45fab320"
"2020-07-29T13:50:12",1596052212.082,1512350,-62,38,"067d45fab320"
"2020-07-29T13:50:12",1596052212.701,1512969,-63,37,"067d45fab320"
"2020-07-29T13:50:12",1596052212.906,1513174,-62,38,"067d45fab320"
"2020-07-29T13:50:13",1596052213.318,1513586,-62,39,"067d45fab320"
"2020-07-29T13:50:13",1596052213.524,1513792,-63,37,"067d45fab320"
"2020-07-29T13:50:13",1596052213.931,1514199,-62,38,"067d45fab320"
"2020-07-29T13:50:14",1596052214.133,1514401,-61,39,"067d45fab320"
"2020-07-29T13:50:14",1596052214.547,1514815,-63,37,"067d45fab320"
"2020-07-29T13:50:14",1596052214.753,1515021,-62,38,"067d45fab320"
"2020-07-29T13:50:15",1596052215.164,1515432,-62,39,"067d45fab320"
"2020-07-29T13:50:15",1596052215.366,1515634,-63,37,"067d45fab320"
"2020-07-29T13:50:15",1596052215.779,1516047,-62,38,"067d45fab320"
"2020-07-29T13:50:15",1596052215.986,1516254,-62,39,"067d45fab320"
"2020-07-29T13:50:16",1596052216.392,1516660,-64,37,"067d45fab320"
"2020-07-29T13:50:16",1596052216.599,1516867,-62,38,"067d45fab320"
"2020-07-29T13:50:17",1596052217.017,1517285,-61,39,"067d45fab320"
"2020-07-29T13:50:17",1596052217.227,1517495,-63,37,"067d45fab320"
"2020-07-29T13:50:17",1596052217.633,1517901,-62,38,"067d45fab320"
"2020-07-29T13:50:17",1596052217.839,1518107,-61,39,"067d45fab320"
"2020-07-29T13:50:18",1596052218.253,1518521,-63,37,"067d45fab320"
"2020-07-29T13:50:18",1596052218.458,1518726,-62,38,"067d45fab320"
"2020-07-29T13:50:18",1596052218.869,1519137,-62,39,"067d45fab320"
"2020-07-29T13:50:19",1596052219.274,1519542,-63,37,"067d45fab320"
"2020-07-29T13:50:19",1596052219.477,1519745,-62,38,"067d45fab320"
"2020-07-29T13:50:19",1596052219.889,1520157,-62,39,"067d45fab320"
"2020-07-29T13:50:20",1596052220.094,1520362,-63,37,"067d45fab320"
"2020-07-29T13:50:20",1596052220.503,1520771,-62,38,"067d45fab320"
"2020-07-29T13:50:20",1596052220.712,1520980,-62,39,"067d45fab320"
"2020-07-29T13:50:21",1596052221.12,1521388,-63,37,"067d45fab320"
"2020-07-29T13:50:21",1596052221.33,1521598,-62,38,"067d45fab320"
"2020-07-29T13:50:21",1596052221.739,1522007,-62,39,"067d45fab320"
"2020-07-29T13:50:21",1596052221.945,1522213,-63,37,"067d45fab320"
"2020-07-29T13:50:22",1596052222.356,1522624,-62,38,"067d45fab320"
"2020-07-29T13:50:22",1596052222.976,1523244,-63,37,"067d45fab320"
"2020-07-29T13:50:23",1596052223.185,1523453,-62,38,"067d45fab320"
"2020-07-29T13:50:23",1596052223.596,1523864,-62,39,"067d45fab320"
"2020-07-29T13:50:23",1596052223.799,1524067,-63,37,"067d45fab320"
"2020-07-29T13:50:24",1596052224.207,1524475,-62,38,"067d45fab320"
"2020-07-29T13:50:24",1596052224.419,1524687,-62,39,"067d45fab320"
"2020-07-29T13:50:24",1596052224.829,1525097,-63,37,"067d45fab320"
"2020-07-29T13:50:25",1596052225.037,1525305,-62,38,"067d45fab320"
"2020-07-29T13:50:25",1596052225.442,1525710,-62,39,"067d45fab320"
"2020-07-29T13:50:25",1596052225.652,1525920,-63,37,"067d45fab320"
"2020-07-29T13:50:26",1596052226.06,1526328,-62,38,"067d45fab320"
"2020-07-29T13:50:26",1596052226.267,1526535,-60,39,"067d45fab320"
"2020-07-29T13:50:26",1596052226.469,1526737,-61,39,"067d45fab320"
"2020-07-29T13:50:26",1596052226.676,1526944,-63,37,"067d45fab320"
"2020-07-29T13:50:27",1596052227.089,1527357,-62,38,"067d45fab320"
"2020-07-29T13:50:27",1596052227.29,1527558,-62,39,"067d45fab320"
"2020-07-29T13:50:27",1596052227.698,1527966,-67,37,"067d45fab320"
"2020-07-29T13:50:28",1596052228.318,1528586,-71,39,"067d45fab320"
"2020-07-29T13:50:28",1596052228.928,1529196,-86,38,"067d45fab320"
"2020-07-29T13:50:29",1596052229.142,1529410,-76,39,"067d45fab320"
"2020-07-29T13:50:29",1596052229.549,1529817,-87,37,"067d45fab320"
"2020-07-29T13:50:29",1596052229.759,1530027,-78,38,"067d45fab320"
"2020-07-29T13:50:30",1596052230.161,1530429,-79,39,"067d45fab320"
"2020-07-29T13:50:30",1596052230.367,1530635,-86,37,"067d45fab320"
"2020-07-29T13:50:30",1596052230.782,1531050,-79,38,"067d45fab320"
"2020-07-29T13:50:30",1596052230.988,1531256,-77,39,"067d45fab320"
"2020-07-29T13:50:31",1596052231.392,1531660,-81,37,"067d45fab320"
"2020-07-29T13:50:31",1596052231.604,1531872,-80,38,"067d45fab320"
"2020-07-29T13:50:32",1596052232.018,1532286,-80,39,"067d45fab320"
"2020-07-29T13:50:32",1596052232.221,1532489,-92,37,"067d45fab320"
"2020-07-29T13:50:32",1596052232.63,1532898,-81,38,"067d45fab320"
"2020-07-29T13:50:32",1596052232.835,1533103,-80,39,"067d45fab320"
"2020-07-29T13:50:33",1596052233.247,1533515,-89,37,"067d45fab320"
"2020-07-29T13:50:33",1596052233.865,1534133,-78,39,"067d45fab320"
"2020-07-29T13:50:34",1596052234.271,1534539,-80,37,"067d45fab320"
"2020-07-29T13:50:34",1596052234.477,1534745,-78,38,"067d45fab320"
"2020-07-29T13:50:34",1596052234.887,1535155,-81,39,"067d45fab320"
"2020-07-29T13:50:35",1596052235.095,1535363,-83,37,"067d45fab320"
"2020-07-29T13:50:35",1596052235.513,1535781,-80,38,"067d45fab320"
"2020-07-29T13:50:35",1596052235.717,1535985,-80,39,"067d45fab320"
"2020-07-29T13:50:36",1596052236.118,1536386,-84,37,"067d45fab320"
"2020-07-29T13:50:36",1596052236.332,1536600,-77,38,"067d45fab320"
"2020-07-29T13:50:36",1596052236.741,1537009,-76,39,"067d45fab320"
"2020-07-29T13:50:36",1596052236.949,1537217,-84,37,"067d45fab320"
"2020-07-29T13:50:37",1596052237.358,1537626,-80,38,"067d45fab320"
"2020-07-29T13:50:37",1596052237.562,1537830,-76,39,"067d45fab320"
"2020-07-29T13:50:37",1596052237.971,1538239,-94,37,"067d45fab320"
"2020-07-29T13:50:38",1596052238.181,1538449,-67,38,"067d45fab320"
"2020-07-29T13:50:38",1596052238.797,1539065,-67,37,"067d45fab320"
"2020-07-29T13:50:39",1596052239.212,1539480,-63,38,"067d45fab320"
"2020-07-29T13:50:39",1596052239.414,1539682,-62,39,"067d45fab320"
"2020-07-29T13:50:39",1596052239.822,1540090,-67,37,"067d45fab320"
"2020-07-29T13:50:40",1596052240.028,1540296,-72,38,"067d45fab320"
"2020-07-29T13:50:40",1596052240.447,1540715,-68,39,"067d45fab320"
"2020-07-29T13:50:40",1596052240.657,1540925,-85,37,"067d45fab320"
"2020-07-29T13:50:41",1596052241.064,1541332,-71,38,"067d45fab320"
"2020-07-29T13:50:41",1596052241.27,1541538,-70,39,"067d45fab320"
"2020-07-29T13:50:41",1596052241.687,1541955,-74,37,"067d45fab320"
"2020-07-29T13:50:41",1596052241.893,1542161,-73,38,"067d45fab320"
"2020-07-29T13:50:42",1596052242.3,1542568,-73,39,"067d45fab320"
"2020-07-29T13:50:42",1596052242.71,1542978,-75,37,"067d45fab320"
"2020-07-29T13:50:42",1596052242.911,1543179,-74,38,"067d45fab320"
"2020-07-29T13:50:43",1596052243.32,1543588,-74,39,"067d45fab320"
"2020-07-29T13:50:43",1596052243.532,1543800,-75,37,"067d45fab320"
"2020-07-29T13:50:43",1596052243.944,1544212,-74,38,"067d45fab320"
"2020-07-29T13:50:44",1596052244.152,1544420,-73,39,"067d45fab320"
"2020-07-29T13:50:44",1596052244.561,1544829,-74,37,"067d45fab320"
"2020-07-29T13:50:44",1596052244.768,1545036,-73,38,"067d45fab320"
"2020-07-29T13:50:45",1596052245.18,1545448,-73,39,"067d45fab320"
"2020-07-29T13:50:45",1596052245.385,1545653,-74,37,"067d45fab320"
"2020-07-29T13:50:45",1596052245.793,1546061,-72,38,"067d45fab320"
"2020-07-29T13:50:45",1596052245.998,1546266,-72,39,"067d45fab320"
"2020-07-29T13:50:46",1596052246.412,1546680,-74,37,"067d45fab320"
"2020-07-29T13:50:46",1596052246.613,1546881,-72,38,"067d45fab320"
"2020-07-29T13:50:47",1596052247.027,1547295,-72,39,"067d45fab320"
"2020-07-29T13:50:47",1596052247.234,1547502,-74,37,"067d45fab320"
"2020-07-29T13:50:47",1596052247.643,1547911,-72,38,"067d45fab320"
"2020-07-29T13:50:47",1596052247.847,1548115,-72,39,"067d45fab320"
"2020-07-29T13:50:48",1596052248.264,1548532,-74,37,"067d45fab320"
"2020-07-29T13:50:48",1596052248.473,1548741,-72,38,"067d45fab320"
"2020-07-29T13:50:48",1596052248.878,1549146,-72,39,"067d45fab320"
"2020-07-29T13:50:49",1596052249.088,1549356,-74,37,"067d45fab320"
"2020-07-29T13:50:49",1596052249.495,1549763,-72,38,"067d45fab320"
"2020-07-29T13:50:50",1596052250.115,1550383,-73,37,"067d45fab320"
"2020-07-29T13:50:50",1596052250.519,1550787,-86,38,"067d45fab320"
"2020-07-29T13:50:50",1596052250.731,1550999,-65,39,"067d45fab320"
"2020-07-29T13:50:51",1596052251.344,1551612,-66,38,"067d45fab320"
"2020-07-29T13:50:51",1596052251.753,1552021,-66,39,"067d45fab320"
"2020-07-29T13:50:51",1596052251.957,1552225,-64,37,"067d45fab320"
"2020-07-29T13:50:52",1596052252.376,1552644,-62,38,"067d45fab320"
"2020-07-29T13:50:52",1596052252.578,1552846,-61,39,"067d45fab320"
"2020-07-29T13:50:52",1596052252.987,1553255,-63,37,"067d45fab320"
"2020-07-29T13:50:53",1596052253.202,1553470,-62,38,"067d45fab320"
"2020-07-29T13:50:53",1596052253.604,1553872,-61,39,"067d45fab320"
"2020-07-29T13:50:53",1596052253.813,1554081,-63,37,"067d45fab320"
"2020-07-29T13:50:54",1596052254.226,1554494,-62,38,"067d45fab320"
"2020-07-29T13:50:54",1596052254.427,1554695,-61,39,"067d45fab320"
"2020-07-29T13:50:54",1596052254.839,1555107,-63,37,"067d45fab320"
"2020-07-29T13:50:55",1596052255.04,1555308,-62,38,"067d45fab320"
"2020-07-29T13:50:55",1596052255.453,1555721,-61,39,"067d45fab320"
"2020-07-29T13:50:55",1596052255.664,1555932,-63,37,"067d45fab320"
"2020-07-29T13:50:56",1596052256.074,1556342,-62,38,"067d45fab320"
"2020-07-29T13:50:56",1596052256.283,1556551,-61,39,"067d45fab320"
"2020-07-29T13:50:56",1596052256.689,1556957,-63,37,"067d45fab320"
"2020-07-29T13:50:56",1596052256.899,1557167,-62,38,"067d45fab320"
"2020-07-29T13:50:57",1596052257.307,1557575,-61,39,"067d45fab320"
"2020-07-29T13:50:57",1596052257.518,1557786,-63,37,"067d45fab320"
"2020-07-29T13:50:57",1596052257.933,1558201,-62,38,"067d45fab320"
"2020-07-29T13:50:58",1596052258.338,1558606,-61,39,"067d45fab320"
"2020-07-29T13:50:58",1596052258.54,1558808,-63,37,"067d45fab320"
"2020-07-29T13:50:58",1596052258.958,1559226,-62,38,"067d45fab320"
"2020-07-29T13:50:59",1596052259.167,1559435,-61,39,"067d45fab320"
"2020-07-29T13:50:59",1596052259.578,1559846,-63,37,"067d45fab320"
"2020-07-29T13:50:59",1596052259.784,1560052,-62,38,"067d45fab320"
"2020-07-29T13:51:00",1596052260.193,1560461,-61,39,"067d45fab320"
"2020-07-29T13:51:00",1596052260.398,1560666,-63,37,"067d45fab320"
"2020-07-29T13:51:00",1596052260.81,1561078,-62,38,"067d45fab320"
"2020-07-29T13:51:01",1596052261.016,1561284,-61,39,"067d45fab320"
"2020-07-29T13:51:01",1596052261.426,1561694,-63,37,"067d45fab320"
"2020-07-29T13:51:01",1596052261.628,1561896,-62,38,"067d45fab320"
"2020-07-29T13:51:02",1596052262.047,1562315,-61,39,"067d45fab320"
"2020-07-29T13:51:02",1596052262.249,1562517,-63,37,"067d45fab320"
"2020-07-29T13:51:02",1596052262.663,1562931,-62,38,"067d45fab320"
"2020-07-29T13:51:02",1596052262.869,1563137,-61,39,"067d45fab320"
"2020-07-29T13:51:03",1596052263.282,1563550,-63,37,"067d45fab320"
"2020-07-29T13:51:03",1596052263.483,1563751,-62,38,"067d45fab320"
"2020-07-29T13:51:03",1596052263.895,1564163,-61,39,"067d45fab320"
"2020-07-29T13:51:04",1596052264.097,1564365,-63,37,"067d45fab320"
"2020-07-29T13:51:04",1596052264.508,1564776,-62,38,"067d45fab320"
"2020-07-29T13:51:04",1596052264.718,1564986,-61,39,"067d45fab320"
"2020-07-29T13:51:05",1596052265.128,1565396,-63,37,"067d45fab320"
"2020-07-29T13:51:05",1596052265.334,1565602,-62,38,"067d45fab320"
"2020-07-29T13:51:05",1596052265.747,1566015,-62,39,"067d45fab320"
"2020-07-29T13:51:06",1596052266.157,1566425,-63,37,"067d45fab320"
"2020-07-29T13:51:06",1596052266.361,1566629,-62,38,"067d45fab320"
"2020-07-29T13:51:06",1596052266.773,1567041,-62,39,"067d45fab320"
"2020-07-29T13:51:06",1596052266.982,1567250,-63,37,"067d45fab320"
"2020-07-29T13:51:07",1596052267.392,1567660,-62,38,"067d45fab320"
"2020-07-29T13:51:07",1596052267.603,1567871,-62,39,"067d45fab320"
"2020-07-29T13:51:08",1596052268.014,1568282,-63,37,"067d45fab320"
"2020-07-29T13:51:08",1596052268.217,1568485,-62,38,"067d45fab320"
"2020-07-29T13:51:08",1596052268.623,1568891,-61,39,"067d45fab320"
"2020-07-29T13:51:08",1596052268.833,1569101,-64,37,"067d45fab320"
"2020-07-29T13:51:09",1596052269.247,1569515,-62,38,"067d45fab320"
"2020-07-29T13:51:09",1596052269.452,1569720,-61,39,"067d45fab320"
"2020-07-29T13:51:09",1596052269.853,1570121,-63,37,"067d45fab320"
"2020-07-29T13:51:10",1596052270.064,1570332,-62,38,"067d45fab320"
"2020-07-29T13:51:10",1596052270.48,1570748,-61,39,"067d45fab320"
"2020-07-29T13:51:10",1596052270.684,1570952,-63,37,"067d45fab320"
"2020-07-29T13:51:11",1596052271.088,1571356,-62,38,"067d45fab320"
"2020-07-29T13:51:11",1596052271.298,1571566,-61,39,"067d45fab320"
"2020-07-29T13:51:11",1596052271.712,1571980,-63,37,"067d45fab320"
"2020-07-29T13:51:11",1596052271.918,1572186,-62,38,"067d45fab320"
"2020-07-29T13:51:12",1596052272.334,1572602,-61,39,"067d45fab320"
"2020-07-29T13:51:12",1596052272.537,1572805,-63,37,"067d45fab320"
"2020-07-29T13:51:12",1596052272.947,1573215,-62,38,"067d45fab320"
"2020-07-29T13:51:13",1596052273.149,1573417,-61,39,"067d45fab320"
"2020-07-29T13:51:13",1596052273.554,1573822,-63,37,"067d45fab320"
"2020-07-29T13:51:14",1596052274.175,1574443,-61,39,"067d45fab320"
"2020-07-29T13:51:14",1596052274.588,1574856,-63,37,"067d45fab320"
"2020-07-29T13:51:14",1596052274.798,1575066,-62,38,"067d45fab320"
"2020-07-29T13:51:15",1596052275.208,1575476,-61,39,"067d45fab320"
"2020-07-29T13:51:15",1596052275.411,1575679,-63,37,"067d45fab320"
"2020-07-29T13:51:15",1596052275.82,1576088,-62,38,"067d45fab320"
"2020-07-29T13:51:16",1596052276.02,1576288,-61,39,"067d45fab320"
"2020-07-29T13:51:16",1596052276.437,1576705,-63,37,"067d45fab320"
"2020-07-29T13:51:16",1596052276.641,1576909,-62,38,"067d45fab320"
"2020-07-29T13:51:17",1596052277.053,1577321,-61,39,"067d45fab320"
"2020-07-29T13:51:17",1596052277.261,1577529,-63,37,"067d45fab320"
"2020-07-29T13:51:17",1596052277.671,1577939,-62,38,"067d45fab320"
"2020-07-29T13:51:17",1596052277.878,1578146,-61,39,"067d45fab320"
"2020-07-29T13:51:18",1596052278.282,1578550,-63,37,"067d45fab320"
"2020-07-29T13:51:18",1596052278.488,1578756,-62,38,"067d45fab320"
"2020-07-29T13:51:18",1596052278.901,1579169,-61,39,"067d45fab320"
"2020-07-29T13:51:19",1596052279.106,1579374,-63,37,"067d45fab320"
"2020-07-29T13:51:19",1596052279.521,1579789,-62,38,"067d45fab320"
"2020-07-29T13:51:19",1596052279.721,1579989,-61,39,"067d45fab320"
"2020-07-29T13:51:20",1596052280.139,1580407,-63,37,"067d45fab320"
"2020-07-29T13:51:20",1596052280.341,1580609,-62,38,"067d45fab320"
"2020-07-29T13:51:20",1596052280.956,1581224,-63,37,"067d45fab320"
"2020-07-29T13:51:21",1596052281.368,1581636,-62,38,"067d45fab320"
"2020-07-29T13:51:21",1596052281.775,1582043,-62,39,"067d45fab320"
"2020-07-29T13:51:21",1596052281.988,1582256,-63,37,"067d45fab320"
"2020-07-29T13:51:22",1596052282.394,1582662,-62,38,"067d45fab320"
"2020-07-29T13:51:22",1596052282.598,1582866,-62,39,"067d45fab320"
"2020-07-29T13:51:23",1596052283.018,1583286,-63,37,"067d45fab320"
"2020-07-29T13:51:23",1596052283.227,1583495,-62,38,"067d45fab320"
"2020-07-29T13:51:23",1596052283.628,1583896,-62,39,"067d45fab320"
"2020-07-29T13:51:23",1596052283.838,1584106,-63,37,"067d45fab320"
"2020-07-29T13:51:24",1596052284.253,1584521,-62,38,"067d45fab320"
"2020-07-29T13:51:24",1596052284.458,1584726,-62,39,"067d45fab320"
"2020-07-29T13:51:24",1596052284.868,1585136,-63,37,"067d45fab320"
"2020-07-29T13:51:25",1596052285.075,1585343,-62,38,"067d45fab320"
"2020-07-29T13:51:25",1596052285.483,1585751,-62,39,"067d45fab320"
"2020-07-29T13:51:25",1596052285.687,1585955,-63,37,"067d45fab320"
"2020-07-29T13:51:26",1596052286.095,1586363,-62,38,"067d45fab320"
"2020-07-29T13:51:26",1596052286.302,1586570,-62,39,"067d45fab320"
"2020-07-29T13:51:26",1596052286.721,1586989,-63,37,"067d45fab320"
"2020-07-29T13:51:26",1596052286.921,1587189,-62,38,"067d45fab320"
"2020-07-29T13:51:27",1596052287.333,1587601,-62,39,"067d45fab320"
"2020-07-29T13:51:27",1596052287.543,1587811,-63,37,"067d45fab320"
"2020-07-29T13:51:27",1596052287.953,1588221,-62,38,"067d45fab320"
"2020-07-29T13:51:28",1596052288.153,1588421,-62,39,"067d45fab320"
"2020-07-29T13:51:28",1596052288.56,1588828,-63,37,"067d45fab320"
"2020-07-29T13:51:28",1596052288.768,1589036,-62,38,"067d45fab320"
"2020-07-29T13:51:28",1596052288.975,1589243,-62,38,"067d45fab320"
"2020-07-29T13:51:29",1596052289.182,1589450,-62,39,"067d45fab320"
"2020-07-29T13:51:29",1596052289.594,1589862,-63,37,"067d45fab320"
"2020-07-29T13:51:29",1596052289.797,1590065,-62,38,"067d45fab320"
"2020-07-29T13:51:30",1596052290.419,1590687,-63,37,"067d45fab320"
"2020-07-29T13:51:30",1596052290.827,1591095,-63,38,"067d45fab320"
"2020-07-29T13:51:31",1596052291.034,1591302,-63,39,"067d45fab320"
"2020-07-29T13:51:31",1596052291.441,1591709,-66,37,"067d45fab320"
"2020-07-29T13:51:31",1596052291.653,1591921,-68,38,"067d45fab320"
"2020-07-29T13:51:32",1596052292.059,1592327,-69,39,"067d45fab320"
"2020-07-29T13:51:32",1596052292.264,1592532,-74,37,"067d45fab320"
"2020-07-29T13:51:32",1596052292.678,1592946,-70,38,"067d45fab320"
"2020-07-29T13:51:32",1596052292.887,1593155,-69,39,"067d45fab320"
"2020-07-29T13:51:33",1596052293.293,1593561,-71,37,"067d45fab320"
"2020-07-29T13:51:33",1596052293.503,1593771,-68,38,"067d45fab320"
"2020-07-29T13:51:33",1596052293.918,1594186,-67,39,"067d45fab320"
"2020-07-29T13:51:34",1596052294.124,1594392,-69,37,"067d45fab320"
"2020-07-29T13:51:34",1596052294.524,1594792,-67,38,"067d45fab320"
"2020-07-29T13:51:34",1596052294.731,1594999,-67,39,"067d45fab320"
"2020-07-29T13:51:35",1596052295.144,1595412,-73,37,"067d45fab320"
"2020-07-29T13:51:35",1596052295.348,1595616,-76,38,"067d45fab320"
"2020-07-29T13:51:35",1596052295.757,1596025,-68,39,"067d45fab320"
"2020-07-29T13:51:36",1596052296.381,1596649,-62,38,"067d45fab320"
"2020-07-29T13:51:36",1596052296.788,1597056,-61,39,"067d45fab320"
"2020-07-29T13:51:36",1596052296.993,1597261,-63,37,"067d45fab320"
"2020-07-29T13:51:37",1596052297.405,1597673,-61,38,"067d45fab320"
"2020-07-29T13:51:37",1596052297.612,1597880,-61,39,"067d45fab320"
"2020-07-29T13:51:38",1596052298.019,1598287,-63,37,"067d45fab320"
"2020-07-29T13:51:38",1596052298.229,1598497,-62,38,"067d45fab320"
"2020-07-29T13:51:38",1596052298.639,1598907,-61,39,"067d45fab320"
"2020-07-29T13:51:38",1596052298.845,1599113,-63,37,"067d45fab320"
"2020-07-29T13:51:39",1596052299.254,1599522,-61,38,"067d45fab320"
"2020-07-29T13:51:39",1596052299.461,1599729,-62,39,"067d45fab320"
"2020-07-29T13:51:39",1596052299.866,1600134,-63,37,"067d45fab320"
"2020-07-29T13:51:40",1596052300.069,1600337,-61,38,"067d45fab320"
"2020-07-29T13:51:40",1596052300.478,1600746,-62,39,"067d45fab320"
"2020-07-29T13:51:40",1596052300.684,1600952,-63,37,"067d45fab320"
"2020-07-29T13:51:41",1596052301.1,1601368,-61,38,"067d45fab320"
"2020-07-29T13:51:41",1596052301.308,1601576,-62,39,"067d45fab320"
"2020-07-29T13:51:41",1596052301.717,1601985,-63,37,"067d45fab320"
"2020-07-29T13:51:41",1596052301.927,1602195,-62,38,"067d45fab320"
"2020-07-29T13:51:42",1596052302.331,1602599,-62,39,"067d45fab320"
"2020-07-29T13:51:42",1596052302.54,1602808,-62,37,"067d45fab320"
"2020-07-29T13:51:42",1596052302.943,1603211,-61,38,"067d45fab320"
"2020-07-29T13:51:43",1596052303.148,1603416,-62,39,"067d45fab320"
"2020-07-29T13:51:43",1596052303.568,1603836,-63,37,"067d45fab320"
"2020-07-29T13:51:43",1596052303.773,1604041,-61,38,"067d45fab320"
"2020-07-29T13:51:44",1596052304.184,1604452,-61,39,"067d45fab320"
"2020-07-29T13:51:44",1596052304.391,1604659,-63,37,"067d45fab320"
"2020-07-29T13:51:44",1596052304.6,1604868,-63,37,"067d45fab320"
"2020-07-29T13:51:44",1596052304.801,1605069,-62,38,"067d45fab320"
"2020-07-29T13:51:45",1596052305.218,1605486,-61,39,"067d45fab320"
"2020-07-29T13:51:45",1596052305.424,1605692,-63,37,"067d45fab320"
"2020-07-29T13:51:45",1596052305.831,1606099,-62,38,"067d45fab320"
"2020-07-29T13:51:46",1596052306.042,1606310,-62,39,"067d45fab320"
"2020-07-29T13:51:46",1596052306.454,1606722,-63,37,"067d45fab320"
"2020-07-29T13:51:46",1596052306.654,1606922,-62,38,"067d45fab320"
"2020-07-29T13:51:47",1596052307.063,1607331,-61,39,"067d45fab320"
"2020-07-29T13:51:47",1596052307.267,1607535,-63,37,"067d45fab320"
"2020-07-29T13:51:47",1596052307.678,1607946,-62,38,"067d45fab320"
"2020-07-29T13:51:47",1596052307.889,1608157,-62,39,"067d45fab320"
"2020-07-29T13:51:48",1596052308.303,1608571,-63,37,"067d45fab320"
"2020-07-29T13:51:48",1596052308.51,1608778,-62,38,"067d45fab320"
"2020-07-29T13:51:48",1596052308.913,1609181,-62,39,"067d45fab320"
"2020-07-29T13:51:49",1596052309.123,1609391,-63,37,"067d45fab320"
"2020-07-29T13:51:49",1596052309.53,1609798,-62,38,"067d45fab320"
"2020-07-29T13:51:49",1596052309.737,1610005,-62,39,"067d45fab320"
"2020-07-29T13:51:50",1596052310.147,1610415,-63,37,"067d45fab320"
"2020-07-29T13:51:50",1596052310.349,1610617,-62,38,"067d45fab320"
"2020-07-29T13:51:50",1596052310.768,1611036,-62,39,"067d45fab320"
"2020-07-29T13:51:50",1596052310.971,1611239,-63,37,"067d45fab320"
"2020-07-29T13:51:51",1596052311.582,1611850,-62,39,"067d45fab320"
"2020-07-29T13:51:51",1596052311.788,1612056,-62,39,"067d45fab320"
"2020-07-29T13:51:51",1596052311.999,1612267,-63,37,"067d45fab320"
"2020-07-29T13:51:52",1596052312.404,1612672,-62,38,"067d45fab320"
"2020-07-29T13:51:52",1596052312.614,1612882,-62,39,"067d45fab320"
"2020-07-29T13:51:53",1596052313.022,1613290,-63,37,"067d45fab320"
"2020-07-29T13:51:53",1596052313.228,1613496,-62,38,"067d45fab320"
"2020-07-29T13:51:53",1596052313.638,1613906,-62,39,"067d45fab320"
"2020-07-29T13:51:53",1596052313.849,1614117,-63,37,"067d45fab320"
"2020-07-29T13:51:54",1596052314.251,1614519,-62,38,"067d45fab320"
"2020-07-29T13:51:54",1596052314.459,1614727,-62,39,"067d45fab320"
"2020-07-29T13:51:54",1596052314.864,1615132,-63,37,"067d45fab320"
"2020-07-29T13:51:55",1596052315.07,1615338,-62,38,"067d45fab320"
"2020-07-29T13:51:55",1596052315.489,1615757,-62,39,"067d45fab320"
"2020-07-29T13:51:55",1596052315.691,1615959,-63,37,"067d45fab320"
"2020-07-29T13:51:56",1596052316.102,1616370,-62,38,"067d45fab320"
"2020-07-29T13:51:56",1596052316.307,1616575,-62,39,"067d45fab320"
"2020-07-29T13:51:56",1596052316.72,1616988,-63,37,"067d45fab320"
"2020-07-29T13:51:56",1596052316.925,1617193,-61,38,"067d45fab320"
"2020-07-29T13:51:57",1596052317.332,1617600,-62,39,"067d45fab320"
"2020-07-29T13:51:57",1596052317.538,1617806,-63,37,"067d45fab320"
"2020-07-29T13:51:57",1596052317.959,1618227,-61,38,"067d45fab320"
"2020-07-29T13:51:58",1596052318.164,1618432,-62,39,"067d45fab320"
"2020-07-29T13:51:58",1596052318.571,1618839,-63,37,"067d45fab320"
"2020-07-29T13:51:58",1596052318.779,1619047,-61,38,"067d45fab320"
"2020-07-29T13:51:59",1596052319.188,1619456,-61,39,"067d45fab320"
"2020-07-29T13:51:59",1596052319.594,1619862,-63,37,"067d45fab320"
"2020-07-29T13:51:59",1596052319.798,1620066,-62,38,"067d45fab320"
"2020-07-29T13:52:00",1596052320.208,1620476,-61,39,"067d45fab320"
"2020-07-29T13:52:00",1596052320.418,1620686,-63,37,"067d45fab320"
"2020-07-29T13:52:00",1596052320.835,1621103,-62,38,"067d45fab320"
"2020-07-29T13:52:01",1596052321.041,1621309,-61,39,"067d45fab320"
"2020-07-29T13:52:01",1596052321.448,1621716,-63,37,"067d45fab320"
"2020-07-29T13:52:01",1596052321.65,1621918,-61,38,"067d45fab320"
"2020-07-29T13:52:02",1596052322.06,1622328,-62,39,"067d45fab320"
"2020-07-29T13:52:02",1596052322.269,1622537,-63,37,"067d45fab320"
"2020-07-29T13:52:02",1596052322.679,1622947,-61,38,"067d45fab320"
"2020-07-29T13:52:03",1596052323.5,1623768,-62,38,"067d45fab320"
"2020-07-29T13:52:03",1596052323.91,1624178,-62,39,"067d45fab320"
"2020-07-29T13:52:04",1596052324.111,1624379,-63,37,"067d45fab320"
"2020-07-29T13:52:04",1596052324.527,1624795,-62,38,"067d45fab320"
"2020-07-29T13:52:04",1596052324.731,1624999,-62,39,"067d45fab320"
"2020-07-29T13:52:05",1596052325.143,1625411,-63,37,"067d45fab320"
"2020-07-29T13:52:05",1596052325.349,1625617,-62,38,"067d45fab320"
"2020-07-29T13:52:05",1596052325.754,1626022,-62,39,"067d45fab320"
"2020-07-29T13:52:06",1596052326.581,1626849,-62,39,"067d45fab320"
"2020-07-29T13:52:06",1596052326.992,1627260,-63,37,"067d45fab320"
"2020-07-29T13:52:07",1596052327.397,1627665,-62,38,"067d45fab320"
"2020-07-29T13:52:07",1596052327.607,1627875,-62,39,"067d45fab320"
"2020-07-29T13:52:08",1596052328.018,1628286,-63,37,"067d45fab320"
"2020-07-29T13:52:08",1596052328.229,1628497,-62,38,"067d45fab320"
"2020-07-29T13:52:08",1596052328.64,1628908,-62,39,"067d45fab320"
"2020-07-29T13:52:08",1596052328.845,1629113,-63,37,"067d45fab320"
"2020-07-29T13:52:09",1596052329.254,1629522,-62,38,"067d45fab320"
"2020-07-29T13:52:09",1596052329.454,1629722,-62,39,"067d45fab320"
"2020-07-29T13:52:09",1596052329.871,1630139,-63,37,"067d45fab320"
"2020-07-29T13:52:10",1596052330.081,1630349,-62,38,"067d45fab320"
"2020-07-29T13:52:10",1596052330.49,1630758,-62,39,"067d45fab320"
"2020-07-29T13:52:10",1596052330.697,1630965,-63,37,"067d45fab320"
"2020-07-29T13:52:11",1596052331.108,1631376,-62,38,"067d45fab320"
"2020-07-29T13:52:11",1596052331.319,1631587,-62,39,"067d45fab320"
"2020-07-29T13:52:11",1596052331.724,1631992,-63,37,"067d45fab320"
"2020-07-29T13:52:11",1596052331.932,1632200,-62,38,"067d45fab320"
"2020-07-29T13:52:12",1596052332.346,1632614,-62,39,"067d45fab320"
"2020-07-29T13:52:12",1596052332.549,1632817,-63,37,"067d45fab320"
"2020-07-29T13:52:12",1596052332.961,1633229,-62,38,"067d45fab320"
"2020-07-29T13:52:13",1596052333.166,1633434,-62,39,"067d45fab320"
"2020-07-29T13:52:13",1596052333.577,1633845,-63,37,"067d45fab320"
"2020-07-29T13:52:13",1596052333.78,1634048,-62,38,"067d45fab320"
"2020-07-29T13:52:14",1596052334.192,1634460,-62,39,"067d45fab320"
"2020-07-29T13:52:14",1596052334.396,1634664,-63,37,"067d45fab320"
"2020-07-29T13:52:14",1596052334.811,1635079,-62,38,"067d45fab320"
"2020-07-29T13:52:15",1596052335.018,1635286,-62,39,"067d45fab320"
"2020-07-29T13:52:15",1596052335.422,1635690,-63,37,"067d45fab320"
"2020-07-29T13:52:15",1596052335.836,1636104,-62,38,"067d45fab320"
"2020-07-29T13:52:16",1596052336.037,1636305,-62,39,"067d45fab320"
"2020-07-29T13:52:16",1596052336.448,1636716,-63,37,"067d45fab320"
"2020-07-29T13:52:17",1596052337.066,1637334,-61,39,"067d45fab320"
"2020-07-29T13:52:17",1596052337.274,1637542,-63,37,"067d45fab320"
"2020-07-29T13:52:17",1596052337.685,1637953,-62,38,"067d45fab320"
"2020-07-29T13:52:17",1596052337.89,1638158,-62,39,"067d45fab320"
"2020-07-29T13:52:18",1596052338.304,1638572,-63,37,"067d45fab320"
"2020-07-29T13:52:18",1596052338.506,1638774,-62,38,"067d45fab320"
"2020-07-29T13:52:18",1596052338.916,1639184,-62,39,"067d45fab320"
"2020-07-29T13:52:19",1596052339.119,1639387,-63,37,"067d45fab320"
"2020-07-29T13:52:19",1596052339.534,1639802,-62,38,"067d45fab320"
"2020-07-29T13:52:19",1596052339.741,1640009,-62,39,"067d45fab320"
"2020-07-29T13:52:20",1596052340.152,1640420,-63,37,"067d45fab320"
"2020-07-29T13:52:20",1596052340.353,1640621,-61,38,"067d45fab320"
"2020-07-29T13:52:20",1596052340.77,1641038,-62,39,"067d45fab320"
"2020-07-29T13:52:20",1596052340.972,1641240,-63,37,"067d45fab320"
"2020-07-29T13:52:21",1596052341.384,1641652,-61,38,"067d45fab320"
"2020-07-29T13:52:21",1596052341.587,1641855,-62,39,"067d45fab320"
"2020-07-29T13:52:22",1596052342.409,1642677,-62,38,"067d45fab320"
"2020-07-29T13:52:22",1596052342.619,1642887,-61,39,"067d45fab320"
"2020-07-29T13:52:23",1596052343.028,1643296,-63,37,"067d45fab320"
"2020-07-29T13:52:23",1596052343.23,1643498,-61,38,"067d45fab320"
"2020-07-29T13:52:23",1596052343.638,1643906,-61,39,"067d45fab320"
"2020-07-29T13:52:23",1596052343.845,1644113,-63,37,"067d45fab320"
"2020-07-29T13:52:24",1596052344.254,1644522,-62,38,"067d45fab320"
"2020-07-29T13:52:24",1596052344.467,1644735,-62,39,"067d45fab320"
"2020-07-29T13:52:24",1596052344.873,1645141,-63,37,"067d45fab320"
"2020-07-29T13:52:25",1596052345.082,1645350,-62,38,"067d45fab320"
"2020-07-29T13:52:25",1596052345.495,1645763,-62,39,"067d45fab320"
"2020-07-29T13:52:25",1596052345.698,1645966,-63,37,"067d45fab320"
"2020-07-29T13:52:26",1596052346.112,1646380,-62,38,"067d45fab320"
"2020-07-29T13:52:26",1596052346.313,1646581,-62,39,"067d45fab320"
"2020-07-29T13:52:26",1596052346.728,1646996,-62,37,"067d45fab320"
"2020-07-29T13:52:26",1596052346.936,1647204,-62,38,"067d45fab320"
"2020-07-29T13:52:27",1596052347.549,1647817,-63,37,"067d45fab320"
"2020-07-29T13:52:27",1596052347.96,1648228,-62,38,"067d45fab320"
"2020-07-29T13:52:28",1596052348.166,1648434,-62,39,"067d45fab320"
"2020-07-29T13:52:28",1596052348.573,1648841,-63,37,"067d45fab320"
"2020-07-29T13:52:28",1596052348.781,1649049,-62,38,"067d45fab320"
"2020-07-29T13:52:29",1596052349.193,1649461,-62,39,"067d45fab320"
"2020-07-29T13:52:29",1596052349.401,1649669,-63,37,"067d45fab320"
"2020-07-29T13:52:29",1596052349.816,1650084,-62,38,"067d45fab320"
"2020-07-29T13:52:30",1596052350.02,1650288,-62,39,"067d45fab320"
"2020-07-29T13:52:30",1596052350.22,1650488,-61,39,"067d45fab320"
"2020-07-29T13:52:30",1596052350.841,1651109,-62,38,"067d45fab320"
"2020-07-29T13:52:31",1596052351.045,1651313,-62,39,"067d45fab320"
"2020-07-29T13:52:31",1596052351.45,1651718,-63,37,"067d45fab320"
"2020-07-29T13:52:31",1596052351.664,1651932,-62,38,"067d45fab320"
"2020-07-29T13:52:32",1596052352.078,1652346,-64,39,"067d45fab320"
"2020-07-29T13:52:32",1596052352.285,1652553,-68,37,"067d45fab320"
"2020-07-29T13:52:32",1596052352.691,1652959,-62,38,"067d45fab320"
"2020-07-29T13:52:32",1596052352.9,1653168,-60,39,"067d45fab320"
"2020-07-29T13:52:33",1596052353.31,1653578,-64,37,"067d45fab320"
"2020-07-29T13:52:33",1596052353.514,1653782,-62,38,"067d45fab320"
"2020-07-29T13:52:33",1596052353.932,1654200,-62,39,"067d45fab320"
"2020-07-29T13:52:34",1596052354.137,1654405,-63,37,"067d45fab320"
"2020-07-29T13:52:34",1596052354.543,1654811,-62,38,"067d45fab320"
"2020-07-29T13:52:34",1596052354.745,1655013,-62,39,"067d45fab320"
"2020-07-29T13:52:35",1596052355.162,1655430,-63,37,"067d45fab320"
"2020-07-29T13:52:35",1596052355.363,1655631,-62,38,"067d45fab320"
"2020-07-29T13:52:35",1596052355.771,1656039,-62,39,"067d45fab320"
"2020-07-29T13:52:35",1596052355.979,1656247,-63,37,"067d45fab320"
"2020-07-29T13:52:36",1596052356.4,1656668,-62,38,"067d45fab320"
"2020-07-29T13:52:36",1596052356.602,1656870,-62,39,"067d45fab320"
"2020-07-29T13:52:37",1596052357.211,1657479,-62,38,"067d45fab320"
"2020-07-29T13:52:37",1596052357.624,1657892,-62,39,"067d45fab320"
"2020-07-29T13:52:37",1596052357.833,1658101,-63,37,"067d45fab320"
"2020-07-29T13:52:38",1596052358.034,1658302,-63,37,"067d45fab320"
"2020-07-29T13:52:38",1596052358.239,1658507,-62,38,"067d45fab320"
"2020-07-29T13:52:38",1596052358.656,1658924,-61,39,"067d45fab320"
"2020-07-29T13:52:38",1596052358.86,1659128,-63,37,"067d45fab320"
"2020-07-29T13:52:39",1596052359.269,1659537,-62,38,"067d45fab320"
"2020-07-29T13:52:39",1596052359.478,1659746,-62,39,"067d45fab320"
"2020-07-29T13:52:39",1596052359.882,1660150,-63,37,"067d45fab320"
"2020-07-29T13:52:40",1596052360.09,1660358,-62,38,"067d45fab320"
"2020-07-29T13:52:40",1596052360.499,1660767,-62,39,"067d45fab320"
"2020-07-29T13:52:40",1596052360.707,1660975,-63,37,"067d45fab320"
"2020-07-29T13:52:41",1596052361.118,1661386,-62,38,"067d45fab320"
"2020-07-29T13:52:41",1596052361.325,1661593,-62,39,"067d45fab320"
"2020-07-29T13:52:41",1596052361.734,1662002,-63,37,"067d45fab320"
"2020-07-29T13:52:41",1596052361.944,1662212,-62,38,"067d45fab320"
"2020-07-29T13:52:42",1596052362.351,1662619,-62,39,"067d45fab320"
"2020-07-29T13:52:42",1596052362.555,1662823,-63,37,"067d45fab320"
"2020-07-29T13:52:42",1596052362.959,1663227,-62,38,"067d45fab320"
"2020-07-29T13:52:43",1596052363.167,1663435,-62,39,"067d45fab320"
"2020-07-29T13:52:43",1596052363.582,1663850,-63,37,"067d45fab320"
"2020-07-29T13:52:43",1596052363.79,1664058,-62,38,"067d45fab320"
"2020-07-29T13:52:44",1596052364.2,1664468,-62,39,"067d45fab320"
"2020-07-29T13:52:44",1596052364.403,1664671,-63,37,"067d45fab320"
"2020-07-29T13:52:44",1596052364.815,1665083,-62,38,"067d45fab320"
"2020-07-29T13:52:45",1596052365.022,1665290,-62,39,"067d45fab320"
"2020-07-29T13:52:45",1596052365.222,1665490,-62,39,"067d45fab320"
"2020-07-29T13:52:45",1596052365.425,1665693,-63,37,"067d45fab320"
"2020-07-29T13:52:45",1596052365.84,1666108,-62,38,"067d45fab320"
"2020-07-29T13:52:46",1596052366.461,1666729,-67,37,"067d45fab320"
"2020-07-29T13:52:46",1596052366.666,1666934,-64,38,"067d45fab320"
"2020-07-29T13:52:47",1596052367.079,1667347,-66,39,"067d45fab320"
"2020-07-29T13:52:47",1596052367.282,1667550,-63,37,"067d45fab320"
"2020-07-29T13:52:47",1596052367.687,1667955,-62,38,"067d45fab320"
"2020-07-29T13:52:47",1596052367.892,1668160,-62,39,"067d45fab320"
"2020-07-29T13:52:48",1596052368.314,1668582,-63,37,"067d45fab320"
"2020-07-29T13:52:48",1596052368.52,1668788,-62,38,"067d45fab320"
"2020-07-29T13:52:48",1596052368.923,1669191,-62,39,"067d45fab320"
"2020-07-29T13:52:49",1596052369.13,1669398,-63,37,"067d45fab320"
"2020-07-29T13:52:49",1596052369.539,1669807,-62,38,"067d45fab320"
"2020-07-29T13:52:49",1596052369.749,1670017,-61,39,"067d45fab320"
"2020-07-29T13:52:50",1596052370.159,1670427,-63,37,"067d45fab320"
"2020-07-29T13:52:50",1596052370.368,1670636,-62,38,"067d45fab320"
"2020-07-29T13:52:50",1596052370.786,1671054,-62,39,"067d45fab320"
"2020-07-29T13:52:50",1596052370.988,1671256,-63,37,"067d45fab320"
"2020-07-29T13:52:51",1596052371.401,1671669,-61,38,"067d45fab320"
"2020-07-29T13:52:51",1596052371.609,1671877,-62,39,"067d45fab320"
"2020-07-29T13:52:52",1596052372.014,1672282,-63,37,"067d45fab320"
"2020-07-29T13:52:52",1596052372.221,1672489,-63,38,"067d45fab320"
"2020-07-29T13:52:52",1596052372.631,1672899,-63,39,"067d45fab320"
"2020-07-29T13:52:53",1596052373.037,1673305,-69,37,"067d45fab320"
"2020-07-29T13:52:53",1596052373.251,1673519,-69,38,"067d45fab320"
"2020-07-29T13:52:53",1596052373.46,1673728,-62,39,"067d45fab320"
"2020-07-29T13:52:53",1596052373.662,1673930,-62,39,"067d45fab320"
"2020-07-29T13:52:53",1596052373.87,1674138,-64,37,"067d45fab320"
"2020-07-29T13:52:54",1596052374.275,1674543,-62,38,"067d45fab320"
"2020-07-29T13:52:54",1596052374.478,1674746,-61,39,"067d45fab320"
"2020-07-29T13:52:54",1596052374.893,1675161,-63,37,"067d45fab320"
"2020-07-29T13:52:55",1596052375.096,1675364,-62,38,"067d45fab320"
"2020-07-29T13:52:55",1596052375.516,1675784,-62,39,"067d45fab320"
"2020-07-29T13:52:55",1596052375.721,1675989,-63,37,"067d45fab320"
"2020-07-29T13:52:56",1596052376.13,1676398,-62,38,"067d45fab320"
"2020-07-29T13:52:56",1596052376.334,1676602,-62,39,"067d45fab320"
"2020-07-29T13:52:56",1596052376.741,1677009,-63,37,"067d45fab320"
"2020-07-29T13:52:56",1596052376.942,1677210,-62,38,"067d45fab320"
"2020-07-29T13:52:57",1596052377.354,1677622,-62,39,"067d45fab320"
"2020-07-29T13:52:57",1596052377.557,1677825,-63,37,"067d45fab320"
"2020-07-29T13:52:57",1596052377.974,1678242,-62,38,"067d45fab320"
"2020-07-29T13:52:58",1596052378.183,1678451,-62,39,"067d45fab320"
"2020-07-29T13:52:58",1596052378.592,1678860,-63,37,"067d45fab320"
"2020-07-29T13:52:58",1596052378.799,1679067,-62,38,"067d45fab320"
"2020-07-29T13:52:59",1596052379.202,1679470,-62,39,"067d45fab320"
"2020-07-29T13:52:59",1596052379.41,1679678,-63,37,"067d45fab320"
"2020-07-29T13:52:59",1596052379.82,1680088,-62,38,"067d45fab320"
"2020-07-29T13:53:00",1596052380.029,1680297,-62,39,"067d45fab320"
"2020-07-29T13:53:00",1596052380.436,1680704,-63,37,"067d45fab320"
"2020-07-29T13:53:00",1596052380.85,1681118,-62,38,"067d45fab320"
"2020-07-29T13:53:01",1596052381.06,1681328,-62,39,"067d45fab320"
"2020-07-29T13:53:01",1596052381.269,1681537,-63,37,"067d45fab320"
"2020-07-29T13:53:01",1596052381.47,1681738,-63,37,"067d45fab320"
"2020-07-29T13:53:01",1596052381.67,1681938,-62,38,"067d45fab320"
"2020-07-29T13:53:02",1596052382.086,1682354,-62,39,"067d45fab320"
"2020-07-29T13:53:02",1596052382.29,1682558,-63,37,"067d45fab320"
"2020-07-29T13:53:02",1596052382.71,1682978,-62,38,"067d45fab320"
"2020-07-29T13:53:02",1596052382.92,1683188,-62,39,"067d45fab320"
"2020-07-29T13:53:03",1596052383.328,1683596,-63,37,"067d45fab320"
"2020-07-29T13:53:03",1596052383.531,1683799,-62,38,"067d45fab320"
"2020-07-29T13:53:03",1596052383.942,1684210,-62,39,"067d45fab320"
"2020-07-29T13:53:04",1596052384.554,1684822,-62,38,"067d45fab320"
"2020-07-29T13:53:04",1596052384.763,1685031,-62,39,"067d45fab320"
"2020-07-29T13:53:05",1596052385.179,1685447,-63,37,"067d45fab320"
"2020-07-29T13:53:05",1596052385.385,1685653,-62,38,"067d45fab320"
"2020-07-29T13:53:05",1596052385.789,1686057,-62,39,"067d45fab320"
"2020-07-29T13:53:05",1596052385.992,1686260,-63,37,"067d45fab320"
"2020-07-29T13:53:06",1596052386.406,1686674,-62,38,"067d45fab320"
"2020-07-29T13:53:06",1596052386.61,1686878,-62,39,"067d45fab320"
"2020-07-29T13:53:07",1596052387.019,1687287,-63,37,"067d45fab320"
"2020-07-29T13:53:07",1596052387.225,1687493,-62,38,"067d45fab320"
"2020-07-29T13:53:07",1596052387.641,1687909,-62,39,"067d45fab320"
"2020-07-29T13:53:07",1596052387.849,1688117,-63,37,"067d45fab320"
"2020-07-29T13:53:08",1596052388.259,1688527,-62,38,"067d45fab320"
"2020-07-29T13:53:08",1596052388.461,1688729,-62,39,"067d45fab320"
"2020-07-29T13:53:08",1596052388.877,1689145,-63,37,"067d45fab320"
"2020-07-29T13:53:09",1596052389.081,1689349,-62,38,"067d45fab320"
"2020-07-29T13:53:09",1596052389.283,1689551,-62,38,"067d45fab320"
"2020-07-29T13:53:09",1596052389.49,1689758,-62,39,"067d45fab320"
"2020-07-29T13:53:09",1596052389.91,1690178,-63,37,"067d45fab320"
"2020-07-29T13:53:10",1596052390.114,1690382,-62,38,"067d45fab320"
"2020-07-29T13:53:10",1596052390.522,1690790,-62,39,"067d45fab320"
"2020-07-29T13:53:10",1596052390.726,1690994,-63,37,"067d45fab320"
"2020-07-29T13:53:11",1596052391.145,1691413,-62,38,"067d45fab320"
"2020-07-29T13:53:11",1596052391.349,1691617,-62,39,"067d45fab320"
"2020-07-29T13:53:11",1596052391.756,1692024,-63,37,"067d45fab320"
"2020-07-29T13:53:11",1596052391.957,1692225,-62,38,"067d45fab320"
"2020-07-29T13:53:12",1596052392.377,1692645,-62,39,"067d45fab320"
"2020-07-29T13:53:12",1596052392.582,1692850,-63,37,"067d45fab320"
"2020-07-29T13:53:12",1596052392.994,1693262,-62,38,"067d45fab320"
"2020-07-29T13:53:13",1596052393.201,1693469,-62,39,"067d45fab320"
"2020-07-29T13:53:13",1596052393.609,1693877,-63,37,"067d45fab320"
"2020-07-29T13:53:13",1596052393.81,1694078,-62,38,"067d45fab320"
"2020-07-29T13:53:14",1596052394.222,1694490,-62,39,"067d45fab320"
"2020-07-29T13:53:14",1596052394.432,1694700,-63,37,"067d45fab320"
"2020-07-29T13:53:14",1596052394.838,1695106,-62,38,"067d45fab320"
"2020-07-29T13:53:15",1596052395.044,1695312,-62,39,"067d45fab320"
"2020-07-29T13:53:15",1596052395.46,1695728,-63,37,"067d45fab320"
"2020-07-29T13:53:15",1596052395.669,1695937,-62,38,"067d45fab320"
"2020-07-29T13:53:16",1596052396.28,1696548,-63,37,"067d45fab320"
"2020-07-29T13:53:16",1596052396.69,1696958,-62,38,"067d45fab320"
"2020-07-29T13:53:16",1596052396.894,1697162,-62,39,"067d45fab320"
"2020-07-29T13:53:17",1596052397.312,1697580,-63,37,"067d45fab320"
"2020-07-29T13:53:17",1596052397.52,1697788,-62,38,"067d45fab320"
"2020-07-29T13:53:17",1596052397.72,1697988,-62,38,"067d45fab320"
"2020-07-29T13:53:17",1596052397.928,1698196,-62,39,"067d45fab320"
"2020-07-29T13:53:18",1596052398.343,1698611,-63,37,"067d45fab320"
"2020-07-29T13:53:18",1596052398.55,1698818,-62,38,"067d45fab320"
"2020-07-29T13:53:18",1596052398.956,1699224,-62,39,"067d45fab320"
"2020-07-29T13:53:19",1596052399.162,1699430,-63,37,"067d45fab320"
"2020-07-29T13:53:19",1596052399.57,1699838,-62,38,"067d45fab320"
"2020-07-29T13:53:19",1596052399.78,1700048,-62,39,"067d45fab320"
"2020-07-29T13:53:20",1596052400.189,1700457,-63,37,"067d45fab320"
"2020-07-29T13:53:20",1596052400.39,1700658,-62,38,"067d45fab320"
"2020-07-29T13:53:20",1596052400.802,1701070,-62,39,"067d45fab320"