"time","epoch_time","boot_time","rssi","ch","mac"
"2020-07-29T14:18:19",1596053899.59,3199818,-66,37,"067d45fab320"
"2020-07-29T14:18:19",1596053899.8,3200028,-64,38,"067d45fab320"
"2020-07-29T14:18:20",1596053900.204,3200432,-65,39,"067d45fab320"
"2020-07-29T14:18:20",1596053900.412,3200640,-66,37,"067d45fab320"
"2020-07-29T14:18:20",1596053900.826,3201054,-64,38,"067d45fab320"
"2020-07-29T14:18:21",1596053901.029,3201257,-65,39,"067d45fab320"
"2020-07-29T14:18:21",1596053901.436,3201664,-66,37,"067d45fab320"
"2020-07-29T14:18:21",1596053901.647,3201875,-64,38,"067d45fab320"
"2020-07-29T14:18:22",1596053902.06,3202288,-64,39,"067d45fab320"
"2020-07-29T14:18:22",1596053902.266,3202494,-66,37,"067d45fab320"
"2020-07-29T14:18:22",1596053902.672,3202900,-64,38,"067d45fab320"
"2020-07-29T14:18:22",1596053902.882,3203110,-64,39,"067d45fab320"
"2020-07-29T14:18:23",1596053903.289,3203517,-65,37,"067d45fab320"
"2020-07-29T14:18:23",1596053903.497,3203725,-64,38,"067d45fab320"
"2020-07-29T14:18:23",1596053903.905,3204133,-64,39,"067d45fab320"
"2020-07-29T14:18:24",1596053904.108,3204336,-66,37,"067d45fab320"
"2020-07-29T14:18:24",1596053904.522,3204750,-64,38,"067d45fab320"
"2020-07-29T14:18:24",1596053904.728,3204956,-64,39,"067d45fab320"
"2020-07-29T14:18:24",1596053904.937,3205165,-64,39,"067d45fab320"
"2020-07-29T14:18:25",1596053905.147,3205375,-66,37,"067d45fab320"
"2020-07-29T14:18:25",1596053905.55,3205778,-64,38,"067d45fab320"
"2020-07-29T14:18:25",1596053905.757,3205985,-65,39,"067d45fab320"
"2020-07-29T14:18:26",1596053906.171,3206399,-69,37,"067d45fab320"
"2020-07-29T14:18:26",1596053906.79,3207018,-69,39,"067d45fab320"
"2020-07-29T14:18:26",1596053906.993,3207221,-67,37,"067d45fab320"
"2020-07-29T14:18:27",1596053907.403,3207631,-69,38,"067d45fab320"
"2020-07-29T14:18:27",1596053907.607,3207835,-67,39,"067d45fab320"
"2020-07-29T14:18:28",1596053908.229,3208457,-79,38,"067d45fab320"
"2020-07-29T14:18:28",1596053908.636,3208864,-74,39,"067d45fab320"
"2020-07-29T14:18:28",1596053908.838,3209066,-76,37,"067d45fab320"
"2020-07-29T14:18:29",1596053909.256,3209484,-75,38,"067d45fab320"
"2020-07-29T14:18:29",1596053909.46,3209688,-70,39,"067d45fab320"
"2020-07-29T14:18:29",1596053909.876,3210104,-69,37,"067d45fab320"
"2020-07-29T14:18:30",1596053910.077,3210305,-67,38,"067d45fab320"
"2020-07-29T14:18:30",1596053910.489,3210717,-67,39,"067d45fab320"
"2020-07-29T14:18:30",1596053910.698,3210926,-69,37,"067d45fab320"
"2020-07-29T14:18:31",1596053911.107,3211335,-67,38,"067d45fab320"
"2020-07-29T14:18:31",1596053911.308,3211536,-69,39,"067d45fab320"
"2020-07-29T14:18:31",1596053911.723,3211951,-69,37,"067d45fab320"
"2020-07-29T14:18:31",1596053911.928,3212156,-68,38,"067d45fab320"
"2020-07-29T14:18:32",1596053912.341,3212569,-67,39,"067d45fab320"
"2020-07-29T14:18:32",1596053912.547,3212775,-69,37,"067d45fab320"
"2020-07-29T14:18:32",1596053912.747,3212975,-69,37,"067d45fab320"
"2020-07-29T14:18:32",1596053912.956,3213184,-67,38,"067d45fab320"
"2020-07-29T14:18:33",1596053913.366,3213594,-68,39,"067d45fab320"
"2020-07-29T14:18:33",1596053913.577,3213805,-68,37,"067d45fab320"
"2020-07-29T14:18:33",1596053913.996,3214224,-68,38,"067d45fab320"
"2020-07-29T14:18:34",1596053914.198,3214426,-67,39,"067d45fab320"
"2020-07-29T14:18:34",1596053914.604,3214832,-69,37,"067d45fab320"
"2020-07-29T14:18:34",1596053914.814,3215042,-67,38,"067d45fab320"
"2020-07-29T14:18:35",1596053915.437,3215665,-68,37,"067d45fab320"
"2020-07-29T14:18:35",1596053915.838,3216066,-67,38,"067d45fab320"
"2020-07-29T14:18:36",1596053916.045,3216273,-67,39,"067d45fab320"
"2020-07-29T14:18:36",1596053916.462,3216690,-69,37,"067d45fab320"
"2020-07-29T14:18:36",1596053916.666,3216894,-68,38,"067d45fab320"
"2020-07-29T14:18:37",1596053917.08,3217308,-67,39,"067d45fab320"
"2020-07-29T14:18:37",1596053917.28,3217508,-69,37,"067d45fab320"
"2020-07-29T14:18:37",1596053917.691,3217919,-67,38,"067d45fab320"
"2020-07-29T14:18:37",1596053917.898,3218126,-67,39,"067d45fab320"
"2020-07-29T14:18:38",1596053918.512,3218740,-67,38,"067d45fab320"
"2020-07-29T14:18:38",1596053918.927,3219155,-68,39,"067d45fab320"
"2020-07-29T14:18:39",1596053919.127,3219355,-69,37,"067d45fab320"
"2020-07-29T14:18:39",1596053919.546,3219774,-68,38,"067d45fab320"
"2020-07-29T14:18:39",1596053919.749,3219977,-67,39,"067d45fab320"
"2020-07-29T14:18:40",1596053920.163,3220391,-69,37,"067d45fab320"
"2020-07-29T14:18:40",1596053920.372,3220600,-68,38,"067d45fab320"
"2020-07-29T14:18:40",1596053920.777,3221005,-68,39,"067d45fab320"
"2020-07-29T14:18:41",1596053921.394,3221622,-67,38,"067d45fab320"
"2020-07-29T14:18:41",1596053921.807,3222035,-68,39,"067d45fab320"
"2020-07-29T14:18:42",1596053922.015,3222243,-69,37,"067d45fab320"
"2020-07-29T14:18:42",1596053922.422,3222650,-68,38,"067d45fab320"
"2020-07-29T14:18:42",1596053922.628,3222856,-67,39,"067d45fab320"
"2020-07-29T14:18:43",1596053923.032,3223260,-69,37,"067d45fab320"
"2020-07-29T14:18:43",1596053923.241,3223469,-68,38,"067d45fab320"
"2020-07-29T14:18:43",1596053923.858,3224086,-69,37,"067d45fab320"
"2020-07-29T14:18:44",1596053924.269,3224497,-68,38,"067d45fab320"
"2020-07-29T14:18:44",1596053924.479,3224707,-68,39,"067d45fab320"
"2020-07-29T14:18:44",1596053924.892,3225120,-69,37,"067d45fab320"
"2020-07-29T14:18:45",1596053925.096,3225324,-67,38,"067d45fab320"
"2020-07-29T14:18:45",1596053925.508,3225736,-68,39,"067d45fab320"
"2020-07-29T14:18:45",1596053925.712,3225940,-69,37,"067d45fab320"
"2020-07-29T14:18:46",1596053926.124,3226352,-68,38,"067d45fab320"
"2020-07-29T14:18:46",1596053926.326,3226554,-67,39,"067d45fab320"
"2020-07-29T14:18:46",1596053926.746,3226974,-69,37,"067d45fab320"
"2020-07-29T14:18:46",1596053926.952,3227180,-68,38,"067d45fab320"
"2020-07-29T14:18:47",1596053927.358,3227586,-68,39,"067d45fab320"
"2020-07-29T14:18:48",1596053928.175,3228403,-67,39,"067d45fab320"
"2020-07-29T14:18:48",1596053928.589,3228817,-69,37,"067d45fab320"
"2020-07-29T14:18:48",1596053928.799,3229027,-68,38,"067d45fab320"
"2020-07-29T14:18:49",1596053929.206,3229434,-68,39,"067d45fab320"
"2020-07-29T14:18:49",1596053929.621,3229849,-69,37,"067d45fab320"
"2020-07-29T14:18:49",1596053929.82,3230048,-68,38,"067d45fab320"
"2020-07-29T14:18:50",1596053930.23,3230458,-68,39,"067d45fab320"
"2020-07-29T14:18:50",1596053930.437,3230665,-69,37,"067d45fab320"
"2020-07-29T14:18:50",1596053930.861,3231089,-68,38,"067d45fab320"
"2020-07-29T14:18:51",1596053931.062,3231290,-68,39,"067d45fab320"
"2020-07-29T14:18:51",1596053931.471,3231699,-69,37,"067d45fab320"
"2020-07-29T14:18:51",1596053931.677,3231905,-67,38,"067d45fab320"
"2020-07-29T14:18:52",1596053932.087,3232315,-68,39,"067d45fab320"
"2020-07-29T14:18:52",1596053932.297,3232525,-69,37,"067d45fab320"
"2020-07-29T14:18:52",1596053932.7,3232928,-67,38,"067d45fab320"
"2020-07-29T14:18:52",1596053932.908,3233136,-68,39,"067d45fab320"
"2020-07-29T14:18:53",1596053933.323,3233551,-69,37,"067d45fab320"
"2020-07-29T14:18:53",1596053933.527,3233755,-67,38,"067d45fab320"
"2020-07-29T14:18:53",1596053933.939,3234167,-68,39,"067d45fab320"
"2020-07-29T14:18:54",1596053934.141,3234369,-69,37,"067d45fab320"
"2020-07-29T14:18:54",1596053934.55,3234778,-67,38,"067d45fab320"
"2020-07-29T14:18:54",1596053934.757,3234985,-68,39,"067d45fab320"
"2020-07-29T14:18:55",1596053935.167,3235395,-69,37,"067d45fab320"
"2020-07-29T14:18:55",1596053935.378,3235606,-67,38,"067d45fab320"
"2020-07-29T14:18:55",1596053935.794,3236022,-68,39,"067d45fab320"
"2020-07-29T14:18:55",1596053935.997,3236225,-69,37,"067d45fab320"
"2020-07-29T14:18:56",1596053936.406,3236634,-67,38,"067d45fab320"
"2020-07-29T14:18:56",1596053936.617,3236845,-68,39,"067d45fab320"
"2020-07-29T14:18:57",1596053937.03,3237258,-69,37,"067d45fab320"
"2020-07-29T14:18:57",1596053937.237,3237465,-67,38,"067d45fab320"
"2020-07-29T14:18:57",1596053937.437,3237665,-67,38,"067d45fab320"
"2020-07-29T14:18:57",1596053937.645,3237873,-68,39,"067d45fab320"
"2020-07-29T14:18:58",1596053938.057,3238285,-69,37,"067d45fab320"
"2020-07-29T14:18:58",1596053938.266,3238494,-68,38,"067d45fab320"
"2020-07-29T14:18:58",1596053938.673,3238901,-68,39,"067d45fab320"
"2020-07-29T14:18:58",1596053938.876,3239104,-69,37,"067d45fab320"
"2020-07-29T14:18:59",1596053939.287,3239515,-67,38,"067d45fab320"
"2020-07-29T14:18:59",1596053939.497,3239725,-68,39,"067d45fab320"
"2020-07-29T14:18:59",1596053939.909,3240137,-68,37,"067d45fab320"
"2020-07-29T14:19:00",1596053940.113,3240341,-67,38,"067d45fab320"
"2020-07-29T14:19:00",1596053940.523,3240751,-67,39,"067d45fab320"
"2020-07-29T14:19:00",1596053940.727,3240955,-68,37,"067d45fab320"
"2020-07-29T14:19:01",1596053941.137,3241365,-67,38,"067d45fab320"
"2020-07-29T14:19:01",1596053941.346,3241574,-68,39,"067d45fab320"
"2020-07-29T14:19:01",1596053941.757,3241985,-68,37,"067d45fab320"
"2020-07-29T14:19:01",1596053941.957,3242185,-67,38,"067d45fab320"
"2020-07-29T14:19:02",1596053942.377,3242605,-67,39,"067d45fab320"
"2020-07-29T14:19:02",1596053942.586,3242814,-69,37,"067d45fab320"
"2020-07-29T14:19:02",1596053942.996,3243224,-67,38,"067d45fab320"
"2020-07-29T14:19:03",1596053943.199,3243427,-68,39,"067d45fab320"
"2020-07-29T14:19:03",1596053943.608,3243836,-68,37,"067d45fab320"
"2020-07-29T14:19:03",1596053943.817,3244045,-67,38,"067d45fab320"
"2020-07-29T14:19:04",1596053944.227,3244455,-67,39,"067d45fab320"
"2020-07-29T14:19:04",1596053944.434,3244662,-68,37,"067d45fab320"
"2020-07-29T14:19:04",1596053944.846,3245074,-67,38,"067d45fab320"
"2020-07-29T14:19:05",1596053945.052,3245280,-68,39,"067d45fab320"
"2020-07-29T14:19:05",1596053945.459,3245687,-68,37,"067d45fab320"
"2020-07-29T14:19:05",1596053945.67,3245898,-68,38,"067d45fab320"
"2020-07-29T14:19:06",1596053946.082,3246310,-68,39,"067d45fab320"
"2020-07-29T14:19:06",1596053946.489,3246717,-69,37,"067d45fab320"
"2020-07-29T14:19:06",1596053946.692,3246920,-68,38,"067d45fab320"
"2020-07-29T14:19:07",1596053947.104,3247332,-67,39,"067d45fab320"
"2020-07-29T14:19:07",1596053947.307,3247535,-69,37,"067d45fab320"
"2020-07-29T14:19:07",1596053947.721,3247949,-67,38,"067d45fab320"
"2020-07-29T14:19:07",1596053947.929,3248157,-68,39,"067d45fab320"
"2020-07-29T14:19:08",1596053948.339,3248567,-69,37,"067d45fab320"
"2020-07-29T14:19:08",1596053948.544,3248772,-68,38,"067d45fab320"
"2020-07-29T14:19:08",1596053948.957,3249185,-68,39,"067d45fab320"
"2020-07-29T14:19:09",1596053949.159,3249387,-69,37,"067d45fab320"
"2020-07-29T14:19:09",1596053949.571,3249799,-67,38,"067d45fab320"
"2020-07-29T14:19:09",1596053949.776,3250004,-68,39,"067d45fab320"
"2020-07-29T14:19:10",1596053950.187,3250415,-69,37,"067d45fab320"
"2020-07-29T14:19:10",1596053950.392,3250620,-68,38,"067d45fab320"
"2020-07-29T14:19:10",1596053950.807,3251035,-68,39,"067d45fab320"
"2020-07-29T14:19:11",1596053951.008,3251236,-68,37,"067d45fab320"
"2020-07-29T14:19:11",1596053951.419,3251647,-67,38,"067d45fab320"
"2020-07-29T14:19:11",1596053951.622,3251850,-68,39,"067d45fab320"
"2020-07-29T14:19:12",1596053952.235,3252463,-68,38,"067d45fab320"
"2020-07-29T14:19:12",1596053952.655,3252883,-68,39,"067d45fab320"
"2020-07-29T14:19:12",1596053952.86,3253088,-69,37,"067d45fab320"
"2020-07-29T14:19:13",1596053953.272,3253500,-68,38,"067d45fab320"
"2020-07-29T14:19:13",1596053953.477,3253705,-68,39,"067d45fab320"
"2020-07-29T14:19:13",1596053953.68,3253908,-68,39,"067d45fab320"
"2020-07-29T14:19:13",1596053953.888,3254116,-69,37,"067d45fab320"
"2020-07-29T14:19:14",1596053954.291,3254519,-67,38,"067d45fab320"
"2020-07-29T14:19:14",1596053954.498,3254726,-68,39,"067d45fab320"
"2020-07-29T14:19:14",1596053954.912,3255140,-69,37,"067d45fab320"
"2020-07-29T14:19:15",1596053955.529,3255757,-68,39,"067d45fab320"
"2020-07-29T14:19:15",1596053955.732,3255960,-69,37,"067d45fab320"
"2020-07-29T14:19:16",1596053956.149,3256377,-68,38,"067d45fab320"
"2020-07-29T14:19:16",1596053956.35,3256578,-68,39,"067d45fab320"
"2020-07-29T14:19:16",1596053956.76,3256988,-69,37,"067d45fab320"
"2020-07-29T14:19:16",1596053956.965,3257193,-68,38,"067d45fab320"
"2020-07-29T14:19:17",1596053957.378,3257606,-67,39,"067d45fab320"
"2020-07-29T14:19:17",1596053957.578,3257806,-68,37,"067d45fab320"
"2020-07-29T14:19:17",1596053957.996,3258224,-68,38,"067d45fab320"
"2020-07-29T14:19:18",1596053958.202,3258430,-68,39,"067d45fab320"
"2020-07-29T14:19:18",1596053958.613,3258841,-68,37,"067d45fab320"
"2020-07-29T14:19:18",1596053958.818,3259046,-67,38,"067d45fab320"
"2020-07-29T14:19:19",1596053959.219,3259447,-67,39,"067d45fab320"
"2020-07-29T14:19:19",1596053959.426,3259654,-67,37,"067d45fab320"
"2020-07-29T14:19:19",1596053959.845,3260073,-68,38,"067d45fab320"
"2020-07-29T14:19:20",1596053960.047,3260275,-67,39,"067d45fab320"
"2020-07-29T14:19:20",1596053960.456,3260684,-69,37,"067d45fab320"
"2020-07-29T14:19:20",1596053960.664,3260892,-67,38,"067d45fab320"
"2020-07-29T14:19:20",1596053960.869,3261097,-68,38,"067d45fab320"
"2020-07-29T14:19:21",1596053961.073,3261301,-67,39,"067d45fab320"
"2020-07-29T14:19:21",1596053961.487,3261715,-68,37,"067d45fab320"
"2020-07-29T14:19:21",1596053961.691,3261919,-68,38,"067d45fab320"
"2020-07-29T14:19:22",1596053962.106,3262334,-68,39,"067d45fab320"
"2020-07-29T14:19:22",1596053962.314,3262542,-68,37,"067d45fab320"
"2020-07-29T14:19:22",1596053962.726,3262954,-67,38,"067d45fab320"
"2020-07-29T14:19:22",1596053962.933,3263161,-67,39,"067d45fab320"
"2020-07-29T14:19:23",1596053963.338,3263566,-69,37,"067d45fab320"
"2020-07-29T14:19:23",1596053963.543,3263771,-68,38,"067d45fab320"
"2020-07-29T14:19:23",1596053963.961,3264189,-68,39,"067d45fab320"
"2020-07-29T14:19:24",1596053964.161,3264389,-69,37,"067d45fab320"
"2020-07-29T14:19:24",1596053964.577,3264805,-67,38,"067d45fab320"
"2020-07-29T14:19:25",1596053965.19,3265418,-69,37,"067d45fab320"
"2020-07-29T14:19:25",1596053965.808,3266036,-68,39,"067d45fab320"
"2020-07-29T14:19:26",1596053966.012,3266240,-68,37,"067d45fab320"
"2020-07-29T14:19:26",1596053966.632,3266860,-67,39,"067d45fab320"
"2020-07-29T14:19:27",1596053967.046,3267274,-70,37,"067d45fab320"
"2020-07-29T14:19:27",1596053967.251,3267479,-75,38,"067d45fab320"
"2020-07-29T14:19:27",1596053967.871,3268099,-67,37,"067d45fab320"
"2020-07-29T14:19:28",1596053968.277,3268505,-69,38,"067d45fab320"
"2020-07-29T14:19:28",1596053968.481,3268709,-66,39,"067d45fab320"
"2020-07-29T14:19:29",1596053969.306,3269534,-68,38,"067d45fab320"
"2020-07-29T14:19:29",1596053969.514,3269742,-69,39,"067d45fab320"
"2020-07-29T14:19:29",1596053969.928,3270156,-68,37,"067d45fab320"
"2020-07-29T14:19:30",1596053970.129,3270357,-68,38,"067d45fab320"
"2020-07-29T14:19:30",1596053970.54,3270768,-67,39,"067d45fab320"
"2020-07-29T14:19:30",1596053970.746,3270974,-68,37,"067d45fab320"
"2020-07-29T14:19:31",1596053971.15,3271378,-67,38,"067d45fab320"
"2020-07-29T14:19:31",1596053971.357,3271585,-68,39,"067d45fab320"
"2020-07-29T14:19:31",1596053971.769,3271997,-68,37,"067d45fab320"
"2020-07-29T14:19:31",1596053971.974,3272202,-67,38,"067d45fab320"
"2020-07-29T14:19:32",1596053972.39,3272618,-67,39,"067d45fab320"
"2020-07-29T14:19:32",1596053972.592,3272820,-67,37,"067d45fab320"
"2020-07-29T14:19:33",1596053973.007,3273235,-72,38,"067d45fab320"
"2020-07-29T14:19:33",1596053973.209,3273437,-69,39,"067d45fab320"
"2020-07-29T14:19:33",1596053973.626,3273854,-81,37,"067d45fab320"
"2020-07-29T14:19:33",1596053973.829,3274057,-71,38,"067d45fab320"
"2020-07-29T14:19:34",1596053974.244,3274472,-73,39,"067d45fab320"
"2020-07-29T14:19:34",1596053974.446,3274674,-69,37,"067d45fab320"
"2020-07-29T14:19:34",1596053974.854,3275082,-70,38,"067d45fab320"
"2020-07-29T14:19:35",1596053975.057,3275285,-68,39,"067d45fab320"
"2020-07-29T14:19:35",1596053975.468,3275696,-68,37,"067d45fab320"
"2020-07-29T14:19:35",1596053975.677,3275905,-67,38,"067d45fab320"
"2020-07-29T14:19:36",1596053976.303,3276531,-68,37,"067d45fab320"
"2020-07-29T14:19:36",1596053976.712,3276940,-67,38,"067d45fab320"
"2020-07-29T14:19:36",1596053976.92,3277148,-66,39,"067d45fab320"
"2020-07-29T14:19:37",1596053977.328,3277556,-68,37,"067d45fab320"
"2020-07-29T14:19:37",1596053977.739,3277967,-68,38,"067d45fab320"
"2020-07-29T14:19:37",1596053977.944,3278172,-67,39,"067d45fab320"
"2020-07-29T14:19:38",1596053978.351,3278579,-69,37,"067d45fab320"
"2020-07-29T14:19:38",1596053978.558,3278786,-67,38,"067d45fab320"
"2020-07-29T14:19:38",1596053978.973,3279201,-67,39,"067d45fab320"
"2020-07-29T14:19:39",1596053979.172,3279400,-69,37,"067d45fab320"
"2020-07-29T14:19:39",1596053979.584,3279812,-67,38,"067d45fab320"
"2020-07-29T14:19:39",1596053979.793,3280021,-68,39,"067d45fab320"
"2020-07-29T14:19:40",1596053980.208,3280436,-68,37,"067d45fab320"
"2020-07-29T14:19:40",1596053980.41,3280638,-67,38,"067d45fab320"
"2020-07-29T14:19:40",1596053980.819,3281047,-67,39,"067d45fab320"
"2020-07-29T14:19:41",1596053981.439,3281667,-68,38,"067d45fab320"
"2020-07-29T14:19:41",1596053981.648,3281876,-68,39,"067d45fab320"
"2020-07-29T14:19:42",1596053982.062,3282290,-69,37,"067d45fab320"
"2020-07-29T14:19:42",1596053982.263,3282491,-67,38,"067d45fab320"
"2020-07-29T14:19:42",1596053982.67,3282898,-66,39,"067d45fab320"
"2020-07-29T14:19:42",1596053982.88,3283108,-67,37,"067d45fab320"
"2020-07-29T14:19:43",1596053983.283,3283511,-72,38,"067d45fab320"
"2020-07-29T14:19:43",1596053983.908,3284136,-72,37,"067d45fab320"
"2020-07-29T14:19:44",1596053984.114,3284342,-71,38,"067d45fab320"
"2020-07-29T14:19:44",1596053984.527,3284755,-66,39,"067d45fab320"
"2020-07-29T14:19:44",1596053984.731,3284959,-69,37,"067d45fab320"
"2020-07-29T14:19:44",1596053984.932,3285160,-68,37,"067d45fab320"
"2020-07-29T14:19:45",1596053985.141,3285369,-67,38,"067d45fab320"
"2020-07-29T14:19:45",1596053985.549,3285777,-69,39,"067d45fab320"
"2020-07-29T14:19:45",1596053985.751,3285979,-68,37,"067d45fab320"
"2020-07-29T14:19:46",1596053986.166,3286394,-67,38,"067d45fab320"
"2020-07-29T14:19:46",1596053986.372,3286600,-67,39,"067d45fab320"
"2020-07-29T14:19:46",1596053986.787,3287015,-69,37,"067d45fab320"
"2020-07-29T14:19:46",1596053986.991,3287219,-67,38,"067d45fab320"
"2020-07-29T14:19:47",1596053987.4,3287628,-68,39,"067d45fab320"
"2020-07-29T14:19:47",1596053987.601,3287829,-69,37,"067d45fab320"
"2020-07-29T14:19:48",1596053988.008,3288236,-67,38,"067d45fab320"
"2020-07-29T14:19:48",1596053988.217,3288445,-67,39,"067d45fab320"
"2020-07-29T14:19:48",1596053988.63,3288858,-69,37,"067d45fab320"
"2020-07-29T14:19:48",1596053988.837,3289065,-67,38,"067d45fab320"
"2020-07-29T14:19:49",1596053989.242,3289470,-68,39,"067d45fab320"
"2020-07-29T14:19:49",1596053989.449,3289677,-69,37,"067d45fab320"
"2020-07-29T14:19:49",1596053989.863,3290091,-67,38,"067d45fab320"
"2020-07-29T14:19:50",1596053990.067,3290295,-68,39,"067d45fab320"
"2020-07-29T14:19:50",1596053990.479,3290707,-68,37,"067d45fab320"
"2020-07-29T14:19:50",1596053990.679,3290907,-67,38,"067d45fab320"
"2020-07-29T14:19:51",1596053991.092,3291320,-68,39,"067d45fab320"
"2020-07-29T14:19:51",1596053991.299,3291527,-75,37,"067d45fab320"
"2020-07-29T14:19:51",1596053991.71,3291938,-72,38,"067d45fab320"
"2020-07-29T14:19:51",1596053991.92,3292148,-73,39,"067d45fab320"
"2020-07-29T14:19:52",1596053992.12,3292348,-68,39,"067d45fab320"
"2020-07-29T14:19:52",1596053992.328,3292556,-66,37,"067d45fab320"
"2020-07-29T14:19:52",1596053992.741,3292969,-67,38,"067d45fab320"
"2020-07-29T14:19:52",1596053992.943,3293171,-67,39,"067d45fab320"
"2020-07-29T14:19:53",1596053993.354,3293582,-68,37,"067d45fab320"
"2020-07-29T14:19:53",1596053993.561,3293789,-67,38,"067d45fab320"
"2020-07-29T14:19:53",1596053993.977,3294205,-67,39,"067d45fab320"
"2020-07-29T14:19:54",1596053994.18,3294408,-69,37,"067d45fab320"
"2020-07-29T14:19:54",1596053994.591,3294819,-68,38,"067d45fab320"
"2020-07-29T14:19:54",1596053994.792,3295020,-67,39,"067d45fab320"
"2020-07-29T14:19:55",1596053995.203,3295431,-69,37,"067d45fab320"
"2020-07-29T14:19:55",1596053995.409,3295637,-67,38,"067d45fab320"
"2020-07-29T14:19:55",1596053995.826,3296054,-67,39,"067d45fab320"
"2020-07-29T14:19:56",1596053996.03,3296258,-69,37,"067d45fab320"
"2020-07-29T14:19:56",1596053996.441,3296669,-67,38,"067d45fab320"
"2020-07-29T14:19:56",1596053996.643,3296871,-67,39,"067d45fab320"
"2020-07-29T14:19:57",1596053997.055,3297283,-69,37,"067d45fab320"
"2020-07-29T14:19:57",1596053997.259,3297487,-68,38,"067d45fab320"
"2020-07-29T14:19:57",1596053997.669,3297897,-68,39,"067d45fab320"
"2020-07-29T14:19:57",1596053997.877,3298105,-68,37,"067d45fab320"
"2020-07-29T14:19:58",1596053998.287,3298515,-67,38,"067d45fab320"
"2020-07-29T14:19:58",1596053998.498,3298726,-68,39,"067d45fab320"
"2020-07-29T14:19:58",1596053998.903,3299131,-69,37,"067d45fab320"
"2020-07-29T14:19:59",1596053999.108,3299336,-67,38,"067d45fab320"
"2020-07-29T14:19:59",1596053999.517,3299745,-68,39,"067d45fab320"
"2020-07-29T14:19:59",1596053999.929,3300157,-69,37,"067d45fab320"
"2020-07-29T14:20:00",1596054000.134,3300362,-67,38,"067d45fab320"
"2020-07-29T14:20:00",1596054000.552,3300780,-68,39,"067d45fab320"
"2020-07-29T14:20:00",1596054000.758,3300986,-69,37,"067d45fab320"
"2020-07-29T14:20:01",1596054001.169,3301397,-68,38,"067d45fab320"
"2020-07-29T14:20:01",1596054001.369,3301597,-68,39,"067d45fab320"
"2020-07-29T14:20:01",1596054001.782,3302010,-69,37,"067d45fab320"
"2020-07-29T14:20:01",1596054001.99,3302218,-68,38,"067d45fab320"
"2020-07-29T14:20:02",1596054002.399,3302627,-73,39,"067d45fab320"
"2020-07-29T14:20:02",1596054002.601,3302829,-75,37,"067d45fab320"
"2020-07-29T14:20:03",1596054003.016,3303244,-71,38,"067d45fab320"
"2020-07-29T14:20:03",1596054003.22,3303448,-68,39,"067d45fab320"
"2020-07-29T14:20:03",1596054003.637,3303865,-68,37,"067d45fab320"
"2020-07-29T14:20:03",1596054003.841,3304069,-69,38,"067d45fab320"
"2020-07-29T14:20:04",1596054004.249,3304477,-67,39,"067d45fab320"
"2020-07-29T14:20:04",1596054004.448,3304676,-68,37,"067d45fab320"
"2020-07-29T14:20:05",1596054005.066,3305294,-69,39,"067d45fab320"
"2020-07-29T14:20:05",1596054005.48,3305708,-68,37,"067d45fab320"
"2020-07-29T14:20:05",1596054005.683,3305911,-68,38,"067d45fab320"
"2020-07-29T14:20:06",1596054006.098,3306326,-67,39,"067d45fab320"
"2020-07-29T14:20:06",1596054006.307,3306535,-69,37,"067d45fab320"
"2020-07-29T14:20:06",1596054006.718,3306946,-67,38,"067d45fab320"
"2020-07-29T14:20:06",1596054006.927,3307155,-68,39,"067d45fab320"
"2020-07-29T14:20:07",1596054007.544,3307772,-67,38,"067d45fab320"
"2020-07-29T14:20:07",1596054007.957,3308185,-68,39,"067d45fab320"
"2020-07-29T14:20:08",1596054008.367,3308595,-69,37,"067d45fab320"
"2020-07-29T14:20:08",1596054008.572,3308800,-67,38,"067d45fab320"
"2020-07-29T14:20:08",1596054008.977,3309205,-67,39,"067d45fab320"
"2020-07-29T14:20:09",1596054009.187,3309415,-69,37,"067d45fab320"
"2020-07-29T14:20:09",1596054009.598,3309826,-67,38,"067d45fab320"
"2020-07-29T14:20:09",1596054009.8,3310028,-68,39,"067d45fab320"
"2020-07-29T14:20:10",1596054010.223,3310451,-68,37,"067d45fab320"
"2020-07-29T14:20:10",1596054010.423,3310651,-68,38,"067d45fab320"
"2020-07-29T14:20:10",1596054010.837,3311065,-66,39,"067d45fab320"
"2020-07-29T14:20:11",1596054011.039,3311267,-67,37,"067d45fab320"
"2020-07-29T14:20:11",1596054011.45,3311678,-68,38,"067d45fab320"
"2020-07-29T14:20:11",1596054011.657,3311885,-68,39,"067d45fab320"
"2020-07-29T14:20:12",1596054012.067,3312295,-68,37,"067d45fab320"
"2020-07-29T14:20:12",1596054012.271,3312499,-67,38,"067d45fab320"
"2020-07-29T14:20:12",1596054012.688,3312916,-70,39,"067d45fab320"
"2020-07-29T14:20:12",1596054012.891,3313119,-75,37,"067d45fab320"
"2020-07-29T14:20:13",1596054013.305,3313533,-74,38,"067d45fab320"
"2020-07-29T14:20:13",1596054013.51,3313738,-72,39,"067d45fab320"
"2020-07-29T14:20:13",1596054013.921,3314149,-76,37,"067d45fab320"
"2020-07-29T14:20:14",1596054014.126,3314354,-69,38,"067d45fab320"
"2020-07-29T14:20:14",1596054014.539,3314767,-69,39,"067d45fab320"
"2020-07-29T14:20:14",1596054014.747,3314975,-70,37,"067d45fab320"
"2020-07-29T14:20:15",1596054015.157,3315385,-68,38,"067d45fab320"
"2020-07-29T14:20:15",1596054015.362,3315590,-65,39,"067d45fab320"
"2020-07-29T14:20:15",1596054015.771,3315999,-69,37,"067d45fab320"
"2020-07-29T14:20:15",1596054015.978,3316206,-68,38,"067d45fab320"
"2020-07-29T14:20:16",1596054016.186,3316414,-67,38,"067d45fab320"
"2020-07-29T14:20:16",1596054016.391,3316619,-67,39,"067d45fab320"
"2020-07-29T14:20:16",1596054016.792,3317020,-69,37,"067d45fab320"
"2020-07-29T14:20:17",1596054017.001,3317229,-68,38,"067d45fab320"
"2020-07-29T14:20:17",1596054017.418,3317646,-68,39,"067d45fab320"
"2020-07-29T14:20:17",1596054017.625,3317853,-69,37,"067d45fab320"
"2020-07-29T14:20:18",1596054018.031,3318259,-68,38,"067d45fab320"
"2020-07-29T14:20:18",1596054018.233,3318461,-67,39,"067d45fab320"
"2020-07-29T14:20:18",1596054018.643,3318871,-69,37,"067d45fab320"
"2020-07-29T14:20:18",1596054018.849,3319077,-67,38,"067d45fab320"
"2020-07-29T14:20:19",1596054019.261,3319489,-67,39,"067d45fab320"
"2020-07-29T14:20:19",1596054019.471,3319699,-69,37,"067d45fab320"
"2020-07-29T14:20:19",1596054019.879,3320107,-67,38,"067d45fab320"
"2020-07-29T14:20:20",1596054020.086,3320314,-68,39,"067d45fab320"
"2020-07-29T14:20:20",1596054020.702,3320930,-67,38,"067d45fab320"
"2020-07-29T14:20:21",1596054021.114,3321342,-66,39,"067d45fab320"
"2020-07-29T14:20:21",1596054021.32,3321548,-70,37,"067d45fab320"
"2020-07-29T14:20:21",1596054021.728,3321956,-72,38,"067d45fab320"
"2020-07-29T14:20:21",1596054021.937,3322165,-74,39,"067d45fab320"
"2020-07-29T14:20:22",1596054022.35,3322578,-79,37,"067d45fab320"
"2020-07-29T14:20:22",1596054022.556,3322784,-79,38,"067d45fab320"
"2020-07-29T14:20:22",1596054022.968,3323196,-75,39,"067d45fab320"
"2020-07-29T14:20:23",1596054023.171,3323399,-78,37,"067d45fab320"
"2020-07-29T14:20:23",1596054023.373,3323601,-77,37,"067d45fab320"
"2020-07-29T14:20:23",1596054023.579,3323807,-75,38,"067d45fab320"
"2020-07-29T14:20:23",1596054023.989,3324217,-75,39,"067d45fab320"
"2020-07-29T14:20:24",1596054024.19,3324418,-72,37,"067d45fab320"
"2020-07-29T14:20:24",1596054024.609,3324837,-74,38,"067d45fab320"
"2020-07-29T14:20:24",1596054024.812,3325040,-72,39,"067d45fab320"
"2020-07-29T14:20:25",1596054025.224,3325452,-70,37,"067d45fab320"
"2020-07-29T14:20:25",1596054025.428,3325656,-69,38,"067d45fab320"
"2020-07-29T14:20:25",1596054025.839,3326067,-67,39,"067d45fab320"
"2020-07-29T14:20:26",1596054026.041,3326269,-69,37,"067d45fab320"
"2020-07-29T14:20:26",1596054026.454,3326682,-67,38,"067d45fab320"
"2020-07-29T14:20:26",1596054026.661,3326889,-67,39,"067d45fab320"
"2020-07-29T14:20:27",1596054027.074,3327302,-69,37,"067d45fab320"
"2020-07-29T14:20:27",1596054027.277,3327505,-68,38,"067d45fab320"
"2020-07-29T14:20:27",1596054027.896,3328124,-69,37,"067d45fab320"
"2020-07-29T14:20:28",1596054028.309,3328537,-67,38,"067d45fab320"
"2020-07-29T14:20:28",1596054028.513,3328741,-68,39,"067d45fab320"
"2020-07-29T14:20:29",1596054029.54,3329768,-67,39,"067d45fab320"
"2020-07-29T14:20:29",1596054029.743,3329971,-69,37,"067d45fab320"
"2020-07-29T14:20:30",1596054030.158,3330386,-67,38,"067d45fab320"
"2020-07-29T14:20:30",1596054030.363,3330591,-67,39,"067d45fab320"
"2020-07-29T14:20:30",1596054030.776,3331004,-69,37,"067d45fab320"
"2020-07-29T14:20:30",1596054030.982,3331210,-67,38,"067d45fab320"
"2020-07-29T14:20:31",1596054031.186,3331414,-65,38,"067d45fab320"
"2020-07-29T14:20:31",1596054031.391,3331619,-69,39,"067d45fab320"
"2020-07-29T14:20:32",1596054032.005,3332233,-64,38,"067d45fab320"
"2020-07-29T14:20:32",1596054032.413,3332641,-74,39,"067d45fab320"
"2020-07-29T14:20:32",1596054032.62,3332848,-83,37,"067d45fab320"
"2020-07-29T14:20:33",1596054033.029,3333257,-65,38,"067d45fab320"
"2020-07-29T14:20:33",1596054033.237,3333465,-67,39,"067d45fab320"
"2020-07-29T14:20:33",1596054033.645,3333873,-69,37,"067d45fab320"
"2020-07-29T14:20:33",1596054033.848,3334076,-68,38,"067d45fab320"
"2020-07-29T14:20:34",1596054034.268,3334496,-66,39,"067d45fab320"
"2020-07-29T14:20:34",1596054034.468,3334696,-69,37,"067d45fab320"
"2020-07-29T14:20:34",1596054034.883,3335111,-67,38,"067d45fab320"
"2020-07-29T14:20:35",1596054035.086,3335314,-67,39,"067d45fab320"
"2020-07-29T14:20:35",1596054035.499,3335727,-69,37,"067d45fab320"
"2020-07-29T14:20:35",1596054035.708,3335936,-68,38,"067d45fab320"
"2020-07-29T14:20:36",1596054036.112,3336340,-67,39,"067d45fab320"
"2020-07-29T14:20:36",1596054036.325,3336553,-69,37,"067d45fab320"
"2020-07-29T14:20:36",1596054036.737,3336965,-67,38,"067d45fab320"
"2020-07-29T14:20:36",1596054036.941,3337169,-68,39,"067d45fab320"
"2020-07-29T14:20:37",1596054037.348,3337576,-69,37,"067d45fab320"
"2020-07-29T14:20:37",1596054037.557,3337785,-67,38,"067d45fab320"
"2020-07-29T14:20:37",1596054037.965,3338193,-67,39,"067d45fab320"
"2020-07-29T14:20:38",1596054038.167,3338395,-69,37,"067d45fab320"
"2020-07-29T14:20:38",1596054038.373,3338601,-69,37,"067d45fab320"
"2020-07-29T14:20:38",1596054038.582,3338810,-67,38,"067d45fab320"
"2020-07-29T14:20:38",1596054038.791,3339019,-67,39,"067d45fab320"
"2020-07-29T14:20:38",1596054038.994,3339222,-67,39,"067d45fab320"
"2020-07-29T14:20:39",1596054039.199,3339427,-69,37,"067d45fab320"
"2020-07-29T14:20:39",1596054039.608,3339836,-67,38,"067d45fab320"
"2020-07-29T14:20:39",1596054039.818,3340046,-67,39,"067d45fab320"
"2020-07-29T14:20:40",1596054040.223,3340451,-69,37,"067d45fab320"
"2020-07-29T14:20:40",1596054040.429,3340657,-68,38,"067d45fab320"
"2020-07-29T14:20:40",1596054040.839,3341067,-68,39,"067d45fab320"
"2020-07-29T14:20:41",1596054041.049,3341277,-68,37,"067d45fab320"
"2020-07-29T14:20:41",1596054041.464,3341692,-67,38,"067d45fab320"
"2020-07-29T14:20:41",1596054041.663,3341891,-67,39,"067d45fab320"
"2020-07-29T14:20:42",1596054042.079,3342307,-69,37,"067d45fab320"
"2020-07-29T14:20:42",1596054042.282,3342510,-67,38,"067d45fab320"
"2020-07-29T14:20:42",1596054042.691,3342919,-67,39,"067d45fab320"
"2020-07-29T14:20:42",1596054042.901,3343129,-69,37,"067d45fab320"
"2020-07-29T14:20:43",1596054043.304,3343532,-68,38,"067d45fab320"
"2020-07-29T14:20:43",1596054043.519,3343747,-67,39,"067d45fab320"
"2020-07-29T14:20:43",1596054043.929,3344157,-68,37,"067d45fab320"
"2020-07-29T14:20:44",1596054044.132,3344360,-67,38,"067d45fab320"
"2020-07-29T14:20:44",1596054044.542,3344770,-67,39,"067d45fab320"
"2020-07-29T14:20:44",1596054044.747,3344975,-69,37,"067d45fab320"
"2020-07-29T14:20:45",1596054045.363,3345591,-72,39,"067d45fab320"
"2020-07-29T14:20:45",1596054045.775,3346003,-72,37,"067d45fab320"
"2020-07-29T14:20:45",1596054045.978,3346206,-75,38,"067d45fab320"
"2020-07-29T14:20:46",1596054046.184,3346412,-75,38,"067d45fab320"
"2020-07-29T14:20:46",1596054046.391,3346619,-73,39,"067d45fab320"
"2020-07-29T14:20:46",1596054046.803,3347031,-72,37,"067d45fab320"
"2020-07-29T14:20:47",1596054047.008,3347236,-69,38,"067d45fab320"
"2020-07-29T14:20:47",1596054047.422,3347650,-72,39,"067d45fab320"
"2020-07-29T14:20:47",1596054047.626,3347854,-71,37,"067d45fab320"
"2020-07-29T14:20:48",1596054048.039,3348267,-68,38,"067d45fab320"
"2020-07-29T14:20:48",1596054048.239,3348467,-67,39,"067d45fab320"
"2020-07-29T14:20:48",1596054048.654,3348882,-69,37,"067d45fab320"
"2020-07-29T14:20:48",1596054048.86,3349088,-67,38,"067d45fab320"
"2020-07-29T14:20:49",1596054049.273,3349501,-67,39,"067d45fab320"
"2020-07-29T14:20:49",1596054049.48,3349708,-68,37,"067d45fab320"
"2020-07-29T14:20:49",1596054049.883,3350111,-67,38,"067d45fab320"
"2020-07-29T14:20:50",1596054050.093,3350321,-68,39,"067d45fab320"
"2020-07-29T14:20:50",1596054050.502,3350730,-69,37,"067d45fab320"
"2020-07-29T14:20:50",1596054050.709,3350937,-68,38,"067d45fab320"
"2020-07-29T14:20:51",1596054051.12,3351348,-68,39,"067d45fab320"
"2020-07-29T14:20:51",1596054051.319,3351547,-68,37,"067d45fab320"
"2020-07-29T14:20:51",1596054051.736,3351964,-67,38,"067d45fab320"
"2020-07-29T14:20:51",1596054051.939,3352167,-67,39,"067d45fab320"
"2020-07-29T14:20:52",1596054052.344,3352572,-69,37,"067d45fab320"
"2020-07-29T14:20:52",1596054052.961,3353189,-65,39,"067d45fab320"
"2020-07-29T14:20:53",1596054053.171,3353399,-66,37,"067d45fab320"
"2020-07-29T14:20:53",1596054053.577,3353805,-65,38,"067d45fab320"
"2020-07-29T14:20:53",1596054053.994,3354222,-69,39,"067d45fab320"
"2020-07-29T14:20:54",1596054054.196,3354424,-74,37,"067d45fab320"
"2020-07-29T14:20:54",1596054054.609,3354837,-71,38,"067d45fab320"
"2020-07-29T14:20:54",1596054054.817,3355045,-73,39,"067d45fab320"
"2020-07-29T14:20:55",1596054055.231,3355459,-68,37,"067d45fab320"
"2020-07-29T14:20:55",1596054055.432,3355660,-67,38,"067d45fab320"
"2020-07-29T14:20:55",1596054055.85,3356078,-67,39,"067d45fab320"
"2020-07-29T14:20:56",1596054056.058,3356286,-68,37,"067d45fab320"
"2020-07-29T14:20:56",1596054056.468,3356696,-67,38,"067d45fab320"
"2020-07-29T14:20:56",1596054056.671,3356899,-68,39,"067d45fab320"
"2020-07-29T14:20:57",1596054057.076,3357304,-69,37,"067d45fab320"
"2020-07-29T14:20:57",1596054057.281,3357509,-67,38,"067d45fab320"
"2020-07-29T14:20:57",1596054057.692,3357920,-68,39,"067d45fab320"
"2020-07-29T14:20:57",1596054057.904,3358132,-69,37,"067d45fab320"
"2020-07-29T14:20:58",1596054058.315,3358543,-67,38,"067d45fab320"
"2020-07-29T14:20:58",1596054058.517,3358745,-67,39,"067d45fab320"
"2020-07-29T14:20:58",1596054058.932,3359160,-67,37,"067d45fab320"
"2020-07-29T14:20:59",1596054059.139,3359367,-67,38,"067d45fab320"
"2020-07-29T14:20:59",1596054059.548,3359776,-67,39,"067d45fab320"
"2020-07-29T14:20:59",1596054059.751,3359979,-69,37,"067d45fab320"
"2020-07-29T14:21:00",1596054060.165,3360393,-67,38,"067d45fab320"
"2020-07-29T14:21:00",1596054060.373,3360601,-67,39,"067d45fab320"
"2020-07-29T14:21:00",1596054060.779,3361007,-69,37,"067d45fab320"
"2020-07-29T14:21:00",1596054060.984,3361212,-67,38,"067d45fab320"
"2020-07-29T14:21:01",1596054061.399,3361627,-67,39,"067d45fab320"
"2020-07-29T14:21:01",1596054061.604,3361832,-69,37,"067d45fab320"
"2020-07-29T14:21:02",1596054062.019,3362247,-67,38,"067d45fab320"
"2020-07-29T14:21:02",1596054062.422,3362650,-67,39,"067d45fab320"
"2020-07-29T14:21:02",1596054062.63,3362858,-69,37,"067d45fab320"
"2020-07-29T14:21:03",1596054063.047,3363275,-67,38,"067d45fab320"
"2020-07-29T14:21:03",1596054063.249,3363477,-68,39,"067d45fab320"
"2020-07-29T14:21:03",1596054063.661,3363889,-69,37,"067d45fab320"
"2020-07-29T14:21:03",1596054063.862,3364090,-67,38,"067d45fab320"
"2020-07-29T14:21:04",1596054064.277,3364505,-68,39,"067d45fab320"
"2020-07-29T14:21:04",1596054064.478,3364706,-68,37,"067d45fab320"
"2020-07-29T14:21:04",1596054064.898,3365126,-67,38,"067d45fab320"
"2020-07-29T14:21:05",1596054065.109,3365337,-68,39,"067d45fab320"
"2020-07-29T14:21:05",1596054065.518,3365746,-68,37,"067d45fab320"
"2020-07-29T14:21:05",1596054065.719,3365947,-68,38,"067d45fab320"
"2020-07-29T14:21:06",1596054066.132,3366360,-67,39,"067d45fab320"
"2020-07-29T14:21:06",1596054066.338,3366566,-69,37,"067d45fab320"
"2020-07-29T14:21:06",1596054066.75,3366978,-67,38,"067d45fab320"
"2020-07-29T14:21:06",1596054066.958,3367186,-68,39,"067d45fab320"
"2020-07-29T14:21:07",1596054067.576,3367804,-67,38,"067d45fab320"
"2020-07-29T14:21:07",1596054067.988,3368216,-68,39,"067d45fab320"
"2020-07-29T14:21:08",1596054068.199,3368427,-68,37,"067d45fab320"
"2020-07-29T14:21:08",1596054068.604,3368832,-67,38,"067d45fab320"
"2020-07-29T14:21:08",1596054068.811,3369039,-68,39,"067d45fab320"
"2020-07-29T14:21:09",1596054069.218,3369446,-69,37,"067d45fab320"
"2020-07-29T14:21:09",1596054069.423,3369651,-67,38,"067d45fab320"
"2020-07-29T14:21:09",1596054069.833,3370061,-68,39,"067d45fab320"
"2020-07-29T14:21:10",1596054070.046,3370274,-69,37,"067d45fab320"
"2020-07-29T14:21:10",1596054070.457,3370685,-68,38,"067d45fab320"
"2020-07-29T14:21:10",1596054070.861,3371089,-68,39,"067d45fab320"
"2020-07-29T14:21:11",1596054071.07,3371298,-69,37,"067d45fab320"
"2020-07-29T14:21:11",1596054071.483,3371711,-67,38,"067d45fab320"
"2020-07-29T14:21:11",1596054071.683,3371911,-68,39,"067d45fab320"
"2020-07-29T14:21:12",1596054072.093,3372321,-68,37,"067d45fab320"
"2020-07-29T14:21:12",1596054072.308,3372536,-67,38,"067d45fab320"
"2020-07-29T14:21:12",1596054072.719,3372947,-67,39,"067d45fab320"
"2020-07-29T14:21:12",1596054072.924,3373152,-69,37,"067d45fab320"
"2020-07-29T14:21:13",1596054073.335,3373563,-67,38,"067d45fab320"
"2020-07-29T14:21:13",1596054073.538,3373766,-67,39,"067d45fab320"
"2020-07-29T14:21:13",1596054073.948,3374176,-69,37,"067d45fab320"
"2020-07-29T14:21:14",1596054074.156,3374384,-67,38,"067d45fab320"
"2020-07-29T14:21:14",1596054074.564,3374792,-67,39,"067d45fab320"
"2020-07-29T14:21:14",1596054074.775,3375003,-68,37,"067d45fab320"
"2020-07-29T14:21:15",1596054075.189,3375417,-68,38,"067d45fab320"
"2020-07-29T14:21:15",1596054075.398,3375626,-67,39,"067d45fab320"
"2020-07-29T14:21:15",1596054075.803,3376031,-69,37,"067d45fab320"
"2020-07-29T14:21:16",1596054076.012,3376240,-70,38,"067d45fab320"
"2020-07-29T14:21:16",1596054076.42,3376648,-91,39,"067d45fab320"
"2020-07-29T14:21:16",1596054076.623,3376851,-71,37,"067d45fab320"
"2020-07-29T14:21:17",1596054077.035,3377263,-65,38,"067d45fab320"
"2020-07-29T14:21:17",1596054077.244,3377472,-69,39,"067d45fab320"
"2020-07-29T14:21:17",1596054077.653,3377881,-68,37,"067d45fab320"
"2020-07-29T14:21:17",1596054077.86,3378088,-67,38,"067d45fab320"
"2020-07-29T14:21:18",1596054078.278,3378506,-71,39,"067d45fab320"
"2020-07-29T14:21:18",1596054078.481,3378709,-76,37,"067d45fab320"
"2020-07-29T14:21:18",1596054078.686,3378914,-82,37,"067d45fab320"
"2020-07-29T14:21:18",1596054078.89,3379118,-78,38,"067d45fab320"
"2020-07-29T14:21:19",1596054079.3,3379528,-66,39,"067d45fab320"
"2020-07-29T14:21:19",1596054079.514,3379742,-71,37,"067d45fab320"
"2020-07-29T14:21:20",1596054080.538,3380766,-69,37,"067d45fab320"
"2020-07-29T14:21:20",1596054080.748,3380976,-68,38,"067d45fab320"
"2020-07-29T14:21:21",1596054081.153,3381381,-68,39,"067d45fab320"
"2020-07-29T14:21:21",1596054081.361,3381589,-69,37,"067d45fab320"
"2020-07-29T14:21:21",1596054081.768,3381996,-67,38,"067d45fab320"
"2020-07-29T14:21:21",1596054081.981,3382209,-67,39,"067d45fab320"
"2020-07-29T14:21:22",1596054082.388,3382616,-69,37,"067d45fab320"
"2020-07-29T14:21:22",1596054082.598,3382826,-67,38,"067d45fab320"
"2020-07-29T14:21:23",1596054083.01,3383238,-68,39,"067d45fab320"
"2020-07-29T14:21:23",1596054083.216,3383444,-68,37,"067d45fab320"
"2020-07-29T14:21:23",1596054083.628,3383856,-68,38,"067d45fab320"
"2020-07-29T14:21:23",1596054083.833,3384061,-68,39,"067d45fab320"
"2020-07-29T14:21:24",1596054084.238,3384466,-68,37,"067d45fab320"
"2020-07-29T14:21:24",1596054084.447,3384675,-67,38,"067d45fab320"
"2020-07-29T14:21:24",1596054084.857,3385085,-67,39,"067d45fab320"
"2020-07-29T14:21:25",1596054085.061,3385289,-69,37,"067d45fab320"
"2020-07-29T14:21:25",1596054085.479,3385707,-67,38,"067d45fab320"
"2020-07-29T14:21:25",1596054085.683,3385911,-69,39,"067d45fab320"
"2020-07-29T14:21:26",1596054086.094,3386322,-69,37,"067d45fab320"
"2020-07-29T14:21:26",1596054086.298,3386526,-67,38,"067d45fab320"
"2020-07-29T14:21:26",1596054086.716,3386944,-68,39,"067d45fab320"
"2020-07-29T14:21:26",1596054086.918,3387146,-69,37,"067d45fab320"
"2020-07-29T14:21:27",1596054087.331,3387559,-68,38,"067d45fab320"
"2020-07-29T14:21:27",1596054087.742,3387970,-67,39,"067d45fab320"
"2020-07-29T14:21:27",1596054087.948,3388176,-67,37,"067d45fab320"
"2020-07-29T14:21:28",1596054088.352,3388580,-67,38,"067d45fab320"
"2020-07-29T14:21:28",1596054088.558,3388786,-68,39,"067d45fab320"
"2020-07-29T14:21:28",1596054088.972,3389200,-68,37,"067d45fab320"
"2020-07-29T14:21:29",1596054089.178,3389406,-67,38,"067d45fab320"
"2020-07-29T14:21:29",1596054089.589,3389817,-68,39,"067d45fab320"
"2020-07-29T14:21:29",1596054089.799,3390027,-67,37,"067d45fab320"
"2020-07-29T14:21:30",1596054090.213,3390441,-67,38,"067d45fab320"
"2020-07-29T14:21:30",1596054090.415,3390643,-68,39,"067d45fab320"
"2020-07-29T14:21:30",1596054090.827,3391055,-69,37,"067d45fab320"
"2020-07-29T14:21:31",1596054091.029,3391257,-67,38,"067d45fab320"
"2020-07-29T14:21:31",1596054091.438,3391666,-68,39,"067d45fab320"
"2020-07-29T14:21:31",1596054091.652,3391880,-68,37,"067d45fab320"
"2020-07-29T14:21:32",1596054092.062,3392290,-67,38,"067d45fab320"
"2020-07-29T14:21:32",1596054092.268,3392496,-68,39,"067d45fab320"
"2020-07-29T14:21:32",1596054092.679,3392907,-68,37,"067d45fab320"
"2020-07-29T14:21:32",1596054092.882,3393110,-67,38,"067d45fab320"
"2020-07-29T14:21:33",1596054093.294,3393522,-68,39,"067d45fab320"
"2020-07-29T14:21:33",1596054093.499,3393727,-69,37,"067d45fab320"
"2020-07-29T14:21:33",1596054093.908,3394136,-67,38,"067d45fab320"
"2020-07-29T14:21:34",1596054094.119,3394347,-68,39,"067d45fab320"
"2020-07-29T14:21:34",1596054094.53,3394758,-68,37,"067d45fab320"
"2020-07-29T14:21:34",1596054094.737,3394965,-67,38,"067d45fab320"
"2020-07-29T14:21:35",1596054095.147,3395375,-68,39,"067d45fab320"
"2020-07-29T14:21:35",1596054095.558,3395786,-68,37,"067d45fab320"
"2020-07-29T14:21:35",1596054095.762,3395990,-68,38,"067d45fab320"
"2020-07-29T14:21:36",1596054096.788,3397016,-67,38,"067d45fab320"
"2020-07-29T14:21:36",1596054096.993,3397221,-68,39,"067d45fab320"
"2020-07-29T14:21:37",1596054097.613,3397841,-67,38,"067d45fab320"
"2020-07-29T14:21:38",1596054098.019,3398247,-67,39,"067d45fab320"
"2020-07-29T14:21:38",1596054098.229,3398457,-67,37,"067d45fab320"
"2020-07-29T14:21:38",1596054098.639,3398867,-67,38,"067d45fab320"
"2020-07-29T14:21:38",1596054098.846,3399074,-68,39,"067d45fab320"
"2020-07-29T14:21:39",1596054099.258,3399486,-69,37,"067d45fab320"
"2020-07-29T14:21:39",1596054099.462,3399690,-68,38,"067d45fab320"
"2020-07-29T14:21:40",1596054100.08,3400308,-68,37,"067d45fab320"
"2020-07-29T14:21:40",1596054100.49,3400718,-67,38,"067d45fab320"
"2020-07-29T14:21:40",1596054100.701,3400929,-68,39,"067d45fab320"
"2020-07-29T14:21:41",1596054101.108,3401336,-70,37,"067d45fab320"
"2020-07-29T14:21:41",1596054101.314,3401542,-69,38,"067d45fab320"
"2020-07-29T14:21:41",1596054101.724,3401952,-71,39,"067d45fab320"
"2020-07-29T14:21:41",1596054101.934,3402162,-74,37,"067d45fab320"
"2020-07-29T14:21:42",1596054102.342,3402570,-65,38,"067d45fab320"
"2020-07-29T14:21:42",1596054102.747,3402975,-68,39,"067d45fab320"
"2020-07-29T14:21:42",1596054102.955,3403183,-68,37,"067d45fab320"
"2020-07-29T14:21:43",1596054103.37,3403598,-67,38,"067d45fab320"
"2020-07-29T14:21:43",1596054103.58,3403808,-68,39,"067d45fab320"
"2020-07-29T14:21:43",1596054103.988,3404216,-67,37,"067d45fab320"
"2020-07-29T14:21:44",1596054104.189,3404417,-67,38,"067d45fab320"
"2020-07-29T14:21:44",1596054104.604,3404832,-68,39,"067d45fab320"
"2020-07-29T14:21:44",1596054104.804,3405032,-69,37,"067d45fab320"
"2020-07-29T14:21:45",1596054105.219,3405447,-68,38,"067d45fab320"
"2020-07-29T14:21:45",1596054105.421,3405649,-68,39,"067d45fab320"
"2020-07-29T14:21:45",1596054105.834,3406062,-69,37,"067d45fab320"
"2020-07-29T14:21:46",1596054106.046,3406274,-68,38,"067d45fab320"
"2020-07-29T14:21:46",1596054106.456,3406684,-68,39,"067d45fab320"
"2020-07-29T14:21:46",1596054106.66,3406888,-69,37,"067d45fab320"
"2020-07-29T14:21:47",1596054107.277,3407505,-68,39,"067d45fab320"
"2020-07-29T14:21:47",1596054107.682,3407910,-68,37,"067d45fab320"
"2020-07-29T14:21:47",1596054107.892,3408120,-68,38,"067d45fab320"
"2020-07-29T14:21:48",1596054108.305,3408533,-68,39,"067d45fab320"
"2020-07-29T14:21:48",1596054108.504,3408732,-68,37,"067d45fab320"
"2020-07-29T14:21:48",1596054108.922,3409150,-67,38,"067d45fab320"
"2020-07-29T14:21:49",1596054109.125,3409353,-68,39,"067d45fab320"
"2020-07-29T14:21:49",1596054109.531,3409759,-69,37,"067d45fab320"
"2020-07-29T14:21:49",1596054109.739,3409967,-67,38,"067d45fab320"
"2020-07-29T14:21:50",1596054110.148,3410376,-67,39,"067d45fab320"
"2020-07-29T14:21:50",1596054110.358,3410586,-69,37,"067d45fab320"
"2020-07-29T14:21:50",1596054110.769,3410997,-67,38,"067d45fab320"
"2020-07-29T14:21:51",1596054111.173,3411401,-67,39,"067d45fab320"
"2020-07-29T14:21:51",1596054111.383,3411611,-69,37,"067d45fab320"
"2020-07-29T14:21:51",1596054111.793,3412021,-67,38,"067d45fab320"
"2020-07-29T14:21:51",1596054111.998,3412226,-68,39,"067d45fab320"
"2020-07-29T14:21:52",1596054112.406,3412634,-69,37,"067d45fab320"
"2020-07-29T14:21:52",1596054112.61,3412838,-67,38,"067d45fab320"
"2020-07-29T14:21:53",1596054113.026,3413254,-68,39,"067d45fab320"
"2020-07-29T14:21:53",1596054113.236,3413464,-69,37,"067d45fab320"
"2020-07-29T14:21:53",1596054113.852,3414080,-68,39,"067d45fab320"
"2020-07-29T14:21:54",1596054114.873,3415101,-67,39,"067d45fab320"
"2020-07-29T14:21:55",1596054115.076,3415304,-69,37,"067d45fab320"
"2020-07-29T14:21:55",1596054115.486,3415714,-67,38,"067d45fab320"
"2020-07-29T14:21:55",1596054115.699,3415927,-67,39,"067d45fab320"
"2020-07-29T14:21:56",1596054116.108,3416336,-69,37,"067d45fab320"
"2020-07-29T14:21:56",1596054116.318,3416546,-67,38,"067d45fab320"
"2020-07-29T14:21:56",1596054116.729,3416957,-68,39,"067d45fab320"
"2020-07-29T14:21:56",1596054116.938,3417166,-69,37,"067d45fab320"
"2020-07-29T14:21:57",1596054117.349,3417577,-67,38,"067d45fab320"
"2020-07-29T14:21:57",1596054117.552,3417780,-68,39,"067d45fab320"
"2020-07-29T14:21:57",1596054117.962,3418190,-69,37,"067d45fab320"
"2020-07-29T14:21:58",1596054118.165,3418393,-67,38,"067d45fab320"
"2020-07-29T14:21:58",1596054118.373,3418601,-67,38,"067d45fab320"
"2020-07-29T14:21:58",1596054118.579,3418807,-67,39,"067d45fab320"
"2020-07-29T14:21:58",1596054118.993,3419221,-69,37,"067d45fab320"
"2020-07-29T14:21:59",1596054119.199,3419427,-67,38,"067d45fab320"
"2020-07-29T14:21:59",1596054119.602,3419830,-67,39,"067d45fab320"
"2020-07-29T14:21:59",1596054119.811,3420039,-69,37,"067d45fab320"
"2020-07-29T14:22:00",1596054120.219,3420447,-67,38,"067d45fab320"
"2020-07-29T14:22:00",1596054120.432,3420660,-68,39,"067d45fab320"
"2020-07-29T14:22:00",1596054120.844,3421072,-69,37,"067d45fab320"
"2020-07-29T14:22:01",1596054121.045,3421273,-67,38,"067d45fab320"
"2020-07-29T14:22:01",1596054121.45,3421678,-68,39,"067d45fab320"
"2020-07-29T14:22:01",1596054121.659,3421887,-69,37,"067d45fab320"
"2020-07-29T14:22:02",1596054122.074,3422302,-67,38,"067d45fab320"
"2020-07-29T14:22:02",1596054122.279,3422507,-67,39,"067d45fab320"
"2020-07-29T14:22:02",1596054122.686,3422914,-69,37,"067d45fab320"
"2020-07-29T14:22:02",1596054122.9,3423128,-67,38,"067d45fab320"
"2020-07-29T14:22:03",1596054123.509,3423737,-69,37,"067d45fab320"
"2020-07-29T14:22:03",1596054123.92,3424148,-67,38,"067d45fab320"
"2020-07-29T14:22:04",1596054124.13,3424358,-67,39,"067d45fab320"
"2020-07-29T14:22:04",1596054124.535,3424763,-68,37,"067d45fab320"
"2020-07-29T14:22:04",1596054124.739,3424967,-67,38,"067d45fab320"
"2020-07-29T14:22:05",1596054125.159,3425387,-68,39,"067d45fab320"
"2020-07-29T14:22:05",1596054125.361,3425589,-69,37,"067d45fab320"
"2020-07-29T14:22:05",1596054125.769,3425997,-67,38,"067d45fab320"
"2020-07-29T14:22:05",1596054125.979,3426207,-67,39,"067d45fab320"
"2020-07-29T14:22:06",1596054126.184,3426412,-68,39,"067d45fab320"
"2020-07-29T14:22:06",1596054126.799,3427027,-67,38,"067d45fab320"
"2020-07-29T14:22:07",1596054127.001,3427229,-68,39,"067d45fab320"
"2020-07-29T14:22:07",1596054127.411,3427639,-68,37,"067d45fab320"
"2020-07-29T14:22:07",1596054127.625,3427853,-68,38,"067d45fab320"
"2020-07-29T14:22:08",1596054128.042,3428270,-67,39,"067d45fab320"
"2020-07-29T14:22:08",1596054128.242,3428470,-70,37,"067d45fab320"
"2020-07-29T14:22:08",1596054128.648,3428876,-67,38,"067d45fab320"
"2020-07-29T14:22:08",1596054128.859,3429087,-66,39,"067d45fab320"
"2020-07-29T14:22:09",1596054129.27,3429498,-68,37,"067d45fab320"
"2020-07-29T14:22:09",1596054129.884,3430112,-69,39,"067d45fab320"
"2020-07-29T14:22:10",1596054130.099,3430327,-69,37,"067d45fab320"
"2020-07-29T14:22:10",1596054130.505,3430733,-69,38,"067d45fab320"
"2020-07-29T14:22:11",1596054131.326,3431554,-74,38,"067d45fab320"
"2020-07-29T14:22:11",1596054131.738,3431966,-68,39,"067d45fab320"
"2020-07-29T14:22:11",1596054131.949,3432177,-67,37,"067d45fab320"
"2020-07-29T14:22:12",1596054132.365,3432593,-67,38,"067d45fab320"
"2020-07-29T14:22:12",1596054132.565,3432793,-67,39,"067d45fab320"
"2020-07-29T14:22:12",1596054132.976,3433204,-69,37,"067d45fab320"
"2020-07-29T14:22:13",1596054133.183,3433411,-67,38,"067d45fab320"
"2020-07-29T14:22:13",1596054133.588,3433816,-67,39,"067d45fab320"
"2020-07-29T14:22:13",1596054133.795,3434023,-69,37,"067d45fab320"
"2020-07-29T14:22:14",1596054134.205,3434433,-67,38,"067d45fab320"
"2020-07-29T14:22:14",1596054134.619,3434847,-68,39,"067d45fab320"
"2020-07-29T14:22:14",1596054134.83,3435058,-69,37,"067d45fab320"
"2020-07-29T14:22:15",1596054135.237,3435465,-67,38,"067d45fab320"
"2020-07-29T14:22:15",1596054135.445,3435673,-68,39,"067d45fab320"
"2020-07-29T14:22:15",1596054135.855,3436083,-69,37,"067d45fab320"
"2020-07-29T14:22:16",1596054136.06,3436288,-67,38,"067d45fab320"
"2020-07-29T14:22:16",1596054136.47,3436698,-68,39,"067d45fab320"
"2020-07-29T14:22:16",1596054136.671,3436899,-69,37,"067d45fab320"
"2020-07-29T14:22:17",1596054137.081,3437309,-67,38,"067d45fab320"
"2020-07-29T14:22:17",1596054137.289,3437517,-68,39,"067d45fab320"
"2020-07-29T14:22:17",1596054137.701,3437929,-68,37,"067d45fab320"
"2020-07-29T14:22:17",1596054137.909,3438137,-68,38,"067d45fab320"
"2020-07-29T14:22:18",1596054138.323,3438551,-67,39,"067d45fab320"
"2020-07-29T14:22:18",1596054138.527,3438755,-69,37,"067d45fab320"
"2020-07-29T14:22:18",1596054138.939,3439167,-67,38,"067d45fab320"
"2020-07-29T14:22:19",1596054139.554,3439782,-69,37,"067d45fab320"
"2020-07-29T14:22:19",1596054139.759,3439987,-68,38,"067d45fab320"
"2020-07-29T14:22:20",1596054140.177,3440405,-74,39,"067d45fab320"
"2020-07-29T14:22:20",1596054140.378,3440606,-73,37,"067d45fab320"
"2020-07-29T14:22:20",1596054140.789,3441017,-72,38,"067d45fab320"
"2020-07-29T14:22:20",1596054140.995,3441223,-70,39,"067d45fab320"
"2020-07-29T14:22:21",1596054141.406,3441634,-69,37,"067d45fab320"
"2020-07-29T14:22:21",1596054141.611,3441839,-66,38,"067d45fab320"
"2020-07-29T14:22:22",1596054142.021,3442249,-68,39,"067d45fab320"
"2020-07-29T14:22:22",1596054142.434,3442662,-68,37,"067d45fab320"
"2020-07-29T14:22:22",1596054142.642,3442870,-67,38,"067d45fab320"
"2020-07-29T14:22:23",1596054143.051,3443279,-67,39,"067d45fab320"
"2020-07-29T14:22:23",1596054143.251,3443479,-70,37,"067d45fab320"
"2020-07-29T14:22:23",1596054143.66,3443888,-67,38,"067d45fab320"
"2020-07-29T14:22:23",1596054143.869,3444097,-67,39,"067d45fab320"
"2020-07-29T14:22:24",1596054144.274,3444502,-69,37,"067d45fab320"
"2020-07-29T14:22:24",1596054144.49,3444718,-68,38,"067d45fab320"
"2020-07-29T14:22:25",1596054145.108,3445336,-69,37,"067d45fab320"
"2020-07-29T14:22:25",1596054145.52,3445748,-67,38,"067d45fab320"
"2020-07-29T14:22:25",1596054145.72,3445948,-68,39,"067d45fab320"
"2020-07-29T14:22:26",1596054146.132,3446360,-69,37,"067d45fab320"
"2020-07-29T14:22:26",1596054146.34,3446568,-67,38,"067d45fab320"
"2020-07-29T14:22:26",1596054146.749,3446977,-68,39,"067d45fab320"
"2020-07-29T14:22:27",1596054147.369,3447597,-66,38,"067d45fab320"
"2020-07-29T14:22:27",1596054147.986,3448214,-69,37,"067d45fab320"
"2020-07-29T14:22:28",1596054148.186,3448414,-67,38,"067d45fab320"
"2020-07-29T14:22:28",1596054148.601,3448829,-68,39,"067d45fab320"
"2020-07-29T14:22:28",1596054148.809,3449037,-69,37,"067d45fab320"
"2020-07-29T14:22:29",1596054149.224,3449452,-68,38,"067d45fab320"
"2020-07-29T14:22:29",1596054149.426,3449654,-68,39,"067d45fab320"
"2020-07-29T14:22:29",1596054149.834,3450062,-76,37,"067d45fab320"
"2020-07-29T14:22:30",1596054150.043,3450271,-74,38,"067d45fab320"
"2020-07-29T14:22:30",1596054150.454,3450682,-79,39,"067d45fab320"
"2020-07-29T14:22:30",1596054150.861,3451089,-80,37,"067d45fab320"
"2020-07-29T14:22:31",1596054151.066,3451294,-79,38,"067d45fab320"
"2020-07-29T14:22:31",1596054151.48,3451708,-79,39,"067d45fab320"
"2020-07-29T14:22:31",1596054151.684,3451912,-81,37,"067d45fab320"
"2020-07-29T14:22:32",1596054152.093,3452321,-80,38,"067d45fab320"
"2020-07-29T14:22:32",1596054152.3,3452528,-79,39,"067d45fab320"
"2020-07-29T14:22:32",1596054152.713,3452941,-80,37,"067d45fab320"
"2020-07-29T14:22:32",1596054152.915,3453143,-82,38,"067d45fab320"
"2020-07-29T14:22:33",1596054153.324,3453552,-85,39,"067d45fab320"
"2020-07-29T14:22:33",1596054153.532,3453760,-76,37,"067d45fab320"
"2020-07-29T14:22:33",1596054153.951,3454179,-74,38,"067d45fab320"
"2020-07-29T14:22:34",1596054154.152,3454380,-81,39,"067d45fab320"
"2020-07-29T14:22:34",1596054154.562,3454790,-77,37,"067d45fab320"
"2020-07-29T14:22:35",1596054155.171,3455399,-64,39,"067d45fab320"
"2020-07-29T14:22:35",1596054155.38,3455608,-76,37,"067d45fab320"
"2020-07-29T14:22:35",1596054155.792,3456020,-91,38,"067d45fab320"
"2020-07-29T14:22:35",1596054155.997,3456225,-84,39,"067d45fab320"
"2020-07-29T14:22:36",1596054156.412,3456640,-91,37,"067d45fab320"
"2020-07-29T14:22:36",1596054156.614,3456842,-87,38,"067d45fab320"
"2020-07-29T14:22:37",1596054157.023,3457251,-82,39,"067d45fab320"
"2020-07-29T14:22:37",1596054157.232,3457460,-81,37,"067d45fab320"
"2020-07-29T14:22:37",1596054157.639,3457867,-69,38,"067d45fab320"
"2020-07-29T14:22:38",1596054158.053,3458281,-68,39,"067d45fab320"
"2020-07-29T14:22:38",1596054158.261,3458489,-67,37,"067d45fab320"
"2020-07-29T14:22:38",1596054158.663,3458891,-66,38,"067d45fab320"
"2020-07-29T14:22:38",1596054158.873,3459101,-70,39,"067d45fab320"
"2020-07-29T14:22:39",1596054159.29,3459518,-69,37,"067d45fab320"
"2020-07-29T14:22:39",1596054159.495,3459723,-74,38,"067d45fab320"
"2020-07-29T14:22:39",1596054159.902,3460130,-75,39,"067d45fab320"
"2020-07-29T14:22:40",1596054160.109,3460337,-81,37,"067d45fab320"
"2020-07-29T14:22:40",1596054160.515,3460743,-78,38,"067d45fab320"
"2020-07-29T14:22:40",1596054160.72,3460948,-75,39,"067d45fab320"
"2020-07-29T14:22:41",1596054161.134,3461362,-77,37,"067d45fab320"
"2020-07-29T14:22:41",1596054161.344,3461572,-76,38,"067d45fab320"
"2020-07-29T14:22:41",1596054161.757,3461985,-74,39,"067d45fab320"
"2020-07-29T14:22:41",1596054161.958,3462186,-75,37,"067d45fab320"
"2020-07-29T14:22:42",1596054162.369,3462597,-73,38,"067d45fab320"
"2020-07-29T14:22:42",1596054162.58,3462808,-75,39,"067d45fab320"
"2020-07-29T14:22:42",1596054162.989,3463217,-76,37,"067d45fab320"
"2020-07-29T14:22:43",1596054163.609,3463837,-73,39,"067d45fab320"
"2020-07-29T14:22:43",1596054163.81,3464038,-74,37,"067d45fab320"
"2020-07-29T14:22:44",1596054164.225,3464453,-73,38,"067d45fab320"
"2020-07-29T14:22:44",1596054164.426,3464654,-73,39,"067d45fab320"
"2020-07-29T14:22:44",1596054164.837,3465065,-75,37,"067d45fab320"
"2020-07-29T14:22:45",1596054165.04,3465268,-73,38,"067d45fab320"
"2020-07-29T14:22:45",1596054165.459,3465687,-75,39,"067d45fab320"
"2020-07-29T14:22:45",1596054165.862,3466090,-75,37,"067d45fab320"
"2020-07-29T14:22:46",1596054166.074,3466302,-69,38,"067d45fab320"
"2020-07-29T14:22:46",1596054166.487,3466715,-67,39,"067d45fab320"
"2020-07-29T14:22:46",1596054166.689,3466917,-68,37,"067d45fab320"
"2020-07-29T14:22:47",1596054167.099,3467327,-68,38,"067d45fab320"
"2020-07-29T14:22:47",1596054167.711,3467939,-68,37,"067d45fab320"
"2020-07-29T14:22:47",1596054167.919,3468147,-67,38,"067d45fab320"
"2020-07-29T14:22:48",1596054168.339,3468567,-67,39,"067d45fab320"
"2020-07-29T14:22:48",1596054168.54,3468768,-69,37,"067d45fab320"
"2020-07-29T14:22:48",1596054168.949,3469177,-67,38,"067d45fab320"
"2020-07-29T14:22:49",1596054169.157,3469385,-67,39,"067d45fab320"
"2020-07-29T14:22:49",1596054169.57,3469798,-69,37,"067d45fab320"
"2020-07-29T14:22:49",1596054169.774,3470002,-67,38,"067d45fab320"
"2020-07-29T14:22:50",1596054170.185,3470413,-67,39,"067d45fab320"
"2020-07-29T14:22:50",1596054170.39,3470618,-69,37,"067d45fab320"
"2020-07-29T14:22:50",1596054170.799,3471027,-67,38,"067d45fab320"
"2020-07-29T14:22:51",1596054171.003,3471231,-67,39,"067d45fab320"
"2020-07-29T14:22:51",1596054171.412,3471640,-69,37,"067d45fab320"
"2020-07-29T14:22:51",1596054171.621,3471849,-67,38,"067d45fab320"
"2020-07-29T14:22:52",1596054172.032,3472260,-68,39,"067d45fab320"
"2020-07-29T14:22:52",1596054172.24,3472468,-69,37,"067d45fab320"
"2020-07-29T14:22:52",1596054172.645,3472873,-67,38,"067d45fab320"
"2020-07-29T14:22:52",1596054172.854,3473082,-68,39,"067d45fab320"
"2020-07-29T14:22:53",1596054173.057,3473285,-68,39,"067d45fab320"
"2020-07-29T14:22:53",1596054173.271,3473499,-67,37,"067d45fab320"
"2020-07-29T14:22:53",1596054173.478,3473706,-67,38,"067d45fab320"
"2020-07-29T14:22:53",1596054173.682,3473910,-67,38,"067d45fab320"
"2020-07-29T14:22:53",1596054173.889,3474117,-68,39,"067d45fab320"
"2020-07-29T14:22:54",1596054174.297,3474525,-67,37,"067d45fab320"
"2020-07-29T14:22:54",1596054174.502,3474730,-67,38,"067d45fab320"
"2020-07-29T14:22:54",1596054174.909,3475137,-68,39,"067d45fab320"
"2020-07-29T14:22:55",1596054175.115,3475343,-67,37,"067d45fab320"
"2020-07-29T14:22:55",1596054175.533,3475761,-67,38,"067d45fab320"
"2020-07-29T14:22:55",1596054175.739,3475967,-68,39,"067d45fab320"
"2020-07-29T14:22:56",1596054176.145,3476373,-68,37,"067d45fab320"
"2020-07-29T14:22:56",1596054176.355,3476583,-67,38,"067d45fab320"
"2020-07-29T14:22:56",1596054176.76,3476988,-67,39,"067d45fab320"
"2020-07-29T14:22:56",1596054176.962,3477190,-69,37,"067d45fab320"
"2020-07-29T14:22:57",1596054177.374,3477602,-68,38,"067d45fab320"
"2020-07-29T14:22:57",1596054177.58,3477808,-68,39,"067d45fab320"
"2020-07-29T14:22:58",1596054178,3478228,-69,37,"067d45fab320"
"2020-07-29T14:22:58",1596054178.199,3478427,-67,38,"067d45fab320"
"2020-07-29T14:22:58",1596054178.608,3478836,-67,39,"067d45fab320"
"2020-07-29T14:22:58",1596054178.817,3479045,-69,37,"067d45fab320"
"2020-07-29T14:22:59",1596054179.229,3479457,-67,38,"067d45fab320"
"2020-07-29T14:22:59",1596054179.435,3479663,-66,39,"067d45fab320"
"2020-07-29T14:22:59",1596054179.838,3480066,-69,37,"067d45fab320"
"2020-07-29T14:23:00",1596054180.048,3480276,-67,38,"067d45fab320"
"2020-07-29T14:23:00",1596054180.459,3480687,-67,39,"067d45fab320"
"2020-07-29T14:23:00",1596054180.67,3480898,-69,37,"067d45fab320"
"2020-07-29T14:23:01",1596054181.081,3481309,-67,38,"067d45fab320"
"2020-07-29T14:23:01",1596054181.492,3481720,-67,39,"067d45fab320"
"2020-07-29T14:23:01",1596054181.694,3481922,-68,37,"067d45fab320"
"2020-07-29T14:23:02",1596054182.099,3482327,-67,38,"067d45fab320"
"2020-07-29T14:23:02",1596054182.307,3482535,-67,39,"067d45fab320"
"2020-07-29T14:23:02",1596054182.727,3482955,-68,37,"067d45fab320"
"2020-07-29T14:23:02",1596054182.927,3483155,-67,38,"067d45fab320"
"2020-07-29T14:23:03",1596054183.341,3483569,-67,39,"067d45fab320"
"2020-07-29T14:23:03",1596054183.543,3483771,-69,37,"067d45fab320"
"2020-07-29T14:23:03",1596054183.958,3484186,-67,38,"067d45fab320"
"2020-07-29T14:23:04",1596054184.159,3484387,-67,39,"067d45fab320"
"2020-07-29T14:23:04",1596054184.57,3484798,-68,37,"067d45fab320"
"2020-07-29T14:23:04",1596054184.779,3485007,-68,38,"067d45fab320"
"2020-07-29T14:23:05",1596054185.188,3485416,-67,39,"067d45fab320"
"2020-07-29T14:23:05",1596054185.39,3485618,-69,37,"067d45fab320"
"2020-07-29T14:23:05",1596054185.808,3486036,-67,38,"067d45fab320"
"2020-07-29T14:23:06",1596054186.01,3486238,-67,39,"067d45fab320"
"2020-07-29T14:23:06",1596054186.423,3486651,-69,37,"067d45fab320"
"2020-07-29T14:23:06",1596054186.623,3486851,-67,38,"067d45fab320"
"2020-07-29T14:23:07",1596054187.033,3487261,-67,39,"067d45fab320"
"2020-07-29T14:23:07",1596054187.24,3487468,-68,37,"067d45fab320"
"2020-07-29T14:23:07",1596054187.66,3487888,-67,38,"067d45fab320"
"2020-07-29T14:23:07",1596054187.861,3488089,-67,39,"067d45fab320"
"2020-07-29T14:23:08",1596054188.267,3488495,-68,37,"067d45fab320"
"2020-07-29T14:23:08",1596054188.477,3488705,-67,38,"067d45fab320"
"2020-07-29T14:23:08",1596054188.68,3488908,-69,38,"067d45fab320"
"2020-07-29T14:23:08",1596054188.883,3489111,-70,39,"067d45fab320"
"2020-07-29T14:23:09",1596054189.296,3489524,-73,37,"067d45fab320"
"2020-07-29T14:23:09",1596054189.499,3489727,-74,38,"067d45fab320"
"2020-07-29T14:23:09",1596054189.917,3490145,-74,39,"067d45fab320"
"2020-07-29T14:23:10",1596054190.119,3490347,-73,37,"067d45fab320"
"2020-07-29T14:23:10",1596054190.539,3490767,-72,38,"067d45fab320"
"2020-07-29T14:23:10",1596054190.74,3490968,-72,39,"067d45fab320"
"2020-07-29T14:23:11",1596054191.151,3491379,-80,37,"067d45fab320"
"2020-07-29T14:23:11",1596054191.359,3491587,-78,38,"067d45fab320"
"2020-07-29T14:23:11",1596054191.763,3491991,-75,39,"067d45fab320"
"2020-07-29T14:23:11",1596054191.972,3492200,-74,37,"067d45fab320"
"2020-07-29T14:23:12",1596054192.388,3492616,-70,38,"067d45fab320"
"2020-07-29T14:23:12",1596054192.59,3492818,-71,39,"067d45fab320"
"2020-07-29T14:23:13",1596054193.002,3493230,-69,37,"067d45fab320"
"2020-07-29T14:23:13",1596054193.21,3493438,-66,38,"067d45fab320"
"2020-07-29T14:23:13",1596054193.613,3493841,-68,39,"067d45fab320"
"2020-07-29T14:23:13",1596054193.824,3494052,-69,37,"067d45fab320"
"2020-07-29T14:23:14",1596054194.234,3494462,-67,38,"067d45fab320"
"2020-07-29T14:23:14",1596054194.85,3495078,-69,37,"067d45fab320"
"2020-07-29T14:23:15",1596054195.054,3495282,-67,38,"067d45fab320"
"2020-07-29T14:23:15",1596054195.666,3495894,-69,37,"067d45fab320"
"2020-07-29T14:23:15",1596054195.872,3496100,-70,37,"067d45fab320"
"2020-07-29T14:23:16",1596054196.082,3496310,-66,38,"067d45fab320"
"2020-07-29T14:23:16",1596054196.493,3496721,-67,39,"067d45fab320"
"2020-07-29T14:23:17",1596054197.11,3497338,-65,38,"067d45fab320"
"2020-07-29T14:23:17",1596054197.319,3497547,-66,39,"067d45fab320"
"2020-07-29T14:23:17",1596054197.73,3497958,-66,37,"067d45fab320"
"2020-07-29T14:23:17",1596054197.938,3498166,-66,38,"067d45fab320"
"2020-07-29T14:23:18",1596054198.346,3498574,-66,39,"067d45fab320"
"2020-07-29T14:23:18",1596054198.555,3498783,-65,37,"067d45fab320"
"2020-07-29T14:23:18",1596054198.962,3499190,-64,38,"067d45fab320"
"2020-07-29T14:23:19",1596054199.162,3499390,-64,39,"067d45fab320"
"2020-07-29T14:23:19",1596054199.585,3499813,-66,37,"067d45fab320"
"2020-07-29T14:23:19",1596054199.789,3500017,-64,38,"067d45fab320"
"2020-07-29T14:23:20",1596054200.2,3500428,-65,39,"067d45fab320"
"2020-07-29T14:23:20",1596054200.402,3500630,-65,37,"067d45fab320"
"2020-07-29T14:23:20",1596054200.811,3501039,-64,38,"067d45fab320"
"2020-07-29T14:23:21",1596054201.021,3501249,-65,39,"067d45fab320"
"2020-07-29T14:23:21",1596054201.425,3501653,-67,37,"067d45fab320"
"2020-07-29T14:23:21",1596054201.633,3501861,-65,38,"067d45fab320"
"2020-07-29T14:23:22",1596054202.049,3502277,-66,39,"067d45fab320"
"2020-07-29T14:23:22",1596054202.253,3502481,-65,37,"067d45fab320"
"2020-07-29T14:23:22",1596054202.663,3502891,-68,38,"067d45fab320"
"2020-07-29T14:23:22",1596054202.87,3503098,-73,39,"067d45fab320"
"2020-07-29T14:23:23",1596054203.278,3503506,-75,37,"067d45fab320"
"2020-07-29T14:23:23",1596054203.483,3503711,-73,38,"067d45fab320"
"2020-07-29T14:23:23",1596054203.895,3504123,-81,39,"067d45fab320"
"2020-07-29T14:23:24",1596054204.309,3504537,-81,37,"067d45fab320"
"2020-07-29T14:23:24",1596054204.52,3504748,-80,38,"067d45fab320"
"2020-07-29T14:23:24",1596054204.93,3505158,-79,39,"067d45fab320"
"2020-07-29T14:23:25",1596054205.135,3505363,-82,37,"067d45fab320"
"2020-07-29T14:23:25",1596054205.542,3505770,-82,38,"067d45fab320"
"2020-07-29T14:23:25",1596054205.745,3505973,-80,39,"067d45fab320"
"2020-07-29T14:23:26",1596054206.153,3506381,-82,37,"067d45fab320"
"2020-07-29T14:23:26",1596054206.769,3506997,-79,39,"067d45fab320"
"2020-07-29T14:23:26",1596054206.98,3507208,-81,37,"067d45fab320"
"2020-07-29T14:23:27",1596054207.393,3507621,-81,38,"067d45fab320"
"2020-07-29T14:23:27",1596054207.593,3507821,-89,39,"067d45fab320"
"2020-07-29T14:23:28",1596054208.001,3508229,-96,37,"067d45fab320"
"2020-07-29T14:23:28",1596054208.205,3508433,-81,38,"067d45fab320"
"2020-07-29T14:23:28",1596054208.617,3508845,-81,39,"067d45fab320"
"2020-07-29T14:23:29",1596054209.239,3509467,-87,38,"067d45fab320"
"2020-07-29T14:23:29",1596054209.445,3509673,-82,39,"067d45fab320"
"2020-07-29T14:23:29",1596054209.86,3510088,-89,37,"067d45fab320"
"2020-07-29T14:23:30",1596054210.069,3510297,-81,38,"067d45fab320"
"2020-07-29T14:23:30",1596054210.479,3510707,-80,39,"067d45fab320"
"2020-07-29T14:23:30",1596054210.681,3510909,-82,37,"067d45fab320"
"2020-07-29T14:23:31",1596054211.091,3511319,-83,38,"067d45fab320"
"2020-07-29T14:23:31",1596054211.3,3511528,-81,39,"067d45fab320"
"2020-07-29T14:23:31",1596054211.712,3511940,-83,37,"067d45fab320"
"2020-07-29T14:23:31",1596054211.917,3512145,-81,38,"067d45fab320"
"2020-07-29T14:23:32",1596054212.327,3512555,-81,39,"067d45fab320"
"2020-07-29T14:23:32",1596054212.74,3512968,-82,37,"067d45fab320"
"2020-07-29T14:23:32",1596054212.941,3513169,-82,38,"067d45fab320"
"2020-07-29T14:23:33",1596054213.355,3513583,-80,39,"067d45fab320"
"2020-07-29T14:23:33",1596054213.555,3513783,-81,37,"067d45fab320"
"2020-07-29T14:23:33",1596054213.975,3514203,-86,38,"067d45fab320"
"2020-07-29T14:23:34",1596054214.179,3514407,-81,39,"067d45fab320"
"2020-07-29T14:23:34",1596054214.587,3514815,-77,37,"067d45fab320"
"2020-07-29T14:23:34",1596054214.798,3515026,-75,38,"067d45fab320"
"2020-07-29T14:23:35",1596054215.207,3515435,-75,39,"067d45fab320"
"2020-07-29T14:23:35",1596054215.41,3515638,-77,37,"067d45fab320"
"2020-07-29T14:23:35",1596054215.814,3516042,-76,38,"067d45fab320"
"2020-07-29T14:23:36",1596054216.021,3516249,-75,39,"067d45fab320"
"2020-07-29T14:23:36",1596054216.436,3516664,-82,37,"067d45fab320"
"2020-07-29T14:23:36",1596054216.642,3516870,-76,38,"067d45fab320"
"2020-07-29T14:23:37",1596054217.059,3517287,-72,39,"067d45fab320"
"2020-07-29T14:23:37",1596054217.261,3517489,-72,37,"067d45fab320"
"2020-07-29T14:23:37",1596054217.674,3517902,-74,38,"067d45fab320"
"2020-07-29T14:23:37",1596054217.875,3518103,-74,39,"067d45fab320"
"2020-07-29T14:23:38",1596054218.499,3518727,-66,38,"067d45fab320"
"2020-07-29T14:23:38",1596054218.906,3519134,-66,39,"067d45fab320"
"2020-07-29T14:23:39",1596054219.111,3519339,-68,37,"067d45fab320"
"2020-07-29T14:23:39",1596054219.527,3519755,-67,38,"067d45fab320"
"2020-07-29T14:23:39",1596054219.73,3519958,-67,39,"067d45fab320"
"2020-07-29T14:23:40",1596054220.144,3520372,-68,37,"067d45fab320"
"2020-07-29T14:23:40",1596054220.354,3520582,-67,38,"067d45fab320"
"2020-07-29T14:23:40",1596054220.555,3520783,-68,38,"067d45fab320"
"2020-07-29T14:23:40",1596054220.765,3520993,-67,39,"067d45fab320"
"2020-07-29T14:23:41",1596054221.174,3521402,-68,37,"067d45fab320"
"2020-07-29T14:23:41",1596054221.376,3521604,-67,38,"067d45fab320"
"2020-07-29T14:23:41",1596054221.79,3522018,-67,39,"067d45fab320"
"2020-07-29T14:23:41",1596054221.996,3522224,-69,37,"067d45fab320"
"2020-07-29T14:23:42",1596054222.403,3522631,-67,38,"067d45fab320"
"2020-07-29T14:23:42",1596054222.612,3522840,-67,39,"067d45fab320"
"2020-07-29T14:23:43",1596054223.23,3523458,-67,38,"067d45fab320"
"2020-07-29T14:23:43",1596054223.643,3523871,-67,39,"067d45fab320"
"2020-07-29T14:23:43",1596054223.844,3524072,-69,37,"067d45fab320"
"2020-07-29T14:23:44",1596054224.461,3524689,-67,39,"067d45fab320"
"2020-07-29T14:23:44",1596054224.874,3525102,-69,37,"067d45fab320"
"2020-07-29T14:23:45",1596054225.078,3525306,-67,38,"067d45fab320"
"2020-07-29T14:23:45",1596054225.489,3525717,-67,39,"067d45fab320"
"2020-07-29T14:23:45",1596054225.689,3525917,-69,37,"067d45fab320"
"2020-07-29T14:23:46",1596054226.106,3526334,-67,38,"067d45fab320"
"2020-07-29T14:23:46",1596054226.316,3526544,-67,39,"067d45fab320"
"2020-07-29T14:23:46",1596054226.721,3526949,-68,37,"067d45fab320"
"2020-07-29T14:23:46",1596054226.931,3527159,-66,38,"067d45fab320"
"2020-07-29T14:23:47",1596054227.336,3527564,-67,39,"067d45fab320"
"2020-07-29T14:23:47",1596054227.544,3527772,-68,37,"067d45fab320"
"2020-07-29T14:23:47",1596054227.956,3528184,-69,38,"067d45fab320"
"2020-07-29T14:23:48",1596054228.366,3528594,-80,39,"067d45fab320"
"2020-07-29T14:23:48",1596054228.981,3529209,-68,38,"067d45fab320"
"2020-07-29T14:23:49",1596054229.6,3529828,-71,37,"067d45fab320"
"2020-07-29T14:23:49",1596054229.81,3530038,-66,38,"067d45fab320"
"2020-07-29T14:23:50",1596054230.218,3530446,-68,39,"067d45fab320"
"2020-07-29T14:23:50",1596054230.418,3530646,-70,37,"067d45fab320"
"2020-07-29T14:23:50",1596054230.832,3531060,-71,38,"067d45fab320"
"2020-07-29T14:23:51",1596054231.042,3531270,-72,39,"067d45fab320"
"2020-07-29T14:23:51",1596054231.453,3531681,-71,37,"067d45fab320"
"2020-07-29T14:23:51",1596054231.658,3531886,-71,38,"067d45fab320"
"2020-07-29T14:23:52",1596054232.066,3532294,-76,39,"067d45fab320"
"2020-07-29T14:23:52",1596054232.269,3532497,-81,37,"067d45fab320"
"2020-07-29T14:23:52",1596054232.683,3532911,-79,38,"067d45fab320"
"2020-07-29T14:23:52",1596054232.885,3533113,-78,39,"067d45fab320"
"2020-07-29T14:23:53",1596054233.305,3533533,-77,37,"067d45fab320"
"2020-07-29T14:23:53",1596054233.504,3533732,-75,38,"067d45fab320"
"2020-07-29T14:23:53",1596054233.92,3534148,-75,39,"067d45fab320"
"2020-07-29T14:23:54",1596054234.12,3534348,-78,37,"067d45fab320"
"2020-07-29T14:23:54",1596054234.529,3534757,-75,38,"067d45fab320"