"time","epoch_time","boot_time","rssi","ch","mac"
"2020-07-30T12:06:32",1596132392.45,3843671,-52,38,"98859d9e1a3a"
"2020-07-30T12:06:32",1596132392.653,3843874,-53,39,"98859d9e1a3a"
"2020-07-30T12:06:33",1596132393.079,3844300,-50,37,"98859d9e1a3a"
"2020-07-30T12:06:33",1596132393.698,3844919,-51,39,"98859d9e1a3a"
"2020-07-30T12:06:33",1596132393.906,3845127,-50,37,"98859d9e1a3a"
"2020-07-30T12:06:34",1596132394.32,3845541,-50,38,"98859d9e1a3a"
"2020-07-30T12:06:34",1596132394.529,3845750,-52,39,"98859d9e1a3a"
"2020-07-30T12:06:34",1596132394.944,3846165,-50,37,"98859d9e1a3a"
"2020-07-30T12:06:35",1596132395.151,3846372,-50,38,"98859d9e1a3a"
"2020-07-30T12:06:36",1596132396.394,3847615,-60,39,"98859d9e1a3a"
"2020-07-30T12:06:36",1596132396.815,3848036,-54,37,"98859d9e1a3a"
"2020-07-30T12:06:37",1596132397.019,3848240,-52,38,"98859d9e1a3a"
"2020-07-30T12:06:37",1596132397.445,3848666,-56,39,"98859d9e1a3a"
"2020-07-30T12:06:37",1596132397.648,3848869,-53,37,"98859d9e1a3a"
"2020-07-30T12:06:38",1596132398.064,3849285,-54,38,"98859d9e1a3a"
"2020-07-30T12:06:38",1596132398.274,3849495,-59,39,"98859d9e1a3a"
"2020-07-30T12:06:38",1596132398.694,3849915,-54,37,"98859d9e1a3a"
"2020-07-30T12:06:38",1596132398.894,3850115,-56,38,"98859d9e1a3a"
"2020-07-30T12:06:39",1596132399.321,3850542,-61,39,"98859d9e1a3a"
"2020-07-30T12:06:39",1596132399.522,3850743,-55,37,"98859d9e1a3a"
"2020-07-30T12:06:39",1596132399.942,3851163,-60,38,"98859d9e1a3a"
"2020-07-30T12:06:40",1596132400.15,3851371,-62,39,"98859d9e1a3a"
"2020-07-30T12:06:40",1596132400.564,3851785,-60,37,"98859d9e1a3a"
"2020-07-30T12:06:40",1596132400.775,3851996,-65,38,"98859d9e1a3a"
"2020-07-30T12:06:41",1596132401.195,3852416,-64,39,"98859d9e1a3a"
"2020-07-30T12:06:41",1596132401.405,3852626,-61,37,"98859d9e1a3a"
"2020-07-30T12:06:41",1596132401.83,3853051,-62,38,"98859d9e1a3a"
"2020-07-30T12:06:42",1596132402.034,3853255,-65,39,"98859d9e1a3a"
"2020-07-30T12:06:42",1596132402.455,3853676,-61,37,"98859d9e1a3a"
"2020-07-30T12:06:43",1596132403.076,3854297,-64,39,"98859d9e1a3a"
"2020-07-30T12:06:43",1596132403.279,3854500,-65,37,"98859d9e1a3a"
"2020-07-30T12:06:43",1596132403.707,3854928,-63,38,"98859d9e1a3a"
"2020-07-30T12:06:43",1596132403.907,3855128,-64,39,"98859d9e1a3a"
"2020-07-30T12:06:44",1596132404.326,3855547,-60,37,"98859d9e1a3a"
"2020-07-30T12:06:44",1596132404.529,3855750,-57,38,"98859d9e1a3a"
"2020-07-30T12:06:44",1596132404.952,3856173,-61,39,"98859d9e1a3a"
"2020-07-30T12:06:45",1596132405.16,3856381,-61,37,"98859d9e1a3a"
"2020-07-30T12:06:45",1596132405.58,3856801,-59,38,"98859d9e1a3a"
"2020-07-30T12:06:45",1596132405.785,3857006,-61,39,"98859d9e1a3a"
"2020-07-30T12:06:46",1596132406.205,3857426,-60,37,"98859d9e1a3a"
"2020-07-30T12:06:46",1596132406.416,3857637,-60,38,"98859d9e1a3a"
"2020-07-30T12:06:46",1596132406.835,3858056,-60,39,"98859d9e1a3a"
"2020-07-30T12:06:47",1596132407.045,3858266,-63,37,"98859d9e1a3a"
"2020-07-30T12:06:47",1596132407.46,3858681,-60,38,"98859d9e1a3a"
"2020-07-30T12:06:47",1596132407.666,3858887,-60,39,"98859d9e1a3a"
"2020-07-30T12:06:48",1596132408.085,3859306,-63,37,"98859d9e1a3a"
"2020-07-30T12:06:48",1596132408.292,3859513,-57,38,"98859d9e1a3a"
"2020-07-30T12:06:48",1596132408.717,3859938,-59,39,"98859d9e1a3a"
"2020-07-30T12:06:48",1596132408.921,3860142,-58,37,"98859d9e1a3a"
"2020-07-30T12:06:49",1596132409.341,3860562,-57,38,"98859d9e1a3a"
"2020-07-30T12:06:49",1596132409.542,3860763,-60,39,"98859d9e1a3a"
"2020-07-30T12:06:49",1596132409.962,3861183,-56,37,"98859d9e1a3a"
"2020-07-30T12:06:50",1596132410.171,3861392,-62,38,"98859d9e1a3a"
"2020-07-30T12:06:50",1596132410.585,3861806,-59,39,"98859d9e1a3a"
"2020-07-30T12:06:50",1596132410.787,3862008,-60,37,"98859d9e1a3a"
"2020-07-30T12:06:51",1596132411.204,3862425,-60,38,"98859d9e1a3a"
"2020-07-30T12:06:51",1596132411.413,3862634,-60,39,"98859d9e1a3a"
"2020-07-30T12:06:51",1596132411.829,3863050,-60,37,"98859d9e1a3a"
"2020-07-30T12:06:52",1596132412.037,3863258,-61,38,"98859d9e1a3a"
"2020-07-30T12:06:52",1596132412.46,3863681,-62,39,"98859d9e1a3a"
"2020-07-30T12:06:52",1596132412.661,3863882,-59,37,"98859d9e1a3a"
"2020-07-30T12:06:53",1596132413.082,3864303,-61,38,"98859d9e1a3a"
"2020-07-30T12:06:53",1596132413.286,3864507,-66,39,"98859d9e1a3a"
"2020-07-30T12:06:53",1596132413.7,3864921,-62,37,"98859d9e1a3a"
"2020-07-30T12:06:53",1596132413.906,3865127,-62,38,"98859d9e1a3a"
"2020-07-30T12:06:54",1596132414.33,3865551,-70,39,"98859d9e1a3a"
"2020-07-30T12:06:54",1596132414.531,3865752,-67,37,"98859d9e1a3a"
"2020-07-30T12:06:54",1596132414.953,3866174,-66,38,"98859d9e1a3a"
"2020-07-30T12:06:55",1596132415.159,3866380,-65,39,"98859d9e1a3a"
"2020-07-30T12:06:55",1596132415.578,3866799,-61,37,"98859d9e1a3a"
"2020-07-30T12:06:55",1596132415.78,3867001,-59,38,"98859d9e1a3a"
"2020-07-30T12:06:56",1596132416.201,3867422,-63,39,"98859d9e1a3a"
"2020-07-30T12:06:56",1596132416.408,3867629,-61,37,"98859d9e1a3a"
"2020-07-30T12:06:56",1596132416.825,3868046,-57,38,"98859d9e1a3a"
"2020-07-30T12:06:57",1596132417.036,3868257,-57,39,"98859d9e1a3a"
"2020-07-30T12:06:57",1596132417.456,3868677,-56,37,"98859d9e1a3a"
"2020-07-30T12:06:57",1596132417.658,3868879,-57,38,"98859d9e1a3a"
"2020-07-30T12:06:58",1596132418.081,3869302,-58,39,"98859d9e1a3a"
"2020-07-30T12:06:58",1596132418.285,3869506,-56,37,"98859d9e1a3a"
"2020-07-30T12:06:58",1596132418.709,3869930,-55,38,"98859d9e1a3a"
"2020-07-30T12:06:58",1596132418.913,3870134,-56,39,"98859d9e1a3a"
"2020-07-30T12:06:59",1596132419.338,3870559,-53,37,"98859d9e1a3a"
"2020-07-30T12:06:59",1596132419.537,3870758,-50,38,"98859d9e1a3a"
"2020-07-30T12:06:59",1596132419.962,3871183,-53,39,"98859d9e1a3a"
"2020-07-30T12:07:00",1596132420.164,3871385,-53,37,"98859d9e1a3a"
"2020-07-30T12:07:00",1596132420.576,3871797,-56,38,"98859d9e1a3a"
"2020-07-30T12:07:00",1596132420.786,3872007,-57,39,"98859d9e1a3a"
"2020-07-30T12:07:01",1596132421.206,3872427,-53,37,"98859d9e1a3a"
"2020-07-30T12:07:01",1596132421.836,3873057,-57,39,"98859d9e1a3a"
"2020-07-30T12:07:02",1596132422.457,3873678,-56,38,"98859d9e1a3a"
"2020-07-30T12:07:02",1596132422.661,3873882,-57,39,"98859d9e1a3a"
"2020-07-30T12:07:03",1596132423.077,3874298,-56,37,"98859d9e1a3a"
"2020-07-30T12:07:03",1596132423.283,3874504,-55,38,"98859d9e1a3a"
"2020-07-30T12:07:03",1596132423.702,3874923,-58,39,"98859d9e1a3a"
"2020-07-30T12:07:03",1596132423.911,3875132,-58,37,"98859d9e1a3a"
"2020-07-30T12:07:04",1596132424.334,3875555,-58,38,"98859d9e1a3a"
"2020-07-30T12:07:04",1596132424.536,3875757,-61,39,"98859d9e1a3a"
"2020-07-30T12:07:04",1596132424.96,3876181,-60,37,"98859d9e1a3a"
"2020-07-30T12:07:05",1596132425.16,3876381,-59,38,"98859d9e1a3a"
"2020-07-30T12:07:05",1596132425.585,3876806,-62,39,"98859d9e1a3a"
"2020-07-30T12:07:05",1596132425.788,3877009,-58,37,"98859d9e1a3a"
"2020-07-30T12:07:06",1596132426.204,3877425,-56,38,"98859d9e1a3a"
"2020-07-30T12:07:06",1596132426.414,3877635,-61,39,"98859d9e1a3a"
"2020-07-30T12:07:06",1596132426.83,3878051,-57,37,"98859d9e1a3a"
"2020-07-30T12:07:07",1596132427.036,3878257,-55,38,"98859d9e1a3a"
"2020-07-30T12:07:07",1596132427.455,3878676,-57,39,"98859d9e1a3a"
"2020-07-30T12:07:07",1596132427.663,3878884,-56,37,"98859d9e1a3a"
"2020-07-30T12:07:08",1596132428.084,3879305,-56,38,"98859d9e1a3a"
"2020-07-30T12:07:08",1596132428.286,3879507,-56,39,"98859d9e1a3a"
"2020-07-30T12:07:08",1596132428.705,3879926,-53,37,"98859d9e1a3a"
"2020-07-30T12:07:08",1596132428.907,3880128,-51,38,"98859d9e1a3a"
"2020-07-30T12:07:09",1596132429.327,3880548,-54,39,"98859d9e1a3a"
"2020-07-30T12:07:09",1596132429.535,3880756,-53,37,"98859d9e1a3a"
"2020-07-30T12:07:09",1596132429.952,3881173,-52,38,"98859d9e1a3a"
"2020-07-30T12:07:10",1596132430.159,3881380,-55,39,"98859d9e1a3a"
"2020-07-30T12:07:10",1596132430.579,3881800,-52,37,"98859d9e1a3a"
"2020-07-30T12:07:10",1596132430.785,3882006,-51,38,"98859d9e1a3a"
"2020-07-30T12:07:11",1596132431.201,3882422,-53,39,"98859d9e1a3a"
"2020-07-30T12:07:11",1596132431.409,3882630,-50,37,"98859d9e1a3a"
"2020-07-30T12:07:11",1596132431.827,3883048,-50,38,"98859d9e1a3a"
"2020-07-30T12:07:12",1596132432.036,3883257,-52,39,"98859d9e1a3a"
"2020-07-30T12:07:12",1596132432.461,3883682,-51,37,"98859d9e1a3a"
"2020-07-30T12:07:12",1596132432.66,3883881,-52,38,"98859d9e1a3a"
"2020-07-30T12:07:13",1596132433.079,3884300,-52,39,"98859d9e1a3a"
"2020-07-30T12:07:13",1596132433.286,3884507,-50,37,"98859d9e1a3a"
"2020-07-30T12:07:13",1596132433.709,3884930,-51,38,"98859d9e1a3a"
"2020-07-30T12:07:13",1596132433.913,3885134,-53,39,"98859d9e1a3a"
"2020-07-30T12:07:14",1596132434.329,3885550,-52,37,"98859d9e1a3a"
"2020-07-30T12:07:14",1596132434.538,3885759,-52,38,"98859d9e1a3a"
"2020-07-30T12:07:14",1596132434.956,3886177,-53,39,"98859d9e1a3a"
"2020-07-30T12:07:15",1596132435.16,3886381,-53,37,"98859d9e1a3a"
"2020-07-30T12:07:15",1596132435.581,3886802,-55,38,"98859d9e1a3a"
"2020-07-30T12:07:16",1596132436.411,3887632,-53,38,"98859d9e1a3a"
"2020-07-30T12:07:16",1596132436.831,3888052,-56,39,"98859d9e1a3a"
"2020-07-30T12:07:17",1596132437.034,3888255,-52,37,"98859d9e1a3a"
"2020-07-30T12:07:17",1596132437.451,3888672,-55,38,"98859d9e1a3a"
"2020-07-30T12:07:17",1596132437.659,3888880,-57,39,"98859d9e1a3a"
"2020-07-30T12:07:18",1596132438.077,3889298,-53,37,"98859d9e1a3a"
"2020-07-30T12:07:18",1596132438.285,3889506,-58,38,"98859d9e1a3a"
"2020-07-30T12:07:18",1596132438.705,3889926,-62,39,"98859d9e1a3a"
"2020-07-30T12:07:18",1596132438.913,3890134,-60,37,"98859d9e1a3a"
"2020-07-30T12:07:19",1596132439.327,3890548,-59,38,"98859d9e1a3a"
"2020-07-30T12:07:19",1596132439.529,3890750,-59,39,"98859d9e1a3a"
"2020-07-30T12:07:19",1596132439.948,3891169,-60,37,"98859d9e1a3a"
"2020-07-30T12:07:20",1596132440.154,3891375,-58,38,"98859d9e1a3a"
"2020-07-30T12:07:20",1596132440.573,3891794,-60,39,"98859d9e1a3a"
"2020-07-30T12:07:20",1596132440.78,3892001,-57,37,"98859d9e1a3a"
"2020-07-30T12:07:21",1596132441.194,3892415,-55,38,"98859d9e1a3a"
"2020-07-30T12:07:21",1596132441.404,3892625,-60,39,"98859d9e1a3a"
"2020-07-30T12:07:21",1596132441.823,3893044,-55,37,"98859d9e1a3a"
"2020-07-30T12:07:22",1596132442.03,3893251,-55,38,"98859d9e1a3a"
"2020-07-30T12:07:22",1596132442.447,3893668,-53,39,"98859d9e1a3a"
"2020-07-30T12:07:22",1596132442.65,3893871,-52,37,"98859d9e1a3a"
"2020-07-30T12:07:23",1596132443.069,3894290,-57,38,"98859d9e1a3a"
"2020-07-30T12:07:23",1596132443.27,3894491,-57,39,"98859d9e1a3a"
"2020-07-30T12:07:23",1596132443.688,3894909,-53,37,"98859d9e1a3a"
"2020-07-30T12:07:23",1596132443.894,3895115,-53,38,"98859d9e1a3a"
"2020-07-30T12:07:24",1596132444.312,3895533,-53,39,"98859d9e1a3a"
"2020-07-30T12:07:24",1596132444.517,3895738,-51,37,"98859d9e1a3a"
"2020-07-30T12:07:24",1596132444.937,3896158,-51,38,"98859d9e1a3a"
"2020-07-30T12:07:25",1596132445.147,3896368,-52,39,"98859d9e1a3a"
"2020-07-30T12:07:25",1596132445.571,3896792,-51,37,"98859d9e1a3a"
"2020-07-30T12:07:25",1596132445.773,3896994,-49,38,"98859d9e1a3a"
"2020-07-30T12:07:26",1596132446.197,3897418,-51,39,"98859d9e1a3a"
"2020-07-30T12:07:26",1596132446.407,3897628,-50,37,"98859d9e1a3a"
"2020-07-30T12:07:26",1596132446.822,3898043,-52,38,"98859d9e1a3a"
"2020-07-30T12:07:27",1596132447.031,3898252,-53,39,"98859d9e1a3a"
"2020-07-30T12:07:27",1596132447.444,3898665,-50,37,"98859d9e1a3a"
"2020-07-30T12:07:27",1596132447.655,3898876,-51,38,"98859d9e1a3a"
"2020-07-30T12:07:28",1596132448.071,3899292,-53,39,"98859d9e1a3a"
"2020-07-30T12:07:28",1596132448.275,3899496,-53,37,"98859d9e1a3a"
"2020-07-30T12:07:28",1596132448.693,3899914,-53,38,"98859d9e1a3a"
"2020-07-30T12:07:28",1596132448.901,3900122,-58,39,"98859d9e1a3a"
"2020-07-30T12:07:29",1596132449.317,3900538,-57,37,"98859d9e1a3a"
"2020-07-30T12:07:29",1596132449.527,3900748,-55,38,"98859d9e1a3a"
"2020-07-30T12:07:29",1596132449.947,3901168,-57,39,"98859d9e1a3a"
"2020-07-30T12:07:30",1596132450.152,3901373,-57,37,"98859d9e1a3a"
"2020-07-30T12:07:30",1596132450.565,3901786,-57,38,"98859d9e1a3a"
"2020-07-30T12:07:30",1596132450.774,3901995,-61,39,"98859d9e1a3a"
"2020-07-30T12:07:31",1596132451.194,3902415,-59,37,"98859d9e1a3a"
"2020-07-30T12:07:31",1596132451.401,3902622,-60,38,"98859d9e1a3a"
"2020-07-30T12:07:31",1596132451.821,3903042,-65,39,"98859d9e1a3a"
"2020-07-30T12:07:32",1596132452.026,3903247,-63,37,"98859d9e1a3a"
"2020-07-30T12:07:32",1596132452.445,3903666,-66,38,"98859d9e1a3a"
"2020-07-30T12:07:32",1596132452.647,3903868,-67,39,"98859d9e1a3a"
"2020-07-30T12:07:33",1596132453.068,3904289,-59,37,"98859d9e1a3a"
"2020-07-30T12:07:33",1596132453.271,3904492,-60,38,"98859d9e1a3a"
"2020-07-30T12:07:33",1596132453.688,3904909,-61,39,"98859d9e1a3a"
"2020-07-30T12:07:33",1596132453.89,3905111,-57,37,"98859d9e1a3a"
"2020-07-30T12:07:34",1596132454.31,3905531,-55,38,"98859d9e1a3a"
"2020-07-30T12:07:34",1596132454.515,3905736,-59,39,"98859d9e1a3a"
"2020-07-30T12:07:34",1596132454.932,3906153,-54,37,"98859d9e1a3a"
"2020-07-30T12:07:35",1596132455.137,3906358,-54,38,"98859d9e1a3a"
"2020-07-30T12:07:35",1596132455.557,3906778,-58,39,"98859d9e1a3a"
"2020-07-30T12:07:35",1596132455.768,3906989,-53,37,"98859d9e1a3a"
"2020-07-30T12:07:36",1596132456.188,3907409,-53,38,"98859d9e1a3a"
"2020-07-30T12:07:36",1596132456.389,3907610,-55,39,"98859d9e1a3a"
"2020-07-30T12:07:36",1596132456.811,3908032,-52,37,"98859d9e1a3a"
"2020-07-30T12:07:37",1596132457.017,3908238,-52,38,"98859d9e1a3a"
"2020-07-30T12:07:37",1596132457.434,3908655,-54,39,"98859d9e1a3a"
"2020-07-30T12:07:37",1596132457.642,3908863,-51,37,"98859d9e1a3a"
"2020-07-30T12:07:38",1596132458.062,3909283,-50,38,"98859d9e1a3a"
"2020-07-30T12:07:38",1596132458.27,3909491,-53,39,"98859d9e1a3a"
"2020-07-30T12:07:38",1596132458.688,3909909,-51,37,"98859d9e1a3a"
"2020-07-30T12:07:38",1596132458.892,3910113,-49,38,"98859d9e1a3a"
"2020-07-30T12:07:39",1596132459.312,3910533,-55,39,"98859d9e1a3a"
"2020-07-30T12:07:39",1596132459.513,3910734,-52,37,"98859d9e1a3a"
"2020-07-30T12:07:39",1596132459.933,3911154,-54,38,"98859d9e1a3a"
"2020-07-30T12:07:40",1596132460.142,3911363,-57,39,"98859d9e1a3a"
"2020-07-30T12:07:40",1596132460.561,3911782,-52,37,"98859d9e1a3a"
"2020-07-30T12:07:40",1596132460.763,3911984,-56,38,"98859d9e1a3a"
"2020-07-30T12:07:41",1596132461.186,3912407,-53,39,"98859d9e1a3a"
"2020-07-30T12:07:41",1596132461.391,3912612,-51,37,"98859d9e1a3a"
"2020-07-30T12:07:41",1596132461.805,3913026,-56,38,"98859d9e1a3a"
"2020-07-30T12:07:42",1596132462.014,3913235,-56,39,"98859d9e1a3a"
"2020-07-30T12:07:42",1596132462.434,3913655,-53,37,"98859d9e1a3a"
"2020-07-30T12:07:42",1596132462.638,3913859,-53,38,"98859d9e1a3a"
"2020-07-30T12:07:43",1596132463.061,3914282,-57,39,"98859d9e1a3a"
"2020-07-30T12:07:43",1596132463.261,3914482,-57,37,"98859d9e1a3a"
"2020-07-30T12:07:43",1596132463.687,3914908,-58,38,"98859d9e1a3a"
"2020-07-30T12:07:43",1596132463.897,3915118,-61,39,"98859d9e1a3a"
"2020-07-30T12:07:44",1596132464.317,3915538,-63,37,"98859d9e1a3a"
"2020-07-30T12:07:44",1596132464.517,3915738,-62,38,"98859d9e1a3a"
"2020-07-30T12:07:44",1596132464.938,3916159,-60,39,"98859d9e1a3a"
"2020-07-30T12:07:45",1596132465.145,3916366,-60,37,"98859d9e1a3a"
"2020-07-30T12:07:45",1596132465.56,3916781,-60,38,"98859d9e1a3a"
"2020-07-30T12:07:45",1596132465.768,3916989,-62,39,"98859d9e1a3a"
"2020-07-30T12:07:46",1596132466.191,3917412,-58,37,"98859d9e1a3a"
"2020-07-30T12:07:46",1596132466.395,3917616,-57,38,"98859d9e1a3a"
"2020-07-30T12:07:46",1596132466.808,3918029,-57,39,"98859d9e1a3a"
"2020-07-30T12:07:47",1596132467.018,3918239,-54,37,"98859d9e1a3a"
"2020-07-30T12:07:47",1596132467.437,3918658,-52,38,"98859d9e1a3a"
"2020-07-30T12:07:47",1596132467.641,3918862,-53,39,"98859d9e1a3a"
"2020-07-30T12:07:48",1596132468.06,3919281,-56,37,"98859d9e1a3a"
"2020-07-30T12:07:48",1596132468.266,3919487,-56,38,"98859d9e1a3a"
"2020-07-30T12:07:48",1596132468.69,3919911,-56,39,"98859d9e1a3a"
"2020-07-30T12:07:48",1596132468.891,3920112,-53,37,"98859d9e1a3a"
"2020-07-30T12:07:49",1596132469.31,3920531,-54,38,"98859d9e1a3a"
"2020-07-30T12:07:49",1596132469.515,3920736,-58,39,"98859d9e1a3a"
"2020-07-30T12:07:49",1596132469.935,3921156,-58,37,"98859d9e1a3a"
"2020-07-30T12:07:50",1596132470.142,3921363,-49,38,"98859d9e1a3a"
"2020-07-30T12:07:50",1596132470.761,3921982,-50,37,"98859d9e1a3a"
"2020-07-30T12:07:51",1596132471.184,3922405,-54,38,"98859d9e1a3a"
"2020-07-30T12:07:51",1596132471.389,3922610,-52,39,"98859d9e1a3a"
"2020-07-30T12:07:51",1596132471.811,3923032,-50,37,"98859d9e1a3a"
"2020-07-30T12:07:52",1596132472.012,3923233,-49,38,"98859d9e1a3a"
"2020-07-30T12:07:52",1596132472.432,3923653,-50,39,"98859d9e1a3a"
"2020-07-30T12:07:52",1596132472.636,3923857,-51,37,"98859d9e1a3a"
"2020-07-30T12:07:53",1596132473.055,3924276,-53,38,"98859d9e1a3a"
"2020-07-30T12:07:53",1596132473.26,3924481,-53,39,"98859d9e1a3a"
"2020-07-30T12:07:53",1596132473.682,3924903,-52,37,"98859d9e1a3a"
"2020-07-30T12:07:53",1596132473.89,3925111,-51,38,"98859d9e1a3a"
"2020-07-30T12:07:54",1596132474.308,3925529,-53,39,"98859d9e1a3a"
"2020-07-30T12:07:54",1596132474.508,3925729,-51,37,"98859d9e1a3a"
"2020-07-30T12:07:55",1596132475.134,3926355,-53,39,"98859d9e1a3a"
"2020-07-30T12:07:55",1596132475.55,3926771,-51,37,"98859d9e1a3a"
"2020-07-30T12:07:55",1596132475.76,3926981,-52,38,"98859d9e1a3a"