"time","epoch_time","boot_time","rssi","ch","mac"
"2020-07-30T12:06:30",1596132390.989,10218847,-51,38,"a71850b36037"
"2020-07-30T12:06:32",1596132392.249,10220107,-50,39,"a71850b36037"
"2020-07-30T12:06:32",1596132392.457,10220315,-51,37,"a71850b36037"
"2020-07-30T12:06:32",1596132392.87,10220728,-50,38,"a71850b36037"
"2020-07-30T12:06:33",1596132393.49,10221348,-48,37,"a71850b36037"
"2020-07-30T12:06:34",1596132394.326,10222184,-50,37,"a71850b36037"
"2020-07-30T12:06:34",1596132394.737,10222595,-49,38,"a71850b36037"
"2020-07-30T12:06:35",1596132395.36,10223218,-50,37,"a71850b36037"
"2020-07-30T12:06:35",1596132395.57,10223428,-49,38,"a71850b36037"
"2020-07-30T12:06:35",1596132395.984,10223842,-50,39,"a71850b36037"
"2020-07-30T12:06:37",1596132397.219,10225077,-50,37,"a71850b36037"
"2020-07-30T12:06:37",1596132397.434,10225292,-51,38,"a71850b36037"
"2020-07-30T12:06:37",1596132397.85,10225708,-54,39,"a71850b36037"
"2020-07-30T12:06:38",1596132398.058,10225916,-57,37,"a71850b36037"
"2020-07-30T12:06:38",1596132398.474,10226332,-53,38,"a71850b36037"
"2020-07-30T12:06:38",1596132398.681,10226539,-57,39,"a71850b36037"
"2020-07-30T12:06:39",1596132399.1,10226958,-57,37,"a71850b36037"
"2020-07-30T12:06:39",1596132399.305,10227163,-57,38,"a71850b36037"
"2020-07-30T12:06:39",1596132399.722,10227580,-63,39,"a71850b36037"
"2020-07-30T12:06:39",1596132399.927,10227785,-57,37,"a71850b36037"
"2020-07-30T12:06:40",1596132400.344,10228202,-61,38,"a71850b36037"
"2020-07-30T12:06:40",1596132400.55,10228408,-61,39,"a71850b36037"
"2020-07-30T12:06:40",1596132400.963,10228821,-63,37,"a71850b36037"
"2020-07-30T12:06:41",1596132401.174,10229032,-59,38,"a71850b36037"
"2020-07-30T12:06:41",1596132401.592,10229450,-60,39,"a71850b36037"
"2020-07-30T12:06:41",1596132401.798,10229656,-66,37,"a71850b36037"
"2020-07-30T12:06:42",1596132402.219,10230077,-61,38,"a71850b36037"
"2020-07-30T12:06:42",1596132402.425,10230283,-59,39,"a71850b36037"
"2020-07-30T12:06:42",1596132402.835,10230693,-62,37,"a71850b36037"
"2020-07-30T12:06:43",1596132403.045,10230903,-62,38,"a71850b36037"
"2020-07-30T12:06:43",1596132403.464,10231322,-63,39,"a71850b36037"
"2020-07-30T12:06:43",1596132403.668,10231526,-67,37,"a71850b36037"
"2020-07-30T12:06:44",1596132404.091,10231949,-61,38,"a71850b36037"
"2020-07-30T12:06:44",1596132404.298,10232156,-58,39,"a71850b36037"
"2020-07-30T12:06:44",1596132404.706,10232564,-63,37,"a71850b36037"
"2020-07-30T12:06:44",1596132404.92,10232778,-62,38,"a71850b36037"
"2020-07-30T12:06:45",1596132405.336,10233194,-60,39,"a71850b36037"
"2020-07-30T12:06:45",1596132405.55,10233408,-59,37,"a71850b36037"
"2020-07-30T12:06:45",1596132405.959,10233817,-58,38,"a71850b36037"
"2020-07-30T12:06:46",1596132406.586,10234444,-61,37,"a71850b36037"
"2020-07-30T12:06:46",1596132406.795,10234653,-65,38,"a71850b36037"
"2020-07-30T12:06:47",1596132407.21,10235068,-59,39,"a71850b36037"
"2020-07-30T12:06:47",1596132407.42,10235278,-64,37,"a71850b36037"
"2020-07-30T12:06:47",1596132407.834,10235692,-60,38,"a71850b36037"
"2020-07-30T12:06:48",1596132408.049,10235907,-59,39,"a71850b36037"
"2020-07-30T12:06:48",1596132408.461,10236319,-60,37,"a71850b36037"
"2020-07-30T12:06:48",1596132408.674,10236532,-57,38,"a71850b36037"
"2020-07-30T12:06:49",1596132409.086,10236944,-56,39,"a71850b36037"
"2020-07-30T12:06:49",1596132409.296,10237154,-58,37,"a71850b36037"
"2020-07-30T12:06:50",1596132410.338,10238196,-59,37,"a71850b36037"
"2020-07-30T12:06:50",1596132410.546,10238404,-63,38,"a71850b36037"
"2020-07-30T12:06:50",1596132410.961,10238819,-60,39,"a71850b36037"
"2020-07-30T12:06:51",1596132411.168,10239026,-60,37,"a71850b36037"
"2020-07-30T12:06:51",1596132411.587,10239445,-57,38,"a71850b36037"
"2020-07-30T12:06:51",1596132411.792,10239650,-60,39,"a71850b36037"
"2020-07-30T12:06:52",1596132412.207,10240065,-61,37,"a71850b36037"
"2020-07-30T12:06:52",1596132412.826,10240684,-62,39,"a71850b36037"
"2020-07-30T12:06:53",1596132413.042,10240900,-62,37,"a71850b36037"
"2020-07-30T12:06:53",1596132413.458,10241316,-64,38,"a71850b36037"
"2020-07-30T12:06:53",1596132413.667,10241525,-67,39,"a71850b36037"
"2020-07-30T12:06:54",1596132414.08,10241938,-64,37,"a71850b36037"
"2020-07-30T12:06:54",1596132414.289,10242147,-66,38,"a71850b36037"
"2020-07-30T12:06:54",1596132414.702,10242560,-63,39,"a71850b36037"
"2020-07-30T12:06:54",1596132414.916,10242774,-62,37,"a71850b36037"
"2020-07-30T12:06:55",1596132415.332,10243190,-63,38,"a71850b36037"
"2020-07-30T12:06:55",1596132415.54,10243398,-63,39,"a71850b36037"
"2020-07-30T12:06:55",1596132415.956,10243814,-60,37,"a71850b36037"
"2020-07-30T12:06:56",1596132416.581,10244439,-59,39,"a71850b36037"
"2020-07-30T12:06:56",1596132416.789,10244647,-58,37,"a71850b36037"
"2020-07-30T12:06:57",1596132417.202,10245060,-54,38,"a71850b36037"
"2020-07-30T12:06:57",1596132417.407,10245265,-53,39,"a71850b36037"
"2020-07-30T12:06:57",1596132417.828,10245686,-68,37,"a71850b36037"
"2020-07-30T12:06:58",1596132418.035,10245893,-62,38,"a71850b36037"
"2020-07-30T12:06:58",1596132418.45,10246308,-54,39,"a71850b36037"
"2020-07-30T12:06:59",1596132419.28,10247138,-52,39,"a71850b36037"
"2020-07-30T12:06:59",1596132419.698,10247556,-53,37,"a71850b36037"
"2020-07-30T12:06:59",1596132419.909,10247767,-50,38,"a71850b36037"
"2020-07-30T12:07:00",1596132420.319,10248177,-52,39,"a71850b36037"
"2020-07-30T12:07:00",1596132420.531,10248389,-59,37,"a71850b36037"
"2020-07-30T12:07:00",1596132420.945,10248803,-58,38,"a71850b36037"
"2020-07-30T12:07:01",1596132421.157,10249015,-56,39,"a71850b36037"
"2020-07-30T12:07:01",1596132421.776,10249634,-56,38,"a71850b36037"
"2020-07-30T12:07:02",1596132422.189,10250047,-54,39,"a71850b36037"
"2020-07-30T12:07:03",1596132423.031,10250889,-56,39,"a71850b36037"
"2020-07-30T12:07:03",1596132423.444,10251302,-56,37,"a71850b36037"
"2020-07-30T12:07:03",1596132423.653,10251511,-56,38,"a71850b36037"
"2020-07-30T12:07:04",1596132424.066,10251924,-56,39,"a71850b36037"
"2020-07-30T12:07:04",1596132424.279,10252137,-60,37,"a71850b36037"
"2020-07-30T12:07:04",1596132424.69,10252548,-58,38,"a71850b36037"
"2020-07-30T12:07:04",1596132424.902,10252760,-61,39,"a71850b36037"
"2020-07-30T12:07:05",1596132425.319,10253177,-62,37,"a71850b36037"
"2020-07-30T12:07:05",1596132425.531,10253389,-57,38,"a71850b36037"
"2020-07-30T12:07:06",1596132426.568,10254426,-57,38,"a71850b36037"
"2020-07-30T12:07:06",1596132426.775,10254633,-54,39,"a71850b36037"
"2020-07-30T12:07:07",1596132427.197,10255055,-58,37,"a71850b36037"
"2020-07-30T12:07:07",1596132427.408,10255266,-56,38,"a71850b36037"
"2020-07-30T12:07:07",1596132427.818,10255676,-56,39,"a71850b36037"
"2020-07-30T12:07:08",1596132428.03,10255888,-56,37,"a71850b36037"
"2020-07-30T12:07:08",1596132428.442,10256300,-52,38,"a71850b36037"
"2020-07-30T12:07:08",1596132428.654,10256512,-53,39,"a71850b36037"
"2020-07-30T12:07:09",1596132429.066,10256924,-56,37,"a71850b36037"
"2020-07-30T12:07:09",1596132429.281,10257139,-54,38,"a71850b36037"
"2020-07-30T12:07:09",1596132429.686,10257544,-52,39,"a71850b36037"
"2020-07-30T12:07:09",1596132429.901,10257759,-52,37,"a71850b36037"
"2020-07-30T12:07:10",1596132430.319,10258177,-50,38,"a71850b36037"
"2020-07-30T12:07:10",1596132430.528,10258386,-51,39,"a71850b36037"
"2020-07-30T12:07:10",1596132430.941,10258799,-52,37,"a71850b36037"
"2020-07-30T12:07:11",1596132431.148,10259006,-50,38,"a71850b36037"
"2020-07-30T12:07:11",1596132431.561,10259419,-50,39,"a71850b36037"
"2020-07-30T12:07:11",1596132431.77,10259628,-52,37,"a71850b36037"
"2020-07-30T12:07:12",1596132432.193,10260051,-49,38,"a71850b36037"
"2020-07-30T12:07:12",1596132432.4,10260258,-51,39,"a71850b36037"
"2020-07-30T12:07:12",1596132432.816,10260674,-50,37,"a71850b36037"
"2020-07-30T12:07:13",1596132433.021,10260879,-48,38,"a71850b36037"
"2020-07-30T12:07:13",1596132433.438,10261296,-51,39,"a71850b36037"
"2020-07-30T12:07:13",1596132433.647,10261505,-53,37,"a71850b36037"
"2020-07-30T12:07:14",1596132434.065,10261923,-49,38,"a71850b36037"
"2020-07-30T12:07:14",1596132434.27,10262128,-50,39,"a71850b36037"
"2020-07-30T12:07:14",1596132434.681,10262539,-54,37,"a71850b36037"
"2020-07-30T12:07:14",1596132434.894,10262752,-54,38,"a71850b36037"
"2020-07-30T12:07:15",1596132435.313,10263171,-53,39,"a71850b36037"
"2020-07-30T12:07:15",1596132435.522,10263380,-56,37,"a71850b36037"
"2020-07-30T12:07:15",1596132435.931,10263789,-52,38,"a71850b36037"
"2020-07-30T12:07:16",1596132436.35,10264208,-52,39,"a71850b36037"
"2020-07-30T12:07:16",1596132436.559,10264417,-58,37,"a71850b36037"
"2020-07-30T12:07:17",1596132437.186,10265044,-53,39,"a71850b36037"
"2020-07-30T12:07:17",1596132437.399,10265257,-57,37,"a71850b36037"
"2020-07-30T12:07:17",1596132437.81,10265668,-56,38,"a71850b36037"
"2020-07-30T12:07:18",1596132438.022,10265880,-56,39,"a71850b36037"
"2020-07-30T12:07:18",1596132438.228,10266086,-57,39,"a71850b36037"
"2020-07-30T12:07:18",1596132438.433,10266291,-57,37,"a71850b36037"
"2020-07-30T12:07:18",1596132438.648,10266506,-57,38,"a71850b36037"
"2020-07-30T12:07:19",1596132439.063,10266921,-59,39,"a71850b36037"
"2020-07-30T12:07:20",1596132440.1,10267958,-59,39,"a71850b36037"
"2020-07-30T12:07:20",1596132440.305,10268163,-59,37,"a71850b36037"
"2020-07-30T12:07:20",1596132440.932,10268790,-56,39,"a71850b36037"
"2020-07-30T12:07:21",1596132441.351,10269209,-57,37,"a71850b36037"
"2020-07-30T12:07:21",1596132441.561,10269419,-54,38,"a71850b36037"
"2020-07-30T12:07:21",1596132441.974,10269832,-53,39,"a71850b36037"
"2020-07-30T12:07:22",1596132442.182,10270040,-52,37,"a71850b36037"
"2020-07-30T12:07:22",1596132442.602,10270460,-52,38,"a71850b36037"
"2020-07-30T12:07:22",1596132442.812,10270670,-53,39,"a71850b36037"
"2020-07-30T12:07:23",1596132443.02,10270878,-56,37,"a71850b36037"
"2020-07-30T12:07:23",1596132443.428,10271286,-57,38,"a71850b36037"
"2020-07-30T12:07:24",1596132444.058,10271916,-53,37,"a71850b36037"
"2020-07-30T12:07:24",1596132444.271,10272129,-53,38,"a71850b36037"
"2020-07-30T12:07:24",1596132444.475,10272333,-50,38,"a71850b36037"
"2020-07-30T12:07:24",1596132444.683,10272541,-48,39,"a71850b36037"
"2020-07-30T12:07:24",1596132444.896,10272754,-51,37,"a71850b36037"
"2020-07-30T12:07:25",1596132445.307,10273165,-49,38,"a71850b36037"
"2020-07-30T12:07:25",1596132445.727,10273585,-51,39,"a71850b36037"
"2020-07-30T12:07:25",1596132445.938,10273796,-50,37,"a71850b36037"
"2020-07-30T12:07:26",1596132446.146,10274004,-51,38,"a71850b36037"
"2020-07-30T12:07:27",1596132447.18,10275038,-51,38,"a71850b36037"
"2020-07-30T12:07:27",1596132447.602,10275460,-52,39,"a71850b36037"
"2020-07-30T12:07:27",1596132447.81,10275668,-53,37,"a71850b36037"
"2020-07-30T12:07:28",1596132448.226,10276084,-52,38,"a71850b36037"
"2020-07-30T12:07:28",1596132448.435,10276293,-52,39,"a71850b36037"
"2020-07-30T12:07:29",1596132449.063,10276921,-54,38,"a71850b36037"
"2020-07-30T12:07:29",1596132449.68,10277538,-54,37,"a71850b36037"
"2020-07-30T12:07:31",1596132451.147,10279005,-61,39,"a71850b36037"
"2020-07-30T12:07:31",1596132451.562,10279420,-58,37,"a71850b36037"
"2020-07-30T12:07:31",1596132451.772,10279630,-61,38,"a71850b36037"
"2020-07-30T12:07:32",1596132452.181,10280039,-65,39,"a71850b36037"
"2020-07-30T12:07:32",1596132452.396,10280254,-64,37,"a71850b36037"
"2020-07-30T12:07:32",1596132452.603,10280461,-64,37,"a71850b36037"
"2020-07-30T12:07:32",1596132452.812,10280670,-62,38,"a71850b36037"
"2020-07-30T12:07:33",1596132453.021,10280879,-62,39,"a71850b36037"
"2020-07-30T12:07:33",1596132453.227,10281085,-62,39,"a71850b36037"
"2020-07-30T12:07:33",1596132453.428,10281286,-58,37,"a71850b36037"
"2020-07-30T12:07:33",1596132453.852,10281710,-57,38,"a71850b36037"
"2020-07-30T12:07:34",1596132454.06,10281918,-56,39,"a71850b36037"
"2020-07-30T12:07:34",1596132454.477,10282335,-58,37,"a71850b36037"
"2020-07-30T12:07:34",1596132454.683,10282541,-56,38,"a71850b36037"
"2020-07-30T12:07:35",1596132455.101,10282959,-56,39,"a71850b36037"
"2020-07-30T12:07:35",1596132455.307,10283165,-54,37,"a71850b36037"
"2020-07-30T12:07:35",1596132455.725,10283583,-53,38,"a71850b36037"
"2020-07-30T12:07:35",1596132455.926,10283784,-54,39,"a71850b36037"
"2020-07-30T12:07:36",1596132456.348,10284206,-53,37,"a71850b36037"
"2020-07-30T12:07:36",1596132456.552,10284410,-52,38,"a71850b36037"
"2020-07-30T12:07:36",1596132456.976,10284834,-51,39,"a71850b36037"
"2020-07-30T12:07:37",1596132457.178,10285036,-52,37,"a71850b36037"
"2020-07-30T12:07:37",1596132457.597,10285455,-50,38,"a71850b36037"
"2020-07-30T12:07:37",1596132457.801,10285659,-50,39,"a71850b36037"
"2020-07-30T12:07:38",1596132458.433,10286291,-48,38,"a71850b36037"
"2020-07-30T12:07:38",1596132458.85,10286708,-52,39,"a71850b36037"
"2020-07-30T12:07:39",1596132459.051,10286909,-52,37,"a71850b36037"
"2020-07-30T12:07:39",1596132459.475,10287333,-49,38,"a71850b36037"
"2020-07-30T12:07:39",1596132459.675,10287533,-53,39,"a71850b36037"
"2020-07-30T12:07:40",1596132460.102,10287960,-53,37,"a71850b36037"
"2020-07-30T12:07:40",1596132460.301,10288159,-54,38,"a71850b36037"
"2020-07-30T12:07:41",1596132461.347,10289205,-52,38,"a71850b36037"
"2020-07-30T12:07:41",1596132461.551,10289409,-50,39,"a71850b36037"
"2020-07-30T12:07:41",1596132461.767,10289625,-57,37,"a71850b36037"
"2020-07-30T12:07:41",1596132461.977,10289835,-53,37,"a71850b36037"
"2020-07-30T12:07:42",1596132462.183,10290041,-54,38,"a71850b36037"
"2020-07-30T12:07:42",1596132462.397,10290255,-53,39,"a71850b36037"
"2020-07-30T12:07:42",1596132462.808,10290666,-57,37,"a71850b36037"
"2020-07-30T12:07:43",1596132463.228,10291086,-57,38,"a71850b36037"
"2020-07-30T12:07:43",1596132463.429,10291287,-56,39,"a71850b36037"
"2020-07-30T12:07:43",1596132463.852,10291710,-58,37,"a71850b36037"
"2020-07-30T12:07:44",1596132464.061,10291919,-59,38,"a71850b36037"
"2020-07-30T12:07:44",1596132464.476,10292334,-63,39,"a71850b36037"
"2020-07-30T12:07:44",1596132464.686,10292544,-61,37,"a71850b36037"
"2020-07-30T12:07:44",1596132464.896,10292754,-61,38,"a71850b36037"
"2020-07-30T12:07:45",1596132465.101,10292959,-61,38,"a71850b36037"
"2020-07-30T12:07:45",1596132465.311,10293169,-60,39,"a71850b36037"
"2020-07-30T12:07:45",1596132465.722,10293580,-63,37,"a71850b36037"
"2020-07-30T12:07:45",1596132465.93,10293788,-59,38,"a71850b36037"
"2020-07-30T12:07:46",1596132466.346,10294204,-58,39,"a71850b36037"
"2020-07-30T12:07:46",1596132466.549,10294407,-57,37,"a71850b36037"
"2020-07-30T12:07:46",1596132466.974,10294832,-53,38,"a71850b36037"
"2020-07-30T12:07:47",1596132467.183,10295041,-53,39,"a71850b36037"
"2020-07-30T12:07:47",1596132467.597,10295455,-57,37,"a71850b36037"
"2020-07-30T12:07:47",1596132467.806,10295664,-54,38,"a71850b36037"
"2020-07-30T12:07:48",1596132468.224,10296082,-54,39,"a71850b36037"
"2020-07-30T12:07:48",1596132468.427,10296285,-57,37,"a71850b36037"
"2020-07-30T12:07:49",1596132469.469,10297327,-58,37,"a71850b36037"
"2020-07-30T12:07:49",1596132469.677,10297535,-53,38,"a71850b36037"
"2020-07-30T12:07:50",1596132470.097,10297955,-54,39,"a71850b36037"
"2020-07-30T12:07:50",1596132470.301,10298159,-50,37,"a71850b36037"
"2020-07-30T12:07:50",1596132470.723,10298581,-48,38,"a71850b36037"
"2020-07-30T12:07:50",1596132470.929,10298787,-50,39,"a71850b36037"
"2020-07-30T12:07:51",1596132471.344,10299202,-50,37,"a71850b36037"
"2020-07-30T12:07:51",1596132471.554,10299412,-49,38,"a71850b36037"
"2020-07-30T12:07:51",1596132471.963,10299821,-49,39,"a71850b36037"
"2020-07-30T12:07:52",1596132472.173,10300031,-50,37,"a71850b36037"
"2020-07-30T12:07:52",1596132472.592,10300450,-50,38,"a71850b36037"
"2020-07-30T12:07:52",1596132472.797,10300655,-52,39,"a71850b36037"
"2020-07-30T12:07:53",1596132473.217,10301075,-54,37,"a71850b36037"
"2020-07-30T12:07:53",1596132473.425,10301283,-52,38,"a71850b36037"
"2020-07-30T12:07:53",1596132473.843,10301701,-51,39,"a71850b36037"
"2020-07-30T12:07:54",1596132474.048,10301906,-51,37,"a71850b36037"