"time","epoch_time","boot_time","rssi","ch","mac"
"2020-07-28T12:39:24",1595961564.407,79244302,-48,37,"334b524f0e3a"
"2020-07-28T12:39:24",1595961564.815,79244710,-46,38,"334b524f0e3a"
"2020-07-28T12:39:25",1595961565.018,79244913,-47,39,"334b524f0e3a"
"2020-07-28T12:39:25",1595961565.424,79245319,-47,37,"334b524f0e3a"
"2020-07-28T12:39:25",1595961565.63,79245525,-45,38,"334b524f0e3a"
"2020-07-28T12:39:26",1595961566.045,79245940,-44,39,"334b524f0e3a"
"2020-07-28T12:39:26",1595961566.461,79246356,-48,37,"334b524f0e3a"
"2020-07-28T12:39:26",1595961566.665,79246560,-45,38,"334b524f0e3a"
"2020-07-28T12:39:27",1595961567.074,79246969,-44,39,"334b524f0e3a"
"2020-07-28T12:39:27",1595961567.274,79247169,-48,37,"334b524f0e3a"
"2020-07-28T12:39:27",1595961567.683,79247578,-46,38,"334b524f0e3a"
"2020-07-28T12:39:27",1595961567.891,79247786,-44,39,"334b524f0e3a"
"2020-07-28T12:39:28",1595961568.3,79248195,-48,37,"334b524f0e3a"
"2020-07-28T12:39:28",1595961568.924,79248819,-47,39,"334b524f0e3a"
"2020-07-28T12:39:29",1595961569.131,79249026,-48,37,"334b524f0e3a"
"2020-07-28T12:39:29",1595961569.539,79249434,-45,38,"334b524f0e3a"
"2020-07-28T12:39:29",1595961569.743,79249638,-46,39,"334b524f0e3a"
"2020-07-28T12:39:30",1595961570.153,79250048,-48,37,"334b524f0e3a"
"2020-07-28T12:39:30",1595961570.357,79250252,-46,38,"334b524f0e3a"
"2020-07-28T12:39:30",1595961570.769,79250664,-44,39,"334b524f0e3a"
"2020-07-28T12:39:30",1595961570.977,79250872,-48,37,"334b524f0e3a"
"2020-07-28T12:39:31",1595961571.385,79251280,-46,38,"334b524f0e3a"
"2020-07-28T12:39:31",1595961571.587,79251482,-44,39,"334b524f0e3a"
"2020-07-28T12:39:32",1595961572.001,79251896,-48,37,"334b524f0e3a"
"2020-07-28T12:39:32",1595961572.206,79252101,-46,38,"334b524f0e3a"
"2020-07-28T12:39:32",1595961572.621,79252516,-44,39,"334b524f0e3a"
"2020-07-28T12:39:32",1595961572.823,79252718,-48,37,"334b524f0e3a"
"2020-07-28T12:39:33",1595961573.024,79252919,-48,37,"334b524f0e3a"
"2020-07-28T12:39:33",1595961573.23,79253125,-46,38,"334b524f0e3a"
"2020-07-28T12:39:33",1595961573.646,79253541,-47,39,"334b524f0e3a"
"2020-07-28T12:39:33",1595961573.852,79253747,-48,37,"334b524f0e3a"
"2020-07-28T12:39:34",1595961574.266,79254161,-46,38,"334b524f0e3a"
"2020-07-28T12:39:34",1595961574.469,79254364,-44,39,"334b524f0e3a"
"2020-07-28T12:39:34",1595961574.877,79254772,-48,37,"334b524f0e3a"
"2020-07-28T12:39:35",1595961575.085,79254980,-45,38,"334b524f0e3a"
"2020-07-28T12:39:35",1595961575.493,79255388,-44,39,"334b524f0e3a"
"2020-07-28T12:39:35",1595961575.699,79255594,-48,37,"334b524f0e3a"
"2020-07-28T12:39:36",1595961576.318,79256213,-47,39,"334b524f0e3a"
"2020-07-28T12:39:36",1595961576.725,79256620,-48,37,"334b524f0e3a"
"2020-07-28T12:39:36",1595961576.935,79256830,-46,38,"334b524f0e3a"
"2020-07-28T12:39:37",1595961577.343,79257238,-47,39,"334b524f0e3a"
"2020-07-28T12:39:37",1595961577.551,79257446,-47,37,"334b524f0e3a"
"2020-07-28T12:39:37",1595961577.962,79257857,-46,38,"334b524f0e3a"
"2020-07-28T12:39:38",1595961578.163,79258058,-44,39,"334b524f0e3a"
"2020-07-28T12:39:38",1595961578.571,79258466,-47,37,"334b524f0e3a"
"2020-07-28T12:39:38",1595961578.781,79258676,-45,38,"334b524f0e3a"
"2020-07-28T12:39:39",1595961579.192,79259087,-47,39,"334b524f0e3a"
"2020-07-28T12:39:39",1595961579.394,79259289,-47,37,"334b524f0e3a"
"2020-07-28T12:39:39",1595961579.809,79259704,-46,38,"334b524f0e3a"
"2020-07-28T12:39:40",1595961580.011,79259906,-47,39,"334b524f0e3a"
"2020-07-28T12:39:40",1595961580.422,79260317,-47,37,"334b524f0e3a"
"2020-07-28T12:39:40",1595961580.838,79260733,-46,38,"334b524f0e3a"
"2020-07-28T12:39:41",1595961581.043,79260938,-47,39,"334b524f0e3a"
"2020-07-28T12:39:41",1595961581.453,79261348,-47,37,"334b524f0e3a"
"2020-07-28T12:39:41",1595961581.661,79261556,-46,38,"334b524f0e3a"
"2020-07-28T12:39:42",1595961582.065,79261960,-44,39,"334b524f0e3a"
"2020-07-28T12:39:42",1595961582.275,79262170,-48,37,"334b524f0e3a"
"2020-07-28T12:39:42",1595961582.684,79262579,-46,38,"334b524f0e3a"
"2020-07-28T12:39:42",1595961582.883,79262778,-44,39,"334b524f0e3a"
"2020-07-28T12:39:43",1595961583.297,79263192,-48,37,"334b524f0e3a"
"2020-07-28T12:39:43",1595961583.502,79263397,-45,38,"334b524f0e3a"
"2020-07-28T12:39:43",1595961583.917,79263812,-47,39,"334b524f0e3a"
"2020-07-28T12:39:44",1595961584.126,79264021,-48,37,"334b524f0e3a"
"2020-07-28T12:39:44",1595961584.53,79264425,-46,38,"334b524f0e3a"
"2020-07-28T12:39:44",1595961584.738,79264633,-44,39,"334b524f0e3a"
"2020-07-28T12:39:45",1595961585.149,79265044,-48,37,"334b524f0e3a"
"2020-07-28T12:39:45",1595961585.349,79265244,-46,38,"334b524f0e3a"
"2020-07-28T12:39:45",1595961585.761,79265656,-47,39,"334b524f0e3a"
"2020-07-28T12:39:46",1595961586.382,79266277,-46,38,"334b524f0e3a"
"2020-07-28T12:39:46",1595961586.589,79266484,-44,39,"334b524f0e3a"
"2020-07-28T12:39:46",1595961586.994,79266889,-48,37,"334b524f0e3a"
"2020-07-28T12:39:47",1595961587.2,79267095,-45,38,"334b524f0e3a"
"2020-07-28T12:39:47",1595961587.612,79267507,-44,39,"334b524f0e3a"
"2020-07-28T12:39:47",1595961587.817,79267712,-47,37,"334b524f0e3a"
"2020-07-28T12:39:48",1595961588.018,79267913,-48,37,"334b524f0e3a"
"2020-07-28T12:39:48",1595961588.228,79268123,-45,38,"334b524f0e3a"
"2020-07-28T12:39:48",1595961588.644,79268539,-47,39,"334b524f0e3a"
"2020-07-28T12:39:48",1595961588.846,79268741,-47,37,"334b524f0e3a"
"2020-07-28T12:39:49",1595961589.253,79269148,-46,38,"334b524f0e3a"
"2020-07-28T12:39:49",1595961589.461,79269356,-44,39,"334b524f0e3a"
"2020-07-28T12:39:49",1595961589.868,79269763,-47,37,"334b524f0e3a"
"2020-07-28T12:39:50",1595961590.076,79269971,-46,38,"334b524f0e3a"
"2020-07-28T12:39:50",1595961590.492,79270387,-47,39,"334b524f0e3a"
"2020-07-28T12:39:50",1595961590.7,79270595,-48,37,"334b524f0e3a"
"2020-07-28T12:39:51",1595961591.106,79271001,-45,38,"334b524f0e3a"
"2020-07-28T12:39:51",1595961591.313,79271208,-47,39,"334b524f0e3a"
"2020-07-28T12:39:51",1595961591.725,79271620,-48,37,"334b524f0e3a"
"2020-07-28T12:39:51",1595961591.926,79271821,-46,38,"334b524f0e3a"
"2020-07-28T12:39:52",1595961592.337,79272232,-47,39,"334b524f0e3a"
"2020-07-28T12:39:52",1595961592.541,79272436,-48,37,"334b524f0e3a"
"2020-07-28T12:39:52",1595961592.955,79272850,-46,38,"334b524f0e3a"
"2020-07-28T12:39:53",1595961593.158,79273053,-47,39,"334b524f0e3a"
"2020-07-28T12:39:53",1595961593.565,79273460,-48,37,"334b524f0e3a"
"2020-07-28T12:39:53",1595961593.775,79273670,-46,38,"334b524f0e3a"
"2020-07-28T12:39:54",1595961594.186,79274081,-47,39,"334b524f0e3a"
"2020-07-28T12:39:54",1595961594.386,79274281,-47,37,"334b524f0e3a"
"2020-07-28T12:39:54",1595961594.799,79274694,-46,38,"334b524f0e3a"
"2020-07-28T12:39:55",1595961595.421,79275316,-48,37,"334b524f0e3a"
"2020-07-28T12:39:55",1595961595.83,79275725,-46,38,"334b524f0e3a"
"2020-07-28T12:39:56",1595961596.031,79275926,-47,39,"334b524f0e3a"
"2020-07-28T12:39:56",1595961596.446,79276341,-48,37,"334b524f0e3a"
"2020-07-28T12:39:56",1595961596.651,79276546,-46,38,"334b524f0e3a"
"2020-07-28T12:39:57",1595961597.059,79276954,-44,39,"334b524f0e3a"
"2020-07-28T12:39:57",1595961597.267,79277162,-47,37,"334b524f0e3a"
"2020-07-28T12:39:57",1595961597.68,79277575,-46,38,"334b524f0e3a"
"2020-07-28T12:39:57",1595961597.882,79277777,-47,39,"334b524f0e3a"
"2020-07-28T12:39:58",1595961598.296,79278191,-48,37,"334b524f0e3a"
"2020-07-28T12:39:58",1595961598.908,79278803,-47,39,"334b524f0e3a"
"2020-07-28T12:39:59",1595961599.112,79279007,-48,37,"334b524f0e3a"
"2020-07-28T12:39:59",1595961599.524,79279419,-45,38,"334b524f0e3a"
"2020-07-28T12:39:59",1595961599.725,79279620,-44,39,"334b524f0e3a"
"2020-07-28T12:40:00",1595961600.141,79280036,-47,37,"334b524f0e3a"
"2020-07-28T12:40:00",1595961600.761,79280656,-47,39,"334b524f0e3a"
"2020-07-28T12:40:00",1595961600.963,79280858,-48,37,"334b524f0e3a"
"2020-07-28T12:40:01",1595961601.37,79281265,-46,38,"334b524f0e3a"
"2020-07-28T12:40:01",1595961601.577,79281472,-44,39,"334b524f0e3a"
"2020-07-28T12:40:01",1595961601.986,79281881,-48,37,"334b524f0e3a"
"2020-07-28T12:40:02",1595961602.194,79282089,-45,38,"334b524f0e3a"
"2020-07-28T12:40:02",1595961602.401,79282296,-46,38,"334b524f0e3a"
"2020-07-28T12:40:02",1595961602.605,79282500,-47,39,"334b524f0e3a"
"2020-07-28T12:40:03",1595961603.017,79282912,-47,37,"334b524f0e3a"
"2020-07-28T12:40:03",1595961603.226,79283121,-46,38,"334b524f0e3a"
"2020-07-28T12:40:03",1595961603.633,79283528,-44,39,"334b524f0e3a"
"2020-07-28T12:40:03",1595961603.834,79283729,-48,37,"334b524f0e3a"
"2020-07-28T12:40:04",1595961604.245,79284140,-46,38,"334b524f0e3a"
"2020-07-28T12:40:04",1595961604.453,79284348,-44,39,"334b524f0e3a"
"2020-07-28T12:40:04",1595961604.866,79284761,-48,37,"334b524f0e3a"
"2020-07-28T12:40:05",1595961605.075,79284970,-46,38,"334b524f0e3a"
"2020-07-28T12:40:05",1595961605.484,79285379,-47,39,"334b524f0e3a"
"2020-07-28T12:40:05",1595961605.686,79285581,-48,37,"334b524f0e3a"
"2020-07-28T12:40:06",1595961606.096,79285991,-45,38,"334b524f0e3a"
"2020-07-28T12:40:06",1595961606.304,79286199,-44,39,"334b524f0e3a"
"2020-07-28T12:40:06",1595961606.714,79286609,-47,37,"334b524f0e3a"
"2020-07-28T12:40:06",1595961606.915,79286810,-46,38,"334b524f0e3a"
"2020-07-28T12:40:07",1595961607.335,79287230,-44,39,"334b524f0e3a"
"2020-07-28T12:40:07",1595961607.537,79287432,-48,37,"334b524f0e3a"
"2020-07-28T12:40:07",1595961607.947,79287842,-45,38,"334b524f0e3a"
"2020-07-28T12:40:08",1595961608.154,79288049,-44,39,"334b524f0e3a"
"2020-07-28T12:40:08",1595961608.56,79288455,-47,37,"334b524f0e3a"
"2020-07-28T12:40:08",1595961608.764,79288659,-46,38,"334b524f0e3a"
"2020-07-28T12:40:09",1595961609.175,79289070,-44,39,"334b524f0e3a"
"2020-07-28T12:40:09",1595961609.382,79289277,-48,37,"334b524f0e3a"
"2020-07-28T12:40:09",1595961609.803,79289698,-46,38,"334b524f0e3a"
"2020-07-28T12:40:10",1595961610.006,79289901,-47,39,"334b524f0e3a"
"2020-07-28T12:40:10",1595961610.413,79290308,-48,37,"334b524f0e3a"
"2020-07-28T12:40:10",1595961610.825,79290720,-45,38,"334b524f0e3a"
"2020-07-28T12:40:11",1595961611.025,79290920,-47,39,"334b524f0e3a"
"2020-07-28T12:40:11",1595961611.638,79291533,-46,38,"334b524f0e3a"
"2020-07-28T12:40:12",1595961612.057,79291952,-44,39,"334b524f0e3a"
"2020-07-28T12:40:12",1595961612.266,79292161,-47,37,"334b524f0e3a"
"2020-07-28T12:40:12",1595961612.878,79292773,-47,39,"334b524f0e3a"
"2020-07-28T12:40:13",1595961613.287,79293182,-48,37,"334b524f0e3a"
"2020-07-28T12:40:13",1595961613.496,79293391,-46,38,"334b524f0e3a"
"2020-07-28T12:40:13",1595961613.907,79293802,-44,39,"334b524f0e3a"
"2020-07-28T12:40:14",1595961614.112,79294007,-48,37,"334b524f0e3a"
"2020-07-28T12:40:14",1595961614.527,79294422,-46,38,"334b524f0e3a"
"2020-07-28T12:40:15",1595961615.135,79295030,-48,37,"334b524f0e3a"
"2020-07-28T12:40:15",1595961615.755,79295650,-47,39,"334b524f0e3a"
"2020-07-28T12:40:15",1595961615.959,79295854,-47,37,"334b524f0e3a"
"2020-07-28T12:40:16",1595961616.362,79296257,-45,38,"334b524f0e3a"
"2020-07-28T12:40:16",1595961616.57,79296465,-47,39,"334b524f0e3a"
"2020-07-28T12:40:16",1595961616.992,79296887,-48,37,"334b524f0e3a"
"2020-07-28T12:40:17",1595961617.194,79297089,-46,38,"334b524f0e3a"
"2020-07-28T12:40:17",1595961617.397,79297292,-46,38,"334b524f0e3a"
"2020-07-28T12:40:17",1595961617.606,79297501,-44,39,"334b524f0e3a"
"2020-07-28T12:40:18",1595961618.212,79298107,-45,38,"334b524f0e3a"
"2020-07-28T12:40:18",1595961618.623,79298518,-44,39,"334b524f0e3a"
"2020-07-28T12:40:18",1595961618.83,79298725,-48,37,"334b524f0e3a"
"2020-07-28T12:40:19",1595961619.248,79299143,-46,38,"334b524f0e3a"
"2020-07-28T12:40:19",1595961619.447,79299342,-44,39,"334b524f0e3a"
"2020-07-28T12:40:19",1595961619.857,79299752,-48,37,"334b524f0e3a"
"2020-07-28T12:40:20",1595961620.067,79299962,-46,38,"334b524f0e3a"
"2020-07-28T12:40:20",1595961620.48,79300375,-47,39,"334b524f0e3a"
"2020-07-28T12:40:20",1595961620.683,79300578,-47,37,"334b524f0e3a"
"2020-07-28T12:40:21",1595961621.093,79300988,-46,38,"334b524f0e3a"
"2020-07-28T12:40:21",1595961621.292,79301187,-44,39,"334b524f0e3a"
"2020-07-28T12:40:21",1595961621.713,79301608,-48,37,"334b524f0e3a"
"2020-07-28T12:40:21",1595961621.918,79301813,-46,38,"334b524f0e3a"
"2020-07-28T12:40:22",1595961622.323,79302218,-44,39,"334b524f0e3a"
"2020-07-28T12:40:22",1595961622.529,79302424,-48,37,"334b524f0e3a"
"2020-07-28T12:40:22",1595961622.943,79302838,-46,38,"334b524f0e3a"
"2020-07-28T12:40:23",1595961623.149,79303044,-44,39,"334b524f0e3a"
"2020-07-28T12:40:23",1595961623.557,79303452,-47,37,"334b524f0e3a"
"2020-07-28T12:40:23",1595961623.756,79303651,-46,38,"334b524f0e3a"
"2020-07-28T12:40:23",1595961623.964,79303859,-46,38,"334b524f0e3a"
"2020-07-28T12:40:24",1595961624.178,79304073,-47,39,"334b524f0e3a"
"2020-07-28T12:40:24",1595961624.38,79304275,-48,37,"334b524f0e3a"
"2020-07-28T12:40:24",1595961624.793,79304688,-46,38,"334b524f0e3a"
"2020-07-28T12:40:25",1595961625.205,79305100,-47,39,"334b524f0e3a"
"2020-07-28T12:40:25",1595961625.41,79305305,-48,37,"334b524f0e3a"
"2020-07-28T12:40:25",1595961625.82,79305715,-46,38,"334b524f0e3a"
"2020-07-28T12:40:26",1595961626.024,79305919,-44,39,"334b524f0e3a"
"2020-07-28T12:40:26",1595961626.435,79306330,-48,37,"334b524f0e3a"
"2020-07-28T12:40:26",1595961626.636,79306531,-46,38,"334b524f0e3a"
"2020-07-28T12:40:27",1595961627.05,79306945,-47,39,"334b524f0e3a"
"2020-07-28T12:40:27",1595961627.26,79307155,-48,37,"334b524f0e3a"
"2020-07-28T12:40:27",1595961627.665,79307560,-46,38,"334b524f0e3a"
"2020-07-28T12:40:27",1595961627.868,79307763,-44,39,"334b524f0e3a"
"2020-07-28T12:40:28",1595961628.283,79308178,-47,37,"334b524f0e3a"
"2020-07-28T12:40:28",1595961628.488,79308383,-46,38,"334b524f0e3a"
"2020-07-28T12:40:28",1595961628.901,79308796,-44,39,"334b524f0e3a"
"2020-07-28T12:40:29",1595961629.104,79308999,-48,37,"334b524f0e3a"
"2020-07-28T12:40:29",1595961629.516,79309411,-46,38,"334b524f0e3a"
"2020-07-28T12:40:29",1595961629.726,79309621,-47,39,"334b524f0e3a"
"2020-07-28T12:40:30",1595961630.13,79310025,-48,37,"334b524f0e3a"
"2020-07-28T12:40:30",1595961630.338,79310233,-46,38,"334b524f0e3a"
"2020-07-28T12:40:30",1595961630.744,79310639,-44,39,"334b524f0e3a"
"2020-07-28T12:40:30",1595961630.952,79310847,-48,37,"334b524f0e3a"
"2020-07-28T12:40:31",1595961631.366,79311261,-46,38,"334b524f0e3a"
"2020-07-28T12:40:31",1595961631.575,79311470,-44,39,"334b524f0e3a"
"2020-07-28T12:40:31",1595961631.982,79311877,-48,37,"334b524f0e3a"
"2020-07-28T12:40:32",1595961632.396,79312291,-46,38,"334b524f0e3a"
"2020-07-28T12:40:32",1595961632.6,79312495,-47,39,"334b524f0e3a"
"2020-07-28T12:40:33",1595961633.008,79312903,-48,37,"334b524f0e3a"
"2020-07-28T12:40:33",1595961633.208,79313103,-46,38,"334b524f0e3a"
"2020-07-28T12:40:33",1595961633.623,79313518,-47,39,"334b524f0e3a"
"2020-07-28T12:40:33",1595961633.832,79313727,-48,37,"334b524f0e3a"
"2020-07-28T12:40:34",1595961634.244,79314139,-46,38,"334b524f0e3a"
"2020-07-28T12:40:34",1595961634.443,79314338,-44,39,"334b524f0e3a"
"2020-07-28T12:40:34",1595961634.854,79314749,-48,37,"334b524f0e3a"
"2020-07-28T12:40:35",1595961635.057,79314952,-46,38,"334b524f0e3a"
"2020-07-28T12:40:35",1595961635.472,79315367,-47,39,"334b524f0e3a"
"2020-07-28T12:40:35",1595961635.674,79315569,-47,37,"334b524f0e3a"
"2020-07-28T12:40:36",1595961636.09,79315985,-46,38,"334b524f0e3a"
"2020-07-28T12:40:36",1595961636.297,79316192,-47,39,"334b524f0e3a"
"2020-07-28T12:40:36",1595961636.707,79316602,-47,37,"334b524f0e3a"
"2020-07-28T12:40:37",1595961637.319,79317214,-44,39,"334b524f0e3a"
"2020-07-28T12:40:37",1595961637.527,79317422,-48,37,"334b524f0e3a"
"2020-07-28T12:40:38",1595961638.553,79318448,-48,37,"334b524f0e3a"
"2020-07-28T12:40:38",1595961638.758,79318653,-45,38,"334b524f0e3a"
"2020-07-28T12:40:38",1595961638.958,79318853,-46,38,"334b524f0e3a"
"2020-07-28T12:40:39",1595961639.168,79319063,-47,39,"334b524f0e3a"
"2020-07-28T12:40:39",1595961639.578,79319473,-48,37,"334b524f0e3a"
"2020-07-28T12:40:39",1595961639.778,79319673,-46,38,"334b524f0e3a"
"2020-07-28T12:40:40",1595961640.195,79320090,-44,39,"334b524f0e3a"
"2020-07-28T12:40:40",1595961640.394,79320289,-48,37,"334b524f0e3a"
"2020-07-28T12:40:40",1595961640.807,79320702,-46,38,"334b524f0e3a"
"2020-07-28T12:40:41",1595961641.023,79320918,-47,39,"334b524f0e3a"
"2020-07-28T12:40:41",1595961641.427,79321322,-48,37,"334b524f0e3a"
"2020-07-28T12:40:41",1595961641.637,79321532,-46,38,"334b524f0e3a"
"2020-07-28T12:40:42",1595961642.043,79321938,-44,39,"334b524f0e3a"
"2020-07-28T12:40:42",1595961642.25,79322145,-48,37,"334b524f0e3a"
"2020-07-28T12:40:42",1595961642.662,79322557,-46,38,"334b524f0e3a"
"2020-07-28T12:40:42",1595961642.865,79322760,-44,39,"334b524f0e3a"
"2020-07-28T12:40:43",1595961643.278,79323173,-48,37,"334b524f0e3a"
"2020-07-28T12:40:43",1595961643.484,79323379,-46,38,"334b524f0e3a"
"2020-07-28T12:40:43",1595961643.892,79323787,-47,39,"334b524f0e3a"
"2020-07-28T12:40:44",1595961644.095,79323990,-48,37,"334b524f0e3a"
"2020-07-28T12:40:44",1595961644.504,79324399,-45,38,"334b524f0e3a"
"2020-07-28T12:40:44",1595961644.713,79324608,-47,39,"334b524f0e3a"
"2020-07-28T12:40:45",1595961645.12,79325015,-48,37,"334b524f0e3a"
"2020-07-28T12:40:45",1595961645.327,79325222,-46,38,"334b524f0e3a"
"2020-07-28T12:40:45",1595961645.739,79325634,-47,39,"334b524f0e3a"
"2020-07-28T12:40:45",1595961645.945,79325840,-48,37,"334b524f0e3a"
"2020-07-28T12:40:46",1595961646.356,79326251,-46,38,"334b524f0e3a"
"2020-07-28T12:40:46",1595961646.768,79326663,-44,39,"334b524f0e3a"
"2020-07-28T12:40:46",1595961646.967,79326862,-48,37,"334b524f0e3a"
"2020-07-28T12:40:47",1595961647.38,79327275,-46,38,"334b524f0e3a"
"2020-07-28T12:40:47",1595961647.587,79327482,-44,39,"334b524f0e3a"
"2020-07-28T12:40:47",1595961647.992,79327887,-48,37,"334b524f0e3a"
"2020-07-28T12:40:48",1595961648.207,79328102,-45,38,"334b524f0e3a"
"2020-07-28T12:40:48",1595961648.616,79328511,-47,39,"334b524f0e3a"
"2020-07-28T12:40:48",1595961648.818,79328713,-48,37,"334b524f0e3a"
"2020-07-28T12:40:49",1595961649.233,79329128,-45,38,"334b524f0e3a"
"2020-07-28T12:40:49",1595961649.433,79329328,-44,39,"334b524f0e3a"
"2020-07-28T12:40:49",1595961649.845,79329740,-48,37,"334b524f0e3a"
"2020-07-28T12:40:51",1595961651.086,79330981,-46,38,"334b524f0e3a"
"2020-07-28T12:40:51",1595961651.287,79331182,-44,39,"334b524f0e3a"
"2020-07-28T12:40:51",1595961651.698,79331593,-48,37,"334b524f0e3a"
"2020-07-28T12:40:51",1595961651.904,79331799,-46,38,"334b524f0e3a"
"2020-07-28T12:40:52",1595961652.314,79332209,-47,39,"334b524f0e3a"
"2020-07-28T12:40:52",1595961652.514,79332409,-47,37,"334b524f0e3a"
"2020-07-28T12:40:52",1595961652.93,79332825,-46,38,"334b524f0e3a"
"2020-07-28T12:40:53",1595961653.543,79333438,-48,37,"334b524f0e3a"
"2020-07-28T12:40:53",1595961653.953,79333848,-46,38,"334b524f0e3a"
"2020-07-28T12:40:54",1595961654.573,79334468,-48,37,"334b524f0e3a"
"2020-07-28T12:40:54",1595961654.775,79334670,-46,38,"334b524f0e3a"
"2020-07-28T12:40:55",1595961655.183,79335078,-44,39,"334b524f0e3a"
"2020-07-28T12:40:55",1595961655.391,79335286,-48,37,"334b524f0e3a"
"2020-07-28T12:40:55",1595961655.803,79335698,-46,38,"334b524f0e3a"
"2020-07-28T12:40:56",1595961656.012,79335907,-44,39,"334b524f0e3a"
"2020-07-28T12:40:56",1595961656.421,79336316,-48,37,"334b524f0e3a"
"2020-07-28T12:40:56",1595961656.623,79336518,-45,38,"334b524f0e3a"
"2020-07-28T12:40:57",1595961657.037,79336932,-47,39,"334b524f0e3a"
"2020-07-28T12:40:57",1595961657.24,79337135,-48,37,"334b524f0e3a"
"2020-07-28T12:40:57",1595961657.659,79337554,-46,38,"334b524f0e3a"
"2020-07-28T12:40:57",1595961657.865,79337760,-48,39,"334b524f0e3a"
"2020-07-28T12:40:58",1595961658.475,79338370,-46,38,"334b524f0e3a"
"2020-07-28T12:40:58",1595961658.889,79338784,-44,39,"334b524f0e3a"
"2020-07-28T12:40:59",1595961659.091,79338986,-48,37,"334b524f0e3a"
"2020-07-28T12:40:59",1595961659.504,79339399,-46,38,"334b524f0e3a"
"2020-07-28T12:40:59",1595961659.707,79339602,-47,39,"334b524f0e3a"
"2020-07-28T12:41:00",1595961660.322,79340217,-46,38,"334b524f0e3a"
"2020-07-28T12:41:00",1595961660.731,79340626,-44,39,"334b524f0e3a"
"2020-07-28T12:41:01",1595961661.143,79341038,-47,37,"334b524f0e3a"
"2020-07-28T12:41:01",1595961661.346,79341241,-46,38,"334b524f0e3a"
"2020-07-28T12:41:01",1595961661.764,79341659,-44,39,"334b524f0e3a"
"2020-07-28T12:41:01",1595961661.968,79341863,-48,37,"334b524f0e3a"
"2020-07-28T12:41:02",1595961662.585,79342480,-47,39,"334b524f0e3a"
"2020-07-28T12:41:02",1595961662.995,79342890,-48,37,"334b524f0e3a"
"2020-07-28T12:41:03",1595961663.202,79343097,-46,38,"334b524f0e3a"
"2020-07-28T12:41:03",1595961663.61,79343505,-47,39,"334b524f0e3a"
"2020-07-28T12:41:03",1595961663.815,79343710,-48,37,"334b524f0e3a"
"2020-07-28T12:41:04",1595961664.225,79344120,-46,38,"334b524f0e3a"
"2020-07-28T12:41:04",1595961664.432,79344327,-45,39,"334b524f0e3a"
"2020-07-28T12:41:04",1595961664.845,79344740,-48,37,"334b524f0e3a"
"2020-07-28T12:41:05",1595961665.055,79344950,-46,38,"334b524f0e3a"
"2020-07-28T12:41:05",1595961665.456,79345351,-47,39,"334b524f0e3a"
"2020-07-28T12:41:05",1595961665.665,79345560,-47,37,"334b524f0e3a"
"2020-07-28T12:41:06",1595961666.078,79345973,-45,38,"334b524f0e3a"
"2020-07-28T12:41:06",1595961666.28,79346175,-47,39,"334b524f0e3a"
"2020-07-28T12:41:06",1595961666.69,79346585,-48,37,"334b524f0e3a"
"2020-07-28T12:41:06",1595961666.897,79346792,-45,38,"334b524f0e3a"
"2020-07-28T12:41:07",1595961667.31,79347205,-47,39,"334b524f0e3a"
"2020-07-28T12:41:07",1595961667.511,79347406,-48,37,"334b524f0e3a"
"2020-07-28T12:41:07",1595961667.927,79347822,-46,38,"334b524f0e3a"
"2020-07-28T12:41:08",1595961668.337,79348232,-44,39,"334b524f0e3a"
"2020-07-28T12:41:08",1595961668.542,79348437,-48,37,"334b524f0e3a"
"2020-07-28T12:41:08",1595961668.955,79348850,-46,38,"334b524f0e3a"
"2020-07-28T12:41:09",1595961669.562,79349457,-48,37,"334b524f0e3a"
"2020-07-28T12:41:09",1595961669.776,79349671,-46,38,"334b524f0e3a"
"2020-07-28T12:41:10",1595961670.19,79350085,-44,39,"334b524f0e3a"
"2020-07-28T12:41:10",1595961670.394,79350289,-48,37,"334b524f0e3a"
"2020-07-28T12:41:10",1595961670.798,79350693,-46,38,"334b524f0e3a"
"2020-07-28T12:41:11",1595961671.001,79350896,-44,39,"334b524f0e3a"
"2020-07-28T12:41:11",1595961671.413,79351308,-48,37,"334b524f0e3a"
"2020-07-28T12:41:12",1595961672.028,79351923,-44,39,"334b524f0e3a"
"2020-07-28T12:41:12",1595961672.233,79352128,-48,37,"334b524f0e3a"
"2020-07-28T12:41:12",1595961672.646,79352541,-46,38,"334b524f0e3a"
"2020-07-28T12:41:12",1595961672.857,79352752,-44,39,"334b524f0e3a"
"2020-07-28T12:41:13",1595961673.267,79353162,-48,37,"334b524f0e3a"
"2020-07-28T12:41:13",1595961673.47,79353365,-46,38,"334b524f0e3a"
"2020-07-28T12:41:13",1595961673.876,79353771,-44,39,"334b524f0e3a"
"2020-07-28T12:41:14",1595961674.085,79353980,-47,37,"334b524f0e3a"
"2020-07-28T12:41:14",1595961674.702,79354597,-47,39,"334b524f0e3a"
"2020-07-28T12:41:15",1595961675.114,79355009,-48,37,"334b524f0e3a"
"2020-07-28T12:41:15",1595961675.523,79355418,-46,38,"334b524f0e3a"
"2020-07-28T12:41:15",1595961675.724,79355619,-44,39,"334b524f0e3a"
"2020-07-28T12:41:16",1595961676.137,79356032,-48,37,"334b524f0e3a"
"2020-07-28T12:41:16",1595961676.337,79356232,-46,38,"334b524f0e3a"
"2020-07-28T12:41:16",1595961676.75,79356645,-44,39,"334b524f0e3a"
"2020-07-28T12:41:16",1595961676.966,79356861,-48,37,"334b524f0e3a"
"2020-07-28T12:41:17",1595961677.366,79357261,-46,38,"334b524f0e3a"
"2020-07-28T12:41:17",1595961677.575,79357470,-47,39,"334b524f0e3a"
"2020-07-28T12:41:17",1595961677.986,79357881,-48,37,"334b524f0e3a"
"2020-07-28T12:41:18",1595961678.196,79358091,-45,38,"334b524f0e3a"
"2020-07-28T12:41:18",1595961678.602,79358497,-44,39,"334b524f0e3a"
"2020-07-28T12:41:18",1595961678.802,79358697,-47,37,"334b524f0e3a"
"2020-07-28T12:41:19",1595961679.215,79359110,-46,38,"334b524f0e3a"
"2020-07-28T12:41:19",1595961679.426,79359321,-47,39,"334b524f0e3a"
"2020-07-28T12:41:19",1595961679.835,79359730,-48,37,"334b524f0e3a"
"2020-07-28T12:41:20",1595961680.041,79359936,-46,38,"334b524f0e3a"
"2020-07-28T12:41:20",1595961680.447,79360342,-47,39,"334b524f0e3a"
"2020-07-28T12:41:20",1595961680.653,79360548,-47,37,"334b524f0e3a"
"2020-07-28T12:41:21",1595961681.063,79360958,-46,38,"334b524f0e3a"
"2020-07-28T12:41:21",1595961681.27,79361165,-44,39,"334b524f0e3a"
"2020-07-28T12:41:21",1595961681.686,79361581,-48,37,"334b524f0e3a"
"2020-07-28T12:41:21",1595961681.891,79361786,-45,38,"334b524f0e3a"
"2020-07-28T12:41:22",1595961682.3,79362195,-47,39,"334b524f0e3a"
"2020-07-28T12:41:22",1595961682.51,79362405,-47,37,"334b524f0e3a"
"2020-07-28T12:41:22",1595961682.714,79362609,-48,37,"334b524f0e3a"
"2020-07-28T12:41:22",1595961682.919,79362814,-46,38,"334b524f0e3a"
"2020-07-28T12:41:23",1595961683.322,79363217,-44,39,"334b524f0e3a"
"2020-07-28T12:41:23",1595961683.531,79363426,-47,37,"334b524f0e3a"
"2020-07-28T12:41:23",1595961683.94,79363835,-45,38,"334b524f0e3a"
"2020-07-28T12:41:24",1595961684.154,79364049,-44,39,"334b524f0e3a"
"2020-07-28T12:41:24",1595961684.566,79364461,-48,37,"334b524f0e3a"
"2020-07-28T12:41:24",1595961684.766,79364661,-46,38,"334b524f0e3a"
"2020-07-28T12:41:25",1595961685.18,79365075,-44,39,"334b524f0e3a"
"2020-07-28T12:41:25",1595961685.385,79365280,-48,37,"334b524f0e3a"
"2020-07-28T12:41:25",1595961685.788,79365683,-46,38,"334b524f0e3a"
"2020-07-28T12:41:25",1595961685.997,79365892,-47,39,"334b524f0e3a"
"2020-07-28T12:41:26",1595961686.403,79366298,-48,37,"334b524f0e3a"
"2020-07-28T12:41:26",1595961686.617,79366512,-46,38,"334b524f0e3a"
"2020-07-28T12:41:27",1595961687.022,79366917,-47,39,"334b524f0e3a"
"2020-07-28T12:41:27",1595961687.228,79367123,-47,37,"334b524f0e3a"
"2020-07-28T12:41:27",1595961687.643,79367538,-45,38,"334b524f0e3a"
"2020-07-28T12:41:27",1595961687.844,79367739,-47,39,"334b524f0e3a"
"2020-07-28T12:41:28",1595961688.254,79368149,-48,37,"334b524f0e3a"
"2020-07-28T12:41:28",1595961688.464,79368359,-45,38,"334b524f0e3a"
"2020-07-28T12:41:28",1595961688.876,79368771,-44,39,"334b524f0e3a"
"2020-07-28T12:41:29",1595961689.083,79368978,-48,37,"334b524f0e3a"
"2020-07-28T12:41:29",1595961689.489,79369384,-46,38,"334b524f0e3a"
"2020-07-28T12:41:29",1595961689.697,79369592,-44,39,"334b524f0e3a"
"2020-07-28T12:41:30",1595961690.106,79370001,-48,37,"334b524f0e3a"
"2020-07-28T12:41:30",1595961690.515,79370410,-46,38,"334b524f0e3a"
"2020-07-28T12:41:30",1595961690.716,79370611,-47,39,"334b524f0e3a"
"2020-07-28T12:41:31",1595961691.125,79371020,-48,37,"334b524f0e3a"
"2020-07-28T12:41:31",1595961691.337,79371232,-46,38,"334b524f0e3a"
"2020-07-28T12:41:31",1595961691.752,79371647,-44,39,"334b524f0e3a"
"2020-07-28T12:41:31",1595961691.957,79371852,-47,37,"334b524f0e3a"
"2020-07-28T12:41:32",1595961692.368,79372263,-45,38,"334b524f0e3a"
"2020-07-28T12:41:32",1595961692.573,79372468,-44,39,"334b524f0e3a"
"2020-07-28T12:41:33",1595961693.186,79373081,-46,38,"334b524f0e3a"
"2020-07-28T12:41:33",1595961693.592,79373487,-44,39,"334b524f0e3a"
"2020-07-28T12:41:33",1595961693.803,79373698,-48,37,"334b524f0e3a"
"2020-07-28T12:41:34",1595961694.213,79374108,-46,38,"334b524f0e3a"
"2020-07-28T12:41:34",1595961694.415,79374310,-47,39,"334b524f0e3a"
"2020-07-28T12:41:34",1595961694.824,79374719,-48,37,"334b524f0e3a"
"2020-07-28T12:41:35",1595961695.029,79374924,-46,38,"334b524f0e3a"
"2020-07-28T12:41:35",1595961695.442,79375337,-44,39,"334b524f0e3a"
"2020-07-28T12:41:36",1595961696.065,79375960,-46,38,"334b524f0e3a"
"2020-07-28T12:41:36",1595961696.267,79376162,-47,39,"334b524f0e3a"
"2020-07-28T12:41:36",1595961696.681,79376576,-48,37,"334b524f0e3a"
"2020-07-28T12:41:36",1595961696.884,79376779,-46,38,"334b524f0e3a"
"2020-07-28T12:41:37",1595961697.294,79377189,-44,39,"334b524f0e3a"
"2020-07-28T12:41:37",1595961697.699,79377594,-48,37,"334b524f0e3a"
"2020-07-28T12:41:38",1595961698.315,79378210,-44,39,"334b524f0e3a"
"2020-07-28T12:41:38",1595961698.528,79378423,-48,37,"334b524f0e3a"
"2020-07-28T12:41:38",1595961698.935,79378830,-45,38,"334b524f0e3a"
"2020-07-28T12:41:39",1595961699.14,79379035,-44,39,"334b524f0e3a"
"2020-07-28T12:41:39",1595961699.555,79379450,-48,37,"334b524f0e3a"
"2020-07-28T12:41:39",1595961699.757,79379652,-46,38,"334b524f0e3a"
"2020-07-28T12:41:40",1595961700.168,79380063,-44,39,"334b524f0e3a"
"2020-07-28T12:41:40",1595961700.375,79380270,-48,37,"334b524f0e3a"
"2020-07-28T12:41:40",1595961700.785,79380680,-45,38,"334b524f0e3a"
"2020-07-28T12:41:40",1595961700.994,79380889,-44,39,"334b524f0e3a"
"2020-07-28T12:41:41",1595961701.405,79381300,-48,37,"334b524f0e3a"
"2020-07-28T12:41:41",1595961701.611,79381506,-46,38,"334b524f0e3a"
"2020-07-28T12:41:42",1595961702.023,79381918,-47,39,"334b524f0e3a"
"2020-07-28T12:41:42",1595961702.224,79382119,-48,37,"334b524f0e3a"
"2020-07-28T12:41:42",1595961702.632,79382527,-45,38,"334b524f0e3a"
"2020-07-28T12:41:42",1595961702.841,79382736,-47,39,"334b524f0e3a"
"2020-07-28T12:41:43",1595961703.252,79383147,-48,37,"334b524f0e3a"
"2020-07-28T12:41:43",1595961703.455,79383350,-46,38,"334b524f0e3a"
"2020-07-28T12:41:43",1595961703.87,79383765,-44,39,"334b524f0e3a"
"2020-07-28T12:41:44",1595961704.073,79383968,-48,37,"334b524f0e3a"
"2020-07-28T12:41:44",1595961704.274,79384169,-48,37,"334b524f0e3a"
"2020-07-28T12:41:44",1595961704.481,79384376,-46,38,"334b524f0e3a"
"2020-07-28T12:41:44",1595961704.894,79384789,-47,39,"334b524f0e3a"
"2020-07-28T12:41:45",1595961705.102,79384997,-48,37,"334b524f0e3a"
"2020-07-28T12:41:45",1595961705.512,79385407,-46,38,"334b524f0e3a"
"2020-07-28T12:41:45",1595961705.719,79385614,-44,39,"334b524f0e3a"
"2020-07-28T12:41:46",1595961706.133,79386028,-48,37,"334b524f0e3a"
"2020-07-28T12:41:46",1595961706.333,79386228,-46,38,"334b524f0e3a"
"2020-07-28T12:41:46",1595961706.745,79386640,-44,39,"334b524f0e3a"
"2020-07-28T12:41:46",1595961706.948,79386843,-48,37,"334b524f0e3a"
"2020-07-28T12:41:47",1595961707.355,79387250,-46,38,"334b524f0e3a"
"2020-07-28T12:41:47",1595961707.975,79387870,-47,37,"334b524f0e3a"
"2020-07-28T12:41:48",1595961708.187,79388082,-46,38,"334b524f0e3a"
"2020-07-28T12:41:48",1595961708.597,79388492,-44,39,"334b524f0e3a"
"2020-07-28T12:41:48",1595961708.803,79388698,-47,37,"334b524f0e3a"
"2020-07-28T12:41:49",1595961709.211,79389106,-46,38,"334b524f0e3a"
"2020-07-28T12:41:49",1595961709.414,79389309,-44,39,"334b524f0e3a"
"2020-07-28T12:41:49",1595961709.823,79389718,-48,37,"334b524f0e3a"
"2020-07-28T12:41:50",1595961710.443,79390338,-47,39,"334b524f0e3a"
"2020-07-28T12:41:50",1595961710.651,79390546,-48,37,"334b524f0e3a"
"2020-07-28T12:41:51",1595961711.059,79390954,-46,38,"334b524f0e3a"
"2020-07-28T12:41:51",1595961711.265,79391160,-44,39,"334b524f0e3a"
"2020-07-28T12:41:51",1595961711.465,79391360,-47,39,"334b524f0e3a"
"2020-07-28T12:41:51",1595961711.671,79391566,-48,37,"334b524f0e3a"
"2020-07-28T12:41:51",1595961711.881,79391776,-46,38,"334b524f0e3a"
"2020-07-28T12:41:52",1595961712.082,79391977,-46,38,"334b524f0e3a"
"2020-07-28T12:41:52",1595961712.287,79392182,-44,39,"334b524f0e3a"
"2020-07-28T12:41:52",1595961712.701,79392596,-48,37,"334b524f0e3a"
"2020-07-28T12:41:52",1595961712.909,79392804,-46,38,"334b524f0e3a"
"2020-07-28T12:41:53",1595961713.314,79393209,-44,39,"334b524f0e3a"
"2020-07-28T12:41:53",1595961713.938,79393833,-46,38,"334b524f0e3a"
"2020-07-28T12:41:54",1595961714.141,79394036,-44,39,"334b524f0e3a"
"2020-07-28T12:41:54",1595961714.552,79394447,-48,37,"334b524f0e3a"
"2020-07-28T12:41:54",1595961714.756,79394651,-46,38,"334b524f0e3a"
"2020-07-28T12:41:55",1595961715.164,79395059,-44,39,"334b524f0e3a"
"2020-07-28T12:41:55",1595961715.374,79395269,-48,37,"334b524f0e3a"
"2020-07-28T12:41:55",1595961715.78,79395675,-46,38,"334b524f0e3a"
"2020-07-28T12:41:56",1595961716.395,79396290,-48,37,"334b524f0e3a"
"2020-07-28T12:41:56",1595961716.604,79396499,-46,38,"334b524f0e3a"
"2020-07-28T12:41:57",1595961717.628,79397523,-46,38,"334b524f0e3a"
"2020-07-28T12:41:57",1595961717.834,79397729,-47,39,"334b524f0e3a"
"2020-07-28T12:41:58",1595961718.242,79398137,-48,37,"334b524f0e3a"
"2020-07-28T12:41:58",1595961718.445,79398340,-46,38,"334b524f0e3a"
"2020-07-28T12:41:58",1595961718.862,79398757,-44,39,"334b524f0e3a"
"2020-07-28T12:41:59",1595961719.27,79399165,-48,37,"334b524f0e3a"
"2020-07-28T12:41:59",1595961719.472,79399367,-46,38,"334b524f0e3a"
"2020-07-28T12:41:59",1595961719.878,79399773,-47,39,"334b524f0e3a"
"2020-07-28T12:42:00",1595961720.092,79399987,-48,37,"334b524f0e3a"
"2020-07-28T12:42:00",1595961720.501,79400396,-46,38,"334b524f0e3a"
"2020-07-28T12:42:00",1595961720.703,79400598,-47,39,"334b524f0e3a"
"2020-07-28T12:42:01",1595961721.116,79401011,-48,37,"334b524f0e3a"
"2020-07-28T12:42:01",1595961721.326,79401221,-46,38,"334b524f0e3a"
"2020-07-28T12:42:01",1595961721.736,79401631,-44,39,"334b524f0e3a"
"2020-07-28T12:42:01",1595961721.936,79401831,-48,37,"334b524f0e3a"
"2020-07-28T12:42:02",1595961722.552,79402447,-44,39,"334b524f0e3a"
"2020-07-28T12:42:02",1595961722.965,79402860,-48,37,"334b524f0e3a"
"2020-07-28T12:42:03",1595961723.169,79403064,-46,38,"334b524f0e3a"
"2020-07-28T12:42:03",1595961723.782,79403677,-48,37,"334b524f0e3a"
"2020-07-28T12:42:04",1595961724.401,79404296,-47,39,"334b524f0e3a"
"2020-07-28T12:42:05",1595961725.023,79404918,-46,38,"334b524f0e3a"
"2020-07-28T12:42:05",1595961725.431,79405326,-47,39,"334b524f0e3a"
"2020-07-28T12:42:05",1595961725.637,79405532,-48,37,"334b524f0e3a"
"2020-07-28T12:42:05",1595961725.838,79405733,-48,37,"334b524f0e3a"
"2020-07-28T12:42:06",1595961726.043,79405938,-46,38,"334b524f0e3a"
"2020-07-28T12:42:06",1595961726.458,79406353,-44,39,"334b524f0e3a"
"2020-07-28T12:42:06",1595961726.658,79406553,-48,37,"334b524f0e3a"
"2020-07-28T12:42:07",1595961727.069,79406964,-46,38,"334b524f0e3a"
"2020-07-28T12:42:07",1595961727.279,79407174,-47,39,"334b524f0e3a"
"2020-07-28T12:42:07",1595961727.694,79407589,-48,37,"334b524f0e3a"
"2020-07-28T12:42:08",1595961728.306,79408201,-47,39,"334b524f0e3a"
"2020-07-28T12:42:08",1595961728.512,79408407,-48,37,"334b524f0e3a"
"2020-07-28T12:42:08",1595961728.917,79408812,-45,38,"334b524f0e3a"
"2020-07-28T12:42:09",1595961729.122,79409017,-44,39,"334b524f0e3a"
"2020-07-28T12:42:09",1595961729.535,79409430,-48,37,"334b524f0e3a"
"2020-07-28T12:42:09",1595961729.746,79409641,-46,38,"334b524f0e3a"
"2020-07-28T12:42:10",1595961730.157,79410052,-44,39,"334b524f0e3a"
"2020-07-28T12:42:10",1595961730.361,79410256,-48,37,"334b524f0e3a"
"2020-07-28T12:42:10",1595961730.769,79410664,-46,38,"334b524f0e3a"
"2020-07-28T12:42:10",1595961730.976,79410871,-44,39,"334b524f0e3a"
"2020-07-28T12:42:11",1595961731.388,79411283,-48,37,"334b524f0e3a"
"2020-07-28T12:42:11",1595961731.587,79411482,-46,38,"334b524f0e3a"
"2020-07-28T12:42:12",1595961732.004,79411899,-47,39,"334b524f0e3a"
"2020-07-28T12:42:12",1595961732.211,79412106,-48,37,"334b524f0e3a"
"2020-07-28T12:42:12",1595961732.619,79412514,-46,38,"334b524f0e3a"
"2020-07-28T12:42:12",1595961732.83,79412725,-44,39,"334b524f0e3a"
"2020-07-28T12:42:13",1595961733.647,79413542,-46,38,"334b524f0e3a"
"2020-07-28T12:42:13",1595961733.846,79413741,-47,39,"334b524f0e3a"
"2020-07-28T12:42:14",1595961734.471,79414366,-46,38,"334b524f0e3a"
"2020-07-28T12:42:14",1595961734.885,79414780,-44,39,"334b524f0e3a"
"2020-07-28T12:42:15",1595961735.085,79414980,-48,37,"334b524f0e3a"
"2020-07-28T12:42:15",1595961735.495,79415390,-46,38,"334b524f0e3a"
"2020-07-28T12:42:15",1595961735.697,79415592,-48,39,"334b524f0e3a"
"2020-07-28T12:42:16",1595961736.111,79416006,-48,37,"334b524f0e3a"
"2020-07-28T12:42:16",1595961736.313,79416208,-46,38,"334b524f0e3a"
"2020-07-28T12:42:16",1595961736.725,79416620,-47,39,"334b524f0e3a"
"2020-07-28T12:42:16",1595961736.939,79416834,-48,37,"334b524f0e3a"
"2020-07-28T12:42:17",1595961737.341,79417236,-46,38,"334b524f0e3a"
"2020-07-28T12:42:17",1595961737.549,79417444,-44,39,"334b524f0e3a"
"2020-07-28T12:42:17",1595961737.963,79417858,-48,37,"334b524f0e3a"
"2020-07-28T12:42:18",1595961738.169,79418064,-46,38,"334b524f0e3a"
"2020-07-28T12:42:18",1595961738.78,79418675,-48,37,"334b524f0e3a"
"2020-07-28T12:42:19",1595961739.186,79419081,-46,38,"334b524f0e3a"
"2020-07-28T12:42:19",1595961739.395,79419290,-47,39,"334b524f0e3a"
"2020-07-28T12:42:20",1595961740.012,79419907,-46,38,"334b524f0e3a"
"2020-07-28T12:42:20",1595961740.421,79420316,-47,39,"334b524f0e3a"
"2020-07-28T12:42:20",1595961740.835,79420730,-48,37,"334b524f0e3a"
"2020-07-28T12:42:21",1595961741.037,79420932,-46,38,"334b524f0e3a"
"2020-07-28T12:42:21",1595961741.447,79421342,-44,39,"334b524f0e3a"
"2020-07-28T12:42:21",1595961741.66,79421555,-48,37,"334b524f0e3a"
"2020-07-28T12:42:22",1595961742.068,79421963,-46,38,"334b524f0e3a"
"2020-07-28T12:42:22",1595961742.277,79422172,-44,39,"334b524f0e3a"
"2020-07-28T12:42:22",1595961742.685,79422580,-48,37,"334b524f0e3a"
"2020-07-28T12:42:22",1595961742.886,79422781,-46,38,"334b524f0e3a"
"2020-07-28T12:42:23",1595961743.3,79423195,-44,39,"334b524f0e3a"
"2020-07-28T12:42:23",1595961743.506,79423401,-48,37,"334b524f0e3a"
"2020-07-28T12:42:23",1595961743.912,79423807,-46,38,"334b524f0e3a"
"2020-07-28T12:42:24",1595961744.121,79424016,-44,39,"334b524f0e3a"
"2020-07-28T12:42:24",1595961744.539,79424434,-48,37,"334b524f0e3a"
"2020-07-28T12:42:24",1595961744.739,79424634,-46,38,"334b524f0e3a"
"2020-07-28T12:42:25",1595961745.154,79425049,-44,39,"334b524f0e3a"
"2020-07-28T12:42:25",1595961745.356,79425251,-48,37,"334b524f0e3a"
"2020-07-28T12:42:25",1595961745.76,79425655,-46,38,"334b524f0e3a"
"2020-07-28T12:42:25",1595961745.97,79425865,-47,39,"334b524f0e3a"
"2020-07-28T12:42:26",1595961746.382,79426277,-48,37,"334b524f0e3a"
"2020-07-28T12:42:27",1595961747.001,79426896,-47,39,"334b524f0e3a"
"2020-07-28T12:42:27",1595961747.202,79427097,-48,37,"334b524f0e3a"
"2020-07-28T12:42:27",1595961747.611,79427506,-46,38,"334b524f0e3a"
"2020-07-28T12:42:27",1595961747.82,79427715,-44,39,"334b524f0e3a"
"2020-07-28T12:42:28",1595961748.024,79427919,-47,39,"334b524f0e3a"
"2020-07-28T12:42:28",1595961748.229,79428124,-48,37,"334b524f0e3a"
"2020-07-28T12:42:28",1595961748.637,79428532,-46,38,"334b524f0e3a"
"2020-07-28T12:42:28",1595961748.846,79428741,-47,39,"334b524f0e3a"
"2020-07-28T12:42:29",1595961749.255,79429150,-48,37,"334b524f0e3a"
"2020-07-28T12:42:29",1595961749.464,79429359,-46,38,"334b524f0e3a"
"2020-07-28T12:42:29",1595961749.87,79429765,-47,39,"334b524f0e3a"
"2020-07-28T12:42:30",1595961750.075,79429970,-48,37,"334b524f0e3a"
"2020-07-28T12:42:30",1595961750.486,79430381,-46,38,"334b524f0e3a"
"2020-07-28T12:42:30",1595961750.692,79430587,-47,39,"334b524f0e3a"
"2020-07-28T12:42:31",1595961751.102,79430997,-48,37,"334b524f0e3a"
"2020-07-28T12:42:31",1595961751.311,79431206,-46,38,"334b524f0e3a"
"2020-07-28T12:42:32",1595961752.34,79432235,-46,38,"334b524f0e3a"
"2020-07-28T12:42:32",1595961752.54,79432435,-47,39,"334b524f0e3a"
"2020-07-28T12:42:33",1595961753.158,79433053,-46,38,"334b524f0e3a"
"2020-07-28T12:42:33",1595961753.568,79433463,-44,39,"334b524f0e3a"
"2020-07-28T12:42:33",1595961753.774,79433669,-48,37,"334b524f0e3a"
"2020-07-28T12:42:34",1595961754.192,79434087,-46,38,"334b524f0e3a"
"2020-07-28T12:42:34",1595961754.394,79434289,-44,39,"334b524f0e3a"
"2020-07-28T12:42:34",1595961754.8,79434695,-48,37,"334b524f0e3a"
"2020-07-28T12:42:35",1595961755.007,79434902,-46,38,"334b524f0e3a"
"2020-07-28T12:42:35",1595961755.21,79435105,-46,38,"334b524f0e3a"
"2020-07-28T12:42:35",1595961755.42,79435315,-47,39,"334b524f0e3a"
"2020-07-28T12:42:35",1595961755.831,79435726,-48,37,"334b524f0e3a"
"2020-07-28T12:42:36",1595961756.448,79436343,-44,39,"334b524f0e3a"
"2020-07-28T12:42:36",1595961756.656,79436551,-48,37,"334b524f0e3a"
"2020-07-28T12:42:37",1595961757.058,79436953,-46,38,"334b524f0e3a"
"2020-07-28T12:42:37",1595961757.267,79437162,-47,39,"334b524f0e3a"
"2020-07-28T12:42:37",1595961757.678,79437573,-48,37,"334b524f0e3a"
"2020-07-28T12:42:37",1595961757.882,79437777,-46,38,"334b524f0e3a"
"2020-07-28T12:42:38",1595961758.292,79438187,-47,39,"334b524f0e3a"
"2020-07-28T12:42:38",1595961758.498,79438393,-48,37,"334b524f0e3a"
"2020-07-28T12:42:38",1595961758.911,79438806,-46,38,"334b524f0e3a"
"2020-07-28T12:42:39",1595961759.121,79439016,-44,39,"334b524f0e3a"
"2020-07-28T12:42:39",1595961759.523,79439418,-48,37,"334b524f0e3a"
"2020-07-28T12:42:39",1595961759.73,79439625,-46,38,"334b524f0e3a"
"2020-07-28T12:42:40",1595961760.138,79440033,-44,39,"334b524f0e3a"
"2020-07-28T12:42:40",1595961760.347,79440242,-48,37,"334b524f0e3a"
"2020-07-28T12:42:40",1595961760.76,79440655,-46,38,"334b524f0e3a"
"2020-07-28T12:42:40",1595961760.97,79440865,-44,39,"334b524f0e3a"
"2020-07-28T12:42:41",1595961761.375,79441270,-48,37,"334b524f0e3a"
"2020-07-28T12:42:41",1595961761.578,79441473,-46,38,"334b524f0e3a"
"2020-07-28T12:42:41",1595961761.994,79441889,-44,39,"334b524f0e3a"
"2020-07-28T12:42:42",1595961762.2,79442095,-47,37,"334b524f0e3a"
"2020-07-28T12:42:42",1595961762.401,79442296,-48,37,"334b524f0e3a"
"2020-07-28T12:42:42",1595961762.612,79442507,-46,38,"334b524f0e3a"
"2020-07-28T12:42:43",1595961763.017,79442912,-44,39,"334b524f0e3a"
"2020-07-28T12:42:43",1595961763.219,79443114,-48,37,"334b524f0e3a"
"2020-07-28T12:42:43",1595961763.634,79443529,-46,38,"334b524f0e3a"
"2020-07-28T12:42:43",1595961763.842,79443737,-44,39,"334b524f0e3a"
"2020-07-28T12:42:44",1595961764.255,79444150,-48,37,"334b524f0e3a"
"2020-07-28T12:42:44",1595961764.464,79444359,-46,38,"334b524f0e3a"
"2020-07-28T12:42:44",1595961764.871,79444766,-44,39,"334b524f0e3a"
"2020-07-28T12:42:45",1595961765.077,79444972,-48,37,"334b524f0e3a"
"2020-07-28T12:42:45",1595961765.695,79445590,-47,39,"334b524f0e3a"
"2020-07-28T12:42:46",1595961766.105,79446000,-48,37,"334b524f0e3a"
"2020-07-28T12:42:46",1595961766.306,79446201,-46,38,"334b524f0e3a"
"2020-07-28T12:42:46",1595961766.722,79446617,-48,39,"334b524f0e3a"
"2020-07-28T12:42:46",1595961766.925,79446820,-47,37,"334b524f0e3a"
"2020-07-28T12:42:47",1595961767.333,79447228,-46,38,"334b524f0e3a"
"2020-07-28T12:42:47",1595961767.536,79447431,-44,39,"334b524f0e3a"
"2020-07-28T12:42:47",1595961767.951,79447846,-48,37,"334b524f0e3a"
"2020-07-28T12:42:48",1595961768.158,79448053,-46,38,"334b524f0e3a"
"2020-07-28T12:42:48",1595961768.571,79448466,-48,39,"334b524f0e3a"
"2020-07-28T12:42:48",1595961768.774,79448669,-48,37,"334b524f0e3a"
"2020-07-28T12:42:49",1595961769.184,79449079,-46,38,"334b524f0e3a"
"2020-07-28T12:42:49",1595961769.388,79449283,-44,39,"334b524f0e3a"
"2020-07-28T12:42:49",1595961769.801,79449696,-48,37,"334b524f0e3a"
"2020-07-28T12:42:50",1595961770.008,79449903,-46,38,"334b524f0e3a"
"2020-07-28T12:42:50",1595961770.416,79450311,-47,39,"334b524f0e3a"
"2020-07-28T12:42:50",1595961770.831,79450726,-48,37,"334b524f0e3a"
"2020-07-28T12:42:51",1595961771.031,79450926,-46,38,"334b524f0e3a"
"2020-07-28T12:42:51",1595961771.445,79451340,-44,39,"334b524f0e3a"
"2020-07-28T12:42:51",1595961771.653,79451548,-48,37,"334b524f0e3a"
"2020-07-28T12:42:52",1595961772.266,79452161,-47,39,"334b524f0e3a"
"2020-07-28T12:42:52",1595961772.676,79452571,-47,37,"334b524f0e3a"
"2020-07-28T12:42:52",1595961772.881,79452776,-46,38,"334b524f0e3a"
"2020-07-28T12:42:53",1595961773.291,79453186,-47,39,"334b524f0e3a"
"2020-07-28T12:42:53",1595961773.498,79453393,-48,37,"334b524f0e3a"
"2020-07-28T12:42:53",1595961773.904,79453799,-46,38,"334b524f0e3a"
"2020-07-28T12:42:54",1595961774.114,79454009,-44,39,"334b524f0e3a"
"2020-07-28T12:42:55",1595961775.133,79455028,-47,39,"334b524f0e3a"
"2020-07-28T12:42:55",1595961775.344,79455239,-47,37,"334b524f0e3a"
"2020-07-28T12:42:55",1595961775.762,79455657,-46,38,"334b524f0e3a"
"2020-07-28T12:42:55",1595961775.968,79455863,-47,39,"334b524f0e3a"
"2020-07-28T12:42:56",1595961776.372,79456267,-47,37,"334b524f0e3a"
"2020-07-28T12:42:56",1595961776.58,79456475,-46,38,"334b524f0e3a"
"2020-07-28T12:42:56",1595961776.99,79456885,-43,39,"334b524f0e3a"
"2020-07-28T12:42:57",1595961777.193,79457088,-48,37,"334b524f0e3a"
"2020-07-28T12:42:57",1595961777.401,79457296,-48,37,"334b524f0e3a"
"2020-07-28T12:42:57",1595961777.604,79457499,-46,38,"334b524f0e3a"
"2020-07-28T12:42:58",1595961778.019,79457914,-44,39,"334b524f0e3a"
"2020-07-28T12:42:58",1595961778.221,79458116,-48,37,"334b524f0e3a"
"2020-07-28T12:42:59",1595961779.251,79459146,-48,37,"334b524f0e3a"
"2020-07-28T12:42:59",1595961779.457,79459352,-46,38,"334b524f0e3a"
"2020-07-28T12:42:59",1595961779.861,79459756,-44,39,"334b524f0e3a"
"2020-07-28T12:43:00",1595961780.486,79460381,-46,38,"334b524f0e3a"
"2020-07-28T12:43:00",1595961780.687,79460582,-47,39,"334b524f0e3a"
"2020-07-28T12:43:01",1595961781.095,79460990,-47,37,"334b524f0e3a"
"2020-07-28T12:43:01",1595961781.298,79461193,-46,38,"334b524f0e3a"
"2020-07-28T12:43:01",1595961781.708,79461603,-45,39,"334b524f0e3a"
"2020-07-28T12:43:01",1595961781.914,79461809,-48,37,"334b524f0e3a"
"2020-07-28T12:43:02",1595961782.325,79462220,-46,38,"334b524f0e3a"
"2020-07-28T12:43:02",1595961782.535,79462430,-47,39,"334b524f0e3a"
"2020-07-28T12:43:02",1595961782.943,79462838,-48,37,"334b524f0e3a"
"2020-07-28T12:43:03",1595961783.149,79463044,-46,38,"334b524f0e3a"
"2020-07-28T12:43:03",1595961783.564,79463459,-44,39,"334b524f0e3a"
"2020-07-28T12:43:03",1595961783.765,79463660,-48,37,"334b524f0e3a"
"2020-07-28T12:43:04",1595961784.173,79464068,-46,38,"334b524f0e3a"
"2020-07-28T12:43:04",1595961784.382,79464277,-44,39,"334b524f0e3a"
"2020-07-28T12:43:04",1595961784.585,79464480,-44,39,"334b524f0e3a"
"2020-07-28T12:43:04",1595961784.789,79464684,-48,37,"334b524f0e3a"
"2020-07-28T12:43:05",1595961785.203,79465098,-46,38,"334b524f0e3a"
"2020-07-28T12:43:05",1595961785.816,79465711,-48,37,"334b524f0e3a"
"2020-07-28T12:43:06",1595961786.023,79465918,-46,38,"334b524f0e3a"
"2020-07-28T12:43:06",1595961786.434,79466329,-47,39,"334b524f0e3a"
"2020-07-28T12:43:06",1595961786.644,79466539,-48,37,"334b524f0e3a"
"2020-07-28T12:43:07",1595961787.053,79466948,-46,38,"334b524f0e3a"
"2020-07-28T12:43:07",1595961787.263,79467158,-44,39,"334b524f0e3a"
"2020-07-28T12:43:07",1595961787.673,79467568,-48,37,"334b524f0e3a"
"2020-07-28T12:43:07",1595961787.88,79467775,-46,38,"334b524f0e3a"
"2020-07-28T12:43:08",1595961788.291,79468186,-44,39,"334b524f0e3a"
"2020-07-28T12:43:08",1595961788.491,79468386,-48,37,"334b524f0e3a"
"2020-07-28T12:43:08",1595961788.903,79468798,-46,38,"334b524f0e3a"
"2020-07-28T12:43:09",1595961789.106,79469001,-47,39,"334b524f0e3a"
"2020-07-28T12:43:09",1595961789.513,79469408,-48,37,"334b524f0e3a"
"2020-07-28T12:43:09",1595961789.726,79469621,-46,38,"334b524f0e3a"
"2020-07-28T12:43:10",1595961790.138,79470033,-44,39,"334b524f0e3a"
"2020-07-28T12:43:10",1595961790.344,79470239,-48,37,"334b524f0e3a"
"2020-07-28T12:43:10",1595961790.754,79470649,-46,38,"334b524f0e3a"
"2020-07-28T12:43:10",1595961790.954,79470849,-47,39,"334b524f0e3a"
"2020-07-28T12:43:11",1595961791.364,79471259,-48,37,"334b524f0e3a"
"2020-07-28T12:43:11",1595961791.569,79471464,-46,38,"334b524f0e3a"
"2020-07-28T12:43:11",1595961791.771,79471666,-46,38,"334b524f0e3a"
"2020-07-28T12:43:11",1595961791.981,79471876,-44,39,"334b524f0e3a"
"2020-07-28T12:43:12",1595961792.195,79472090,-47,37,"334b524f0e3a"
"2020-07-28T12:43:12",1595961792.395,79472290,-48,37,"334b524f0e3a"
"2020-07-28T12:43:12",1595961792.604,79472499,-46,38,"334b524f0e3a"
"2020-07-28T12:43:13",1595961793.014,79472909,-44,39,"334b524f0e3a"
"2020-07-28T12:43:13",1595961793.217,79473112,-48,37,"334b524f0e3a"
"2020-07-28T12:43:13",1595961793.836,79473731,-44,39,"334b524f0e3a"
"2020-07-28T12:43:14",1595961794.245,79474140,-48,37,"334b524f0e3a"
"2020-07-28T12:43:14",1595961794.451,79474346,-46,38,"334b524f0e3a"
"2020-07-28T12:43:14",1595961794.864,79474759,-47,39,"334b524f0e3a"
"2020-07-28T12:43:15",1595961795.479,79475374,-46,38,"334b524f0e3a"
"2020-07-28T12:43:15",1595961795.68,79475575,-47,39,"334b524f0e3a"
"2020-07-28T12:43:16",1595961796.086,79475981,-48,37,"334b524f0e3a"
"2020-07-28T12:43:16",1595961796.291,79476186,-46,38,"334b524f0e3a"
"2020-07-28T12:43:16",1595961796.708,79476603,-47,39,"334b524f0e3a"
"2020-07-28T12:43:16",1595961796.92,79476815,-48,37,"334b524f0e3a"
"2020-07-28T12:43:17",1595961797.321,79477216,-45,38,"334b524f0e3a"
"2020-07-28T12:43:17",1595961797.527,79477422,-47,39,"334b524f0e3a"
"2020-07-28T12:43:17",1595961797.945,79477840,-48,37,"334b524f0e3a"
"2020-07-28T12:43:18",1595961798.148,79478043,-46,38,"334b524f0e3a"
"2020-07-28T12:43:18",1595961798.551,79478446,-47,39,"334b524f0e3a"
"2020-07-28T12:43:19",1595961799.17,79479065,-46,38,"334b524f0e3a"
"2020-07-28T12:43:19",1595961799.381,79479276,-47,39,"334b524f0e3a"
"2020-07-28T12:43:19",1595961799.582,79479477,-44,39,"334b524f0e3a"
"2020-07-28T12:43:19",1595961799.791,79479686,-48,37,"334b524f0e3a"
"2020-07-28T12:43:20",1595961800.403,79480298,-44,39,"334b524f0e3a"
"2020-07-28T12:43:20",1595961800.819,79480714,-48,37,"334b524f0e3a"
"2020-07-28T12:43:21",1595961801.019,79480914,-46,38,"334b524f0e3a"
"2020-07-28T12:43:21",1595961801.431,79481326,-44,39,"334b524f0e3a"
"2020-07-28T12:43:21",1595961801.64,79481535,-48,37,"334b524f0e3a"
"2020-07-28T12:43:22",1595961802.053,79481948,-46,38,"334b524f0e3a"
"2020-07-28T12:43:22",1595961802.253,79482148,-47,39,"334b524f0e3a"
"2020-07-28T12:43:22",1595961802.664,79482559,-48,37,"334b524f0e3a"
"2020-07-28T12:43:23",1595961803.278,79483173,-44,39,"334b524f0e3a"
"2020-07-28T12:43:23",1595961803.48,79483375,-48,37,"334b524f0e3a"
"2020-07-28T12:43:23",1595961803.891,79483786,-46,38,"334b524f0e3a"
"2020-07-28T12:43:24",1595961804.101,79483996,-47,39,"334b524f0e3a"
"2020-07-28T12:43:24",1595961804.518,79484413,-48,37,"334b524f0e3a"
"2020-07-28T12:43:24",1595961804.719,79484614,-46,38,"334b524f0e3a"
"2020-07-28T12:43:25",1595961805.133,79485028,-44,39,"334b524f0e3a"
"2020-07-28T12:43:25",1595961805.338,79485233,-48,37,"334b524f0e3a"
"2020-07-28T12:43:25",1595961805.748,79485643,-46,38,"334b524f0e3a"
"2020-07-28T12:43:25",1595961805.951,79485846,-47,39,"334b524f0e3a"
"2020-07-28T12:43:26",1595961806.359,79486254,-48,37,"334b524f0e3a"
"2020-07-28T12:43:26",1595961806.775,79486670,-46,38,"334b524f0e3a"
"2020-07-28T12:43:26",1595961806.977,79486872,-47,39,"334b524f0e3a"
"2020-07-28T12:43:27",1595961807.389,79487284,-48,37,"334b524f0e3a"
"2020-07-28T12:43:27",1595961807.595,79487490,-46,38,"334b524f0e3a"
"2020-07-28T12:43:28",1595961808.003,79487898,-44,39,"334b524f0e3a"
"2020-07-28T12:43:28",1595961808.205,79488100,-48,37,"334b524f0e3a"
"2020-07-28T12:43:28",1595961808.621,79488516,-46,38,"334b524f0e3a"
"2020-07-28T12:43:28",1595961808.829,79488724,-47,39,"334b524f0e3a"
"2020-07-28T12:43:29",1595961809.241,79489136,-48,37,"334b524f0e3a"
"2020-07-28T12:43:29",1595961809.441,79489336,-46,38,"334b524f0e3a"
"2020-07-28T12:43:29",1595961809.851,79489746,-47,39,"334b524f0e3a"
"2020-07-28T12:43:30",1595961810.056,79489951,-48,37,"334b524f0e3a"
"2020-07-28T12:43:30",1595961810.468,79490363,-46,38,"334b524f0e3a"
"2020-07-28T12:43:30",1595961810.671,79490566,-47,39,"334b524f0e3a"
"2020-07-28T12:43:31",1595961811.078,79490973,-48,37,"334b524f0e3a"
"2020-07-28T12:43:31",1595961811.284,79491179,-46,38,"334b524f0e3a"
"2020-07-28T12:43:31",1595961811.699,79491594,-44,39,"334b524f0e3a"
"2020-07-28T12:43:31",1595961811.91,79491805,-48,37,"334b524f0e3a"
"2020-07-28T12:43:32",1595961812.318,79492213,-46,38,"334b524f0e3a"
"2020-07-28T12:43:32",1595961812.524,79492419,-48,39,"334b524f0e3a"
"2020-07-28T12:43:32",1595961812.929,79492824,-47,37,"334b524f0e3a"
"2020-07-28T12:43:33",1595961813.132,79493027,-46,38,"334b524f0e3a"
"2020-07-28T12:43:33",1595961813.545,79493440,-44,39,"334b524f0e3a"
"2020-07-28T12:43:33",1595961813.758,79493653,-48,37,"334b524f0e3a"
"2020-07-28T12:43:33",1595961813.963,79493858,-48,37,"334b524f0e3a"
"2020-07-28T12:43:34",1595961814.166,79494061,-46,38,"334b524f0e3a"
"2020-07-28T12:43:34",1595961814.578,79494473,-44,39,"334b524f0e3a"
"2020-07-28T12:43:34",1595961814.784,79494679,-48,37,"334b524f0e3a"
"2020-07-28T12:43:35",1595961815.194,79495089,-46,38,"334b524f0e3a"
"2020-07-28T12:43:35",1595961815.4,79495295,-47,39,"334b524f0e3a"
"2020-07-28T12:43:35",1595961815.806,79495701,-48,37,"334b524f0e3a"
"2020-07-28T12:43:37",1595961817.042,79496937,-46,38,"334b524f0e3a"
"2020-07-28T12:43:37",1595961817.241,79497136,-44,39,"334b524f0e3a"
"2020-07-28T12:43:37",1595961817.862,79497757,-46,38,"334b524f0e3a"
"2020-07-28T12:43:38",1595961818.27,79498165,-44,39,"334b524f0e3a"
"2020-07-28T12:43:38",1595961818.479,79498374,-48,37,"334b524f0e3a"
"2020-07-28T12:43:38",1595961818.892,79498787,-46,38,"334b524f0e3a"
"2020-07-28T12:43:39",1595961819.093,79498988,-44,39,"334b524f0e3a"
"2020-07-28T12:43:39",1595961819.505,79499400,-48,37,"334b524f0e3a"
"2020-07-28T12:43:39",1595961819.708,79499603,-46,38,"334b524f0e3a"
"2020-07-28T12:43:40",1595961820.327,79500222,-48,37,"334b524f0e3a"
"2020-07-28T12:43:40",1595961820.739,79500634,-46,38,"334b524f0e3a"
"2020-07-28T12:43:40",1595961820.945,79500840,-44,39,"334b524f0e3a"
"2020-07-28T12:43:41",1595961821.145,79501040,-44,39,"334b524f0e3a"
"2020-07-28T12:43:41",1595961821.352,79501247,-48,37,"334b524f0e3a"
"2020-07-28T12:43:41",1595961821.765,79501660,-46,38,"334b524f0e3a"
"2020-07-28T12:43:41",1595961821.967,79501862,-45,39,"334b524f0e3a"
"2020-07-28T12:43:42",1595961822.384,79502279,-49,37,"334b524f0e3a"
"2020-07-28T12:43:42",1595961822.585,79502480,-46,38,"334b524f0e3a"
"2020-07-28T12:43:42",1595961822.989,79502884,-44,39,"334b524f0e3a"
"2020-07-28T12:43:43",1595961823.199,79503094,-48,37,"334b524f0e3a"
"2020-07-28T12:43:43",1595961823.611,79503506,-46,38,"334b524f0e3a"
"2020-07-28T12:43:43",1595961823.82,79503715,-44,39,"334b524f0e3a"
"2020-07-28T12:43:44",1595961824.231,79504126,-48,37,"334b524f0e3a"
"2020-07-28T12:43:44",1595961824.438,79504333,-46,38,"334b524f0e3a"
"2020-07-28T12:43:44",1595961824.847,79504742,-47,39,"334b524f0e3a"
"2020-07-28T12:43:45",1595961825.051,79504946,-48,37,"334b524f0e3a"
"2020-07-28T12:43:45",1595961825.46,79505355,-46,38,"334b524f0e3a"
"2020-07-28T12:43:45",1595961825.668,79505563,-47,39,"334b524f0e3a"
"2020-07-28T12:43:46",1595961826.077,79505972,-48,37,"334b524f0e3a"
"2020-07-28T12:43:46",1595961826.284,79506179,-46,38,"334b524f0e3a"
"2020-07-28T12:43:46",1595961826.694,79506589,-47,39,"334b524f0e3a"
"2020-07-28T12:43:47",1595961827.309,79507204,-46,38,"334b524f0e3a"
"2020-07-28T12:43:47",1595961827.509,79507404,-47,39,"334b524f0e3a"
"2020-07-28T12:43:47",1595961827.922,79507817,-48,37,"334b524f0e3a"
"2020-07-28T12:43:48",1595961828.135,79508030,-46,38,"334b524f0e3a"
"2020-07-28T12:43:48",1595961828.337,79508232,-46,38,"334b524f0e3a"
"2020-07-28T12:43:48",1595961828.537,79508432,-44,39,"334b524f0e3a"
"2020-07-28T12:43:48",1595961828.947,79508842,-48,37,"334b524f0e3a"
"2020-07-28T12:43:49",1595961829.157,79509052,-46,38,"334b524f0e3a"
"2020-07-28T12:43:49",1595961829.773,79509668,-48,37,"334b524f0e3a"
"2020-07-28T12:43:50",1595961830.179,79510074,-46,38,"334b524f0e3a"
"2020-07-28T12:43:50",1595961830.388,79510283,-47,39,"334b524f0e3a"
"2020-07-28T12:43:51",1595961831.422,79511317,-44,39,"334b524f0e3a"
"2020-07-28T12:43:51",1595961831.623,79511518,-48,37,"334b524f0e3a"
"2020-07-28T12:43:52",1595961832.037,79511932,-46,38,"334b524f0e3a"
"2020-07-28T12:43:52",1595961832.647,79512542,-48,37,"334b524f0e3a"
"2020-07-28T12:43:52",1595961832.858,79512753,-45,38,"334b524f0e3a"
"2020-07-28T12:43:53",1595961833.271,79513166,-47,39,"334b524f0e3a"
"2020-07-28T12:43:53",1595961833.472,79513367,-48,37,"334b524f0e3a"
"2020-07-28T12:43:53",1595961833.887,79513782,-46,38,"334b524f0e3a"
"2020-07-28T12:43:54",1595961834.089,79513984,-47,39,"334b524f0e3a"
"2020-07-28T12:43:54",1595961834.496,79514391,-48,37,"334b524f0e3a"
"2020-07-28T12:43:54",1595961834.697,79514592,-45,38,"334b524f0e3a"
"2020-07-28T12:43:55",1595961835.113,79515008,-47,39,"334b524f0e3a"
"2020-07-28T12:43:55",1595961835.323,79515218,-48,37,"334b524f0e3a"
"2020-07-28T12:43:55",1595961835.736,79515631,-46,38,"334b524f0e3a"
"2020-07-28T12:43:56",1595961836.141,79516036,-47,39,"334b524f0e3a"
"2020-07-28T12:43:56",1595961836.351,79516246,-48,37,"334b524f0e3a"
"2020-07-28T12:43:56",1595961836.754,79516649,-46,38,"334b524f0e3a"
"2020-07-28T12:43:56",1595961836.957,79516852,-44,39,"334b524f0e3a"
"2020-07-28T12:43:57",1595961837.372,79517267,-49,37,"334b524f0e3a"
"2020-07-28T12:43:57",1595961837.992,79517887,-47,39,"334b524f0e3a"
"2020-07-28T12:43:58",1595961838.192,79518087,-48,37,"334b524f0e3a"
"2020-07-28T12:43:58",1595961838.604,79518499,-46,38,"334b524f0e3a"
"2020-07-28T12:43:59",1595961839.222,79519117,-47,37,"334b524f0e3a"
"2020-07-28T12:43:59",1595961839.429,79519324,-46,38,"334b524f0e3a"
"2020-07-28T12:43:59",1595961839.839,79519734,-44,39,"334b524f0e3a"
"2020-07-28T12:44:00",1595961840.048,79519943,-48,37,"334b524f0e3a"
"2020-07-28T12:44:00",1595961840.453,79520348,-46,38,"334b524f0e3a"
"2020-07-28T12:44:00",1595961840.659,79520554,-47,39,"334b524f0e3a"
"2020-07-28T12:44:01",1595961841.071,79520966,-48,37,"334b524f0e3a"
"2020-07-28T12:44:01",1595961841.279,79521174,-46,38,"334b524f0e3a"
"2020-07-28T12:44:01",1595961841.688,79521583,-47,39,"334b524f0e3a"
"2020-07-28T12:44:01",1595961841.896,79521791,-48,37,"334b524f0e3a"
"2020-07-28T12:44:02",1595961842.303,79522198,-46,38,"334b524f0e3a"
"2020-07-28T12:44:02",1595961842.512,79522407,-44,39,"334b524f0e3a"
"2020-07-28T12:44:03",1595961843.334,79523229,-46,38,"334b524f0e3a"
"2020-07-28T12:44:03",1595961843.538,79523433,-44,39,"334b524f0e3a"
"2020-07-28T12:44:03",1595961843.951,79523846,-48,37,"334b524f0e3a"
"2020-07-28T12:44:04",1595961844.154,79524049,-46,38,"334b524f0e3a"
"2020-07-28T12:44:04",1595961844.564,79524459,-44,39,"334b524f0e3a"
"2020-07-28T12:44:04",1595961844.767,79524662,-48,37,"334b524f0e3a"
"2020-07-28T12:44:05",1595961845.182,79525077,-46,38,"334b524f0e3a"
"2020-07-28T12:44:05",1595961845.382,79525277,-47,39,"334b524f0e3a"
"2020-07-28T12:44:05",1595961845.795,79525690,-48,37,"334b524f0e3a"
"2020-07-28T12:44:05",1595961845.997,79525892,-46,38,"334b524f0e3a"
"2020-07-28T12:44:06",1595961846.41,79526305,-47,39,"334b524f0e3a"
"2020-07-28T12:44:06",1595961846.616,79526511,-48,37,"334b524f0e3a"
"2020-07-28T12:44:07",1595961847.03,79526925,-46,38,"334b524f0e3a"
"2020-07-28T12:44:07",1595961847.237,79527132,-44,39,"334b524f0e3a"
"2020-07-28T12:44:07",1595961847.647,79527542,-48,37,"334b524f0e3a"
"2020-07-28T12:44:08",1595961848.261,79528156,-47,39,"334b524f0e3a"
"2020-07-28T12:44:08",1595961848.467,79528362,-48,37,"334b524f0e3a"
"2020-07-28T12:44:08",1595961848.874,79528769,-45,38,"334b524f0e3a"
"2020-07-28T12:44:09",1595961849.083,79528978,-48,39,"334b524f0e3a"
"2020-07-28T12:44:09",1595961849.493,79529388,-48,37,"334b524f0e3a"
"2020-07-28T12:44:09",1595961849.7,79529595,-46,38,"334b524f0e3a"
"2020-07-28T12:44:09",1595961849.901,79529796,-46,38,"334b524f0e3a"
"2020-07-28T12:44:10",1595961850.108,79530003,-47,39,"334b524f0e3a"
"2020-07-28T12:44:10",1595961850.516,79530411,-47,37,"334b524f0e3a"
"2020-07-28T12:44:10",1595961850.724,79530619,-46,38,"334b524f0e3a"
"2020-07-28T12:44:11",1595961851.134,79531029,-44,39,"334b524f0e3a"
"2020-07-28T12:44:11",1595961851.343,79531238,-47,37,"334b524f0e3a"
"2020-07-28T12:44:11",1595961851.747,79531642,-46,38,"334b524f0e3a"
"2020-07-28T12:44:11",1595961851.955,79531850,-47,39,"334b524f0e3a"
"2020-07-28T12:44:12",1595961852.367,79532262,-48,37,"334b524f0e3a"
"2020-07-28T12:44:12",1595961852.572,79532467,-46,38,"334b524f0e3a"
"2020-07-28T12:44:12",1595961852.983,79532878,-44,39,"334b524f0e3a"
"2020-07-28T12:44:13",1595961853.187,79533082,-48,37,"334b524f0e3a"
"2020-07-28T12:44:13",1595961853.804,79533699,-48,39,"334b524f0e3a"
"2020-07-28T12:44:14",1595961854.213,79534108,-48,37,"334b524f0e3a"
"2020-07-28T12:44:14",1595961854.423,79534318,-46,38,"334b524f0e3a"
"2020-07-28T12:44:14",1595961854.833,79534728,-44,39,"334b524f0e3a"
"2020-07-28T12:44:15",1595961855.033,79534928,-48,37,"334b524f0e3a"
"2020-07-28T12:44:15",1595961855.444,79535339,-46,38,"334b524f0e3a"
"2020-07-28T12:44:15",1595961855.653,79535548,-44,39,"334b524f0e3a"
"2020-07-28T12:44:16",1595961856.065,79535960,-48,37,"334b524f0e3a"
"2020-07-28T12:44:16",1595961856.681,79536576,-47,39,"334b524f0e3a"
"2020-07-28T12:44:16",1595961856.89,79536785,-48,37,"334b524f0e3a"
"2020-07-28T12:44:17",1595961857.3,79537195,-46,38,"334b524f0e3a"
"2020-07-28T12:44:17",1595961857.712,79537607,-44,39,"334b524f0e3a"
"2020-07-28T12:44:17",1595961857.916,79537811,-48,37,"334b524f0e3a"
"2020-07-28T12:44:18",1595961858.322,79538217,-46,38,"334b524f0e3a"
"2020-07-28T12:44:18",1595961858.529,79538424,-47,39,"334b524f0e3a"
"2020-07-28T12:44:18",1595961858.935,79538830,-47,37,"334b524f0e3a"
"2020-07-28T12:44:19",1595961859.144,79539039,-46,38,"334b524f0e3a"
"2020-07-28T12:44:19",1595961859.563,79539458,-47,39,"334b524f0e3a"
"2020-07-28T12:44:19",1595961859.763,79539658,-48,37,"334b524f0e3a"
"2020-07-28T12:44:20",1595961860.176,79540071,-46,38,"334b524f0e3a"
"2020-07-28T12:44:20",1595961860.377,79540272,-44,39,"334b524f0e3a"
"2020-07-28T12:44:20",1595961860.787,79540682,-48,37,"334b524f0e3a"
"2020-07-28T12:44:20",1595961860.996,79540891,-46,38,"334b524f0e3a"
"2020-07-28T12:44:21",1595961861.402,79541297,-44,39,"334b524f0e3a"
"2020-07-28T12:44:22",1595961862.024,79541919,-46,38,"334b524f0e3a"
"2020-07-28T12:44:22",1595961862.226,79542121,-44,39,"334b524f0e3a"
"2020-07-28T12:44:22",1595961862.643,79542538,-48,37,"334b524f0e3a"
"2020-07-28T12:44:22",1595961862.846,79542741,-46,38,"334b524f0e3a"
"2020-07-28T12:44:23",1595961863.252,79543147,-48,39,"334b524f0e3a"
"2020-07-28T12:44:23",1595961863.455,79543350,-48,37,"334b524f0e3a"
"2020-07-28T12:44:23",1595961863.866,79543761,-46,38,"334b524f0e3a"
"2020-07-28T12:44:24",1595961864.08,79543975,-44,39,"334b524f0e3a"
"2020-07-28T12:44:24",1595961864.696,79544591,-46,38,"334b524f0e3a"
"2020-07-28T12:44:24",1595961864.901,79544796,-46,38,"334b524f0e3a"
"2020-07-28T12:44:25",1595961865.104,79544999,-44,39,"334b524f0e3a"
"2020-07-28T12:44:25",1595961865.515,79545410,-48,37,"334b524f0e3a"
"2020-07-28T12:44:25",1595961865.715,79545610,-46,38,"334b524f0e3a"
"2020-07-28T12:44:26",1595961866.124,79546019,-47,39,"334b524f0e3a"
"2020-07-28T12:44:26",1595961866.334,79546229,-48,37,"334b524f0e3a"
"2020-07-28T12:44:26",1595961866.748,79546643,-46,38,"334b524f0e3a"
"2020-07-28T12:44:26",1595961866.955,79546850,-44,39,"334b524f0e3a"
"2020-07-28T12:44:27",1595961867.363,79547258,-48,37,"334b524f0e3a"
"2020-07-28T12:44:27",1595961867.562,79547457,-46,38,"334b524f0e3a"
"2020-07-28T12:44:27",1595961867.974,79547869,-47,39,"334b524f0e3a"
"2020-07-28T12:44:28",1595961868.181,79548076,-48,37,"334b524f0e3a"
"2020-07-28T12:44:28",1595961868.596,79548491,-46,38,"334b524f0e3a"
"2020-07-28T12:44:28",1595961868.799,79548694,-47,39,"334b524f0e3a"
"2020-07-28T12:44:29",1595961869.209,79549104,-48,37,"334b524f0e3a"
"2020-07-28T12:44:29",1595961869.414,79549309,-46,38,"334b524f0e3a"
"2020-07-28T12:44:30",1595961870.03,79549925,-48,37,"334b524f0e3a"
"2020-07-28T12:44:30",1595961870.441,79550336,-46,38,"334b524f0e3a"
"2020-07-28T12:44:30",1595961870.641,79550536,-44,39,"334b524f0e3a"
"2020-07-28T12:44:31",1595961871.265,79551160,-46,38,"334b524f0e3a"
"2020-07-28T12:44:31",1595961871.68,79551575,-44,39,"334b524f0e3a"
"2020-07-28T12:44:31",1595961871.882,79551777,-48,37,"334b524f0e3a"
"2020-07-28T12:44:32",1595961872.086,79551981,-48,37,"334b524f0e3a"
"2020-07-28T12:44:32",1595961872.295,79552190,-46,38,"334b524f0e3a"
"2020-07-28T12:44:32",1595961872.7,79552595,-44,39,"334b524f0e3a"
"2020-07-28T12:44:32",1595961872.904,79552799,-48,37,"334b524f0e3a"
"2020-07-28T12:44:33",1595961873.313,79553208,-46,38,"334b524f0e3a"
"2020-07-28T12:44:33",1595961873.523,79553418,-44,39,"334b524f0e3a"
"2020-07-28T12:44:33",1595961873.936,79553831,-48,37,"334b524f0e3a"
"2020-07-28T12:44:34",1595961874.142,79554037,-46,38,"334b524f0e3a"
"2020-07-28T12:44:34",1595961874.556,79554451,-45,39,"334b524f0e3a"
"2020-07-28T12:44:34",1595961874.756,79554651,-48,37,"334b524f0e3a"
"2020-07-28T12:44:35",1595961875.166,79555061,-46,38,"334b524f0e3a"
"2020-07-28T12:44:35",1595961875.371,79555266,-44,39,"334b524f0e3a"
"2020-07-28T12:44:35",1595961875.777,79555672,-48,37,"334b524f0e3a"
"2020-07-28T12:44:35",1595961875.986,79555881,-46,38,"334b524f0e3a"
"2020-07-28T12:44:36",1595961876.402,79556297,-44,39,"334b524f0e3a"
"2020-07-28T12:44:36",1595961876.604,79556499,-48,37,"334b524f0e3a"
"2020-07-28T12:44:37",1595961877.013,79556908,-46,38,"334b524f0e3a"
"2020-07-28T12:44:37",1595961877.215,79557110,-47,39,"334b524f0e3a"
"2020-07-28T12:44:37",1595961877.834,79557729,-46,38,"334b524f0e3a"
"2020-07-28T12:44:38",1595961878.244,79558139,-44,39,"334b524f0e3a"
"2020-07-28T12:44:38",1595961878.456,79558351,-48,37,"334b524f0e3a"
"2020-07-28T12:44:38",1595961878.863,79558758,-46,38,"334b524f0e3a"
"2020-07-28T12:44:39",1595961879.073,79558968,-44,39,"334b524f0e3a"
"2020-07-28T12:44:39",1595961879.276,79559171,-48,39,"334b524f0e3a"
"2020-07-28T12:44:39",1595961879.479,79559374,-48,37,"334b524f0e3a"
"2020-07-28T12:44:39",1595961879.887,79559782,-46,38,"334b524f0e3a"
"2020-07-28T12:44:40",1595961880.096,79559991,-44,39,"334b524f0e3a"
"2020-07-28T12:44:40",1595961880.51,79560405,-48,37,"334b524f0e3a"
"2020-07-28T12:44:40",1595961880.711,79560606,-46,38,"334b524f0e3a"
"2020-07-28T12:44:41",1595961881.124,79561019,-44,39,"334b524f0e3a"
"2020-07-28T12:44:41",1595961881.333,79561228,-48,37,"334b524f0e3a"
"2020-07-28T12:44:42",1595961882.357,79562252,-48,37,"334b524f0e3a"
"2020-07-28T12:44:42",1595961882.563,79562458,-46,38,"334b524f0e3a"
"2020-07-28T12:44:42",1595961882.973,79562868,-47,39,"334b524f0e3a"
"2020-07-28T12:44:43",1595961883.178,79563073,-48,37,"334b524f0e3a"
"2020-07-28T12:44:43",1595961883.588,79563483,-46,38,"334b524f0e3a"
"2020-07-28T12:44:43",1595961883.798,79563693,-44,39,"334b524f0e3a"
"2020-07-28T12:44:44",1595961884.206,79564101,-48,37,"334b524f0e3a"
"2020-07-28T12:44:44",1595961884.414,79564309,-46,38,"334b524f0e3a"
"2020-07-28T12:44:44",1595961884.821,79564716,-44,39,"334b524f0e3a"
"2020-07-28T12:44:45",1595961885.025,79564920,-48,37,"334b524f0e3a"
"2020-07-28T12:44:45",1595961885.439,79565334,-46,38,"334b524f0e3a"
"2020-07-28T12:44:45",1595961885.649,79565544,-47,39,"334b524f0e3a"
"2020-07-28T12:44:46",1595961886.261,79566156,-46,38,"334b524f0e3a"
"2020-07-28T12:44:46",1595961886.673,79566568,-44,39,"334b524f0e3a"
"2020-07-28T12:44:47",1595961887.081,79566976,-48,37,"334b524f0e3a"
"2020-07-28T12:44:47",1595961887.287,79567182,-46,38,"334b524f0e3a"
"2020-07-28T12:44:47",1595961887.697,79567592,-48,39,"334b524f0e3a"
"2020-07-28T12:44:47",1595961887.899,79567794,-48,37,"334b524f0e3a"
"2020-07-28T12:44:48",1595961888.318,79568213,-46,38,"334b524f0e3a"
"2020-07-28T12:44:48",1595961888.518,79568413,-44,39,"334b524f0e3a"
"2020-07-28T12:44:48",1595961888.93,79568825,-48,37,"334b524f0e3a"
"2020-07-28T12:44:49",1595961889.137,79569032,-46,38,"334b524f0e3a"
"2020-07-28T12:44:49",1595961889.546,79569441,-47,39,"334b524f0e3a"
"2020-07-28T12:44:49",1595961889.751,79569646,-48,37,"334b524f0e3a"
"2020-07-28T12:44:50",1595961890.16,79570055,-46,38,"334b524f0e3a"
"2020-07-28T12:44:50",1595961890.362,79570257,-47,39,"334b524f0e3a"
"2020-07-28T12:44:50",1595961890.783,79570678,-48,37,"334b524f0e3a"
"2020-07-28T12:44:50",1595961890.982,79570877,-46,38,"334b524f0e3a"
"2020-07-28T12:44:51",1595961891.396,79571291,-47,39,"334b524f0e3a"
"2020-07-28T12:44:52",1595961892.007,79571902,-46,38,"334b524f0e3a"
"2020-07-28T12:44:52",1595961892.21,79572105,-47,39,"334b524f0e3a"
"2020-07-28T12:44:52",1595961892.621,79572516,-48,37,"334b524f0e3a"
"2020-07-28T12:44:52",1595961892.835,79572730,-46,38,"334b524f0e3a"
"2020-07-28T12:44:53",1595961893.241,79573136,-44,39,"334b524f0e3a"
"2020-07-28T12:44:53",1595961893.446,79573341,-48,37,"334b524f0e3a"
"2020-07-28T12:44:53",1595961893.857,79573752,-46,38,"334b524f0e3a"
"2020-07-28T12:44:54",1595961894.267,79574162,-44,39,"334b524f0e3a"
"2020-07-28T12:44:54",1595961894.471,79574366,-48,37,"334b524f0e3a"
"2020-07-28T12:44:54",1595961894.882,79574777,-46,38,"334b524f0e3a"
"2020-07-28T12:44:55",1595961895.086,79574981,-48,39,"334b524f0e3a"
"2020-07-28T12:44:55",1595961895.502,79575397,-48,37,"334b524f0e3a"
"2020-07-28T12:44:55",1595961895.709,79575604,-46,38,"334b524f0e3a"
"2020-07-28T12:44:56",1595961896.117,79576012,-47,39,"334b524f0e3a"
"2020-07-28T12:44:56",1595961896.324,79576219,-48,37,"334b524f0e3a"
"2020-07-28T12:44:56",1595961896.732,79576627,-46,38,"334b524f0e3a"
"2020-07-28T12:44:56",1595961896.937,79576832,-44,39,"334b524f0e3a"
"2020-07-28T12:44:57",1595961897.349,79577244,-48,37,"334b524f0e3a"
"2020-07-28T12:44:57",1595961897.551,79577446,-46,38,"334b524f0e3a"
"2020-07-28T12:44:57",1595961897.968,79577863,-44,39,"334b524f0e3a"
"2020-07-28T12:44:58",1595961898.177,79578072,-47,37,"334b524f0e3a"
"2020-07-28T12:44:58",1595961898.581,79578476,-46,38,"334b524f0e3a"
"2020-07-28T12:44:58",1595961898.784,79578679,-47,39,"334b524f0e3a"
"2020-07-28T12:44:59",1595961899.198,79579093,-47,37,"334b524f0e3a"
"2020-07-28T12:44:59",1595961899.403,79579298,-46,38,"334b524f0e3a"
"2020-07-28T12:44:59",1595961899.81,79579705,-44,39,"334b524f0e3a"
"2020-07-28T12:45:00",1595961900.018,79579913,-48,37,"334b524f0e3a"
"2020-07-28T12:45:00",1595961900.431,79580326,-46,38,"334b524f0e3a"
"2020-07-28T12:45:00",1595961900.638,79580533,-48,39,"334b524f0e3a"
"2020-07-28T12:45:01",1595961901.048,79580943,-48,37,"334b524f0e3a"
"2020-07-28T12:45:01",1595961901.457,79581352,-46,38,"334b524f0e3a"
"2020-07-28T12:45:01",1595961901.666,79581561,-44,39,"334b524f0e3a"
"2020-07-28T12:45:02",1595961902.071,79581966,-48,37,"334b524f0e3a"
"2020-07-28T12:45:02",1595961902.281,79582176,-46,38,"334b524f0e3a"
"2020-07-28T12:45:02",1595961902.693,79582588,-47,39,"334b524f0e3a"
"2020-07-28T12:45:02",1595961902.899,79582794,-48,37,"334b524f0e3a"
"2020-07-28T12:45:03",1595961903.308,79583203,-46,38,"334b524f0e3a"
"2020-07-28T12:45:03",1595961903.514,79583409,-44,39,"334b524f0e3a"
"2020-07-28T12:45:03",1595961903.921,79583816,-48,37,"334b524f0e3a"
"2020-07-28T12:45:04",1595961904.126,79584021,-45,38,"334b524f0e3a"
"2020-07-28T12:45:04",1595961904.742,79584637,-48,37,"334b524f0e3a"
"2020-07-28T12:45:05",1595961905.155,79585050,-46,38,"334b524f0e3a"
"2020-07-28T12:45:05",1595961905.364,79585259,-44,39,"334b524f0e3a"
"2020-07-28T12:45:05",1595961905.773,79585668,-48,37,"334b524f0e3a"
"2020-07-28T12:45:05",1595961905.981,79585876,-46,38,"334b524f0e3a"
"2020-07-28T12:45:06",1595961906.382,79586277,-44,39,"334b524f0e3a"
"2020-07-28T12:45:06",1595961906.589,79586484,-48,37,"334b524f0e3a"
"2020-07-28T12:45:06",1595961906.998,79586893,-46,38,"334b524f0e3a"
"2020-07-28T12:45:07",1595961907.207,79587102,-47,39,"334b524f0e3a"
"2020-07-28T12:45:07",1595961907.625,79587520,-48,37,"334b524f0e3a"
"2020-07-28T12:45:08",1595961908.237,79588132,-44,39,"334b524f0e3a"
"2020-07-28T12:45:08",1595961908.645,79588540,-48,37,"334b524f0e3a"
"2020-07-28T12:45:09",1595961909.26,79589155,-44,39,"334b524f0e3a"
"2020-07-28T12:45:09",1595961909.468,79589363,-48,37,"334b524f0e3a"
"2020-07-28T12:45:09",1595961909.882,79589777,-46,38,"334b524f0e3a"
"2020-07-28T12:45:10",1595961910.088,79589983,-44,39,"334b524f0e3a"
"2020-07-28T12:45:10",1595961910.497,79590392,-48,37,"334b524f0e3a"
"2020-07-28T12:45:10",1595961910.698,79590593,-46,38,"334b524f0e3a"
"2020-07-28T12:45:11",1595961911.115,79591010,-47,39,"334b524f0e3a"
"2020-07-28T12:45:11",1595961911.73,79591625,-46,38,"334b524f0e3a"
"2020-07-28T12:45:11",1595961911.934,79591829,-44,39,"334b524f0e3a"
"2020-07-28T12:45:12",1595961912.347,79592242,-48,37,"334b524f0e3a"
"2020-07-28T12:45:12",1595961912.547,79592442,-46,38,"334b524f0e3a"
"2020-07-28T12:45:12",1595961912.959,79592854,-44,39,"334b524f0e3a"
"2020-07-28T12:45:13",1595961913.169,79593064,-48,37,"334b524f0e3a"
"2020-07-28T12:45:13",1595961913.576,79593471,-46,38,"334b524f0e3a"
"2020-07-28T12:45:14",1595961914.189,79594084,-48,37,"334b524f0e3a"
"2020-07-28T12:45:14",1595961914.4,79594295,-46,38,"334b524f0e3a"
"2020-07-28T12:45:14",1595961914.808,79594703,-44,39,"334b524f0e3a"
"2020-07-28T12:45:15",1595961915.018,79594913,-48,37,"334b524f0e3a"