time,epoch_time,boot_time,rssi,ch,mac
1969-12-31T19:08:13,4093.649,4093649,-22,37,2c6be5b8fc1e
1969-12-31T19:08:16,4096.11,4096110,-23,38,2c6be5b8fc1e
1969-12-31T19:08:18,4098.373,4098373,-20,39,2c6be5b8fc1e
1969-12-31T19:08:20,4100.835,4100835,-24,37,2c6be5b8fc1e
1969-12-31T19:08:23,4103.307,4103307,-23,38,2c6be5b8fc1e
1969-12-31T19:08:25,4105.574,4105574,-21,39,2c6be5b8fc1e
1969-12-31T19:08:28,4108.029,4108029,-22,37,2c6be5b8fc1e
1969-12-31T19:08:30,4110.506,4110506,-23,38,2c6be5b8fc1e
1969-12-31T19:08:32,4112.768,4112768,-21,39,2c6be5b8fc1e
1969-12-31T19:08:37,4117.701,4117701,-22,38,2c6be5b8fc1e
1969-12-31T19:08:39,4119.958,4119958,-21,39,2c6be5b8fc1e
1969-12-31T19:08:42,4122.422,4122422,-23,37,2c6be5b8fc1e
1969-12-31T19:08:44,4124.892,4124892,-22,38,2c6be5b8fc1e
1969-12-31T19:08:49,4129.615,4129615,-31,37,2c6be5b8fc1e
1969-12-31T19:08:54,4134.548,4134548,-13,39,2c6be5b8fc1e
1969-12-31T19:08:56,4136.804,4136804,-27,37,2c6be5b8fc1e
1969-12-31T19:08:59,4139.263,4139263,-33,38,2c6be5b8fc1e
1969-12-31T19:09:01,4141.73,4141730,-27,39,2c6be5b8fc1e
1969-12-31T19:09:03,4143.994,4143994,-46,37,2c6be5b8fc1e
1969-12-31T19:09:06,4146.455,4146455,-34,38,2c6be5b8fc1e
1969-12-31T19:09:08,4148.92,4148920,-31,39,2c6be5b8fc1e
1969-12-31T19:09:13,4153.645,4153645,-24,38,2c6be5b8fc1e
1969-12-31T19:09:16,4156.113,4156113,-28,39,2c6be5b8fc1e
1969-12-31T19:09:18,4158.371,4158371,-41,37,2c6be5b8fc1e
1969-12-31T19:09:20,4160.841,4160841,-33,38,2c6be5b8fc1e
1969-12-31T19:09:23,4163.297,4163297,-48,39,2c6be5b8fc1e
1969-12-31T19:09:25,4165.56,4165560,-37,37,2c6be5b8fc1e
1969-12-31T19:09:28,4168.027,4168027,-36,38,2c6be5b8fc1e
1969-12-31T19:09:30,4170.491,4170491,-37,39,2c6be5b8fc1e
1969-12-31T19:09:32,4172.748,4172748,-37,37,2c6be5b8fc1e
1969-12-31T19:09:35,4175.212,4175212,-35,38,2c6be5b8fc1e
1969-12-31T19:09:37,4177.674,4177674,-33,39,2c6be5b8fc1e
1969-12-31T19:09:40,4180.14,4180140,-32,37,2c6be5b8fc1e
1969-12-31T19:09:42,4182.398,4182398,-33,38,2c6be5b8fc1e
1969-12-31T19:09:47,4187.333,4187333,-31,37,2c6be5b8fc1e
1969-12-31T19:09:49,4189.586,4189586,-33,38,2c6be5b8fc1e
1969-12-31T19:09:52,4192.056,4192056,-31,39,2c6be5b8fc1e
1969-12-31T19:09:56,4196.782,4196782,-33,38,2c6be5b8fc1e
1969-12-31T19:09:59,4199.248,4199248,-33,39,2c6be5b8fc1e
1969-12-31T19:10:01,4201.712,4201712,-31,37,2c6be5b8fc1e
1969-12-31T19:10:03,4203.969,4203969,-32,38,2c6be5b8fc1e
1969-12-31T19:10:06,4206.436,4206436,-33,39,2c6be5b8fc1e
1969-12-31T19:10:11,4211.157,4211157,-25,38,2c6be5b8fc1e
1969-12-31T19:10:13,4213.622,4213622,-32,39,2c6be5b8fc1e
1969-12-31T19:10:16,4216.091,4216091,-39,37,2c6be5b8fc1e
1969-12-31T19:10:18,4218.352,4218352,-51,38,2c6be5b8fc1e
1969-12-31T19:10:18,4218.551,4218551,-39,38,2c6be5b8fc1e
1969-12-31T19:10:20,4220.812,4220812,-36,39,2c6be5b8fc1e
1969-12-31T19:10:23,4223.276,4223276,-40,37,2c6be5b8fc1e
1969-12-31T19:10:25,4225.733,4225733,-50,38,2c6be5b8fc1e
1969-12-31T19:10:27,4227.999,4227999,-41,39,2c6be5b8fc1e
1969-12-31T19:10:30,4230.462,4230462,-39,37,2c6be5b8fc1e
1969-12-31T19:10:32,4232.922,4232922,-38,38,2c6be5b8fc1e
1969-12-31T19:10:35,4235.185,4235185,-40,39,2c6be5b8fc1e
1969-12-31T19:10:37,4237.651,4237651,-41,37,2c6be5b8fc1e
1969-12-31T19:10:40,4240.113,4240113,-41,38,2c6be5b8fc1e
1969-12-31T19:10:42,4242.374,4242374,-41,39,2c6be5b8fc1e
1969-12-31T19:10:44,4244.837,4244837,-46,37,2c6be5b8fc1e
1969-12-31T19:10:47,4247.305,4247305,-30,38,2c6be5b8fc1e
1969-12-31T19:10:49,4249.569,4249569,-37,39,2c6be5b8fc1e
1969-12-31T19:10:52,4252.031,4252031,-33,37,2c6be5b8fc1e
1969-12-31T19:10:54,4254.494,4254494,-33,38,2c6be5b8fc1e
1969-12-31T19:10:56,4256.757,4256757,-36,39,2c6be5b8fc1e
1969-12-31T19:10:59,4259.218,4259218,-33,37,2c6be5b8fc1e
1969-12-31T19:11:01,4261.682,4261682,-33,38,2c6be5b8fc1e
1969-12-31T19:11:03,4263.944,4263944,-36,39,2c6be5b8fc1e
1969-12-31T19:11:04,4264.145,4264145,-36,39,2c6be5b8fc1e
1969-12-31T19:11:06,4266.408,4266408,-35,37,2c6be5b8fc1e
1969-12-31T19:11:13,4273.594,4273594,-35,37,2c6be5b8fc1e
1969-12-31T19:11:16,4276.059,4276059,-34,38,2c6be5b8fc1e
1969-12-31T19:11:18,4278.527,4278527,-35,39,2c6be5b8fc1e
1969-12-31T19:11:20,4280.782,4280782,-33,37,2c6be5b8fc1e
1969-12-31T19:11:23,4283.25,4283250,-33,38,2c6be5b8fc1e
1969-12-31T19:11:25,4285.714,4285714,-36,39,2c6be5b8fc1e
1969-12-31T19:11:27,4287.973,4287973,-35,37,2c6be5b8fc1e
1969-12-31T19:11:30,4290.443,4290443,-34,38,2c6be5b8fc1e
1969-12-31T19:11:32,4292.902,4292902,-36,39,2c6be5b8fc1e
1969-12-31T19:11:35,4295.163,4295163,-37,37,2c6be5b8fc1e
1969-12-31T19:11:37,4297.63,4297630,-34,38,2c6be5b8fc1e
1969-12-31T19:11:40,4300.093,4300093,-34,39,2c6be5b8fc1e
1969-12-31T19:11:42,4302.347,4302347,-35,37,2c6be5b8fc1e
1969-12-31T19:11:44,4304.815,4304815,-34,38,2c6be5b8fc1e
1969-12-31T19:11:47,4307.272,4307272,-36,39,2c6be5b8fc1e
1969-12-31T19:11:49,4309.745,4309745,-35,37,2c6be5b8fc1e
1969-12-31T19:11:52,4312.005,4312005,-33,38,2c6be5b8fc1e
1969-12-31T19:11:54,4314.462,4314462,-36,39,2c6be5b8fc1e
1969-12-31T19:11:56,4316.934,4316934,-35,37,2c6be5b8fc1e
1969-12-31T19:11:59,4319.191,4319191,-35,38,2c6be5b8fc1e
1969-12-31T19:12:01,4321.658,4321658,-37,39,2c6be5b8fc1e
1969-12-31T19:12:04,4324.12,4324120,-36,37,2c6be5b8fc1e
1969-12-31T19:12:08,4328.849,4328849,-40,39,2c6be5b8fc1e
1969-12-31T19:12:11,4331.314,4331314,-38,37,2c6be5b8fc1e
1969-12-31T19:12:13,4333.57,4333570,-36,38,2c6be5b8fc1e
1969-12-31T19:12:16,4336.034,4336034,-39,39,2c6be5b8fc1e
1969-12-31T19:12:18,4338.501,4338501,-36,37,2c6be5b8fc1e
1969-12-31T19:12:20,4340.761,4340761,-34,38,2c6be5b8fc1e
1969-12-31T19:12:23,4343.222,4343222,-38,39,2c6be5b8fc1e
1969-12-31T19:12:25,4345.687,4345687,-36,37,2c6be5b8fc1e
1969-12-31T19:19:30,4770.455,4770455,-43,37,2c6be5b8fc1e
1969-12-31T19:19:32,4772.919,4772919,-51,38,2c6be5b8fc1e
1969-12-31T19:19:37,4777.641,4777641,-44,37,2c6be5b8fc1e
1969-12-31T19:19:40,4780.109,4780109,-51,38,2c6be5b8fc1e
1969-12-31T19:19:42,4782.368,4782368,-58,39,2c6be5b8fc1e
1969-12-31T19:19:44,4784.834,4784834,-53,37,2c6be5b8fc1e
1969-12-31T19:19:47,4787.295,4787295,-47,38,2c6be5b8fc1e
1969-12-31T19:19:52,4792.019,4792019,-61,37,2c6be5b8fc1e
1969-12-31T19:19:54,4794.487,4794487,-72,38,2c6be5b8fc1e
1969-12-31T19:19:56,4796.743,4796743,-62,39,2c6be5b8fc1e
1969-12-31T19:19:56,4796.949,4796949,-61,39,2c6be5b8fc1e
1969-12-31T19:19:59,4799.21,4799210,-68,37,2c6be5b8fc1e
1969-12-31T19:20:04,4804.14,4804140,-61,39,2c6be5b8fc1e
1969-12-31T19:20:06,4806.405,4806405,-67,37,2c6be5b8fc1e
1969-12-31T19:20:08,4808.87,4808870,-67,38,2c6be5b8fc1e
1969-12-31T19:20:13,4813.588,4813588,-65,37,2c6be5b8fc1e
1969-12-31T19:20:16,4816.053,4816053,-80,38,2c6be5b8fc1e
1969-12-31T19:20:18,4818.515,4818515,-68,39,2c6be5b8fc1e
1969-12-31T19:20:20,4820.774,4820774,-68,37,2c6be5b8fc1e
1969-12-31T19:20:23,4823.245,4823245,-64,38,2c6be5b8fc1e
1969-12-31T19:20:25,4825.708,4825708,-67,39,2c6be5b8fc1e
1969-12-31T19:20:27,4827.972,4827972,-71,37,2c6be5b8fc1e
1969-12-31T19:20:30,4830.43,4830430,-75,38,2c6be5b8fc1e
1969-12-31T19:20:32,4832.897,4832897,-72,39,2c6be5b8fc1e
1969-12-31T19:20:35,4835.159,4835159,-70,37,2c6be5b8fc1e
1969-12-31T19:20:37,4837.62,4837620,-67,38,2c6be5b8fc1e
1969-12-31T19:20:40,4840.082,4840082,-70,39,2c6be5b8fc1e
1969-12-31T19:20:42,4842.552,4842552,-65,37,2c6be5b8fc1e
1969-12-31T19:20:44,4844.806,4844806,-70,38,2c6be5b8fc1e
1969-12-31T19:20:47,4847.275,4847275,-72,39,2c6be5b8fc1e
1969-12-31T19:20:52,4852.002,4852002,-64,38,2c6be5b8fc1e
1969-12-31T19:20:54,4854.459,4854459,-68,39,2c6be5b8fc1e
1969-12-31T19:20:56,4856.929,4856929,-67,37,2c6be5b8fc1e
1969-12-31T19:20:59,4859.191,4859191,-74,38,2c6be5b8fc1e
1969-12-31T19:21:04,4864.123,4864123,-74,37,2c6be5b8fc1e
1969-12-31T19:21:06,4866.382,4866382,-71,38,2c6be5b8fc1e
1969-12-31T19:21:08,4868.845,4868845,-69,39,2c6be5b8fc1e
1969-12-31T19:21:11,4871.306,4871306,-68,37,2c6be5b8fc1e
1969-12-31T19:21:16,4876.032,4876032,-66,39,2c6be5b8fc1e
1969-12-31T19:21:18,4878.502,4878502,-71,37,2c6be5b8fc1e
1969-12-31T19:21:20,4880.747,4880747,-85,38,2c6be5b8fc1e
1969-12-31T19:21:25,4885.686,4885686,-87,37,2c6be5b8fc1e
1969-12-31T19:21:27,4887.946,4887946,-70,38,2c6be5b8fc1e
1969-12-31T19:21:28,4888.145,4888145,-66,38,2c6be5b8fc1e
1969-12-31T19:21:30,4890.406,4890406,-52,39,2c6be5b8fc1e
1969-12-31T19:21:32,4892.869,4892869,-39,37,2c6be5b8fc1e
1969-12-31T19:21:37,4897.6,4897600,-38,39,2c6be5b8fc1e
1969-12-31T19:21:40,4900.062,4900062,-38,37,2c6be5b8fc1e
1969-12-31T19:21:42,4902.524,4902524,-47,38,2c6be5b8fc1e
1969-12-31T19:21:44,4904.786,4904786,-49,39,2c6be5b8fc1e
1969-12-31T19:21:47,4907.247,4907247,-39,37,2c6be5b8fc1e
1969-12-31T19:21:49,4909.719,4909719,-41,38,2c6be5b8fc1e
1969-12-31T19:21:51,4911.973,4911973,-44,39,2c6be5b8fc1e
1969-12-31T19:21:54,4914.439,4914439,-42,37,2c6be5b8fc1e
1969-12-31T19:21:56,4916.905,4916905,-41,38,2c6be5b8fc1e
1969-12-31T19:21:59,4919.167,4919167,-42,39,2c6be5b8fc1e
1969-12-31T19:22:01,4921.633,4921633,-39,37,2c6be5b8fc1e
1969-12-31T19:22:04,4924.088,4924088,-40,38,2c6be5b8fc1e
1969-12-31T19:22:06,4926.358,4926358,-40,39,2c6be5b8fc1e
1969-12-31T19:22:08,4928.818,4928818,-39,37,2c6be5b8fc1e
1969-12-31T19:22:11,4931.281,4931281,-41,38,2c6be5b8fc1e
1969-12-31T19:22:13,4933.544,4933544,-42,39,2c6be5b8fc1e
1969-12-31T19:22:13,4933.746,4933746,-41,39,2c6be5b8fc1e
1969-12-31T19:22:18,4938.467,4938467,-42,38,2c6be5b8fc1e
1969-12-31T19:22:20,4940.941,4940941,-41,39,2c6be5b8fc1e
1969-12-31T19:22:23,4943.197,4943197,-41,37,2c6be5b8fc1e
1969-12-31T19:22:25,4945.662,4945662,-41,38,2c6be5b8fc1e
1969-12-31T19:22:28,4948.126,4948126,-42,39,2c6be5b8fc1e
1969-12-31T19:22:30,4950.387,4950387,-41,37,2c6be5b8fc1e
1969-12-31T19:22:32,4952.855,4952855,-41,38,2c6be5b8fc1e
1969-12-31T19:22:35,4955.316,4955316,-47,39,2c6be5b8fc1e
1969-12-31T19:22:40,4960.042,4960042,-43,38,2c6be5b8fc1e
1969-12-31T19:22:42,4962.501,4962501,-48,39,2c6be5b8fc1e
1969-12-31T19:22:44,4964.764,4964764,-41,37,2c6be5b8fc1e
1969-12-31T19:22:47,4967.231,4967231,-42,38,2c6be5b8fc1e
1969-12-31T19:22:49,4969.694,4969694,-52,39,2c6be5b8fc1e
1969-12-31T19:22:51,4971.955,4971955,-41,37,2c6be5b8fc1e
1969-12-31T19:22:56,4976.877,4976877,-51,39,2c6be5b8fc1e
1969-12-31T19:22:59,4979.344,4979344,-41,37,2c6be5b8fc1e
1969-12-31T19:23:01,4981.609,4981609,-41,38,2c6be5b8fc1e
1969-12-31T19:23:04,4984.063,4984063,-51,39,2c6be5b8fc1e
1969-12-31T19:23:06,4986.534,4986534,-41,37,2c6be5b8fc1e
1969-12-31T19:23:08,4988.796,4988796,-41,38,2c6be5b8fc1e
1969-12-31T19:23:11,4991.253,4991253,-49,39,2c6be5b8fc1e
1969-12-31T19:23:13,4993.727,4993727,-41,37,2c6be5b8fc1e
1969-12-31T19:23:15,4995.98,4995980,-41,38,2c6be5b8fc1e
1969-12-31T19:23:18,4998.451,4998451,-48,39,2c6be5b8fc1e
1969-12-31T19:23:20,5000.91,5000910,-41,37,2c6be5b8fc1e
1969-12-31T19:23:23,5003.171,5003171,-41,38,2c6be5b8fc1e
1969-12-31T19:23:25,5005.637,5005637,-50,39,2c6be5b8fc1e
1969-12-31T19:23:28,5008.105,5008105,-41,37,2c6be5b8fc1e
1969-12-31T19:23:30,5010.365,5010365,-41,38,2c6be5b8fc1e
1969-12-31T19:23:32,5012.83,5012830,-47,39,2c6be5b8fc1e
1969-12-31T19:23:35,5015.288,5015288,-41,37,2c6be5b8fc1e
