﻿24,-57
6,-57
7,-57
22,-58
9,-57
33,-58
1,-57
9,-57
24,-57
9,-57
1,-57
33,-58
30,-58
24,-57
32,-58
11,-58
9,-57
10,-58
9,-57
16,-57
27,-57
15,-57
25,-57
28,-57
4,-57
21,-58
35,-59
23,-58
33,-58
23,-58
30,-58
0,-57
10,-58
28,-57
4,-57
30,-58
16,-57
2,-57
32,-58
25,-57
25,-57
11,-58
1,-57
32,-58
2,-57
18,-57
15,-57
14,-57
29,-57
7,-57
31,-58
11,-58
24,-57
22,-58
1,-57
30,-58
15,-57
30,-58
24,-57
3,-57
29,-57
27,-57
20,-57
20,-57
25,-57
1,-57
17,-57
3,-57
29,-57
4,-57
31,-58
34,-58
3,-58
16,-57
35,-59
7,-57
1,-57
0,-57
12,-58
4,-57
36,-59
17,-57
27,-57
36,-59
32,-58
17,-57
26,-57
32,-58
14,-57
20,-57
16,-57
12,-58
9,-57
29,-57
26,-57
5,-57
8,-57
12,-58
32,-58
30,-58
25,-57
0,-57
30,-58
19,-57
5,-57
18,-57
6,-57
9,-57
30,-58
27,-57
2,-57
1,-57
25,-57
36,-59
20,-57
11,-58
7,-57
3,-58
32,-58
14,-58
18,-57
36,-59
19,-57
0,-57
32,-58
10,-58
32,-58
35,-59
19,-57
4,-57
14,-58
11,-58
30,-58
7,-57
22,-58
10,-58
14,-57
28,-57
11,-58
30,-58
24,-57
33,-58
3,-57
21,-58
17,-57
13,-58
10,-58
35,-59
26,-57
36,-59
12,-58
23,-58
30,-58
36,-59
17,-57
7,-57
19,-57
16,-57
32,-58
22,-58
27,-57
11,-58
0,-57
34,-58
32,-58
35,-59
13,-59
11,-58
18,-57
21,-58
2,-57
15,-57
12,-58
12,-58
29,-57
25,-57
8,-57
5,-57
4,-57
19,-57
13,-58
3,-57
15,-57
31,-58
33,-58
14,-58
17,-57
10,-58
36,-59
29,-57
5,-57
11,-58
27,-57
31,-58
31,-58
7,-57
5,-57
9,-57
18,-57
33,-58
19,-57
24,-57
13,-58
30,-58
2,-57
18,-57
23,-58
1,-57
4,-57
23,-58
28,-57
3,-57
8,-57
32,-58
20,-57
18,-57
28,-57
29,-57
9,-57
2,-57
6,-57
36,-59
23,-58
28,-57
9,-57
21,-58
26,-57
16,-57
10,-58
32,-58
19,-57
22,-58
19,-57
6,-57
23,-58
20,-57
22,-58
13,-59
31,-58
25,-57
35,-59
11,-58
26,-57
30,-58
7,-57
9,-57
36,-59
5,-57
33,-58
14,-57
18,-57
7,-57
3,-57
18,-57
12,-58
34,-58
33,-58
33,-58
21,-58
11,-58
14,-58
13,-59
27,-57
13,-59
6,-57
34,-58
22,-58
8,-57
28,-57
10,-58
25,-57
9,-57
35,-59
29,-57
14,-58
28,-57
25,-57
35,-59
26,-57
30,-58
11,-58
14,-57
13,-59
6,-57
19,-57
20,-57
11,-58
0,-57
10,-58
15,-57
16,-57
11,-58
30,-58
32,-58
31,-58
18,-57
34,-58
17,-57
35,-59
11,-58
1,-57
16,-57
14,-57
24,-57
17,-57
24,-57
12,-58
24,-57
8,-57
4,-57
18,-57
18,-57
21,-57
10,-58
3,-57
12,-58
9,-57
6,-57
24,-57
19,-57
18,-57
22,-58
4,-57
19,-57
7,-57
10,-58
34,-58
7,-57
19,-57
31,-58
16,-57
32,-58
30,-58
23,-58
9,-57
33,-58
12,-58
26,-57
17,-57
13,-59
0,-58
5,-57
26,-57
6,-57
30,-58
7,-57
23,-58
30,-58
33,-58
17,-57
21,-58
25,-57
28,-57
25,-57
19,-57
22,-58
28,-57
26,-57
9,-57
8,-57
19,-57
5,-57
1,-57
21,-58
26,-57
34,-58
26,-57
25,-57
33,-58
21,-58
20,-57
1,-58
30,-58
16,-57
31,-58
17,-57
17,-57
5,-57
12,-58
14,-58
16,-57
22,-58
26,-57
20,-57
27,-57
19,-57
21,-57
8,-57
1,-58
17,-57
13,-58
6,-57
25,-57
10,-58
34,-58
25,-57
17,-57
36,-59
14,-57
18,-57
4,-57
14,-57
5,-57
2,-57
23,-57
19,-57
20,-57
15,-57
9,-57
29,-57
22,-58
26,-57
15,-57
33,-58
8,-57
14,-57
33,-58
9,-57
29,-57
30,-58
21,-58
10,-58
36,-59
2,-58
3,-58
34,-58
1,-58
19,-57
34,-58
0,-58
16,-57
31,-58
20,-57
33,-58
14,-57
18,-57
23,-57
29,-57
11,-58
26,-57
20,-57
14,-57
31,-58
21,-57
28,-57
26,-57
22,-58
31,-58
36,-59
28,-57
12,-58
7,-57
9,-57
1,-57
32,-58
25,-57
5,-57
17,-57
16,-57
5,-57
26,-57
32,-58
17,-57
2,-58
15,-57
36,-59
30,-58
5,-57
3,-58
21,-58
33,-58
26,-57
21,-58
8,-57
22,-58
10,-58
31,-58
24,-57
20,-58
33,-58
1,-57
22,-58
36,-59
27,-57
9,-57
9,-57
25,-57
1,-58
19,-57
2,-57
3,-58
16,-57
31,-58
1,-58
35,-59
14,-58
35,-59
6,-57
13,-59
23,-58
9,-57
19,-57
28,-57
36,-59
36,-59
25,-57
5,-57
20,-57
25,-57
10,-58
27,-57
32,-58
32,-58
21,-58
31,-58
19,-57
15,-57
14,-58
0,-58
13,-59
17,-57
0,-57
6,-57
36,-59
26,-57
31,-58
21,-58
6,-57
3,-58
33,-58
20,-57
18,-57
14,-58
17,-57
26,-57
33,-58
22,-58
11,-58
14,-58
18,-57
33,-58
3,-58
23,-58
0,-57
5,-57
29,-58
24,-57
11,-58
1,-58
13,-59
28,-57
22,-58
26,-57
19,-57
5,-57
13,-59
29,-57
7,-57
14,-58
22,-58
21,-58
3,-58
9,-57
23,-58
10,-58
24,-57
31,-58
25,-57
9,-57
17,-57
33,-58
21,-58
34,-59
32,-58
8,-57
14,-58
35,-59
0,-58
28,-57
22,-58
15,-57
4,-57
29,-58
11,-59
21,-58
4,-57
25,-57
31,-58
27,-57
31,-58
15,-57
29,-58
7,-57
23,-58
23,-58
27,-57
11,-58
30,-58
22,-58
16,-57
14,-58
36,-59
36,-57
22,-58
36,-59
7,-57
6,-57
22,-58
27,-57
20,-57
2,-57
0,-58
7,-56
32,-58
21,-58
18,-57
6,-57
19,-57
19,-57
36,-59
30,-58
32,-58
21,-58
24,-57
6,-57
14,-57
6,-57
1,-58
15,-57
10,-58
15,-57
29,-57
30,-58
25,-57
15,-57
32,-58
36,-59
4,-57
21,-58
16,-57
16,-57
6,-57
4,-57
14,-57
3,-58
10,-58
9,-57
1,-58
26,-57
33,-58
31,-58
24,-57
24,-57
2,-58
12,-59
17,-57
25,-57
14,-58
25,-57
11,-58
16,-57
17,-57
33,-58
31,-58
26,-57
25,-57
36,-59
27,-57
21,-58
13,-58
2,-57
3,-58
18,-57
29,-58
13,-58
24,-57
26,-57
5,-57
9,-57
26,-57
20,-57
7,-57
14,-57
33,-58
26,-57
15,-57
23,-58
30,-58
36,-59
1,-58
18,-57
36,-59
3,-58
11,-58
3,-58
19,-57
35,-59
12,-58
16,-57
26,-57
29,-58
26,-57
28,-57
13,-59
26,-57
4,-57
1,-58
26,-57
29,-58
1,-58
23,-58
23,-58
35,-59
6,-57
32,-58
33,-58
9,-57
8,-57
33,-58
15,-57
15,-57
9,-57
8,-57
23,-57
29,-57
33,-58
7,-57
20,-57
11,-58
5,-57
0,-57
35,-59
24,-57
2,-57
9,-57
25,-57
24,-57
1,-58
8,-57
17,-57
33,-58
32,-58
33,-58
15,-57
15,-57
1,-58
34,-59
27,-57
36,-59
22,-58
12,-58
12,-59
19,-57
21,-58
26,-57
28,-57
24,-57
11,-59
19,-57
23,-58
0,-58
13,-59
29,-58
2,-58
23,-58
3,-58
18,-57
15,-57
30,-58
29,-57
35,-59
23,-58
25,-57
25,-57
28,-57
3,-58
3,-58
36,-59
33,-58
16,-57
5,-57
20,-57
12,-59
25,-57
2,-58
7,-57
16,-57
19,-57
18,-57
33,-58
24,-57
36,-59
25,-57
30,-58
21,-58
30,-58
15,-57
25,-57
31,-58
18,-57
24,-57
30,-58
20,-57
28,-57
25,-57
19,-57
32,-58
28,-57
33,-58
36,-59
28,-57
19,-57
31,-58
6,-57
2,-58
25,-57
0,-58
8,-57
32,-58
0,-58
30,-58
34,-58
21,-58
16,-57
13,-59
10,-58
6,-57
32,-58
18,-57
18,-57
14,-58
33,-58
4,-57
31,-58
19,-57
25,-57
31,-58
7,-57
20,-57
9,-57
5,-57
1,-57
32,-58
23,-57
27,-57
34,-58
31,-58
9,-57
20,-57
9,-57
21,-57
6,-57
2,-57
12,-58
4,-57
14,-58
25,-57
13,-59
0,-57
0,-57
5,-57
13,-59
30,-58
23,-58
26,-57
24,-57
22,-58
1,-57
23,-58
8,-57
10,-58
2,-58
20,-57
16,-57
20,-57
27,-57
4,-57
1,-58
35,-59
31,-58
30,-58
16,-57
7,-57
6,-57
3,-58
5,-57
15,-57
11,-58
5,-57
28,-57
29,-57
29,-57
5,-57
32,-58
26,-57
36,-59
30,-58
27,-57
36,-59
12,-58
30,-58
24,-57
4,-57
32,-58
12,-58
8,-57
13,-58
8,-56
7,-57
19,-57
36,-59
21,-57
11,-58
5,-57
31,-58
2,-57
26,-57
31,-58
7,-57
35,-59
13,-58
13,-58
14,-57
28,-57
6,-57
19,-57
11,-58
10,-58
35,-59
23,-57
12,-58
20,-57
4,-57
12,-58
12,-58
2,-57
35,-59
22,-58
1,-57
18,-57
22,-58
19,-57
16,-57
28,-57
35,-59
24,-57
12,-58
36,-59
21,-57
26,-57
24,-57
21,-58
25,-57
10,-58
8,-57
28,-57
35,-59
6,-57
31,-58
31,-58
9,-57
4,-57
17,-57
14,-57
10,-58
22,-58
31,-58
31,-58
0,-57
35,-59
10,-58
24,-57
24,-57
11,-58
33,-58
5,-57
21,-58
11,-58
25,-57
31,-58
25,-57
24,-57
19,-57
1,-57
2,-57
4,-57
32,-58
18,-57
15,-57
4,-57
18,-57
34,-59
9,-57
26,-57
5,-57
7,-57
30,-58
10,-58
35,-59
24,-57
10,-58
22,-58
15,-57
36,-59
19,-57
33,-58
20,-58
5,-57
23,-58
27,-57
15,-57
33,-58
30,-58
23,-58
12,-58
22,-58
5,-57
7,-57
5,-57
21,-58
35,-59
13,-59
7,-57
14,-58
34,-59
9,-57
5,-57
3,-58
8,-57
20,-58
3,-58
11,-58
25,-57
12,-59
24,-57
18,-57
23,-58
17,-57
16,-57
31,-58
36,-59
14,-58
32,-58
32,-58
30,-58
26,-57
21,-58
36,-59
15,-57
1,-57
2,-57
30,-58
20,-58
18,-57
16,-57
8,-57
26,-57
2,-57
32,-57
2,-57
2,-57
34,-59
36,-59
17,-57
3,-58
3,-58
19,-57
7,-57
28,-57
29,-58
5,-57
30,-58
23,-58
28,-57
13,-59
21,-58
28,-57
12,-59
14,-58
7,-57
19,-57
28,-57
36,-59
27,-57
10,-58
35,-59
14,-58
29,-58
28,-57
15,-57
7,-57
29,-57
31,-58
23,-58
11,-58
20,-58
16,-57
19,-57