﻿25,-60
18,-61
5,-60
4,-60
29,-61
0,-62
35,-60
4,-60
30,-61
15,-61
15,-61
21,-61
21,-61
26,-60
36,-61
22,-61
10,-62
16,-61
36,-61
32,-61
21,-61
8,-61
18,-61
9,-61
22,-61
7,-61
34,-60
31,-62
15,-61
4,-60
24,-60
26,-60
4,-60
23,-61
17,-61
12,-61
27,-61
6,-61
12,-61
1,-62
17,-61
29,-61
35,-60
1,-62
29,-61
20,-62
5,-60
1,-62
26,-60
27,-61
25,-60
21,-61
8,-61
14,-61
10,-61
30,-61
17,-61
4,-60
11,-61
4,-60
31,-61
20,-62
35,-60
25,-60
2,-61
14,-61
34,-60
24,-61
9,-61
5,-60
12,-61
1,-62
31,-61
36,-61
27,-61
25,-60
10,-61
31,-61
0,-62
17,-61
7,-61
23,-61
27,-61
4,-60
7,-61
36,-61
2,-61
24,-60
4,-60
5,-60
17,-61
21,-61
14,-61
17,-61
12,-61
12,-61
31,-61
34,-60
2,-61
14,-61
12,-61
29,-61
1,-61
16,-61
15,-61
11,-61
6,-61
9,-61
11,-61
19,-62
16,-61
9,-61
21,-61
4,-60
26,-60
35,-60
5,-60
4,-60
22,-61
9,-61
35,-60
12,-61
14,-61
8,-61
30,-61
8,-61
31,-61
7,-61
4,-60
22,-61
27,-61
19,-62
27,-61
18,-61
4,-60
23,-61
32,-61
34,-60
14,-61
30,-61
2,-61
27,-61
33,-61
15,-61
15,-61
17,-61
9,-61
26,-60
14,-61
32,-61
33,-61
33,-61
33,-61
17,-61
19,-62
4,-60
30,-61
15,-61
16,-61
36,-61
22,-61
29,-61
15,-61
27,-60
19,-62
23,-61
14,-61
1,-62
10,-61
3,-61
25,-60
12,-61
2,-61
33,-61
1,-62
6,-61
3,-61
36,-61
36,-61
25,-60
13,-62
26,-61
16,-61
2,-61
0,-62
15,-61
0,-62
18,-61
16,-61
23,-61
18,-61
20,-62
19,-62
9,-61
2,-61
9,-61
8,-61
22,-61
8,-61
25,-60
30,-61
27,-61
25,-60
30,-61
24,-60
15,-61
36,-61
1,-62
1,-62
7,-61
1,-62
9,-61
24,-60
12,-61
0,-62
6,-61
13,-62
14,-61
26,-61
25,-60
3,-61
35,-60
22,-61
2,-61
12,-61
8,-61
15,-61
10,-61
0,-62
28,-61
22,-61
29,-61
2,-61
5,-60
28,-61
0,-62
14,-61
19,-62
35,-61
18,-61
35,-60
6,-61
25,-60
29,-61
11,-61
20,-62
15,-61
2,-61
22,-61
28,-61
2,-61
20,-62
8,-60
1,-62
28,-61
23,-61
15,-61
33,-61
34,-60
34,-60
9,-61
10,-62
31,-61
5,-60
11,-61
1,-62
9,-61
33,-61
2,-61
19,-62
18,-61
28,-61
28,-61
25,-60
14,-61
32,-61
32,-61
13,-62
10,-61
18,-61
1,-62
9,-61
16,-61
3,-60
18,-61
16,-61
15,-61
15,-61
17,-61
6,-59
16,-61
6,-61
34,-60
28,-61
34,-60
14,-61
28,-61
28,-61
2,-61
27,-61
30,-61
22,-61
22,-61
11,-61
26,-61
9,-61
31,-61
11,-61
32,-61
3,-60
29,-61
34,-60
11,-61
23,-61
16,-61
34,-60
18,-61
15,-61
15,-61
13,-62
31,-61
12,-61
28,-61
28,-61
12,-61
1,-62
23,-61
26,-61
31,-61
4,-60
32,-61
4,-60
28,-61
1,-62
18,-61
36,-60
6,-61
7,-61
4,-60
22,-61
35,-60
1,-62
9,-61
31,-62
19,-62
18,-61
33,-61
24,-61
29,-61
19,-62
16,-61
13,-62
28,-61
35,-60
7,-61
1,-62
0,-62
13,-62
23,-61
29,-61
3,-60
23,-61
20,-62
26,-60
33,-61
7,-61
32,-61
22,-61
4,-60
8,-60
2,-61
18,-61
23,-61
28,-61
25,-60
14,-61
28,-61
16,-61
5,-60
35,-60
11,-61
12,-61
26,-61
1,-62
34,-60
29,-61
4,-60
32,-61
35,-60
17,-61
13,-62
7,-61
1,-62
34,-60
19,-62
35,-60
19,-62
0,-62
35,-60
15,-61
24,-60
26,-61
2,-61
1,-62
18,-61
32,-61
8,-61
35,-60
36,-61
4,-60
20,-62
28,-61
3,-60
36,-61
34,-60
12,-61
21,-61
26,-60
22,-61
14,-61
22,-61
34,-60
22,-61
11,-61
8,-61
8,-61
11,-61
26,-61
4,-60
31,-61
24,-60
34,-60
3,-61
21,-61
5,-60
6,-61
29,-61
7,-61
26,-61
32,-61
16,-61
20,-62
25,-60
4,-60
15,-61
18,-61
32,-61
0,-62
31,-61
1,-62
15,-61
8,-61
15,-61
14,-61
8,-61
16,-61
31,-61
35,-60
16,-61
20,-62
34,-60
5,-60
12,-61
28,-61
26,-60
17,-61
36,-61
25,-60
20,-62
27,-61
1,-61
33,-61
18,-61
21,-61
30,-61
6,-61
20,-62
6,-61
5,-60
17,-61
0,-62
12,-61
12,-61
32,-61
16,-61
23,-61
2,-61
15,-61
25,-60
2,-61
29,-61
10,-61
10,-61
30,-61
12,-61
25,-60
25,-60
31,-61
36,-61
25,-60
11,-61
29,-61
10,-62
11,-61
23,-61
14,-61
4,-60
25,-60
10,-61
9,-61
8,-61
0,-62
32,-61
6,-61
30,-61
13,-62
27,-61
32,-61
24,-60
17,-61
22,-61
9,-61
21,-61
0,-62
33,-61
26,-61
24,-60
13,-62
30,-61
10,-61
26,-61
22,-61
36,-61
29,-61
13,-62
13,-62
20,-62
30,-61
13,-62
25,-60
4,-60
26,-60
20,-62
3,-61
5,-60
35,-60
0,-62
8,-61
0,-62
1,-62
29,-61
30,-61
33,-61
23,-61
11,-61
21,-61
18,-61
13,-62
15,-61
23,-61
25,-60
31,-61
16,-61
13,-62
29,-61
26,-60
24,-61
11,-61
36,-61
28,-61
5,-60
16,-61
14,-61
25,-60
0,-62
35,-60
34,-60
17,-61
16,-61
31,-61
27,-61
14,-61
24,-60
15,-61
13,-62
13,-62
28,-61
17,-61
29,-61
11,-61
8,-61
29,-61
1,-62
5,-60
17,-61
21,-61
10,-62
15,-61
12,-61
27,-61
20,-62
5,-60
34,-60
15,-61
24,-60
13,-62
20,-62
32,-61
36,-61
17,-61
13,-62
31,-62
12,-62
10,-62
30,-62
31,-62
12,-61
28,-61
7,-61
25,-61
26,-61
8,-61
22,-61
5,-60
28,-61
27,-61
21,-61
19,-62
33,-60
2,-61
29,-61
9,-61
16,-61
24,-61
14,-61
30,-61
2,-61
21,-61
27,-61
15,-61
20,-62
33,-61
30,-61
5,-60
14,-61
5,-60
29,-61
25,-60
35,-60
20,-62
9,-61
24,-61
9,-61
16,-61
17,-61
21,-61
13,-62
22,-61
5,-60
10,-62
22,-61
18,-61
19,-62
12,-61
33,-61
8,-61
4,-60
0,-62
6,-61
2,-61
34,-60
31,-61
1,-62
25,-60
34,-60
10,-62
23,-61
0,-62
2,-61
33,-61
13,-62
29,-61
11,-61
0,-62
25,-60
18,-61
23,-61
11,-61
2,-61
26,-61
17,-61
1,-62
30,-61
2,-61
20,-62
3,-60
11,-61
13,-62
17,-61
16,-61
34,-60
21,-61
28,-61
0,-62
1,-62
6,-61
11,-61
25,-60
23,-61
20,-62
25,-60
22,-61
26,-61
11,-61
25,-60
19,-62
28,-61
19,-62
32,-61
23,-61
19,-62
15,-61
15,-61
14,-61
2,-61
25,-60
35,-60
7,-61
10,-62
30,-61
2,-61
3,-61
36,-61
2,-61
21,-61
34,-60
27,-61
26,-61
12,-61
17,-61
27,-61
12,-61
14,-61
18,-61
5,-60
6,-61
12,-61
35,-60
26,-61
16,-61
32,-61
2,-61
19,-62
6,-61
8,-61
17,-61
34,-60
17,-61
4,-60
28,-61
17,-61
15,-61
25,-60
26,-61
10,-61
19,-62
29,-61
7,-61
29,-61
32,-61
30,-61
12,-61
20,-62
30,-61
2,-61
15,-61
28,-61
9,-61
2,-61
16,-61
21,-61
36,-61
28,-61
20,-62
15,-61
12,-61
8,-61
22,-61
18,-61
27,-61
17,-61
29,-61
2,-61
32,-61
4,-60
8,-61
18,-61
32,-61
27,-61
24,-60
20,-62
8,-61
14,-61
0,-62
22,-61
10,-61
11,-61
27,-61
3,-60
15,-61
18,-61
22,-61
11,-61
20,-62
11,-61
15,-61
31,-61
25,-60
33,-60
10,-61
26,-60
21,-61
19,-62
25,-60
13,-62
29,-61
9,-61
22,-61
31,-61
13,-62
22,-61
0,-62
4,-60
13,-62
7,-61
16,-61
23,-61
18,-61
6,-61
28,-61
13,-62
30,-61
20,-62
1,-62
16,-61
34,-60
9,-61
1,-62
8,-61
5,-60
4,-60
9,-61
9,-61
4,-60
4,-60
26,-61
24,-60
10,-61
29,-61
19,-62
9,-61
33,-60
15,-61
14,-61
6,-61
12,-61
33,-61
10,-62
35,-60
24,-60
29,-61
14,-61
12,-61
21,-61
31,-61
24,-60
31,-61
31,-61
18,-61
26,-61
34,-60
1,-62
19,-62
26,-60
36,-61
32,-61
0,-62
2,-61
31,-61
16,-61
23,-61
10,-61
31,-61
12,-61
7,-61
7,-61
17,-61
30,-61
7,-61
33,-61
3,-60
11,-61
2,-61
18,-61
13,-62
15,-61
24,-61
23,-61
8,-61
10,-61
10,-61
26,-60
7,-61
12,-61
35,-60
19,-62
15,-61
4,-60
34,-60
36,-61
14,-61
29,-61
10,-61
7,-61
0,-62
35,-60
27,-61
27,-61
33,-61
2,-61
25,-60
3,-60
18,-61
29,-61
24,-61
17,-61
4,-60
9,-61
29,-61
36,-61
3,-60
20,-62
0,-62
17,-61
32,-61
22,-61
30,-61
8,-61
0,-62
36,-61
33,-60
12,-61
28,-61
10,-61
2,-61
2,-61
23,-61
12,-61
1,-62
26,-60
1,-62
14,-61
9,-61
24,-61
3,-60
34,-60
4,-60
13,-62
8,-61
18,-61
13,-62
13,-62
5,-60
10,-61
30,-61
0,-62
9,-61
15,-61
15,-61
1,-62
32,-61
27,-60
23,-61
9,-61
16,-61
36,-61
1,-62
4,-60
35,-60
12,-61
35,-60
22,-61
33,-61
23,-61
6,-61
31,-61
31,-61
18,-61
2,-61
23,-61
5,-60
21,-61
30,-61
29,-61
18,-61
17,-61
3,-61
18,-61
0,-62
10,-62
35,-60
22,-61
16,-61
12,-61
9,-61
28,-61
0,-62
17,-61
28,-61
24,-60
17,-61
14,-61
19,-62
5,-60
8,-61
16,-61
33,-61
28,-61
4,-60
18,-61
33,-61
11,-61
33,-60
35,-60
18,-61
27,-61
28,-61
35,-61
20,-62
6,-61
12,-61
21,-61
25,-60
21,-61
15,-61
32,-61
16,-61
24,-60
28,-61
18,-61
1,-61
13,-62
0,-62
2,-61
24,-60
17,-61
34,-60
36,-61
12,-61
21,-61
9,-61
14,-61
12,-61
8,-61
13,-62
11,-61
25,-60
23,-61
29,-61
29,-61
25,-60
20,-62
22,-61
13,-62
11,-61
26,-60
20,-62
0,-62
12,-61
3,-61
28,-61
12,-61
15,-61
0,-62
30,-61
19,-62
23,-61
10,-62
4,-60
32,-61
34,-60
35,-60
32,-61
28,-61
0,-62
33,-61
3,-60
9,-61