﻿3,-61
5,-60
4,-61
35,-63
24,-62
36,-63
25,-63
30,-63
13,-61
19,-62
29,-63
3,-62
19,-62
35,-64
7,-61
24,-63
24,-63
36,-63
18,-62
21,-63
2,-62
8,-61
24,-63
18,-62
24,-63
35,-64
13,-61
22,-63
10,-62
23,-62
2,-62
13,-61
15,-61
12,-61
1,-62
5,-60
10,-62
36,-63
5,-61
23,-62
17,-61
14,-61
16,-61
26,-63
5,-61
16,-61
15,-61
2,-61
30,-63
8,-61
23,-62
17,-61
16,-61
6,-61
29,-63
10,-62
23,-62
32,-63
6,-61
14,-61
15,-61
11,-61
24,-62
7,-61
19,-62
18,-62
30,-63
1,-62
31,-63
12,-61
6,-61
5,-60
13,-61
0,-62
33,-63
1,-62
8,-62
33,-63
20,-63
35,-64
1,-62
26,-63
4,-61
17,-61
12,-61
23,-62
10,-62
35,-64
18,-62
27,-63
33,-63
16,-61
0,-62
7,-61
36,-63
35,-64
6,-61
33,-63
0,-62
6,-61
23,-62
32,-63
8,-61
36,-63
33,-63
2,-62
33,-63
0,-62
22,-63
13,-61
36,-63
23,-62
26,-63
23,-62
3,-61
8,-61
33,-63
16,-61
34,-64
0,-62
32,-63
36,-63
14,-61
29,-63
19,-62
6,-61
2,-62
16,-61
12,-61
17,-62
13,-61
6,-61
20,-63
36,-63
5,-61
19,-63
3,-62
11,-61
30,-63
33,-64
35,-64
25,-63
24,-63
10,-62
0,-62
19,-62
24,-63
12,-61
15,-61
24,-63
12,-61
32,-63
5,-61
36,-63
17,-61
30,-63
30,-63
5,-60
9,-61
21,-63
24,-63
14,-61
11,-61
26,-63
20,-63
21,-62
15,-61
6,-61
34,-64
18,-62
18,-62
20,-63
0,-62
13,-61
11,-61
27,-63
28,-63
4,-61
19,-62
13,-61
0,-62
18,-62
16,-61
3,-61
9,-61
14,-61
27,-63
18,-62
6,-61
1,-62
34,-64
5,-61
29,-63
6,-61
0,-62
30,-63
27,-63
24,-63
12,-61
1,-62
30,-63
25,-63
1,-62
16,-61
16,-61
21,-62
26,-63
17,-62
10,-62
13,-61
21,-63
15,-61
33,-63
13,-61
21,-63
10,-62
9,-61
17,-62
23,-63
12,-61
30,-63
29,-63
14,-61
30,-63
18,-62
2,-62
13,-61
16,-61
34,-63
19,-62
16,-61
12,-61
19,-62
27,-62
14,-61
25,-63
9,-61
34,-64
34,-64
5,-61
7,-61
16,-61
30,-63
26,-63
3,-62
23,-63
21,-63
7,-62
21,-63
27,-63
16,-61
20,-63
8,-62
34,-64
21,-63
20,-63
9,-62
26,-63
13,-62
20,-63
17,-62
4,-61
8,-62
11,-61
21,-63
12,-61
36,-63
18,-62
24,-63
34,-64
25,-63
25,-63
23,-63
19,-62
36,-63
34,-64
7,-61
8,-61
1,-62
21,-63
20,-63
15,-61
9,-61
34,-64
14,-61
11,-61
1,-62
21,-63
8,-62
10,-62
28,-63
4,-61
35,-64
1,-62
1,-62
18,-62
13,-61
34,-64
31,-63
30,-63
4,-61
2,-62
36,-63
11,-61
21,-63
3,-62
17,-62
36,-63
18,-62
14,-61
9,-61
6,-61
0,-62
27,-63
20,-63
28,-63
17,-62
12,-61
19,-62
7,-61
22,-62
13,-61
2,-62
19,-63
28,-63
30,-63
34,-64
3,-61
4,-61
9,-62
20,-63
13,-61
5,-61
10,-62
16,-61
22,-63
30,-63
25,-63
13,-61
10,-62
4,-61
19,-63
4,-61
1,-62
20,-63
4,-61
36,-63
5,-61
36,-63
30,-63
23,-63
9,-62
33,-63
3,-61
25,-63
22,-63
6,-61
20,-63
17,-62
26,-63
34,-64
11,-61
30,-63
6,-61
6,-61
33,-63
20,-63
5,-61
36,-63
19,-62
14,-61
34,-64
7,-61
4,-61
13,-61
18,-62
21,-63
29,-63
17,-62
20,-63
4,-61
7,-62
25,-63
3,-62
34,-64
24,-63
22,-63
11,-61
8,-62
17,-61
20,-63
14,-61
34,-64
19,-62
18,-62
3,-61
17,-62
25,-63
24,-63
11,-61
19,-63
5,-61
3,-61
13,-61
31,-63
7,-61
26,-63
2,-62
8,-62
32,-63
0,-62
4,-61
5,-61
0,-62
19,-62
21,-63
7,-61
17,-62
6,-61
24,-63
0,-62
9,-62
5,-61
3,-62
17,-62
26,-63
32,-63
8,-61
35,-64
23,-63
9,-62
27,-63
8,-62
29,-63
23,-63
26,-63
32,-63
4,-61
9,-61
26,-63
18,-62
0,-62
34,-64
27,-63
7,-61
12,-61
28,-63
0,-62
22,-62
33,-63
33,-63
20,-63
26,-63
21,-63
30,-63
35,-64
33,-63
29,-63
24,-63
6,-61
10,-62
16,-61
11,-61
1,-62
24,-63
20,-63
28,-63
15,-61
5,-61
35,-64
14,-61
6,-61
1,-62
17,-62
14,-61
8,-62
11,-61
17,-62
36,-63
13,-61
7,-61
11,-61
18,-62
28,-63
5,-61
27,-63
25,-63
0,-62
24,-63
11,-61
16,-61
16,-61
31,-65
3,-62
5,-61
3,-62
0,-63
24,-63
3,-62
20,-63
18,-62
12,-61
12,-61
32,-63
0,-62
31,-63
3,-61
7,-61
34,-64
26,-63
6,-61
21,-62
32,-63
30,-63
15,-61
27,-63
23,-63
14,-61
26,-63
25,-63
11,-61
7,-61
8,-62
2,-62
5,-61
27,-63
21,-63
16,-61
0,-62
4,-61
4,-61
11,-61
15,-61
4,-61
22,-63
34,-64
3,-61
22,-62
15,-61
35,-64
18,-62
19,-62
28,-63
36,-62
25,-63
0,-62
29,-63
22,-63
6,-61
23,-63
8,-62
15,-61
19,-62
8,-61
33,-63
14,-61
7,-61
15,-61
31,-63
8,-62
9,-62
15,-61
9,-62
3,-62
20,-63
10,-62
17,-62
10,-62
21,-63
26,-63
2,-62
11,-61
30,-63
8,-62
28,-63
29,-63
1,-62
9,-61
28,-63
27,-63
35,-64
34,-64
1,-62
36,-63
35,-64
22,-63
7,-61
31,-63
8,-61
14,-61
24,-63
26,-63
10,-62
18,-62
35,-64
36,-63
34,-64
33,-63
30,-63
36,-63
19,-62
19,-62
13,-61
33,-63
20,-63
5,-61
2,-62
35,-64
24,-63
29,-63
32,-63
21,-63
16,-61
19,-62
5,-61
12,-61
10,-62
26,-63
30,-63
24,-63
2,-62
34,-64
27,-63
21,-63
12,-62
26,-63
31,-63
20,-63
30,-63
25,-63
36,-63
15,-61
21,-63
32,-63
11,-61
20,-63
8,-62
4,-61
3,-62
26,-63
21,-63
6,-61
4,-61
36,-63
20,-63
0,-62
24,-63
22,-63
35,-64
6,-61
14,-61
2,-62
9,-61
7,-61
3,-61
6,-61
15,-61
22,-63
11,-61
4,-61
13,-61
17,-62
35,-64
22,-62
27,-63
31,-63
20,-63
34,-64
22,-63
0,-62
28,-63
33,-63
29,-63
14,-61
27,-63
31,-63
27,-63
21,-62
30,-63
36,-63
8,-61
34,-64
24,-63
32,-63
22,-63
23,-63
36,-63
32,-63
6,-61
16,-61
35,-64
15,-61
22,-63
3,-61
23,-63
21,-63
17,-62
31,-63
35,-64
26,-63
11,-61
34,-64
18,-62
35,-64
36,-63
32,-63
2,-62
14,-61
24,-63
0,-62
15,-61
20,-63
4,-61
18,-62
33,-63
12,-61
12,-61
16,-61
19,-62
33,-63
33,-63
3,-61
25,-63
25,-63
11,-61
25,-63
7,-61
11,-61
29,-63
31,-63
25,-63
30,-63
36,-63
15,-61
15,-61
10,-62
5,-61
14,-63
3,-62
11,-61
5,-61
36,-64
1,-62
36,-63
19,-62
17,-62
35,-64
5,-61
3,-61
36,-63
13,-61
8,-62
0,-62
19,-62
2,-62
34,-64
21,-63
10,-62
0,-62
28,-63
10,-62
35,-64
33,-63
34,-64
29,-63
14,-61
1,-62
8,-62
6,-61
9,-62
15,-61
23,-63
0,-62
13,-61
28,-63
1,-62
6,-61
14,-61
3,-62
13,-61
0,-62
5,-61
6,-61
1,-62
22,-63
20,-63
26,-63
14,-61
24,-63
25,-63
30,-63
30,-63
10,-62
32,-62
17,-62
13,-61
11,-61
15,-61
13,-61
17,-62
3,-61
20,-63
20,-63
33,-63
3,-62
22,-62
15,-61
4,-61
12,-61
36,-63
8,-61
15,-61
1,-62
32,-63
15,-61
14,-61
33,-63
10,-62
35,-64
15,-61
28,-63
7,-61
24,-63
25,-63
18,-62
22,-63
26,-63
14,-61
3,-61
18,-62
2,-62
22,-63
13,-61
35,-64
5,-61
25,-63
23,-63
10,-62
35,-64
26,-63
22,-63
1,-62
5,-61
11,-61
20,-63
5,-61
26,-63
9,-61
19,-62
17,-62
16,-61
12,-61
30,-63
26,-63
8,-62
7,-62
27,-63
34,-64
31,-63
32,-63
31,-63
28,-63
21,-63
22,-63
7,-61
27,-63
10,-62
14,-61
15,-61
24,-65
11,-61
3,-62
1,-63
20,-63
19,-62
9,-62
18,-62
35,-64
32,-63
21,-63
7,-61
8,-62
12,-61
23,-63
23,-63
9,-61
24,-63
18,-62
9,-62
3,-62
20,-63
29,-63
11,-61
11,-61
9,-61
10,-62
2,-62
32,-63
2,-62
18,-62
28,-63
2,-62
17,-62
2,-62
30,-63
1,-62
35,-64
28,-63
5,-61
17,-62
9,-61
36,-63
31,-63
27,-63
36,-63
29,-63
7,-61
29,-63
17,-62
17,-62
32,-63
3,-62
12,-61
20,-63
20,-63
29,-63
9,-62
33,-63
3,-61
2,-62
24,-63
17,-62
17,-62
20,-63
35,-64
32,-63
28,-63
32,-63
26,-63
6,-61
21,-63
24,-63
19,-62
32,-63
13,-61
1,-62
36,-63
4,-61
19,-63
26,-63
33,-64
4,-61
9,-62
6,-61
30,-63
20,-63
8,-62
14,-61
20,-63
24,-63
9,-62
35,-64
31,-63
21,-63
12,-61
16,-61
23,-63
31,-63
35,-64
18,-62
33,-64
10,-62
35,-64
4,-61
3,-61
2,-62
2,-62
12,-61
23,-63
2,-62
34,-64
26,-63
2,-62
19,-63
12,-61
15,-62
22,-63
6,-62
12,-61
13,-61
12,-61
36,-63
0,-62
9,-62
24,-63
9,-62
28,-63
13,-61
30,-63
36,-63
24,-63
29,-63
19,-62
25,-63
29,-63
1,-62
31,-63
27,-63
3,-62
4,-61
30,-63
31,-63
29,-63
2,-62
17,-62
31,-63
21,-63
15,-61
25,-63
19,-63
25,-63
0,-62
19,-62
13,-61
30,-63
3,-61
1,-62
34,-64
13,-61
31,-63
6,-61
33,-63
17,-62
25,-63
19,-62
27,-63
11,-61
19,-62
28,-63
20,-63
15,-61
33,-64
20,-63
7,-61
0,-62
12,-61
10,-62
3,-62
32,-63
10,-62
36,-63
23,-63
34,-64
11,-61
22,-63
25,-63
22,-63
2,-62
15,-61
8,-62
22,-63
11,-61
30,-63
20,-63
26,-63
21,-63
34,-64
19,-62
34,-64
23,-63
20,-63
16,-61
10,-62
26,-63
1,-62
11,-61
22,-63
12,-61
21,-63
18,-62
33,-63
6,-61
11,-61
3,-62
21,-63
13,-61
18,-62
22,-63
12,-61
34,-64
17,-62
19,-63
0,-62
3,-61
27,-63
32,-63
32,-63
14,-61