﻿7,-61
11,-61
29,-62
1,-60
33,-62
8,-61
21,-60
8,-61
9,-61
10,-61
20,-61
15,-61
19,-61
12,-61
10,-61
8,-61
25,-62
31,-62
24,-61
21,-60
22,-61
16,-61
11,-61
35,-62
36,-62
16,-61
21,-60
29,-62
26,-62
24,-61
1,-60
6,-61
3,-60
29,-62
16,-61
17,-61
6,-61
9,-61
6,-61
24,-61
36,-62
3,-60
10,-61
0,-60
22,-61
35,-62
6,-61
23,-61
24,-61
31,-62
30,-62
17,-61
23,-61
7,-61
28,-62
30,-62
4,-60
24,-61
10,-61
32,-62
13,-61
24,-61
32,-62
30,-62
10,-61
11,-61
8,-61
6,-61
24,-61
4,-60
12,-61
28,-62
6,-61
13,-61
0,-60
28,-62
33,-62
11,-61
16,-61
22,-61
13,-61
28,-62
7,-61
11,-61
18,-61
21,-60
35,-62
32,-62
33,-62
20,-61
30,-62
26,-62
13,-61
1,-60
18,-61
15,-61
28,-62
7,-61
36,-62
3,-60
18,-61
15,-61
10,-61
24,-61
20,-61
18,-61
15,-61
0,-60
35,-62
15,-61
12,-61
0,-60
10,-61
12,-61
13,-61
10,-61
36,-62
25,-62
13,-61
27,-62
21,-60
12,-61
24,-61
35,-62
25,-62
12,-61
26,-62
28,-62
18,-61
33,-62
19,-61
27,-62
13,-61
21,-60
35,-62
11,-61
11,-61
36,-62
23,-61
0,-60
23,-61
10,-61
36,-62
5,-60
18,-61
21,-60
4,-60
7,-61
13,-61
34,-62
21,-60
36,-61
12,-61
10,-61
20,-61
35,-62
32,-62
6,-61
17,-61
3,-60
35,-62
7,-61
11,-61
5,-60
2,-60
35,-62
32,-62
34,-62
8,-61
25,-62
36,-61
35,-62
11,-61
4,-60
32,-62
26,-62
19,-61
32,-62
27,-62
5,-60
20,-61
23,-61
2,-60
18,-60
28,-62
36,-62
5,-60
6,-61
11,-61
10,-61
2,-59
11,-61
26,-62
3,-60
26,-62
0,-60
19,-61
24,-61
8,-61
35,-62
6,-61
0,-60
31,-62
22,-60
21,-61
19,-61
8,-61
17,-61
31,-62
36,-62
27,-62
21,-60
9,-61
22,-61
23,-61
24,-61
31,-62
18,-61
7,-61
24,-61
31,-62
12,-61
2,-60
0,-60
9,-61
24,-61
25,-62
18,-61
7,-61
2,-60
22,-61
23,-61
22,-61
36,-62
5,-60
1,-60
32,-62
12,-61
16,-61
36,-62
19,-61
6,-61
27,-62
28,-62
13,-61
6,-61
34,-62
31,-62
12,-61
34,-62
10,-61
2,-60
27,-62
2,-60
23,-61
11,-61
26,-62
12,-61
3,-60
8,-61
29,-62
27,-62
33,-62
14,-61
13,-61
11,-61
6,-61
30,-62
2,-60
7,-61
3,-60
24,-61
13,-61
26,-62
22,-61
15,-61
29,-62
1,-60
19,-61
10,-61
22,-61
12,-61
29,-62
12,-61
9,-61
15,-61
0,-61
27,-63
26,-63
6,-61
2,-60
22,-61
20,-61
12,-61
12,-61
0,-60
23,-61
16,-61
26,-62
28,-62
6,-61
28,-62
23,-61
13,-61
22,-61
6,-61
26,-62
26,-62
33,-62
32,-62
23,-61
32,-62
35,-62
27,-62
13,-61
21,-60
19,-61
24,-61
29,-62
28,-62
24,-61
26,-62
21,-61
2,-60
36,-62
4,-60
3,-60
8,-61
14,-61
12,-61
10,-61
14,-61
11,-61
26,-62
21,-61
16,-61
19,-61
4,-60
0,-60
9,-61
4,-60
31,-62
24,-61
13,-61
21,-60
6,-61
22,-61
33,-62
27,-62
35,-62
9,-61
19,-61
36,-62
13,-61
14,-61
33,-62
2,-60
8,-61
19,-61
9,-61
24,-61
9,-61
10,-61
32,-62
27,-62
3,-60
35,-62
5,-60
9,-61
26,-62
6,-61
12,-61
31,-62
34,-62
1,-60
19,-61
14,-61
9,-61
14,-61
14,-61
29,-62
35,-62
24,-61
1,-60
34,-62
23,-61
7,-61
15,-61
22,-61
20,-61
13,-61
26,-62
2,-60
16,-61
1,-60
27,-62
24,-61
31,-62
10,-61
23,-61
16,-61
8,-62
27,-62
21,-61
2,-60
9,-61
9,-61
7,-61
13,-61
10,-61
35,-62
5,-60
4,-60
7,-61
30,-62
8,-61
24,-61
35,-62
12,-61
5,-60
24,-61
9,-61
26,-62
10,-61
27,-62
33,-62
11,-61
7,-61
13,-61
5,-60
35,-62
12,-61
30,-62
9,-61
13,-61
27,-62
15,-61
21,-61
10,-61
16,-61
30,-62
34,-62
9,-61
28,-62
1,-60
28,-62
13,-61
18,-61
18,-60
33,-62
5,-60
30,-62
25,-62
31,-62
2,-60
33,-62
11,-61
24,-61
3,-60
33,-62
13,-61
3,-60
15,-61
28,-62
16,-61
18,-61
3,-60
23,-61
6,-61
33,-62
29,-62
20,-61
2,-60
11,-61
23,-61
28,-62
21,-60
33,-62
30,-62
2,-60
29,-62
8,-61
31,-62
16,-61
15,-61
36,-62
21,-60
14,-61
19,-61
17,-61
31,-62
16,-61
13,-61
13,-61
26,-63
29,-62
30,-62
34,-62
4,-61
21,-61
34,-62
7,-61
18,-61
6,-61
31,-62
30,-62
36,-62
3,-60
35,-62
19,-61
23,-61
1,-60
3,-60
28,-62
8,-60
26,-62
1,-60
24,-61
6,-61
19,-61
34,-62
13,-61
31,-62
18,-61
28,-62
9,-61
31,-62
34,-62
2,-60
17,-61
23,-61
32,-62
22,-61
32,-62
19,-61
11,-61
1,-60
12,-61
12,-61
15,-61
12,-61
34,-62
36,-62
7,-61
19,-61
20,-61
16,-61
23,-61
7,-62
34,-63
29,-62
34,-63
23,-61
3,-60
25,-62
9,-61
13,-61
0,-60
28,-62
13,-61
16,-61
33,-62
31,-62
14,-61
30,-62
0,-60
24,-61
35,-62
36,-62
15,-61
31,-62
10,-61
30,-62
20,-61
5,-60
19,-61
10,-61
16,-61
30,-62
35,-62
12,-61
19,-61
25,-62
33,-62
29,-62
10,-61
31,-62
11,-61
35,-62
24,-61
9,-60
26,-62
8,-61
31,-62
10,-61
12,-61
13,-61
17,-61
10,-61
17,-61
25,-62
13,-61
8,-61
34,-62
21,-60
25,-62
5,-60
0,-60
7,-61
32,-62
28,-62
30,-62
1,-60
10,-61
21,-60
29,-62
27,-62
13,-61
1,-60
24,-61
12,-61
9,-61
21,-61
32,-62
36,-62
14,-61
31,-62
18,-61
16,-61
23,-61
2,-59
20,-61
13,-61
1,-60
19,-61
34,-62
8,-61
31,-62
11,-61
27,-62
10,-61
34,-62
15,-61
14,-61
8,-61
20,-61
9,-61
27,-62
11,-61
0,-60
15,-61
7,-61
3,-60
7,-61
29,-62
31,-62
17,-61
24,-61
4,-60
15,-61
14,-61
10,-61
30,-62
2,-60
14,-61
28,-62
24,-61
34,-62
35,-62
31,-62
2,-59
1,-60
0,-60
17,-61
16,-61
15,-61
4,-60
17,-61
22,-60
19,-61
30,-62
19,-61
35,-63
5,-60
15,-61
24,-61
0,-60
23,-61
7,-61
34,-62
14,-61
23,-61
27,-62
26,-62
28,-62
6,-61
31,-62
11,-61
20,-61
1,-60
36,-62
2,-60
30,-62
14,-61
23,-61
27,-62
9,-61
16,-61
20,-61
24,-61
6,-61
21,-60
35,-62
31,-62
15,-61
24,-61
12,-61
17,-61
26,-62
7,-61
32,-62
2,-60
3,-60
4,-60
26,-62
8,-61
16,-61
21,-60
3,-60
18,-61
23,-61
15,-61
3,-60
13,-61
36,-62
30,-62
24,-61
28,-62
26,-62
17,-61
13,-61
31,-62
23,-61
19,-61
1,-60
32,-62
11,-61
24,-61
4,-60
7,-61
0,-60
36,-62
8,-61
5,-60
26,-62
27,-62
24,-61
20,-61
33,-62
15,-61
21,-60
32,-62
29,-62
35,-62
27,-62
10,-61
7,-61
11,-61
16,-61
11,-60
10,-60
2,-60
11,-60
26,-62
6,-61
20,-61
24,-61
25,-62
7,-61
19,-61
6,-61
36,-62
10,-60
1,-60
21,-60
7,-61
18,-61
30,-62
9,-61
21,-60
24,-61
9,-61
6,-61
27,-62
18,-61
11,-60
1,-60
15,-61
26,-62
24,-61
0,-60
5,-60
20,-61
1,-60
18,-61
23,-61
0,-60
34,-62
29,-62
7,-61
21,-60
12,-61
8,-61
12,-61
28,-62
25,-62
29,-62
5,-60
34,-62
2,-60
17,-61
22,-61
17,-61
5,-60
19,-61
11,-61
34,-62
2,-60
35,-62
24,-61
3,-60
33,-62
13,-61
32,-62
27,-62
34,-62
35,-62
9,-61
15,-61
34,-62
3,-60
22,-61
0,-60
31,-62
10,-61
19,-61
22,-60
14,-61
2,-59
13,-61
4,-60
25,-62
6,-61
7,-61
33,-62
18,-61
14,-61
33,-62
30,-62
7,-61
28,-62
30,-62
9,-61
6,-61
27,-62
5,-60
11,-61
16,-61
1,-60
34,-62
4,-60
30,-62
26,-62
17,-61
11,-61
14,-61
31,-62
17,-61
26,-62
3,-60
8,-61
24,-61
15,-61
12,-61
34,-62
19,-61
26,-62
27,-62
33,-63
18,-61
25,-62
27,-62
34,-63
29,-62
29,-62
22,-60
15,-61
25,-62
2,-60
6,-61
33,-62
27,-62
26,-62
32,-62
11,-61
11,-61
0,-60
30,-62
35,-62
29,-62
7,-61
7,-61
8,-61
7,-61
9,-61
22,-61
25,-62
13,-61
21,-61
21,-61
12,-61
19,-61
28,-62
25,-62
25,-62
16,-61
14,-61
21,-60
7,-61
5,-60
18,-61
13,-61
4,-60
6,-61
23,-61
5,-60
32,-62
25,-62
23,-61
0,-60
23,-61
3,-60
8,-61
26,-62
19,-61
8,-61
11,-61
20,-61
32,-62
20,-61
33,-62
26,-62
22,-61
29,-62
21,-60
12,-61
2,-60
4,-60
28,-62
32,-62
33,-62
30,-62
23,-61
5,-60
4,-60
4,-60
20,-61
16,-61
11,-61
9,-61
14,-61
30,-62
15,-61
35,-62
8,-61
36,-62
16,-61
7,-61
18,-61
33,-62
20,-61
17,-61
31,-62
30,-62
36,-62
32,-62
25,-62
16,-61
23,-61
17,-61
35,-62
24,-61
23,-61
1,-60
3,-60
31,-62
15,-61
36,-62
25,-62
34,-62
2,-60
36,-62
27,-62
13,-61
31,-62
36,-62
4,-61
2,-60
29,-62
18,-61
14,-61
4,-60
26,-62
35,-62
15,-61
10,-61
27,-62
27,-62
7,-61
13,-61
6,-61
17,-61
1,-60
31,-62
11,-61
10,-61
5,-60
27,-62
10,-61
30,-62
13,-61
15,-61
11,-61
6,-61
6,-61
6,-61
13,-61
0,-60
24,-61
24,-61
3,-60
32,-62
28,-62
33,-62
31,-62
20,-61
7,-61
24,-61
20,-61
22,-61
34,-62
7,-61
16,-61
12,-61
30,-62
25,-62
19,-61
31,-62
25,-62
26,-62
9,-61
13,-61
19,-61
28,-62
34,-62
16,-61
28,-62
23,-61
9,-61
36,-62
18,-61
1,-60
32,-62
11,-61
16,-61
10,-61
27,-62
4,-60
14,-61
3,-60
24,-61
31,-62
13,-61
19,-61
28,-62
26,-62
15,-61
32,-62
35,-63
23,-61
4,-60
24,-61
12,-61
0,-60
11,-61
15,-61
23,-61
19,-61