﻿20,-43
35,-44
18,-45
28,-43
0,-46
5,-43
23,-43
10,-43
24,-43
1,-43
22,-46
30,-43
3,-45
30,-44
6,-43
34,-46
21,-43
28,-46
25,-46
2,-43
8,-43
13,-43
3,-43
26,-43
28,-43
30,-46
31,-44
34,-46
27,-43
26,-44
25,-43
35,-47
2,-43
28,-46
6,-43
33,-43
26,-42
18,-45
35,-46
0,-44
2,-46
28,-44
5,-43
7,-43
21,-43
5,-43
36,-47
22,-43
17,-46
2,-43
36,-46
7,-43
8,-43
19,-46
30,-43
11,-43
6,-46
26,-46
19,-43
0,-44
23,-43
31,-43
19,-43
29,-46
35,-47
35,-44
24,-43
7,-43
20,-43
32,-46
2,-43
2,-43
20,-46
5,-45
27,-43
32,-44
19,-46
30,-44
32,-43
26,-43
30,-46
0,-44
22,-46
1,-45
33,-43
3,-43
14,-43
32,-43
35,-43
19,-43
17,-43
10,-43
29,-43
36,-46
20,-43
19,-43
20,-46
12,-42
25,-44
27,-46
1,-46
14,-43
26,-44
22,-46
33,-43
22,-43
31,-43
8,-46
6,-43
8,-43
13,-43
8,-43
19,-43
1,-44
10,-43
26,-44
13,-43
27,-46
4,-43
10,-43
7,-46
20,-43
25,-46
28,-46
35,-47
36,-44
4,-46
7,-43
23,-43
20,-43
13,-43
17,-43
32,-46
11,-43
24,-43
21,-43
29,-43
22,-46
12,-43
10,-43
16,-45
7,-44
11,-43
14,-43
27,-44
17,-43
15,-43
7,-46
5,-43
32,-44
12,-43
16,-45
32,-43
18,-43
21,-46
15,-43
25,-44
3,-46
2,-43
24,-46
35,-44
22,-43
8,-44
5,-43
2,-43
6,-46
29,-46
0,-44
29,-43
28,-43
34,-46
7,-43
33,-43
10,-43
6,-43
11,-45
26,-43
5,-43
7,-46
2,-43
20,-43
21,-43
5,-43
24,-43
25,-44
25,-43
12,-43
29,-43
1,-44
10,-46
7,-44
14,-45
35,-44
22,-43
13,-43
29,-43
19,-43
15,-43
35,-47
16,-45
12,-42
19,-46
17,-46
21,-45
16,-43
23,-43
26,-46
5,-43
23,-46
31,-43
15,-43
33,-44
29,-46
1,-46
28,-43
17,-43
5,-43
4,-43
1,-43
15,-45
31,-44
0,-46
27,-43
3,-44
15,-45
26,-43
11,-42
36,-45
6,-43
24,-43
5,-43
31,-44
30,-46
27,-46
5,-43
28,-46
25,-46
36,-44
5,-43
5,-45
8,-46
19,-43
11,-43
8,-44
15,-45
22,-43
17,-43
18,-46
33,-46
0,-44
27,-44
28,-46
0,-44
14,-43
11,-43
20,-43
35,-44
4,-43
27,-46
18,-43
14,-43
18,-45
33,-43
19,-43
6,-46
26,-43
7,-46
2,-45
13,-43
13,-43
26,-43
14,-45
4,-46
26,-46
21,-46
20,-43
34,-46
7,-43
12,-45
34,-43
26,-44
8,-46
1,-44
31,-43
11,-45
18,-45
10,-43
15,-45
20,-43
34,-46
9,-43
27,-44
33,-46
27,-46
35,-44
30,-43
0,-44
23,-43
33,-43
1,-44
4,-43
3,-46
26,-46
14,-43
34,-43
27,-46
23,-46
3,-43
2,-43
5,-43
11,-45
26,-43
33,-46
28,-46
25,-44
30,-44
16,-43
19,-43
27,-43
33,-43
3,-46
15,-43
29,-43
36,-43
34,-46
9,-43
18,-43
30,-43
1,-46
3,-43
0,-44
23,-43
17,-46
6,-43
13,-43
0,-44
33,-43
17,-43
34,-43
28,-43
9,-43
22,-43
36,-47
24,-43
33,-43
11,-43
13,-43
26,-44
28,-44
8,-43
10,-43
32,-43
33,-46
20,-46
1,-43
24,-46
31,-46
19,-46
22,-46
32,-43
2,-46
36,-45
26,-43
29,-44
36,-42
16,-43
2,-45
33,-43
15,-45
30,-43
14,-45
26,-44
28,-43
11,-43
11,-45
16,-43
11,-45
5,-43
20,-46
26,-43
13,-45
9,-43
21,-46
0,-44
19,-43
12,-45
32,-43
0,-46
33,-43
0,-44
22,-43
21,-43
30,-46
15,-43
11,-43
34,-43
16,-45
13,-47
18,-45
34,-47
4,-46
27,-45
12,-44
11,-45
36,-46
26,-43
2,-45
2,-43
28,-46
30,-43
4,-43
3,-44
0,-46
24,-43
16,-43
25,-43
12,-45
15,-46
4,-43
36,-44
30,-46
36,-46
16,-43
5,-45
4,-46
18,-43
0,-44
30,-43
20,-43
29,-43
4,-43
23,-43
27,-46
7,-43
32,-46
25,-46
31,-46
30,-46
14,-43
0,-44
11,-43
34,-46
22,-43
13,-46
24,-46
22,-43
6,-43
20,-43
33,-43
21,-45
3,-43
24,-46
27,-44
24,-46
4,-43
6,-43
27,-46
14,-43
25,-46
28,-46
3,-43
8,-43
23,-46
31,-43
28,-43
27,-46
11,-43
1,-46
28,-43
22,-43
33,-44
27,-43
29,-43
19,-46
2,-43
0,-44
19,-43
22,-43
34,-43
3,-44
35,-44
15,-43
12,-45
12,-42
7,-43
26,-44
29,-43
32,-43
22,-43
12,-43
30,-43
27,-44
20,-46
9,-43
24,-43
5,-45
17,-43
5,-45
20,-43
20,-43
17,-43
22,-46
3,-45
16,-44
25,-45
22,-46
9,-45
28,-46
6,-43
13,-46
29,-46
32,-43
26,-46
20,-46
28,-43
20,-46
34,-46
11,-45
24,-43
13,-43
14,-45
24,-43
21,-43
36,-44
4,-43
10,-46
11,-45
7,-46
8,-46
24,-46
10,-46
16,-43
35,-46
31,-43
8,-46
5,-43
36,-44
33,-43
20,-43
4,-43
11,-43
26,-44
22,-43
26,-44
23,-43
13,-43
8,-43
28,-43
5,-43
2,-43
23,-46
21,-43
35,-44
28,-43
10,-43
16,-45
17,-43
6,-43
3,-43
2,-43
3,-43
0,-44
26,-44
23,-43
36,-44
36,-44
2,-43
29,-43
21,-45
32,-46
13,-43
27,-43
14,-43
24,-43
0,-46
1,-46
33,-43
34,-43
1,-44
35,-43
18,-43
28,-43
4,-43
11,-45
15,-43
14,-45
9,-43
26,-44
30,-44
11,-43
27,-43
4,-43
5,-43
9,-43
24,-43
11,-43
30,-46
30,-43
6,-43
2,-43
34,-46
29,-43
33,-46
9,-45
15,-43
5,-43
3,-44
35,-47
28,-46
17,-43
22,-46
12,-42
33,-46
3,-44
11,-45
34,-46
35,-46
11,-45
6,-43
2,-43
14,-43
9,-45
24,-46
24,-43
20,-43
13,-43
2,-43
19,-43
26,-44
22,-46
34,-44
18,-44
33,-45
22,-46
17,-46
8,-46
13,-45
13,-43
14,-43
1,-46
35,-44
22,-46
8,-43
2,-43
8,-44
24,-43
16,-43
10,-43
2,-43
2,-43
10,-45
34,-43
24,-43
17,-43
24,-43
31,-43
16,-43
30,-43
3,-43
6,-46
2,-43
36,-42
13,-43
0,-46
0,-46
11,-43
16,-43
28,-43
15,-43
25,-44
6,-46
18,-43
26,-46
31,-46
17,-46
9,-43
36,-44
4,-43
18,-43
27,-43
19,-46
9,-43
25,-43
5,-43
36,-46
35,-44
7,-43
6,-43
35,-43
26,-46
2,-45
10,-43
6,-46
0,-46
22,-43
20,-43
21,-43
10,-45
26,-44
34,-43
27,-43
27,-46
4,-43
1,-44
32,-46
24,-43
10,-43
19,-46
1,-46
13,-43
16,-43
6,-43
7,-44
17,-46
26,-46
3,-43
7,-43
19,-43
20,-43
36,-47
17,-43
34,-43
6,-43
2,-43
4,-43
26,-43
9,-44
3,-46
21,-46
18,-43
20,-43
31,-46
4,-43
22,-43
0,-46
7,-43
25,-43
21,-43
15,-43
11,-43
14,-45
5,-43
27,-43
29,-43
9,-45
16,-43
13,-43
25,-43
30,-43
13,-45
30,-43
27,-43
16,-45
23,-43
19,-43
10,-46
28,-46
3,-43
0,-44
31,-46
22,-43
26,-44
26,-46
1,-43
0,-44
1,-43
8,-43
20,-43
18,-43
24,-43
23,-46
10,-43
32,-43
32,-43
15,-43
1,-46
28,-46
14,-43
17,-43
26,-43
29,-43
4,-43
16,-43
1,-46
13,-45
29,-43
13,-43
21,-43
3,-44
2,-43
14,-43
36,-44
7,-43
34,-44
11,-43
21,-43
15,-43
19,-43
10,-43
8,-43
30,-43
8,-43
15,-43
20,-46
35,-47
10,-43
26,-44
14,-45
2,-43
14,-43
12,-43
0,-46
28,-46
23,-43
31,-43
25,-43
27,-43
2,-43
11,-45
9,-43
19,-46
11,-43
23,-43
30,-43
23,-43
0,-44
0,-44
31,-46
33,-43
26,-44
34,-43
18,-45
27,-43
28,-46
10,-45
3,-46
12,-42
0,-44
10,-45
7,-43
35,-44
5,-43
3,-46
14,-45
36,-46
9,-43
18,-45
6,-43
9,-43
18,-43
0,-46
6,-43
24,-43
30,-46
4,-46
0,-46
1,-43
14,-43
31,-46
16,-43
13,-43
2,-45
4,-43
10,-43
36,-44
12,-42
17,-43
0,-46
31,-43
11,-45
32,-46
23,-43
7,-43
5,-43
1,-43
19,-46
29,-46
24,-43
26,-44
15,-43
6,-43
16,-43
11,-45
29,-43
16,-43
15,-45
34,-45
3,-45
1,-46
22,-46
29,-45
15,-43
4,-43
5,-43
1,-43
18,-43
34,-46
29,-43
14,-43
12,-43
17,-43
16,-43
11,-43
36,-44
30,-44
29,-46
15,-45
2,-43
1,-43
33,-44
9,-43
31,-44
10,-43
9,-43
22,-43
17,-43
7,-46
25,-43
25,-44
20,-46
17,-43
34,-46
23,-43
1,-46
14,-43
36,-46
18,-43
7,-46
14,-43
10,-43
27,-43
14,-45
8,-43
36,-44
29,-46
11,-43
4,-43
11,-45
35,-47
7,-43
16,-45
26,-46
17,-43
4,-46
16,-45
12,-45
20,-43
5,-43
35,-44
1,-43
23,-43
5,-45
28,-43
4,-43
22,-46
28,-46
6,-43
2,-43
9,-43
19,-43
4,-43
29,-44
26,-46
12,-42
1,-46
26,-46
32,-43
8,-46
4,-43
14,-43
27,-46
12,-42
17,-46
5,-43
12,-42
11,-43
11,-45
27,-43
10,-46
14,-43
9,-43
33,-43
0,-44
7,-45
2,-46
9,-45
23,-46
15,-44
17,-45
18,-45
32,-46
0,-46
14,-43
3,-46
10,-45
22,-46
15,-43
9,-43
22,-46
2,-46
17,-43
17,-43
10,-43
21,-43
8,-43
0,-44
20,-46
8,-43
28,-44
2,-46
24,-43
12,-42
36,-46
9,-45
24,-43
25,-46
16,-43
23,-43
32,-43
9,-45
7,-43
11,-45
34,-43
2,-45
16,-43
22,-46
3,-44
19,-46
31,-43
8,-46
6,-43
3,-46
24,-43
20,-43
16,-43
0,-44
19,-46
8,-43
4,-43
16,-43
34,-43
31,-43
23,-43
34,-43
30,-46
0,-44
6,-43
12,-43
5,-43
26,-46
10,-43
17,-43
18,-45
33,-43
18,-45
12,-43
21,-43
11,-43
31,-46
35,-44
19,-43
17,-43
25,-43
18,-43
19,-43
25,-43
19,-43
34,-43
17,-46
5,-43
13,-43
10,-43
34,-43
9,-43
17,-43
20,-43
1,-46
1,-46
28,-44
21,-43
21,-43
32,-43
15,-43
34,-43
7,-43
9,-43
14,-45
30,-46
35,-47
21,-45
10,-46
17,-43
10,-43
4,-46
33,-46
20,-43
8,-43
16,-43