﻿1,-51
20,-51
23,-52
13,-52
2,-51
18,-51
26,-52
19,-52
23,-52
34,-53
8,-52
10,-52
26,-52
6,-52
29,-52
26,-52
21,-51
13,-52
9,-52
32,-52
2,-50
36,-53
32,-52
21,-52
16,-52
4,-51
20,-52
10,-52
27,-52
26,-52
2,-51
26,-52
8,-52
16,-52
14,-51
23,-52
3,-51
10,-52
22,-52
4,-50
22,-51
23,-52
19,-52
20,-51
13,-52
10,-52
21,-51
11,-52
8,-52
34,-53
4,-51
20,-52
22,-52
11,-51
23,-52
7,-52
2,-50
31,-52
36,-53
33,-52
5,-51
11,-51
20,-52
25,-52
33,-52
28,-52
28,-52
13,-52
6,-52
2,-50
26,-52
10,-52
5,-51
21,-51
18,-52
0,-51
31,-53
36,-52
18,-52
29,-52
11,-51
28,-52
30,-53
2,-51
6,-52
2,-50
17,-52
18,-51
29,-52
30,-53
0,-50
5,-51
24,-52
10,-52
24,-52
0,-51
25,-52
11,-51
10,-52
5,-51
16,-51
4,-51
21,-52
33,-52
31,-52
4,-51
12,-51
5,-51
4,-51
7,-52
27,-52
13,-51
7,-52
35,-53
25,-52
26,-52
10,-52
32,-52
24,-52
2,-51
1,-51
19,-52
32,-53
3,-52
26,-52
26,-53
27,-53
13,-52
4,-51
2,-51
36,-52
36,-52
15,-52
16,-52
25,-52
9,-52
3,-51
34,-52
32,-52
36,-53
15,-52
30,-53
15,-52
26,-52
29,-52
32,-52
24,-52
32,-52
6,-52
17,-52
10,-52
35,-53
14,-51
16,-51
25,-52
25,-52
29,-52
2,-51
21,-52
12,-51
4,-51
16,-52
1,-51
35,-53
32,-53
9,-52
13,-52
29,-52
5,-51
6,-51
3,-51
17,-52
19,-52
14,-51
23,-52
17,-52
4,-51
12,-51
19,-52
5,-51
8,-52
27,-52
4,-53
9,-52
28,-52
35,-53
20,-52
10,-52
14,-51
0,-50
32,-52
18,-52
11,-51
9,-53
2,-50
35,-52
8,-52
32,-52
7,-52
20,-52
6,-52
21,-52
5,-51
7,-52
12,-51
20,-52
2,-51
2,-51
20,-52
21,-52
36,-53
35,-53
10,-52
7,-52
7,-52
22,-52
1,-50
15,-52
11,-52
26,-52
31,-53
12,-50
16,-51
22,-52
21,-52
15,-51
19,-52
10,-52
35,-53
13,-51
20,-51
33,-52
11,-51
36,-52
7,-52
24,-52
15,-50
12,-50
0,-50
14,-51
35,-53
10,-52
33,-52
19,-52
27,-52
7,-52
16,-52
5,-51
1,-51
9,-52
7,-52
31,-53
2,-51
24,-52
5,-51
9,-52
6,-51
32,-52
33,-52
0,-51
4,-51
9,-52
34,-52
36,-53
30,-53
35,-52
22,-52
19,-51
33,-52
14,-51
11,-50
8,-52
23,-52
35,-53
1,-50
34,-52
2,-50
27,-52
16,-52
5,-51
36,-52
7,-52
14,-51
33,-52
28,-52
32,-52
21,-51
34,-52
12,-51
32,-52
20,-52
28,-52
36,-53
24,-52
0,-51
25,-52
1,-51
35,-53
20,-53
1,-51
3,-51
7,-52
0,-51
19,-52
5,-51
35,-53
15,-52
29,-53
9,-52
6,-51
11,-52
16,-52
0,-51
14,-52
8,-52
18,-52
9,-52
19,-51
1,-51
14,-52
24,-52
29,-53
19,-52
14,-52
29,-53
0,-51
15,-52
16,-52
15,-52
17,-52
24,-52
2,-51
19,-56
8,-52
26,-53
26,-53
12,-52
16,-52
34,-53
29,-53
11,-52
0,-50
34,-53
20,-51
36,-53
11,-52
34,-53
29,-53
11,-52
9,-52
13,-52
0,-50
14,-51
6,-52
23,-52
6,-52
36,-53
17,-52
13,-52
34,-52
6,-52
28,-52
34,-53
10,-53
34,-52
36,-53
22,-52
11,-52
1,-51
1,-51
19,-52
34,-52
4,-51
17,-52
35,-53
20,-52
5,-51
28,-52
32,-53
15,-51
24,-52
2,-52
35,-53
7,-52
12,-52
30,-53
18,-52
11,-52
8,-52
22,-52
12,-52
24,-52
21,-52
8,-52
8,-53
33,-53
2,-51
25,-52
31,-53
1,-50
32,-53
2,-51
12,-52
25,-52
0,-51
34,-53
33,-53
15,-52
6,-52
29,-53
30,-53
27,-52
0,-51
12,-52
6,-52
16,-52
4,-50
28,-53
29,-53
5,-51
28,-53
16,-52
35,-53
27,-52
4,-51
15,-52
0,-51
22,-52
34,-52
1,-51
24,-51
10,-53
19,-52
16,-52
28,-52
10,-52
6,-52
32,-52
34,-53
9,-52
27,-53
35,-53
27,-53
19,-52
31,-53
36,-53
22,-52
26,-52
20,-52
25,-52
3,-52
35,-53
34,-51
27,-52
12,-52
12,-52
24,-52
5,-51
2,-51
18,-52
28,-53
20,-52
14,-51
14,-52
36,-53
28,-52
7,-52
35,-53
12,-52
29,-53
0,-51
0,-51
7,-52
13,-52
23,-52
9,-52
11,-51
2,-51
21,-52
17,-52
22,-52
21,-52
5,-51
20,-52
13,-52
5,-51
32,-53
9,-52
33,-53
3,-51
29,-53
25,-52
31,-53
29,-53
18,-53
25,-53
32,-53
22,-52
29,-53
35,-53
2,-51
28,-52
33,-53
30,-53
1,-51
32,-53
0,-51
1,-51
28,-52
20,-52
1,-51
35,-53
32,-53
10,-52
7,-52
25,-52
21,-52
4,-52
29,-53
18,-52
7,-52
23,-52
9,-52
15,-52
5,-51
18,-52
30,-52
19,-52
8,-53
36,-53
0,-51
2,-51
34,-53
34,-53
14,-52
25,-52
25,-52
36,-53
22,-52
36,-53
17,-52
1,-51
32,-53
25,-52
22,-52
17,-52
35,-53
31,-53
26,-52
24,-52
19,-52
8,-52
2,-51
23,-52
20,-51
23,-52
31,-52
11,-52
7,-52
35,-53
31,-52
15,-52
9,-52
23,-52
6,-51
35,-53
30,-53
0,-51
15,-51
31,-52
24,-52
6,-52
31,-53
18,-52
17,-52
8,-52
8,-53
32,-53
18,-52
34,-53
30,-53
22,-52
20,-52
12,-50
4,-51
14,-52
26,-53
17,-52
25,-52
18,-52
12,-50
33,-53
3,-51
23,-52
20,-52
22,-52
1,-51
30,-52
8,-52
23,-52
0,-51
2,-51
29,-53
29,-53
17,-52
7,-52
28,-53
2,-51
20,-52
11,-52
17,-52
17,-52
6,-51
34,-53
13,-51
6,-52
36,-53
11,-52
22,-52
35,-53
32,-52
34,-53
4,-50
7,-53
0,-52
24,-52
24,-52
8,-53
16,-52
8,-52
31,-53
12,-52
3,-51
10,-52
6,-52
16,-52
1,-50
31,-53
5,-51
13,-51
19,-52
7,-52
2,-51
2,-51
26,-52
28,-53
4,-51
23,-52
11,-52
33,-53
18,-52
32,-52
29,-53
35,-53
10,-52
30,-53
3,-51
33,-53
1,-51
17,-52
23,-52
0,-51
5,-51
3,-51
25,-52
2,-51
9,-52
0,-51
11,-52
12,-52
6,-52
3,-51
34,-52
34,-53
31,-53
26,-52
11,-52
26,-52
21,-52
12,-52
35,-53
31,-50
17,-52
16,-52
11,-52
10,-52
15,-51
11,-51
15,-52
0,-51
31,-53
29,-53
25,-52
10,-52
9,-52
31,-53
13,-52
5,-51
36,-53
3,-51
31,-53
19,-52
7,-52
26,-52
14,-52
4,-51
17,-52
19,-52
14,-52
3,-51
18,-52
1,-51
17,-52
15,-51
10,-52
4,-51
14,-52
27,-53
19,-52
10,-52
4,-51
10,-52
30,-53
33,-52
16,-52
0,-51
3,-51
4,-51
34,-53
33,-52
29,-53
8,-52
4,-51
0,-51
9,-52
29,-53
5,-51
20,-51
28,-53
6,-52
27,-53
27,-53
26,-53
17,-52
22,-52
8,-53
17,-52
32,-52
0,-51
35,-53
30,-53
35,-53
7,-52
34,-53
10,-53
18,-51
13,-52
27,-52
32,-52
1,-51
26,-52
5,-51
5,-51
20,-52
17,-52
12,-52
2,-51
33,-53
17,-52
7,-52
35,-53
1,-51
16,-51
13,-51
6,-52
0,-51
27,-52
9,-52
1,-51
32,-53
18,-52
29,-53
15,-52
24,-52
8,-52
20,-52
35,-53
13,-52
12,-52
33,-52
26,-52
28,-52
1,-51
21,-52
31,-53
26,-52
0,-51
33,-53
16,-52
20,-52
33,-53
8,-53
34,-53
12,-52
33,-53
22,-52
28,-52
7,-52
10,-53
4,-51
35,-53
8,-52
8,-52
26,-52
32,-53
0,-50
12,-50
29,-52
27,-51
3,-51
20,-52
25,-52
17,-52
5,-51
23,-52
2,-51
25,-52
22,-52
0,-50
30,-53
1,-51
23,-52
9,-52
35,-53
21,-52
23,-52
13,-51
5,-51
6,-52
34,-53
10,-53
32,-53
15,-51
3,-51
27,-53
21,-52
29,-53
18,-52
4,-51
23,-52
9,-52
30,-53
1,-51
10,-53
23,-52
26,-52
4,-51
1,-51
14,-51
24,-52
6,-51
26,-52
33,-52
17,-52
34,-53
4,-51
9,-52
20,-52
15,-52
11,-52
12,-52
21,-53
21,-52
25,-52
8,-52
30,-53
21,-52
14,-52
23,-52
23,-52
18,-52
10,-52
36,-53
20,-52
24,-52
2,-51
26,-53
36,-53
21,-52
6,-52
1,-51
21,-52
30,-53
27,-52
11,-51
23,-52
6,-52
1,-51
9,-52
14,-52
28,-53
36,-53
23,-52
28,-52
33,-53
16,-52
15,-52
7,-52
13,-52
9,-52
10,-52
16,-52
32,-53
32,-53
31,-53
8,-52
24,-52
17,-52
34,-53
25,-52
21,-52
33,-53
14,-52
0,-51
3,-51
23,-52
28,-53
9,-52
28,-53
29,-53
36,-52
21,-52
30,-53
30,-53
23,-52
8,-52
5,-51
3,-51
12,-52
7,-52
16,-52
29,-53
17,-52
2,-51
32,-53
2,-51
0,-51
2,-51
27,-53
16,-51
31,-53
36,-53
30,-53
10,-52
8,-53
16,-52
27,-52
22,-52
36,-53
30,-53
3,-51
12,-52
28,-53
28,-52
22,-52
17,-52
23,-52
15,-52
10,-53
9,-52
5,-51
21,-52
17,-52
35,-53
7,-52
22,-52
13,-52
21,-52
13,-52
8,-52
36,-53
22,-53
2,-51
5,-52
30,-53
35,-53
22,-52
8,-53
13,-52
1,-51
35,-53
12,-52
12,-52
17,-52
24,-52
10,-53
33,-52
25,-52
30,-53
36,-53
24,-52
3,-51
18,-52
33,-53
30,-53
30,-53
31,-53
10,-53
15,-52
12,-52
27,-52
6,-52
36,-53
22,-52
28,-53
30,-53
15,-52
25,-52
34,-53
27,-53
26,-52
16,-52
11,-52
28,-52
17,-52
31,-53
16,-52
8,-52
14,-52
0,-51
17,-52
16,-52
29,-53
34,-53
2,-51
19,-52
27,-51
16,-52
0,-51
27,-53
24,-52
15,-52
3,-51
11,-52
26,-52
18,-52
24,-52
4,-51
36,-53
23,-52
17,-52
19,-52
22,-52
9,-52
21,-51
33,-53
33,-52
25,-52
21,-52
8,-52
20,-52
20,-52
32,-52
36,-53
5,-51
34,-52
26,-52
36,-53
13,-51
2,-51
30,-53
10,-53
9,-52
23,-52
18,-52
9,-52
29,-52
33,-53
19,-52
6,-52
21,-52
1,-51
17,-52
22,-52
9,-52
25,-52
32,-52
11,-52
33,-53
13,-51
15,-52
22,-52
11,-52
19,-52
2,-51
10,-53
26,-53
19,-52