﻿30,-56
9,-54
17,-55
6,-54
25,-56
23,-56
1,-56
5,-53
35,-56
3,-53
30,-56
33,-56
15,-55
34,-56
30,-55
17,-55
15,-55
20,-55
31,-56
22,-56
1,-56
25,-56
15,-55
4,-54
8,-54
10,-55
25,-56
8,-54
13,-56
35,-56
3,-55
9,-54
12,-54
23,-56
36,-56
21,-55
20,-55
19,-53
5,-53
2,-55
7,-54
9,-54
8,-54
4,-54
19,-54
11,-55
5,-53
28,-56
16,-55
15,-55
8,-54
7,-54
3,-54
10,-55
14,-55
36,-56
19,-54
23,-56
11,-55
21,-55
27,-55
32,-56
35,-56
28,-56
26,-56
34,-56
12,-55
14,-55
3,-55
27,-56
34,-56
26,-56
28,-56
26,-56
12,-54
33,-56
35,-56
24,-56
5,-53
36,-56
0,-55
20,-55
36,-56
6,-54
7,-54
22,-56
3,-54
10,-54
21,-55
28,-56
29,-55
1,-56
29,-56
31,-56
19,-55
17,-54
19,-54
6,-54
7,-54
27,-56
8,-54
1,-56
36,-56
9,-54
6,-53
0,-56
24,-56
23,-56
31,-56
30,-55
5,-53
7,-54
13,-55
13,-56
2,-55
30,-56
9,-54
16,-55
34,-56
16,-54
10,-54
20,-55
6,-54
18,-54
8,-54
34,-56
11,-55
34,-56
10,-54
0,-56
2,-55
11,-55
6,-53
12,-55
20,-55
30,-56
13,-53
22,-56
13,-56
25,-56
34,-56
1,-56
30,-56
6,-54
34,-56
35,-56
26,-56
9,-55
21,-55
4,-54
36,-56
24,-56
11,-55
18,-54
6,-54
13,-56
13,-56
19,-54
28,-56
16,-55
10,-55
10,-55
10,-54
23,-56
21,-55
28,-56
26,-56
28,-55
26,-56
36,-56
30,-56
36,-56
23,-56
30,-56
27,-56
26,-56
30,-56
16,-54
22,-56
3,-55
24,-56
11,-54
16,-54
11,-55
5,-53
33,-56
29,-56
13,-56
8,-54
2,-55
36,-56
4,-54
31,-56
28,-56
17,-54
9,-55
30,-56
36,-56
6,-54
2,-55
23,-56
22,-56
19,-54
34,-57
19,-55
29,-56
25,-56
24,-56
7,-54
32,-56
32,-56
9,-55
33,-56
9,-54
10,-54
33,-56
24,-56
25,-56
12,-54
7,-54
31,-56
25,-56
15,-55
32,-56
27,-56
12,-54
4,-54
21,-55
33,-56
18,-54
10,-54
4,-54
21,-55
29,-56
26,-56
7,-54
1,-56
22,-56
30,-56
24,-56
25,-56
35,-56
7,-54
33,-56
6,-54
31,-56
24,-56
16,-55
27,-56
36,-56
27,-56
14,-55
32,-56
6,-54
31,-56
7,-54
25,-56
32,-56
9,-54
11,-55
6,-54
1,-54
23,-56
3,-54
2,-55
12,-55
17,-55
8,-54
20,-54
35,-56
22,-56
1,-54
5,-53
19,-55
35,-56
25,-56
33,-56
32,-56
23,-56
0,-55
15,-55
9,-54
1,-56
1,-56
23,-56
18,-55
32,-56
16,-55
6,-53
20,-55
13,-56
12,-55
7,-54
21,-55
24,-56
7,-54
34,-57
29,-56
6,-53
5,-53
10,-54
25,-56
21,-55
2,-54
16,-55
4,-54
21,-55
36,-56
29,-56
23,-56
19,-55
35,-56
19,-53
4,-54
36,-56
23,-56
22,-56
5,-53
29,-55
30,-56
26,-56
25,-56
36,-56
1,-54
36,-56
24,-56
18,-54
9,-55
23,-56
24,-56
31,-56
4,-54
17,-55
34,-56
2,-55
18,-55
26,-56
1,-56
31,-56
4,-54
23,-56
5,-53
32,-56
4,-54
33,-56
29,-56
25,-56
2,-55
5,-53
4,-54
27,-56
1,-54
11,-55
33,-57
5,-53
29,-56
12,-55
20,-55
8,-54
15,-55
28,-56
18,-55
32,-56
34,-56
18,-55
22,-56
8,-54
12,-55
24,-56
10,-55
20,-55
23,-56
17,-55
26,-56
33,-56
11,-55
20,-55
31,-56
36,-56
5,-53
13,-56
16,-55
34,-56
32,-56
33,-56
23,-56
26,-56
10,-54
36,-56
29,-56
14,-55
35,-56
8,-54
2,-54
12,-55
3,-55
13,-56
22,-56
26,-56
2,-55
31,-56
22,-56
22,-56
33,-56
3,-54
19,-55
5,-53
11,-55
30,-56
8,-55
36,-56
23,-56
30,-56
5,-53
36,-55
16,-55
4,-54
6,-54
12,-54
12,-55
8,-54
12,-55
19,-55
21,-55
6,-53
3,-55
24,-56
6,-54
29,-56
20,-54
14,-55
4,-54
13,-55
24,-56
13,-56
9,-54
27,-56
24,-56
28,-56
16,-54
13,-54
7,-54
7,-54
26,-56
15,-54
32,-56
13,-56
13,-54
26,-56
7,-54
0,-56
36,-56
33,-56
0,-56
17,-55
5,-53
23,-56
20,-55
5,-53
30,-56
8,-54
32,-56
1,-56
22,-56
30,-56
16,-55
22,-56
23,-56
25,-56
9,-55
7,-54
10,-54
13,-53
30,-56
3,-54
23,-56
34,-57
34,-56
9,-54
28,-56
1,-56
5,-53
12,-55
25,-56
36,-56
20,-55
14,-55
15,-55
6,-53
0,-56
1,-56
22,-56
11,-54
9,-55
19,-54
4,-55
15,-54
14,-55
18,-55
26,-56
5,-53
8,-54
8,-54
35,-56
20,-55
18,-54
30,-56
9,-54
26,-56
3,-55
0,-56
22,-56
16,-55
7,-54
25,-56
0,-56
6,-54
26,-56
33,-56
8,-54
20,-54
23,-56
0,-56
26,-56
3,-55
27,-56
10,-54
18,-55
0,-56
3,-55
28,-56
14,-55
34,-56
1,-56
30,-56
4,-54
10,-54
18,-54
23,-56
7,-54
30,-56
17,-54
6,-54
21,-55
2,-55
7,-54
3,-55
0,-56
35,-56
0,-56
17,-54
6,-54
3,-55
35,-56
23,-56
18,-55
23,-56
8,-54
31,-56
9,-54
1,-56
5,-53
16,-55
26,-56
23,-56
34,-56
22,-56
35,-56
14,-55
20,-54
27,-56
6,-54
32,-56
34,-56
11,-54
23,-56
10,-55
9,-55
8,-54
6,-53
34,-57
32,-56
14,-54
12,-55
9,-55
10,-54
18,-54
29,-56
31,-56
32,-56
15,-54
33,-56
32,-56
15,-55
14,-54
7,-54
2,-55
27,-56
30,-56
15,-55
9,-55
0,-56
29,-56
22,-56
14,-55
15,-55
26,-56
8,-53
7,-54
33,-56
12,-55
2,-55
36,-56
27,-56
15,-55
13,-54
4,-54
30,-56
28,-56
7,-54
22,-56
10,-54
22,-56
29,-56
29,-56
9,-55
12,-55
36,-56
11,-55
21,-55
16,-54
14,-55
10,-54
24,-56
4,-55
34,-56
24,-56
24,-56
35,-56
16,-55
35,-56
22,-56
5,-53
29,-56
11,-55
31,-56
3,-55
24,-56
22,-56
7,-54
2,-55
12,-55
27,-56
14,-55
1,-56
10,-55
19,-55
35,-56
23,-55
28,-56
30,-56
16,-55
9,-55
30,-56
5,-53
24,-56
14,-55
31,-56
2,-55
30,-56
28,-56
27,-56
31,-56
10,-54
8,-55
14,-55
27,-56
11,-54
30,-56
27,-56
6,-54
31,-56
2,-55
32,-56
18,-55
24,-56
7,-54
33,-56
13,-56
4,-54
9,-55
16,-55
21,-55
18,-55
31,-56
13,-56
28,-56
0,-56
15,-54
20,-55
0,-56
7,-54
0,-55
25,-56
15,-55
0,-56
33,-56
5,-53
2,-55
1,-56
10,-55
9,-55
8,-54
23,-56
29,-56
13,-56
4,-55
16,-55
1,-56
2,-55
25,-56
1,-56
34,-56
2,-55
29,-56
8,-54
19,-54
17,-55
26,-56
13,-54
16,-54
15,-55
12,-55
26,-56
23,-55
6,-54
21,-55
28,-56
10,-55
5,-53
30,-56
26,-56
25,-56
0,-55
28,-56
6,-54
27,-56
16,-55
15,-56
27,-56
18,-54
10,-55
11,-55
35,-56
7,-54
4,-54
28,-56
35,-56
34,-57
21,-55
33,-56
30,-56
5,-53
12,-55
12,-55
26,-55
16,-54
28,-56
18,-55
23,-55
34,-56
5,-53
21,-55
21,-53
9,-54
3,-55
1,-56
20,-55
32,-56
32,-56
22,-56
22,-56
19,-54
5,-53
3,-55
22,-56
23,-56
2,-55
5,-53
22,-55
34,-56
5,-53
4,-53
3,-55
27,-56
5,-53
34,-56
28,-55
36,-56
13,-54
8,-55
16,-55
10,-54
9,-55
5,-53
12,-55
1,-56
13,-54
21,-55
10,-55
35,-56
23,-56
14,-55
19,-54
18,-54
24,-56
13,-56
36,-56
14,-55
27,-56
27,-56
22,-56
29,-56
11,-54
13,-56
15,-55
13,-56
36,-56
14,-55
22,-56
26,-56
20,-55
8,-54
9,-55
29,-56
10,-53
24,-56
16,-55
3,-55
5,-53
34,-56
18,-55
30,-56
0,-56
16,-55
25,-55
1,-56
5,-54
0,-56
31,-56
6,-54
13,-54
29,-55
32,-56
10,-54
27,-56
27,-56
29,-56
2,-55
29,-56
5,-53
0,-56
23,-56
0,-56
19,-55
31,-56
29,-56
15,-55
9,-55
17,-56
11,-54
5,-53
5,-53
8,-55
0,-56
11,-55
5,-54
10,-54
1,-56
20,-54
33,-56
34,-56
7,-54
13,-56
8,-54
15,-55
2,-55
25,-56
0,-56
2,-55
11,-55
11,-55
20,-54
35,-56
18,-55
30,-56
30,-56
13,-54
31,-56
34,-56
33,-56
35,-56
15,-55
23,-56
25,-56
35,-56
36,-56
14,-55
30,-56
17,-55
36,-56
26,-55
7,-54
18,-54
22,-55
28,-55
18,-55
30,-56
19,-54
14,-55
31,-56
7,-54
11,-55
4,-55
8,-54
1,-56
21,-57
12,-55
25,-56
24,-56
28,-56
3,-55
4,-55
35,-56
22,-56
0,-56
32,-56
16,-55
12,-55
31,-56
11,-55
36,-56
22,-56
7,-54
25,-56
28,-56
29,-54
26,-56
26,-56
4,-55
28,-56
33,-56
28,-56
35,-56
28,-56
1,-56
6,-54
21,-55
9,-55
3,-55
15,-55
5,-53
8,-55
22,-56
21,-55
18,-55
5,-53
11,-55
32,-56
29,-56
14,-55
15,-55
1,-56
31,-56
10,-55
6,-54
5,-53
6,-54
17,-55
21,-55
28,-56
11,-55
30,-53
5,-53
32,-56
28,-56
6,-54
10,-55
13,-56
5,-53
8,-55
32,-56
23,-56
6,-54
2,-55
4,-55
18,-55
20,-55
3,-55
23,-56
23,-56
29,-56
27,-56
5,-53
29,-56
26,-56
4,-54
30,-54
18,-55
4,-54
9,-55
21,-55
3,-55
28,-56
5,-53
7,-54
28,-56
36,-56
21,-55
31,-56
36,-56
32,-56
18,-55
19,-55
34,-56
22,-56
9,-55
24,-56
18,-54
12,-55
30,-56
2,-55
24,-56
2,-55
24,-56
28,-56
10,-55
14,-55
14,-53
30,-56
36,-56
22,-56
17,-55
24,-56
36,-56
25,-56
2,-55
31,-56
24,-56
13,-56
36,-56
26,-56
11,-55
29,-56
27,-56
23,-56
29,-56
34,-56
9,-52
25,-56
8,-55
6,-54
4,-54
4,-55
17,-55
18,-55
11,-52
32,-56
19,-55
32,-56
23,-56
18,-55
29,-56
0,-56
16,-55
4,-54
33,-56
30,-56
32,-56
10,-55
17,-56
7,-54
16,-55
36,-56
23,-56
35,-56
23,-56
3,-55
22,-56
9,-55
29,-56
33,-56
34,-56
36,-56
17,-56
27,-56
24,-56
16,-55