﻿34,-57
7,-57
33,-57
19,-56
12,-57
11,-56
16,-57
6,-57
11,-56
16,-57
2,-57
1,-57
20,-57
0,-58
32,-57
24,-57
32,-57
15,-57
24,-57
0,-58
32,-57
22,-57
9,-57
30,-57
17,-57
14,-57
17,-57
10,-57
14,-57
16,-57
9,-57
5,-57
22,-57
28,-57
6,-57
18,-56
19,-56
4,-57
17,-57
30,-57
18,-56
11,-57
26,-58
17,-57
5,-57
1,-57
24,-57
20,-57
34,-57
36,-57
30,-57
5,-57
22,-57
14,-57
3,-57
8,-57
2,-57
8,-57
16,-57
12,-57
36,-57
29,-57
30,-57
7,-57
20,-57
33,-57
32,-57
30,-57
28,-57
0,-57
2,-57
33,-57
0,-58
28,-57
3,-57
5,-57
31,-57
12,-57
20,-57
18,-56
25,-57
36,-57
33,-57
33,-57
30,-57
23,-57
7,-57
17,-56
25,-57
1,-57
17,-57
11,-56
25,-57
21,-57
8,-57
34,-57
19,-56
10,-57
25,-57
6,-57
11,-56
7,-57
34,-57
27,-57
28,-57
4,-57
3,-57
18,-56
14,-57
1,-57
4,-57
6,-57
3,-57
7,-57
12,-57
2,-57
31,-57
21,-57
9,-57
17,-56
22,-57
27,-57
30,-57
15,-57
3,-57
34,-57
34,-57
12,-57
0,-58
25,-57
26,-57
29,-57
35,-58
4,-57
19,-57
16,-57
30,-57
21,-57
14,-57
24,-57
1,-57
35,-57
31,-57
36,-57
1,-57
18,-56
26,-57
0,-58
19,-56
35,-57
3,-57
17,-56
5,-57
1,-57
1,-57
22,-57
3,-57
26,-57
25,-57
10,-57
31,-57
14,-57
2,-57
1,-57
18,-56
14,-57
24,-57
9,-57
2,-57
30,-57
18,-56
22,-57
12,-56
19,-56
26,-57
3,-57
13,-57
5,-57
15,-56
1,-57
0,-57
36,-57
6,-57
15,-56
2,-57
17,-56
6,-57
0,-57
9,-57
35,-57
14,-57
24,-57
23,-57
12,-56
24,-57
32,-57
8,-57
9,-57
3,-57
10,-57
12,-56
35,-57
0,-57
17,-56
20,-57
30,-57
22,-57
9,-57
15,-56
36,-57
33,-57
20,-57
30,-57
6,-57
17,-56
8,-57
5,-57
32,-57
32,-57
21,-57
28,-57
35,-57
2,-57
18,-56
14,-57
26,-57
12,-56
18,-56
4,-57
19,-56
31,-57
29,-57
7,-57
31,-57
27,-57
16,-56
12,-56
15,-56
11,-56
25,-57
27,-57
18,-56
35,-57
13,-57
23,-57
35,-58
2,-57
20,-57
26,-58
13,-57
36,-57
29,-57
35,-57
11,-56
30,-57
18,-56
2,-57
26,-57
2,-57
36,-57
24,-57
10,-57
0,-57
10,-57
22,-57
16,-56
22,-57
1,-57
10,-57
23,-57
20,-57
18,-56
23,-57
1,-57
24,-57
15,-56
9,-57
10,-57
21,-57
18,-56
34,-57
33,-57
10,-57
26,-57
4,-57
36,-57
27,-57
21,-57
12,-56
1,-57
24,-57
15,-56
27,-57
25,-57
30,-57
20,-57
29,-57
23,-57
1,-57
28,-57
15,-56
17,-56
6,-57
28,-57
12,-56
6,-57
21,-57
9,-57
1,-57
26,-57
36,-57
6,-57
0,-57
30,-57
24,-57
9,-57
30,-57
10,-57
8,-57
1,-57
24,-57
25,-57
28,-57
21,-57
34,-57
17,-56
5,-57
36,-57
32,-57
20,-57
33,-57
15,-56
23,-57
29,-57
30,-57
30,-57
21,-57
3,-57
27,-57
27,-57
8,-57
34,-57
18,-56
8,-57
23,-57
7,-57
10,-57
30,-57
19,-56
7,-57
8,-57
16,-56
24,-57
11,-56
24,-57
26,-57
1,-57
25,-57
6,-57
14,-57
22,-57
4,-57
26,-57
7,-57
19,-56
34,-57
2,-57
28,-57
4,-57
12,-56
12,-56
26,-57
32,-57
9,-57
0,-57
12,-56
24,-57
14,-57
2,-57
33,-57
30,-57
16,-57
7,-57
22,-57
19,-56
17,-56
34,-57
33,-57
2,-57
10,-57
35,-57
25,-57
2,-57
14,-56
15,-56
7,-57
15,-56
31,-57
30,-57
33,-57
3,-57
27,-57
33,-57
4,-57
30,-57
6,-57
15,-56
20,-57
2,-57
35,-57
7,-57
4,-57
19,-56
22,-57
10,-57
35,-57
0,-57
3,-57
5,-57
15,-56
23,-57
7,-57
5,-57
2,-57
27,-57
11,-56
8,-57
6,-57
4,-57
19,-56
4,-57
33,-57
32,-57
33,-57
25,-57
1,-57
10,-57
8,-57
16,-56
30,-57
22,-57
16,-56
14,-57
34,-57
33,-57
29,-57
12,-56
10,-57
7,-57
35,-57
11,-56
22,-57
13,-57
34,-57
31,-57
28,-57
20,-57
30,-57
26,-57
34,-57
9,-57
8,-57
23,-57
33,-57
33,-57
5,-57
16,-56
29,-57
31,-57
13,-57
30,-57
32,-57
32,-57
27,-57
5,-57
35,-57
30,-57
28,-57
7,-57
10,-57
36,-57
33,-57
1,-57
3,-57
11,-56
9,-57
26,-57
36,-57
29,-57
9,-57
21,-57
33,-57
11,-57
27,-58
23,-57
17,-57
33,-57
15,-57
22,-57
13,-57
17,-56
0,-57
34,-57
1,-57
1,-57
13,-57
8,-57
35,-57
22,-57
27,-57
6,-57
2,-57
14,-57
3,-57
32,-57
28,-57
29,-57
22,-57
28,-57
7,-57
5,-57
19,-56
31,-57
32,-57
26,-57
30,-57
6,-57
3,-57
33,-57
4,-57
19,-56
16,-56
29,-57
15,-56
6,-57
11,-56
1,-57
6,-57
18,-56
33,-57
36,-57
14,-57
10,-57
36,-57
8,-57
29,-57
34,-57
12,-57
10,-57
34,-57
13,-57
36,-57
24,-57
12,-56
10,-57
13,-57
28,-57
15,-57
19,-56
6,-57
23,-57
21,-57
33,-57
0,-57
26,-57
12,-56
26,-57
34,-57
3,-57
3,-57
13,-57
25,-57
12,-56
10,-57
35,-57
1,-57
21,-57
22,-57
28,-57
16,-57
25,-57
3,-57
3,-57
23,-57
3,-57
32,-57
32,-57
0,-57
20,-57
15,-57
6,-57
0,-57
21,-57
21,-57
0,-57
20,-57
24,-57
32,-57
10,-57
24,-57
1,-57
1,-57
2,-57
22,-57
26,-57
36,-57
17,-57
32,-57
32,-57
0,-57
26,-57
8,-57
10,-57
25,-57
24,-57
1,-57
4,-57
21,-57
20,-57
22,-57
31,-57
33,-57
22,-57
15,-57
9,-57
33,-57
1,-57
12,-57
36,-58
26,-58
28,-57
18,-56
35,-57
14,-57
4,-57
33,-57
23,-57
18,-56
23,-57
31,-57
20,-57
18,-56
1,-57
28,-57
16,-56
12,-56
13,-57
19,-56
21,-57
31,-57
36,-57
18,-56
27,-57
35,-57
28,-57
6,-57
30,-57
25,-57
21,-57
1,-57
34,-57
33,-57
28,-57
31,-57
22,-57
35,-57
35,-57
24,-57
13,-57
23,-57
32,-57
10,-57
17,-56
19,-56
1,-57
18,-56
21,-57
11,-56
21,-57
15,-56
34,-57
24,-57
16,-56
18,-56
5,-57
33,-57
15,-56
24,-57
7,-57
21,-57
0,-57
27,-57
34,-57
19,-56
9,-57
4,-57
12,-56
34,-57
32,-57
6,-57
24,-57
27,-57
16,-56
2,-57
23,-57
13,-57
14,-56
2,-57
3,-57
31,-57
25,-57
18,-56
4,-57
5,-57
3,-57
4,-57
28,-57
25,-57
21,-57
7,-57
28,-57
3,-57
25,-57
15,-56
5,-57
17,-56
3,-57
2,-57
7,-57
14,-57
34,-57
8,-57
35,-57
20,-57
31,-57
25,-57
11,-56
34,-57
31,-57
30,-57
5,-57
25,-57
11,-57
28,-57
8,-57
1,-57
5,-57
19,-56
25,-57
13,-57
25,-57
7,-57
8,-57
19,-56
14,-56
32,-57
4,-57
25,-57
32,-57
34,-57
0,-57
17,-56
23,-57
4,-57
34,-57
20,-57
35,-57
5,-57
33,-57
33,-57
4,-57
23,-57
5,-57
29,-57
35,-57
32,-57
1,-57
33,-57
27,-57
27,-57
32,-57
23,-57
12,-56
5,-57
12,-56
9,-57
15,-56
17,-56
27,-57
13,-57
1,-57
7,-57
27,-57
21,-56
28,-57
33,-57
8,-57
3,-57
30,-57
5,-57
24,-57
24,-57
14,-57
31,-57
8,-57
10,-57
34,-57
4,-57
7,-57
13,-57
31,-57
6,-57
26,-57
5,-57
15,-56
9,-57
25,-57
32,-57
3,-57
7,-57
9,-57
31,-57
32,-57
34,-57
19,-56
29,-57
23,-57
29,-57
10,-57
25,-57
12,-56
23,-57
8,-57
1,-57
34,-57
25,-57
21,-57
16,-56
18,-56
3,-56
30,-57
26,-57
33,-57
17,-56
18,-56
18,-56
20,-56
5,-57
8,-57
33,-57
26,-57
1,-57
22,-57
30,-57
15,-56
0,-57
24,-57
12,-56
34,-57
32,-57
10,-57
18,-56
26,-57
29,-57
23,-57
0,-57
15,-56
22,-57
8,-57
5,-57
3,-57
10,-57
22,-57
15,-57
1,-57
16,-57
24,-57
16,-57
22,-57
19,-56
5,-57
5,-57
28,-57
29,-57
4,-57
31,-57
1,-57
3,-57
7,-57
11,-56
6,-57
19,-56
13,-57
18,-56
15,-56
6,-57
0,-57
2,-57
17,-56
20,-56
6,-57
11,-56
12,-56
35,-57
5,-57
18,-56
13,-57
21,-57
31,-57
33,-57
25,-57
22,-57
12,-56
19,-56
32,-57
19,-56
17,-56
24,-57
23,-57
23,-57
16,-56
17,-56
29,-57
36,-57
21,-57
29,-57
12,-56
20,-57
9,-57
20,-57
26,-57
35,-57
35,-57
23,-57
10,-57
28,-57
34,-57
35,-57
6,-57
16,-56
23,-57
2,-57
30,-57
15,-56
6,-57
24,-57
30,-57
4,-57
36,-57
19,-56
26,-57
10,-57
18,-56
12,-56
35,-57
26,-57
28,-57
17,-56
36,-57
17,-56
19,-56
8,-57
2,-57
28,-57
26,-57
20,-57
12,-56
10,-57
4,-57
5,-57
16,-56
14,-57
16,-56
20,-57
5,-57
22,-57
6,-57
26,-57
23,-57
9,-57
29,-57
33,-57
8,-57
32,-57
28,-57
27,-57
26,-58
3,-57
14,-57
27,-58
12,-57
36,-58
1,-57
30,-57
31,-57
13,-57
10,-57
34,-57
18,-56
27,-57
2,-57
27,-57
24,-57
25,-57
19,-56
21,-57
7,-57
22,-57
31,-57
16,-56
3,-57
24,-57
28,-57
34,-57
16,-56
0,-58
21,-57
24,-57
10,-57
19,-56
24,-57
14,-57
25,-57
1,-57
22,-57
35,-57
32,-57
12,-56
3,-57
22,-57
8,-57
25,-57
9,-57
29,-57
8,-57
4,-57
35,-57
23,-57
10,-57
1,-57
25,-57
19,-56
32,-57
16,-56
33,-57
32,-57
24,-57
21,-57
8,-57
3,-57
15,-57
18,-56
29,-57
31,-57
29,-57
24,-57
1,-57
18,-56
12,-56
13,-57
34,-57
33,-57
18,-56
30,-57
30,-57
6,-57
16,-56
0,-57
8,-57
34,-57
34,-57
2,-56
32,-57
33,-57
19,-56
19,-56
35,-57
34,-57
23,-57
3,-57
27,-57
16,-56
24,-57
29,-57
19,-56
35,-57
0,-57
15,-56
0,-57
31,-57
6,-57
24,-57
18,-56
9,-57
19,-56
9,-57
2,-57
24,-57
6,-57
36,-58
27,-58
34,-57
4,-57
15,-57
31,-57
35,-57
10,-57
26,-57
21,-56
33,-57
8,-57
10,-57
33,-57
28,-57
8,-57
31,-57
29,-57
1,-57
7,-57
4,-57
18,-56
24,-57
4,-57
20,-57
17,-56
29,-57
1,-57
16,-56
20,-56
9,-57
19,-56
23,-57
15,-56
2,-57
29,-57
22,-57
18,-56
30,-57
6,-57
34,-57
24,-57
3,-57
11,-56
27,-57
1,-57
26,-57
23,-57
17,-56
16,-56
0,-57
1,-57
7,-57
28,-57
8,-57
24,-57
15,-56
30,-57
36,-57
30,-57
9,-57
30,-57
33,-57
7,-57
13,-57
21,-56
34,-57
27,-57
22,-57
22,-57
22,-57
0,-57
32,-57
3,-56
27,-57
20,-56
19,-56
5,-57
20,-56
8,-57
36,-57
14,-57
32,-57
33,-57
23,-57
30,-57
2,-57
1,-57
36,-57
27,-57
25,-57
32,-57
36,-57
18,-56
32,-57
17,-56
6,-57
23,-57
8,-57
23,-57
36,-57
35,-57
11,-56
9,-57
6,-57
0,-57
9,-57
30,-57
19,-56
22,-57
2,-57
31,-57
7,-57
1,-57
33,-57
3,-57
33,-57
23,-57
13,-57
15,-56
9,-57
30,-57
25,-57
13,-57
0,-57
24,-57
15,-56
4,-57
31,-57
32,-57
34,-57
28,-57
36,-57
15,-57
32,-57
7,-57
32,-57
19,-56
33,-57
8,-57
21,-57
33,-57
8,-57
9,-57
9,-57
33,-57
2,-57
31,-57
11,-56
18,-56
23,-57
10,-57
25,-57
20,-57
36,-57
9,-57
10,-57
6,-57
25,-57
18,-56
26,-57
33,-57
16,-56
33,-57
14,-57
32,-57
21,-57
16,-56
12,-56
6,-57
25,-57
27,-57
24,-57
3,-57
5,-57
36,-57
31,-57
36,-57
10,-57
28,-57
6,-57
21,-56
30,-57
14,-57
29,-57
15,-56
17,-56
26,-57
28,-57
2,-57
34,-57
21,-57
30,-57
15,-56
1,-57
22,-57
35,-57
22,-57
25,-57
36,-57
26,-57
10,-57
35,-57
20,-56
9,-57
27,-57
32,-57
8,-57
13,-57
12,-56
30,-57
10,-57
15,-56
26,-57
13,-57
10,-57
16,-56
6,-57
21,-57
8,-57
3,-57
27,-57
25,-57
1,-57
25,-57
14,-56
6,-57
32,-57
2,-57
12,-56
14,-56
28,-57
28,-57
26,-57
31,-57
27,-57
4,-57
11,-56
16,-56
21,-56
15,-56
19,-56
23,-57
24,-57
22,-57
26,-57
12,-57
7,-57
9,-57
23,-57
32,-57
35,-57
1,-57
6,-57
21,-56
2,-57
4,-57
6,-57
32,-57
29,-57
5,-57
36,-57
18,-56
36,-57
31,-57
1,-57
8,-57
22,-57
9,-57
6,-57
4,-57
29,-57
34,-57
14,-56
21,-56
15,-56
7,-57
31,-57
18,-56
13,-57
35,-57
31,-57
25,-57
10,-57
15,-56
23,-57
30,-57
9,-57
29,-57
24,-57
16,-56
10,-57
29,-57
20,-56
31,-57
26,-57
26,-57
27,-57
21,-56
8,-57
13,-57
34,-57
25,-57
7,-57
28,-57
9,-57
2,-57
33,-57
26,-57
10,-57
11,-56
35,-57
33,-57
26,-57
35,-57
27,-57
34,-57
13,-57
3,-57
33,-57
3,-57
18,-56
21,-57
10,-57
9,-57
30,-57
35,-57
29,-57
30,-57
33,-57
10,-57
26,-57
1,-57
8,-57
20,-57
12,-56
14,-56
18,-56
27,-57
5,-57
14,-56
22,-57
34,-57
3,-57
11,-56
16,-56
27,-57
8,-57
29,-57
22,-57
21,-57
23,-57
35,-57
0,-57
8,-57
35,-57
20,-56
15,-56
16,-56
1,-57
28,-57
31,-57
28,-57
23,-57
28,-57