"time","epoch_time","boot_time","rssi","ch","mac"
"2020-07-30T11:35:25",1596130525.982,8353863,-57,39,"a71850b36037"
"2020-07-30T11:35:26",1596130526.187,8354068,-57,37,"a71850b36037"
"2020-07-30T11:35:27",1596130527.232,8355113,-57,37,"a71850b36037"
"2020-07-30T11:35:27",1596130527.444,8355325,-53,38,"a71850b36037"
"2020-07-30T11:35:27",1596130527.857,8355738,-57,39,"a71850b36037"
"2020-07-30T11:35:28",1596130528.066,8355947,-57,37,"a71850b36037"
"2020-07-30T11:35:28",1596130528.481,8356362,-53,38,"a71850b36037"
"2020-07-30T11:35:28",1596130528.687,8356568,-57,39,"a71850b36037"
"2020-07-30T11:35:29",1596130529.102,8356983,-57,37,"a71850b36037"
"2020-07-30T11:35:29",1596130529.312,8357193,-53,38,"a71850b36037"
"2020-07-30T11:35:29",1596130529.732,8357613,-57,39,"a71850b36037"
"2020-07-30T11:35:30",1596130530.354,8358235,-53,38,"a71850b36037"
"2020-07-30T11:35:30",1596130530.566,8358447,-57,39,"a71850b36037"
"2020-07-30T11:35:30",1596130530.98,8358861,-57,37,"a71850b36037"
"2020-07-30T11:35:31",1596130531.192,8359073,-53,38,"a71850b36037"
"2020-07-30T11:35:31",1596130531.609,8359490,-57,39,"a71850b36037"
"2020-07-30T11:35:31",1596130531.821,8359702,-57,37,"a71850b36037"
"2020-07-30T11:35:32",1596130532.229,8360110,-53,38,"a71850b36037"
"2020-07-30T11:35:32",1596130532.438,8360319,-57,39,"a71850b36037"
"2020-07-30T11:35:32",1596130532.857,8360738,-57,37,"a71850b36037"
"2020-07-30T11:35:33",1596130533.473,8361354,-57,39,"a71850b36037"
"2020-07-30T11:35:33",1596130533.686,8361567,-57,37,"a71850b36037"
"2020-07-30T11:35:34",1596130534.102,8361983,-53,38,"a71850b36037"
"2020-07-30T11:35:34",1596130534.312,8362193,-57,39,"a71850b36037"
"2020-07-30T11:35:34",1596130534.725,8362606,-57,37,"a71850b36037"
"2020-07-30T11:35:34",1596130534.933,8362814,-53,38,"a71850b36037"
"2020-07-30T11:35:35",1596130535.352,8363233,-57,39,"a71850b36037"
"2020-07-30T11:35:35",1596130535.566,8363447,-57,37,"a71850b36037"
"2020-07-30T11:35:35",1596130535.972,8363853,-53,38,"a71850b36037"
"2020-07-30T11:35:36",1596130536.176,8364057,-57,39,"a71850b36037"
"2020-07-30T11:35:36",1596130536.593,8364474,-57,37,"a71850b36037"
"2020-07-30T11:35:36",1596130536.803,8364684,-53,38,"a71850b36037"
"2020-07-30T11:35:37",1596130537.217,8365098,-57,39,"a71850b36037"
"2020-07-30T11:35:37",1596130537.427,8365308,-57,37,"a71850b36037"
"2020-07-30T11:35:37",1596130537.843,8365724,-53,38,"a71850b36037"
"2020-07-30T11:35:38",1596130538.045,8365926,-57,39,"a71850b36037"
"2020-07-30T11:35:38",1596130538.462,8366343,-57,37,"a71850b36037"
"2020-07-30T11:35:39",1596130539.095,8366976,-57,39,"a71850b36037"
"2020-07-30T11:35:39",1596130539.295,8367176,-57,37,"a71850b36037"
"2020-07-30T11:35:39",1596130539.717,8367598,-53,38,"a71850b36037"
"2020-07-30T11:35:39",1596130539.923,8367804,-57,39,"a71850b36037"
"2020-07-30T11:35:40",1596130540.344,8368225,-57,37,"a71850b36037"
"2020-07-30T11:35:40",1596130540.545,8368426,-53,38,"a71850b36037"
"2020-07-30T11:35:40",1596130540.962,8368843,-57,39,"a71850b36037"
"2020-07-30T11:35:41",1596130541.171,8369052,-57,37,"a71850b36037"
"2020-07-30T11:35:41",1596130541.594,8369475,-53,38,"a71850b36037"
"2020-07-30T11:35:41",1596130541.803,8369684,-57,39,"a71850b36037"
"2020-07-30T11:35:42",1596130542.217,8370098,-57,37,"a71850b36037"
"2020-07-30T11:35:42",1596130542.424,8370305,-53,38,"a71850b36037"
"2020-07-30T11:35:42",1596130542.842,8370723,-57,39,"a71850b36037"
"2020-07-30T11:35:43",1596130543.048,8370929,-57,37,"a71850b36037"
"2020-07-30T11:35:43",1596130543.472,8371353,-53,38,"a71850b36037"
"2020-07-30T11:35:43",1596130543.676,8371557,-57,39,"a71850b36037"
"2020-07-30T11:35:44",1596130544.092,8371973,-57,37,"a71850b36037"
"2020-07-30T11:35:44",1596130544.293,8372174,-53,38,"a71850b36037"
"2020-07-30T11:35:44",1596130544.713,8372594,-57,39,"a71850b36037"
"2020-07-30T11:35:44",1596130544.92,8372801,-57,37,"a71850b36037"
"2020-07-30T11:35:45",1596130545.342,8373223,-53,38,"a71850b36037"
"2020-07-30T11:35:45",1596130545.549,8373430,-57,39,"a71850b36037"
"2020-07-30T11:35:46",1596130546.165,8374046,-53,38,"a71850b36037"
"2020-07-30T11:35:46",1596130546.586,8374467,-57,39,"a71850b36037"
"2020-07-30T11:35:46",1596130546.796,8374677,-57,37,"a71850b36037"
"2020-07-30T11:35:47",1596130547.423,8375304,-57,39,"a71850b36037"
"2020-07-30T11:35:47",1596130547.846,8375727,-57,37,"a71850b36037"
"2020-07-30T11:35:48",1596130548.05,8375931,-53,38,"a71850b36037"
"2020-07-30T11:35:48",1596130548.468,8376349,-57,39,"a71850b36037"
"2020-07-30T11:35:48",1596130548.67,8376551,-57,37,"a71850b36037"
"2020-07-30T11:35:49",1596130549.087,8376968,-53,38,"a71850b36037"
"2020-07-30T11:35:49",1596130549.717,8377598,-57,37,"a71850b36037"
"2020-07-30T11:35:50",1596130550.342,8378223,-57,39,"a71850b36037"
"2020-07-30T11:35:50",1596130550.542,8378423,-57,37,"a71850b36037"
"2020-07-30T11:35:50",1596130550.967,8378848,-53,38,"a71850b36037"
"2020-07-30T11:35:51",1596130551.172,8379053,-57,39,"a71850b36037"
"2020-07-30T11:35:51",1596130551.595,8379476,-57,37,"a71850b36037"
"2020-07-30T11:35:51",1596130551.796,8379677,-53,38,"a71850b36037"
"2020-07-30T11:35:52",1596130552.211,8380092,-57,39,"a71850b36037"
"2020-07-30T11:35:52",1596130552.42,8380301,-57,37,"a71850b36037"
"2020-07-30T11:35:52",1596130552.836,8380717,-52,38,"a71850b36037"
"2020-07-30T11:35:53",1596130553.043,8380924,-57,39,"a71850b36037"
"2020-07-30T11:35:53",1596130553.462,8381343,-57,37,"a71850b36037"
"2020-07-30T11:35:53",1596130553.665,8381546,-54,38,"a71850b36037"
"2020-07-30T11:35:54",1596130554.302,8382183,-57,37,"a71850b36037"
"2020-07-30T11:35:54",1596130554.937,8382818,-56,39,"a71850b36037"
"2020-07-30T11:35:55",1596130555.347,8383228,-54,37,"a71850b36037"
"2020-07-30T11:35:55",1596130555.973,8383854,-57,39,"a71850b36037"
"2020-07-30T11:35:56",1596130556.175,8384056,-53,37,"a71850b36037"
"2020-07-30T11:35:56",1596130556.597,8384478,-52,38,"a71850b36037"
"2020-07-30T11:35:56",1596130556.797,8384678,-59,39,"a71850b36037"
"2020-07-30T11:35:57",1596130557.221,8385102,-59,37,"a71850b36037"
"2020-07-30T11:35:57",1596130557.423,8385304,-56,38,"a71850b36037"
"2020-07-30T11:35:57",1596130557.846,8385727,-53,39,"a71850b36037"
"2020-07-30T11:35:58",1596130558.046,8385927,-57,37,"a71850b36037"
"2020-07-30T11:35:58",1596130558.676,8386557,-57,39,"a71850b36037"
"2020-07-30T11:35:59",1596130559.096,8386977,-56,37,"a71850b36037"
"2020-07-30T11:35:59",1596130559.302,8387183,-52,38,"a71850b36037"
"2020-07-30T11:35:59",1596130559.721,8387602,-57,39,"a71850b36037"
"2020-07-30T11:35:59",1596130559.923,8387804,-56,37,"a71850b36037"
"2020-07-30T11:36:00",1596130560.346,8388227,-52,38,"a71850b36037"
"2020-07-30T11:36:00",1596130560.549,8388430,-57,39,"a71850b36037"
"2020-07-30T11:36:00",1596130560.974,8388855,-56,37,"a71850b36037"
"2020-07-30T11:36:01",1596130561.187,8389068,-52,38,"a71850b36037"
"2020-07-30T11:36:01",1596130561.601,8389482,-57,39,"a71850b36037"
"2020-07-30T11:36:01",1596130561.807,8389688,-55,37,"a71850b36037"
"2020-07-30T11:36:03",1596130563.051,8390932,-52,38,"a71850b36037"
"2020-07-30T11:36:03",1596130563.469,8391350,-57,39,"a71850b36037"
"2020-07-30T11:36:03",1596130563.674,8391555,-56,37,"a71850b36037"
"2020-07-30T11:36:04",1596130564.093,8391974,-52,38,"a71850b36037"
"2020-07-30T11:36:04",1596130564.3,8392181,-57,39,"a71850b36037"
"2020-07-30T11:36:04",1596130564.72,8392601,-56,37,"a71850b36037"
"2020-07-30T11:36:04",1596130564.934,8392815,-52,38,"a71850b36037"
"2020-07-30T11:36:05",1596130565.346,8393227,-57,39,"a71850b36037"
"2020-07-30T11:36:06",1596130566.174,8394055,-57,39,"a71850b36037"
"2020-07-30T11:36:06",1596130566.593,8394474,-56,37,"a71850b36037"
"2020-07-30T11:36:06",1596130566.8,8394681,-52,38,"a71850b36037"
"2020-07-30T11:36:07",1596130567.218,8395099,-57,39,"a71850b36037"
"2020-07-30T11:36:07",1596130567.421,8395302,-54,37,"a71850b36037"
"2020-07-30T11:36:07",1596130567.843,8395724,-52,38,"a71850b36037"
"2020-07-30T11:36:08",1596130568.05,8395931,-57,39,"a71850b36037"
"2020-07-30T11:36:08",1596130568.468,8396349,-55,37,"a71850b36037"
"2020-07-30T11:36:08",1596130568.673,8396554,-53,38,"a71850b36037"
"2020-07-30T11:36:09",1596130569.097,8396978,-57,39,"a71850b36037"
"2020-07-30T11:36:09",1596130569.719,8397600,-53,38,"a71850b36037"
"2020-07-30T11:36:09",1596130569.92,8397801,-56,39,"a71850b36037"
"2020-07-30T11:36:10",1596130570.344,8398225,-59,37,"a71850b36037"
"2020-07-30T11:36:10",1596130570.551,8398432,-54,38,"a71850b36037"
"2020-07-30T11:36:10",1596130570.968,8398849,-54,39,"a71850b36037"
"2020-07-30T11:36:11",1596130571.169,8399050,-54,37,"a71850b36037"
"2020-07-30T11:36:11",1596130571.595,8399476,-52,38,"a71850b36037"
"2020-07-30T11:36:11",1596130571.798,8399679,-57,39,"a71850b36037"
"2020-07-30T11:36:12",1596130572.219,8400100,-57,37,"a71850b36037"
"2020-07-30T11:36:13",1596130573.047,8400928,-56,37,"a71850b36037"
"2020-07-30T11:36:13",1596130573.473,8401354,-52,38,"a71850b36037"
"2020-07-30T11:36:13",1596130573.673,8401554,-57,39,"a71850b36037"
"2020-07-30T11:36:14",1596130574.093,8401974,-56,37,"a71850b36037"
"2020-07-30T11:36:14",1596130574.301,8402182,-52,38,"a71850b36037"
"2020-07-30T11:36:14",1596130574.718,8402599,-57,39,"a71850b36037"
"2020-07-30T11:36:14",1596130574.924,8402805,-54,37,"a71850b36037"
"2020-07-30T11:36:15",1596130575.344,8403225,-52,38,"a71850b36037"
"2020-07-30T11:36:15",1596130575.544,8403425,-57,39,"a71850b36037"
"2020-07-30T11:36:15",1596130575.963,8403844,-54,37,"a71850b36037"
"2020-07-30T11:36:16",1596130576.173,8404054,-52,38,"a71850b36037"
"2020-07-30T11:36:16",1596130576.586,8404467,-57,39,"a71850b36037"
"2020-07-30T11:36:16",1596130576.791,8404672,-56,37,"a71850b36037"
"2020-07-30T11:36:17",1596130577.21,8405091,-52,38,"a71850b36037"
"2020-07-30T11:36:17",1596130577.419,8405300,-57,39,"a71850b36037"
"2020-07-30T11:36:17",1596130577.842,8405723,-56,37,"a71850b36037"
"2020-07-30T11:36:18",1596130578.043,8405924,-52,38,"a71850b36037"
"2020-07-30T11:36:18",1596130578.46,8406341,-56,39,"a71850b36037"
"2020-07-30T11:36:18",1596130578.671,8406552,-54,37,"a71850b36037"
"2020-07-30T11:36:19",1596130579.086,8406967,-52,38,"a71850b36037"
"2020-07-30T11:36:19",1596130579.293,8407174,-57,39,"a71850b36037"
"2020-07-30T11:36:19",1596130579.917,8407798,-50,38,"a71850b36037"
"2020-07-30T11:36:20",1596130580.333,8408214,-61,39,"a71850b36037"
"2020-07-30T11:36:20",1596130580.541,8408422,-62,37,"a71850b36037"
"2020-07-30T11:36:20",1596130580.957,8408838,-56,38,"a71850b36037"
"2020-07-30T11:36:21",1596130581.165,8409046,-61,39,"a71850b36037"
"2020-07-30T11:36:21",1596130581.586,8409467,-70,37,"a71850b36037"
"2020-07-30T11:36:21",1596130581.792,8409673,-57,38,"a71850b36037"
"2020-07-30T11:36:22",1596130582.206,8410087,-62,39,"a71850b36037"
"2020-07-30T11:36:22",1596130582.416,8410297,-56,37,"a71850b36037"
"2020-07-30T11:36:23",1596130583.038,8410919,-57,39,"a71850b36037"
"2020-07-30T11:36:23",1596130583.456,8411337,-56,37,"a71850b36037"
"2020-07-30T11:36:23",1596130583.658,8411539,-52,38,"a71850b36037"
"2020-07-30T11:36:24",1596130584.08,8411961,-57,39,"a71850b36037"
"2020-07-30T11:36:24",1596130584.288,8412169,-55,37,"a71850b36037"
"2020-07-30T11:36:24",1596130584.703,8412584,-51,38,"a71850b36037"
"2020-07-30T11:36:24",1596130584.909,8412790,-57,39,"a71850b36037"
"2020-07-30T11:36:25",1596130585.331,8413212,-56,37,"a71850b36037"
"2020-07-30T11:36:25",1596130585.538,8413419,-52,38,"a71850b36037"
"2020-07-30T11:36:26",1596130586.153,8414034,-56,37,"a71850b36037"
"2020-07-30T11:36:26",1596130586.576,8414457,-52,38,"a71850b36037"
"2020-07-30T11:36:26",1596130586.783,8414664,-57,39,"a71850b36037"
"2020-07-30T11:36:27",1596130587.199,8415080,-56,37,"a71850b36037"
"2020-07-30T11:36:27",1596130587.405,8415286,-51,38,"a71850b36037"
"2020-07-30T11:36:27",1596130587.826,8415707,-57,39,"a71850b36037"
"2020-07-30T11:36:28",1596130588.03,8415911,-56,37,"a71850b36037"
"2020-07-30T11:36:28",1596130588.443,8416324,-52,38,"a71850b36037"
"2020-07-30T11:36:28",1596130588.649,8416530,-57,39,"a71850b36037"
"2020-07-30T11:36:29",1596130589.067,8416948,-56,37,"a71850b36037"
"2020-07-30T11:36:29",1596130589.277,8417158,-52,38,"a71850b36037"
"2020-07-30T11:36:29",1596130589.703,8417584,-57,39,"a71850b36037"
"2020-07-30T11:36:29",1596130589.905,8417786,-54,37,"a71850b36037"
"2020-07-30T11:36:30",1596130590.325,8418206,-52,38,"a71850b36037"
"2020-07-30T11:36:30",1596130590.531,8418412,-57,39,"a71850b36037"
"2020-07-30T11:36:30",1596130590.945,8418826,-54,37,"a71850b36037"
"2020-07-30T11:36:31",1596130591.15,8419031,-52,38,"a71850b36037"
"2020-07-30T11:36:31",1596130591.57,8419451,-56,39,"a71850b36037"
"2020-07-30T11:36:31",1596130591.78,8419661,-61,37,"a71850b36037"
"2020-07-30T11:36:32",1596130592.193,8420074,-56,38,"a71850b36037"
"2020-07-30T11:36:32",1596130592.396,8420277,-62,39,"a71850b36037"
"2020-07-30T11:36:33",1596130593.023,8420904,-57,38,"a71850b36037"
"2020-07-30T11:36:33",1596130593.443,8421324,-59,39,"a71850b36037"
"2020-07-30T11:36:33",1596130593.643,8421524,-54,37,"a71850b36037"
"2020-07-30T11:36:34",1596130594.068,8421949,-52,38,"a71850b36037"
"2020-07-30T11:36:34",1596130594.269,8422150,-58,39,"a71850b36037"
"2020-07-30T11:36:34",1596130594.69,8422571,-56,37,"a71850b36037"
"2020-07-30T11:36:34",1596130594.9,8422781,-53,38,"a71850b36037"
"2020-07-30T11:36:35",1596130595.523,8423404,-55,37,"a71850b36037"
"2020-07-30T11:36:35",1596130595.946,8423827,-58,38,"a71850b36037"
"2020-07-30T11:36:36",1596130596.57,8424451,-57,37,"a71850b36037"
"2020-07-30T11:36:36",1596130596.769,8424650,-53,38,"a71850b36037"
"2020-07-30T11:36:37",1596130597.194,8425075,-54,39,"a71850b36037"
"2020-07-30T11:36:37",1596130597.399,8425280,-56,37,"a71850b36037"
"2020-07-30T11:36:37",1596130597.813,8425694,-52,38,"a71850b36037"
"2020-07-30T11:36:38",1596130598.021,8425902,-58,39,"a71850b36037"
"2020-07-30T11:36:38",1596130598.438,8426319,-55,37,"a71850b36037"
"2020-07-30T11:36:38",1596130598.646,8426527,-52,38,"a71850b36037"
"2020-07-30T11:36:39",1596130599.066,8426947,-57,39,"a71850b36037"
"2020-07-30T11:36:39",1596130599.269,8427150,-55,37,"a71850b36037"
"2020-07-30T11:36:39",1596130599.894,8427775,-57,39,"a71850b36037"
"2020-07-30T11:36:40",1596130600.314,8428195,-56,37,"a71850b36037"
"2020-07-30T11:36:40",1596130600.519,8428400,-52,38,"a71850b36037"
"2020-07-30T11:36:40",1596130600.941,8428822,-57,39,"a71850b36037"
"2020-07-30T11:36:41",1596130601.146,8429027,-56,37,"a71850b36037"
"2020-07-30T11:36:41",1596130601.564,8429445,-52,38,"a71850b36037"
"2020-07-30T11:36:41",1596130601.767,8429648,-57,39,"a71850b36037"
"2020-07-30T11:36:42",1596130602.19,8430071,-56,37,"a71850b36037"
"2020-07-30T11:36:42",1596130602.396,8430277,-52,38,"a71850b36037"
"2020-07-30T11:36:42",1596130602.816,8430697,-57,39,"a71850b36037"
"2020-07-30T11:36:43",1596130603.017,8430898,-56,37,"a71850b36037"
"2020-07-30T11:36:43",1596130603.436,8431317,-52,38,"a71850b36037"
"2020-07-30T11:36:43",1596130603.639,8431520,-57,39,"a71850b36037"
"2020-07-30T11:36:44",1596130604.056,8431937,-56,37,"a71850b36037"
"2020-07-30T11:36:44",1596130604.26,8432141,-52,38,"a71850b36037"
"2020-07-30T11:36:44",1596130604.683,8432564,-57,39,"a71850b36037"
"2020-07-30T11:36:44",1596130604.89,8432771,-56,37,"a71850b36037"
"2020-07-30T11:36:45",1596130605.311,8433192,-51,38,"a71850b36037"
"2020-07-30T11:36:45",1596130605.514,8433395,-57,39,"a71850b36037"
"2020-07-30T11:36:46",1596130606.139,8434020,-56,38,"a71850b36037"
"2020-07-30T11:36:46",1596130606.774,8434655,-59,37,"a71850b36037"
"2020-07-30T11:36:47",1596130607.397,8435278,-62,39,"a71850b36037"
"2020-07-30T11:36:47",1596130607.815,8435696,-65,37,"a71850b36037"
"2020-07-30T11:36:48",1596130608.019,8435900,-56,38,"a71850b36037"
"2020-07-30T11:36:48",1596130608.44,8436321,-59,39,"a71850b36037"
"2020-07-30T11:36:48",1596130608.65,8436531,-57,37,"a71850b36037"
"2020-07-30T11:36:49",1596130609.063,8436944,-52,38,"a71850b36037"
"2020-07-30T11:36:49",1596130609.271,8437152,-57,39,"a71850b36037"
"2020-07-30T11:36:49",1596130609.689,8437570,-55,37,"a71850b36037"
"2020-07-30T11:36:49",1596130609.898,8437779,-52,38,"a71850b36037"
"2020-07-30T11:36:51",1596130611.144,8439025,-57,39,"a71850b36037"
"2020-07-30T11:36:51",1596130611.569,8439450,-56,37,"a71850b36037"
"2020-07-30T11:36:51",1596130611.778,8439659,-52,38,"a71850b36037"
"2020-07-30T11:36:52",1596130612.196,8440077,-57,39,"a71850b36037"
"2020-07-30T11:36:52",1596130612.4,8440281,-56,37,"a71850b36037"
"2020-07-30T11:36:52",1596130612.814,8440695,-52,38,"a71850b36037"
"2020-07-30T11:36:53",1596130613.023,8440904,-57,39,"a71850b36037"
"2020-07-30T11:36:53",1596130613.443,8441324,-53,37,"a71850b36037"
"2020-07-30T11:36:53",1596130613.647,8441528,-52,38,"a71850b36037"
"2020-07-30T11:36:54",1596130614.067,8441948,-57,39,"a71850b36037"
"2020-07-30T11:36:54",1596130614.274,8442155,-56,37,"a71850b36037"
"2020-07-30T11:36:54",1596130614.698,8442579,-52,38,"a71850b36037"
"2020-07-30T11:36:54",1596130614.899,8442780,-57,39,"a71850b36037"
"2020-07-30T11:36:55",1596130615.534,8443415,-52,38,"a71850b36037"
"2020-07-30T11:36:56",1596130616.156,8444037,-56,37,"a71850b36037"
"2020-07-30T11:36:56",1596130616.575,8444456,-52,38,"a71850b36037"
"2020-07-30T11:36:56",1596130616.785,8444666,-57,39,"a71850b36037"
"2020-07-30T11:36:57",1596130617.203,8445084,-56,37,"a71850b36037"
"2020-07-30T11:36:57",1596130617.405,8445286,-52,38,"a71850b36037"
"2020-07-30T11:36:57",1596130617.823,8445704,-57,39,"a71850b36037"
"2020-07-30T11:36:58",1596130618.027,8445908,-56,37,"a71850b36037"
"2020-07-30T11:36:58",1596130618.444,8446325,-52,38,"a71850b36037"
"2020-07-30T11:36:59",1596130619.074,8446955,-55,37,"a71850b36037"
"2020-07-30T11:36:59",1596130619.274,8447155,-52,38,"a71850b36037"
"2020-07-30T11:36:59",1596130619.694,8447575,-57,39,"a71850b36037"
"2020-07-30T11:36:59",1596130619.897,8447778,-56,37,"a71850b36037"
"2020-07-30T11:37:00",1596130620.316,8448197,-52,38,"a71850b36037"
"2020-07-30T11:37:00",1596130620.524,8448405,-57,39,"a71850b36037"
"2020-07-30T11:37:00",1596130620.941,8448822,-56,37,"a71850b36037"
"2020-07-30T11:37:01",1596130621.149,8449030,-52,38,"a71850b36037"
"2020-07-30T11:37:01",1596130621.575,8449456,-57,39,"a71850b36037"
"2020-07-30T11:37:01",1596130621.779,8449660,-56,37,"a71850b36037"
"2020-07-30T11:37:02",1596130622.189,8450070,-52,38,"a71850b36037"
"2020-07-30T11:37:02",1596130622.399,8450280,-57,39,"a71850b36037"
"2020-07-30T11:37:02",1596130622.819,8450700,-56,37,"a71850b36037"
"2020-07-30T11:37:03",1596130623.023,8450904,-52,38,"a71850b36037"
"2020-07-30T11:37:03",1596130623.435,8451316,-57,39,"a71850b36037"
"2020-07-30T11:37:03",1596130623.642,8451523,-56,37,"a71850b36037"
"2020-07-30T11:37:04",1596130624.06,8451941,-52,38,"a71850b36037"
"2020-07-30T11:37:04",1596130624.266,8452147,-57,39,"a71850b36037"
"2020-07-30T11:37:04",1596130624.69,8452571,-56,37,"a71850b36037"
"2020-07-30T11:37:05",1596130625.517,8453398,-56,37,"a71850b36037"
"2020-07-30T11:37:05",1596130625.938,8453819,-52,38,"a71850b36037"
"2020-07-30T11:37:06",1596130626.142,8454023,-57,39,"a71850b36037"
"2020-07-30T11:37:06",1596130626.565,8454446,-55,37,"a71850b36037"
"2020-07-30T11:37:06",1596130626.767,8454648,-52,38,"a71850b36037"
"2020-07-30T11:37:07",1596130627.186,8455067,-57,39,"a71850b36037"
"2020-07-30T11:37:07",1596130627.394,8455275,-56,37,"a71850b36037"
"2020-07-30T11:37:07",1596130627.811,8455692,-52,38,"a71850b36037"
"2020-07-30T11:37:08",1596130628.637,8456518,-52,38,"a71850b36037"
"2020-07-30T11:37:09",1596130629.267,8457148,-56,37,"a71850b36037"
"2020-07-30T11:37:09",1596130629.684,8457565,-52,38,"a71850b36037"
"2020-07-30T11:37:09",1596130629.892,8457773,-57,39,"a71850b36037"
"2020-07-30T11:37:10",1596130630.308,8458189,-55,37,"a71850b36037"
"2020-07-30T11:37:10",1596130630.512,8458393,-52,38,"a71850b36037"
"2020-07-30T11:37:10",1596130630.936,8458817,-57,39,"a71850b36037"
"2020-07-30T11:37:11",1596130631.139,8459020,-56,37,"a71850b36037"
"2020-07-30T11:37:11",1596130631.561,8459442,-52,38,"a71850b36037"
"2020-07-30T11:37:11",1596130631.769,8459650,-57,39,"a71850b36037"
"2020-07-30T11:37:12",1596130632.389,8460270,-52,38,"a71850b36037"
"2020-07-30T11:37:12",1596130632.814,8460695,-57,39,"a71850b36037"
"2020-07-30T11:37:13",1596130633.015,8460896,-56,37,"a71850b36037"
"2020-07-30T11:37:13",1596130633.433,8461314,-52,38,"a71850b36037"
"2020-07-30T11:37:13",1596130633.641,8461522,-56,39,"a71850b36037"
"2020-07-30T11:37:14",1596130634.063,8461944,-56,37,"a71850b36037"
"2020-07-30T11:37:14",1596130634.264,8462145,-53,38,"a71850b36037"
"2020-07-30T11:37:14",1596130634.69,8462571,-56,39,"a71850b36037"
"2020-07-30T11:37:14",1596130634.89,8462771,-56,37,"a71850b36037"
"2020-07-30T11:37:15",1596130635.313,8463194,-52,38,"a71850b36037"
"2020-07-30T11:37:15",1596130635.518,8463399,-56,39,"a71850b36037"
"2020-07-30T11:37:16",1596130636.144,8464025,-52,38,"a71850b36037"
"2020-07-30T11:37:16",1596130636.564,8464445,-57,39,"a71850b36037"
"2020-07-30T11:37:16",1596130636.764,8464645,-54,37,"a71850b36037"
"2020-07-30T11:37:17",1596130637.183,8465064,-52,38,"a71850b36037"
"2020-07-30T11:37:17",1596130637.391,8465272,-57,39,"a71850b36037"
"2020-07-30T11:37:17",1596130637.812,8465693,-56,37,"a71850b36037"
"2020-07-30T11:37:18",1596130638.018,8465899,-52,38,"a71850b36037"
"2020-07-30T11:37:18",1596130638.437,8466318,-57,39,"a71850b36037"
"2020-07-30T11:37:18",1596130638.645,8466526,-55,37,"a71850b36037"
"2020-07-30T11:37:19",1596130639.061,8466942,-52,38,"a71850b36037"
"2020-07-30T11:37:19",1596130639.889,8467770,-52,38,"a71850b36037"
"2020-07-30T11:37:20",1596130640.511,8468392,-54,37,"a71850b36037"
"2020-07-30T11:37:20",1596130640.927,8468808,-52,38,"a71850b36037"
"2020-07-30T11:37:21",1596130641.129,8469010,-57,39,"a71850b36037"
"2020-07-30T11:37:21",1596130641.552,8469433,-56,37,"a71850b36037"
"2020-07-30T11:37:21",1596130641.759,8469640,-53,38,"a71850b36037"
"2020-07-30T11:37:22",1596130642.179,8470060,-56,39,"a71850b36037"
"2020-07-30T11:37:22",1596130642.385,8470266,-54,37,"a71850b36037"
"2020-07-30T11:37:22",1596130642.809,8470690,-53,38,"a71850b36037"
"2020-07-30T11:37:23",1596130643.015,8470896,-56,39,"a71850b36037"
"2020-07-30T11:37:23",1596130643.64,8471521,-52,38,"a71850b36037"
"2020-07-30T11:37:24",1596130644.059,8471940,-58,39,"a71850b36037"
"2020-07-30T11:37:24",1596130644.264,8472145,-57,37,"a71850b36037"
"2020-07-30T11:37:24",1596130644.682,8472563,-54,38,"a71850b36037"
"2020-07-30T11:37:24",1596130644.885,8472766,-56,39,"a71850b36037"
"2020-07-30T11:37:25",1596130645.299,8473180,-56,37,"a71850b36037"
"2020-07-30T11:37:25",1596130645.508,8473389,-52,38,"a71850b36037"
"2020-07-30T11:37:25",1596130645.931,8473812,-57,39,"a71850b36037"
"2020-07-30T11:37:26",1596130646.558,8474439,-52,38,"a71850b36037"
"2020-07-30T11:37:26",1596130646.765,8474646,-57,39,"a71850b36037"
"2020-07-30T11:37:27",1596130647.185,8475066,-55,37,"a71850b36037"
"2020-07-30T11:37:27",1596130647.388,8475269,-52,38,"a71850b36037"
"2020-07-30T11:37:28",1596130648.016,8475897,-56,37,"a71850b36037"
"2020-07-30T11:37:28",1596130648.435,8476316,-52,38,"a71850b36037"
"2020-07-30T11:37:28",1596130648.642,8476523,-57,39,"a71850b36037"
"2020-07-30T11:37:29",1596130649.057,8476938,-56,37,"a71850b36037"
"2020-07-30T11:37:29",1596130649.26,8477141,-52,38,"a71850b36037"
"2020-07-30T11:37:29",1596130649.687,8477568,-57,39,"a71850b36037"
"2020-07-30T11:37:29",1596130649.886,8477767,-56,37,"a71850b36037"
"2020-07-30T11:37:30",1596130650.935,8478816,-56,37,"a71850b36037"
"2020-07-30T11:37:31",1596130651.136,8479017,-52,38,"a71850b36037"
"2020-07-30T11:37:31",1596130651.769,8479650,-56,37,"a71850b36037"
"2020-07-30T11:37:32",1596130652.185,8480066,-52,38,"a71850b36037"
"2020-07-30T11:37:32",1596130652.396,8480277,-57,39,"a71850b36037"
"2020-07-30T11:37:32",1596130652.81,8480691,-56,37,"a71850b36037"
"2020-07-30T11:37:33",1596130653.015,8480896,-52,38,"a71850b36037"
"2020-07-30T11:37:33",1596130653.436,8481317,-56,39,"a71850b36037"
"2020-07-30T11:37:33",1596130653.636,8481517,-56,37,"a71850b36037"
"2020-07-30T11:37:34",1596130654.06,8481941,-52,38,"a71850b36037"
"2020-07-30T11:37:34",1596130654.895,8482776,-53,38,"a71850b36037"
"2020-07-30T11:37:35",1596130655.521,8483402,-53,37,"a71850b36037"
"2020-07-30T11:37:35",1596130655.939,8483820,-52,38,"a71850b36037"
"2020-07-30T11:37:36",1596130656.145,8484026,-57,39,"a71850b36037"
"2020-07-30T11:37:36",1596130656.565,8484446,-55,37,"a71850b36037"
"2020-07-30T11:37:36",1596130656.772,8484653,-53,38,"a71850b36037"
"2020-07-30T11:37:37",1596130657.186,8485067,-57,39,"a71850b36037"
"2020-07-30T11:37:37",1596130657.396,8485277,-53,37,"a71850b36037"
"2020-07-30T11:37:37",1596130657.814,8485695,-51,38,"a71850b36037"
"2020-07-30T11:37:38",1596130658.021,8485902,-57,39,"a71850b36037"
"2020-07-30T11:37:38",1596130658.444,8486325,-57,37,"a71850b36037"
"2020-07-30T11:37:39",1596130659.069,8486950,-60,39,"a71850b36037"
"2020-07-30T11:37:39",1596130659.275,8487156,-59,37,"a71850b36037"
"2020-07-30T11:37:39",1596130659.899,8487780,-58,39,"a71850b36037"
"2020-07-30T11:37:40",1596130660.319,8488200,-57,37,"a71850b36037"
"2020-07-30T11:37:40",1596130660.521,8488402,-54,38,"a71850b36037"
"2020-07-30T11:37:40",1596130660.946,8488827,-57,39,"a71850b36037"
"2020-07-30T11:37:41",1596130661.146,8489027,-57,37,"a71850b36037"
"2020-07-30T11:37:41",1596130661.563,8489444,-54,38,"a71850b36037"
"2020-07-30T11:37:41",1596130661.77,8489651,-57,39,"a71850b36037"
"2020-07-30T11:37:42",1596130662.19,8490071,-57,37,"a71850b36037"
"2020-07-30T11:37:42",1596130662.398,8490279,-54,38,"a71850b36037"
"2020-07-30T11:37:42",1596130662.82,8490701,-57,39,"a71850b36037"
"2020-07-30T11:37:43",1596130663.025,8490906,-57,37,"a71850b36037"
"2020-07-30T11:37:43",1596130663.445,8491326,-54,38,"a71850b36037"
"2020-07-30T11:37:43",1596130663.648,8491529,-57,39,"a71850b36037"
"2020-07-30T11:37:44",1596130664.069,8491950,-57,37,"a71850b36037"
"2020-07-30T11:37:44",1596130664.273,8492154,-54,38,"a71850b36037"
"2020-07-30T11:37:44",1596130664.698,8492579,-57,39,"a71850b36037"
"2020-07-30T11:37:44",1596130664.899,8492780,-57,37,"a71850b36037"
"2020-07-30T11:37:45",1596130665.315,8493196,-53,38,"a71850b36037"
"2020-07-30T11:37:45",1596130665.519,8493400,-57,39,"a71850b36037"
"2020-07-30T11:37:45",1596130665.943,8493824,-58,37,"a71850b36037"
"2020-07-30T11:37:46",1596130666.153,8494034,-56,38,"a71850b36037"
"2020-07-30T11:37:46",1596130666.565,8494446,-54,39,"a71850b36037"
"2020-07-30T11:37:46",1596130666.767,8494648,-57,37,"a71850b36037"
"2020-07-30T11:37:47",1596130667.397,8495278,-65,39,"a71850b36037"
"2020-07-30T11:37:47",1596130667.815,8495696,-59,37,"a71850b36037"
"2020-07-30T11:37:48",1596130668.02,8495901,-56,38,"a71850b36037"
"2020-07-30T11:37:48",1596130668.437,8496318,-56,39,"a71850b36037"
"2020-07-30T11:37:48",1596130668.645,8496526,-54,37,"a71850b36037"
"2020-07-30T11:37:49",1596130669.061,8496942,-52,38,"a71850b36037"
"2020-07-30T11:37:49",1596130669.689,8497570,-56,37,"a71850b36037"
"2020-07-30T11:37:49",1596130669.889,8497770,-52,38,"a71850b36037"
"2020-07-30T11:37:50",1596130670.517,8498398,-55,37,"a71850b36037"
"2020-07-30T11:37:50",1596130670.94,8498821,-52,38,"a71850b36037"
"2020-07-30T11:37:51",1596130671.14,8499021,-57,39,"a71850b36037"
"2020-07-30T11:37:51",1596130671.565,8499446,-56,37,"a71850b36037"
"2020-07-30T11:37:51",1596130671.765,8499646,-52,38,"a71850b36037"
"2020-07-30T11:37:52",1596130672.19,8500071,-57,39,"a71850b36037"
"2020-07-30T11:37:52",1596130672.39,8500271,-56,37,"a71850b36037"
"2020-07-30T11:37:52",1596130672.81,8500691,-51,38,"a71850b36037"
"2020-07-30T11:37:53",1596130673.645,8501526,-52,38,"a71850b36037"
"2020-07-30T11:37:54",1596130674.069,8501950,-57,39,"a71850b36037"
"2020-07-30T11:37:54",1596130674.695,8502576,-52,38,"a71850b36037"
"2020-07-30T11:37:54",1596130674.894,8502775,-57,39,"a71850b36037"
"2020-07-30T11:37:55",1596130675.32,8503201,-55,37,"a71850b36037"
"2020-07-30T11:37:55",1596130675.526,8503407,-52,38,"a71850b36037"
"2020-07-30T11:37:55",1596130675.944,8503825,-57,39,"a71850b36037"
"2020-07-30T11:37:56",1596130676.151,8504032,-56,37,"a71850b36037"
"2020-07-30T11:37:56",1596130676.57,8504451,-52,38,"a71850b36037"
"2020-07-30T11:37:56",1596130676.775,8504656,-57,39,"a71850b36037"
"2020-07-30T11:37:57",1596130677.196,8505077,-56,37,"a71850b36037"
"2020-07-30T11:37:57",1596130677.399,8505280,-51,38,"a71850b36037"
"2020-07-30T11:37:58",1596130678.017,8505898,-54,37,"a71850b36037"
"2020-07-30T11:37:58",1596130678.445,8506326,-52,38,"a71850b36037"
"2020-07-30T11:37:59",1596130679.07,8506951,-54,37,"a71850b36037"
"2020-07-30T11:37:59",1596130679.273,8507154,-52,38,"a71850b36037"
"2020-07-30T11:37:59",1596130679.698,8507579,-57,39,"a71850b36037"
"2020-07-30T11:37:59",1596130679.898,8507779,-56,37,"a71850b36037"
"2020-07-30T11:38:00",1596130680.324,8508205,-52,38,"a71850b36037"
"2020-07-30T11:38:00",1596130680.525,8508406,-54,39,"a71850b36037"
"2020-07-30T11:38:00",1596130680.945,8508826,-57,37,"a71850b36037"
"2020-07-30T11:38:01",1596130681.148,8509029,-52,38,"a71850b36037"
"2020-07-30T11:38:01",1596130681.776,8509657,-56,37,"a71850b36037"
"2020-07-30T11:38:02",1596130682.4,8510281,-58,39,"a71850b36037"
"2020-07-30T11:38:03",1596130683.025,8510906,-51,38,"a71850b36037"
"2020-07-30T11:38:03",1596130683.451,8511332,-57,39,"a71850b36037"
"2020-07-30T11:38:03",1596130683.652,8511533,-54,37,"a71850b36037"
"2020-07-30T11:38:04",1596130684.068,8511949,-52,38,"a71850b36037"
"2020-07-30T11:38:04",1596130684.276,8512157,-57,39,"a71850b36037"
"2020-07-30T11:38:04",1596130684.693,8512574,-56,37,"a71850b36037"
"2020-07-30T11:38:04",1596130684.897,8512778,-52,38,"a71850b36037"
"2020-07-30T11:38:05",1596130685.319,8513200,-57,39,"a71850b36037"
"2020-07-30T11:38:05",1596130685.521,8513402,-56,37,"a71850b36037"
"2020-07-30T11:38:06",1596130686.156,8514037,-57,39,"a71850b36037"
"2020-07-30T11:38:06",1596130686.576,8514457,-56,37,"a71850b36037"
"2020-07-30T11:38:06",1596130686.778,8514659,-52,38,"a71850b36037"
"2020-07-30T11:38:07",1596130687.193,8515074,-57,39,"a71850b36037"
"2020-07-30T11:38:07",1596130687.401,8515282,-56,37,"a71850b36037"
"2020-07-30T11:38:07",1596130687.821,8515702,-51,38,"a71850b36037"
"2020-07-30T11:38:08",1596130688.023,8515904,-57,39,"a71850b36037"
"2020-07-30T11:38:08",1596130688.443,8516324,-55,37,"a71850b36037"
"2020-07-30T11:38:08",1596130688.646,8516527,-52,38,"a71850b36037"
"2020-07-30T11:38:09",1596130689.073,8516954,-57,39,"a71850b36037"
"2020-07-30T11:38:09",1596130689.276,8517157,-56,37,"a71850b36037"
"2020-07-30T11:38:09",1596130689.696,8517577,-52,38,"a71850b36037"
"2020-07-30T11:38:09",1596130689.895,8517776,-57,39,"a71850b36037"
"2020-07-30T11:38:10",1596130690.318,8518199,-56,37,"a71850b36037"
"2020-07-30T11:38:10",1596130690.526,8518407,-52,38,"a71850b36037"
"2020-07-30T11:38:10",1596130690.945,8518826,-57,39,"a71850b36037"
"2020-07-30T11:38:11",1596130691.148,8519029,-56,37,"a71850b36037"
"2020-07-30T11:38:11",1596130691.57,8519451,-51,38,"a71850b36037"
"2020-07-30T11:38:11",1596130691.773,8519654,-57,39,"a71850b36037"
"2020-07-30T11:38:12",1596130692.188,8520069,-56,37,"a71850b36037"
"2020-07-30T11:38:12",1596130692.397,8520278,-53,38,"a71850b36037"
"2020-07-30T11:38:13",1596130693.02,8520901,-54,37,"a71850b36037"
"2020-07-30T11:38:13",1596130693.656,8521537,-59,39,"a71850b36037"
"2020-07-30T11:38:14",1596130694.282,8522163,-57,38,"a71850b36037"
"2020-07-30T11:38:14",1596130694.696,8522577,-54,39,"a71850b36037"
"2020-07-30T11:38:14",1596130694.906,8522787,-57,37,"a71850b36037"
"2020-07-30T11:38:15",1596130695.33,8523211,-50,38,"a71850b36037"
"2020-07-30T11:38:15",1596130695.533,8523414,-57,39,"a71850b36037"
"2020-07-30T11:38:15",1596130695.952,8523833,-56,37,"a71850b36037"
"2020-07-30T11:38:16",1596130696.152,8524033,-52,38,"a71850b36037"
"2020-07-30T11:38:16",1596130696.57,8524451,-57,39,"a71850b36037"
"2020-07-30T11:38:16",1596130696.78,8524661,-56,37,"a71850b36037"
"2020-07-30T11:38:17",1596130697.201,8525082,-52,38,"a71850b36037"
"2020-07-30T11:38:17",1596130697.406,8525287,-57,39,"a71850b36037"
"2020-07-30T11:38:17",1596130697.821,8525702,-56,37,"a71850b36037"
"2020-07-30T11:38:18",1596130698.023,8525904,-52,38,"a71850b36037"
"2020-07-30T11:38:18",1596130698.448,8526329,-57,39,"a71850b36037"
"2020-07-30T11:38:18",1596130698.656,8526537,-56,37,"a71850b36037"
"2020-07-30T11:38:19",1596130699.069,8526950,-52,38,"a71850b36037"
"2020-07-30T11:38:19",1596130699.278,8527159,-57,39,"a71850b36037"
"2020-07-30T11:38:19",1596130699.696,8527577,-56,37,"a71850b36037"
"2020-07-30T11:38:19",1596130699.9,8527781,-52,38,"a71850b36037"
"2020-07-30T11:38:20",1596130700.319,8528200,-57,39,"a71850b36037"
"2020-07-30T11:38:20",1596130700.528,8528409,-55,37,"a71850b36037"
"2020-07-30T11:38:20",1596130700.941,8528822,-52,38,"a71850b36037"
"2020-07-30T11:38:21",1596130701.15,8529031,-57,39,"a71850b36037"
"2020-07-30T11:38:21",1596130701.776,8529657,-52,38,"a71850b36037"
"2020-07-30T11:38:22",1596130702.193,8530074,-57,39,"a71850b36037"
"2020-07-30T11:38:22",1596130702.404,8530285,-55,37,"a71850b36037"
"2020-07-30T11:38:22",1596130702.818,8530699,-52,38,"a71850b36037"
"2020-07-30T11:38:23",1596130703.027,8530908,-57,39,"a71850b36037"
"2020-07-30T11:38:23",1596130703.441,8531322,-56,37,"a71850b36037"
"2020-07-30T11:38:23",1596130703.649,8531530,-52,38,"a71850b36037"
"2020-07-30T11:38:24",1596130704.276,8532157,-56,37,"a71850b36037"
"2020-07-30T11:38:24",1596130704.696,8532577,-51,38,"a71850b36037"
"2020-07-30T11:38:24",1596130704.897,8532778,-57,39,"a71850b36037"
"2020-07-30T11:38:25",1596130705.315,8533196,-56,37,"a71850b36037"
"2020-07-30T11:38:25",1596130705.523,8533404,-51,38,"a71850b36037"
"2020-07-30T11:38:25",1596130705.942,8533823,-57,39,"a71850b36037"
"2020-07-30T11:38:26",1596130706.149,8534030,-56,37,"a71850b36037"
"2020-07-30T11:38:26",1596130706.564,8534445,-52,38,"a71850b36037"
"2020-07-30T11:38:26",1596130706.769,8534650,-57,39,"a71850b36037"
"2020-07-30T11:38:27",1596130707.389,8535270,-51,38,"a71850b36037"
"2020-07-30T11:38:28",1596130708.021,8535902,-54,37,"a71850b36037"
"2020-07-30T11:38:28",1596130708.438,8536319,-53,38,"a71850b36037"
"2020-07-30T11:38:28",1596130708.639,8536520,-54,39,"a71850b36037"
"2020-07-30T11:38:29",1596130709.057,8536938,-57,37,"a71850b36037"
"2020-07-30T11:38:29",1596130709.266,8537147,-52,38,"a71850b36037"
"2020-07-30T11:38:29",1596130709.69,8537571,-59,39,"a71850b36037"
"2020-07-30T11:38:29",1596130709.892,8537773,-58,37,"a71850b36037"
"2020-07-30T11:38:30",1596130710.311,8538192,-61,38,"a71850b36037"
"2020-07-30T11:38:30",1596130710.518,8538399,-67,39,"a71850b36037"
"2020-07-30T11:38:30",1596130710.93,8538811,-65,37,"a71850b36037"
"2020-07-30T11:38:31",1596130711.134,8539015,-66,38,"a71850b36037"
"2020-07-30T11:38:31",1596130711.557,8539438,-63,39,"a71850b36037"
"2020-07-30T11:38:31",1596130711.768,8539649,-58,37,"a71850b36037"
"2020-07-30T11:38:32",1596130712.187,8540068,-50,38,"a71850b36037"
"2020-07-30T11:38:32",1596130712.389,8540270,-57,39,"a71850b36037"
"2020-07-30T11:38:32",1596130712.811,8540692,-56,37,"a71850b36037"
"2020-07-30T11:38:33",1596130713.011,8540892,-52,38,"a71850b36037"
"2020-07-30T11:38:33",1596130713.43,8541311,-57,39,"a71850b36037"
"2020-07-30T11:38:33",1596130713.64,8541521,-54,37,"a71850b36037"
"2020-07-30T11:38:34",1596130714.263,8542144,-57,39,"a71850b36037"
"2020-07-30T11:38:34",1596130714.889,8542770,-52,38,"a71850b36037"
"2020-07-30T11:38:35",1596130715.305,8543186,-57,39,"a71850b36037"
"2020-07-30T11:38:35",1596130715.507,8543388,-56,37,"a71850b36037"
"2020-07-30T11:38:35",1596130715.932,8543813,-52,38,"a71850b36037"
"2020-07-30T11:38:36",1596130716.133,8544014,-57,39,"a71850b36037"
"2020-07-30T11:38:36",1596130716.55,8544431,-56,37,"a71850b36037"
"2020-07-30T11:38:36",1596130716.759,8544640,-52,38,"a71850b36037"
"2020-07-30T11:38:37",1596130717.382,8545263,-55,37,"a71850b36037"
"2020-07-30T11:38:38",1596130718.016,8545897,-57,39,"a71850b36037"
"2020-07-30T11:38:38",1596130718.43,8546311,-56,37,"a71850b36037"
"2020-07-30T11:38:38",1596130718.637,8546518,-52,38,"a71850b36037"
"2020-07-30T11:38:39",1596130719.056,8546937,-57,39,"a71850b36037"
"2020-07-30T11:38:39",1596130719.266,8547147,-56,37,"a71850b36037"
"2020-07-30T11:38:39",1596130719.689,8547570,-52,38,"a71850b36037"
"2020-07-30T11:38:39",1596130719.89,8547771,-57,39,"a71850b36037"
"2020-07-30T11:38:40",1596130720.31,8548191,-56,37,"a71850b36037"
"2020-07-30T11:38:40",1596130720.515,8548396,-52,38,"a71850b36037"
"2020-07-30T11:38:41",1596130721.56,8549441,-52,38,"a71850b36037"
"2020-07-30T11:38:41",1596130721.759,8549640,-57,39,"a71850b36037"
"2020-07-30T11:38:43",1596130723.023,8550904,-56,37,"a71850b36037"
"2020-07-30T11:38:43",1596130723.436,8551317,-52,38,"a71850b36037"
"2020-07-30T11:38:43",1596130723.644,8551525,-57,39,"a71850b36037"
"2020-07-30T11:38:44",1596130724.062,8551943,-56,37,"a71850b36037"
"2020-07-30T11:38:44",1596130724.27,8552151,-52,38,"a71850b36037"
"2020-07-30T11:38:44",1596130724.685,8552566,-57,39,"a71850b36037"
"2020-07-30T11:38:44",1596130724.891,8552772,-56,37,"a71850b36037"
"2020-07-30T11:38:45",1596130725.312,8553193,-52,38,"a71850b36037"
"2020-07-30T11:38:45",1596130725.519,8553400,-57,39,"a71850b36037"
"2020-07-30T11:38:46",1596130726.141,8554022,-52,38,"a71850b36037"
"2020-07-30T11:38:46",1596130726.561,8554442,-57,39,"a71850b36037"
"2020-07-30T11:38:46",1596130726.764,8554645,-56,37,"a71850b36037"
"2020-07-30T11:38:47",1596130727.189,8555070,-52,38,"a71850b36037"
"2020-07-30T11:38:47",1596130727.39,8555271,-57,39,"a71850b36037"
"2020-07-30T11:38:47",1596130727.809,8555690,-56,37,"a71850b36037"
"2020-07-30T11:38:48",1596130728.014,8555895,-52,38,"a71850b36037"
"2020-07-30T11:38:48",1596130728.434,8556315,-57,39,"a71850b36037"
"2020-07-30T11:38:48",1596130728.637,8556518,-56,37,"a71850b36037"
"2020-07-30T11:38:49",1596130729.057,8556938,-51,38,"a71850b36037"
"2020-07-30T11:38:49",1596130729.267,8557148,-57,39,"a71850b36037"
"2020-07-30T11:38:49",1596130729.691,8557572,-56,37,"a71850b36037"
"2020-07-30T11:38:49",1596130729.897,8557778,-52,38,"a71850b36037"
"2020-07-30T11:38:50",1596130730.941,8558822,-52,38,"a71850b36037"
"2020-07-30T11:38:51",1596130731.147,8559028,-57,39,"a71850b36037"
"2020-07-30T11:38:51",1596130731.566,8559447,-56,37,"a71850b36037"
"2020-07-30T11:38:51",1596130731.775,8559656,-52,38,"a71850b36037"
"2020-07-30T11:38:52",1596130732.192,8560073,-57,39,"a71850b36037"
"2020-07-30T11:38:52",1596130732.392,8560273,-56,37,"a71850b36037"
"2020-07-30T11:38:52",1596130732.814,8560695,-52,38,"a71850b36037"
"2020-07-30T11:38:53",1596130733.018,8560899,-57,39,"a71850b36037"
"2020-07-30T11:38:54",1596130734.067,8561948,-57,39,"a71850b36037"
"2020-07-30T11:38:54",1596130734.697,8562578,-52,38,"a71850b36037"
"2020-07-30T11:38:54",1596130734.899,8562780,-57,39,"a71850b36037"
"2020-07-30T11:38:55",1596130735.315,8563196,-56,37,"a71850b36037"
"2020-07-30T11:38:55",1596130735.519,8563400,-52,38,"a71850b36037"
"2020-07-30T11:38:55",1596130735.94,8563821,-57,39,"a71850b36037"
"2020-07-30T11:38:56",1596130736.149,8564030,-56,37,"a71850b36037"
"2020-07-30T11:38:56",1596130736.564,8564445,-51,38,"a71850b36037"
"2020-07-30T11:38:56",1596130736.771,8564652,-57,39,"a71850b36037"
"2020-07-30T11:38:58",1596130738.017,8565898,-56,37,"a71850b36037"
"2020-07-30T11:38:58",1596130738.435,8566316,-52,38,"a71850b36037"
"2020-07-30T11:38:58",1596130738.638,8566519,-57,39,"a71850b36037"
"2020-07-30T11:38:59",1596130739.063,8566944,-55,37,"a71850b36037"
"2020-07-30T11:38:59",1596130739.268,8567149,-52,38,"a71850b36037"
"2020-07-30T11:38:59",1596130739.688,8567569,-57,39,"a71850b36037"
"2020-07-30T11:38:59",1596130739.892,8567773,-56,37,"a71850b36037"
"2020-07-30T11:39:00",1596130740.311,8568192,-51,38,"a71850b36037"
"2020-07-30T11:39:00",1596130740.511,8568392,-57,39,"a71850b36037"
"2020-07-30T11:39:00",1596130740.937,8568818,-56,37,"a71850b36037"
"2020-07-30T11:39:01",1596130741.77,8569651,-54,37,"a71850b36037"
"2020-07-30T11:39:02",1596130742.185,8570066,-51,38,"a71850b36037"
"2020-07-30T11:39:02",1596130742.395,8570276,-56,39,"a71850b36037"
"2020-07-30T11:39:02",1596130742.813,8570694,-56,37,"a71850b36037"
"2020-07-30T11:39:03",1596130743.015,8570896,-53,38,"a71850b36037"
"2020-07-30T11:39:03",1596130743.438,8571319,-57,39,"a71850b36037"
"2020-07-30T11:39:03",1596130743.643,8571524,-59,37,"a71850b36037"
"2020-07-30T11:39:04",1596130744.892,8572773,-51,38,"a71850b36037"
"2020-07-30T11:39:05",1596130745.52,8573401,-56,37,"a71850b36037"
"2020-07-30T11:39:05",1596130745.942,8573823,-52,38,"a71850b36037"
"2020-07-30T11:39:06",1596130746.145,8574026,-56,39,"a71850b36037"
"2020-07-30T11:39:06",1596130746.564,8574445,-56,37,"a71850b36037"
"2020-07-30T11:39:06",1596130746.769,8574650,-52,38,"a71850b36037"
"2020-07-30T11:39:07",1596130747.189,8575070,-57,39,"a71850b36037"
"2020-07-30T11:39:07",1596130747.394,8575275,-56,37,"a71850b36037"
"2020-07-30T11:39:07",1596130747.813,8575694,-51,38,"a71850b36037"
"2020-07-30T11:39:08",1596130748.017,8575898,-57,39,"a71850b36037"
"2020-07-30T11:39:09",1596130749.273,8577154,-54,37,"a71850b36037"
"2020-07-30T11:39:09",1596130749.689,8577570,-52,38,"a71850b36037"
"2020-07-30T11:39:09",1596130749.9,8577781,-57,39,"a71850b36037"
"2020-07-30T11:39:10",1596130750.314,8578195,-56,37,"a71850b36037"
"2020-07-30T11:39:10",1596130750.522,8578403,-52,38,"a71850b36037"
"2020-07-30T11:39:10",1596130750.941,8578822,-56,39,"a71850b36037"
"2020-07-30T11:39:11",1596130751.144,8579025,-56,37,"a71850b36037"
"2020-07-30T11:39:11",1596130751.561,8579442,-51,38,"a71850b36037"
"2020-07-30T11:39:11",1596130751.772,8579653,-56,39,"a71850b36037"
"2020-07-30T11:39:12",1596130752.187,8580068,-54,37,"a71850b36037"
"2020-07-30T11:39:12",1596130752.387,8580268,-52,38,"a71850b36037"
"2020-07-30T11:39:12",1596130752.817,8580698,-56,39,"a71850b36037"
"2020-07-30T11:39:13",1596130753.017,8580898,-56,37,"a71850b36037"
"2020-07-30T11:39:13",1596130753.437,8581318,-52,38,"a71850b36037"
"2020-07-30T11:39:13",1596130753.646,8581527,-57,39,"a71850b36037"
"2020-07-30T11:39:14",1596130754.064,8581945,-56,37,"a71850b36037"
"2020-07-30T11:39:14",1596130754.267,8582148,-51,38,"a71850b36037"
"2020-07-30T11:39:14",1596130754.684,8582565,-57,39,"a71850b36037"
"2020-07-30T11:39:14",1596130754.893,8582774,-56,37,"a71850b36037"
"2020-07-30T11:39:15",1596130755.514,8583395,-57,39,"a71850b36037"
"2020-07-30T11:39:16",1596130756.138,8584019,-52,38,"a71850b36037"
"2020-07-30T11:39:16",1596130756.556,8584437,-57,39,"a71850b36037"
"2020-07-30T11:39:16",1596130756.766,8584647,-56,37,"a71850b36037"
"2020-07-30T11:39:17",1596130757.181,8585062,-51,38,"a71850b36037"
"2020-07-30T11:39:17",1596130757.39,8585271,-57,39,"a71850b36037"
"2020-07-30T11:39:17",1596130757.809,8585690,-56,37,"a71850b36037"
"2020-07-30T11:39:18",1596130758.012,8585893,-52,38,"a71850b36037"
"2020-07-30T11:39:19",1596130759.052,8586933,-52,38,"a71850b36037"
"2020-07-30T11:39:19",1596130759.262,8587143,-57,39,"a71850b36037"
"2020-07-30T11:39:19",1596130759.68,8587561,-56,37,"a71850b36037"
"2020-07-30T11:39:19",1596130759.882,8587763,-51,38,"a71850b36037"
"2020-07-30T11:39:20",1596130760.299,8588180,-57,39,"a71850b36037"
"2020-07-30T11:39:20",1596130760.507,8588388,-56,37,"a71850b36037"
"2020-07-30T11:39:20",1596130760.922,8588803,-52,38,"a71850b36037"
"2020-07-30T11:39:21",1596130761.131,8589012,-57,39,"a71850b36037"
"2020-07-30T11:39:21",1596130761.552,8589433,-56,37,"a71850b36037"
"2020-07-30T11:39:22",1596130762.172,8590053,-57,39,"a71850b36037"
"2020-07-30T11:39:22",1596130762.379,8590260,-56,37,"a71850b36037"
"2020-07-30T11:39:22",1596130762.797,8590678,-52,38,"a71850b36037"
"2020-07-30T11:39:23",1596130763.004,8590885,-57,39,"a71850b36037"
"2020-07-30T11:39:23",1596130763.422,8591303,-56,37,"a71850b36037"
"2020-07-30T11:39:23",1596130763.625,8591506,-52,38,"a71850b36037"
"2020-07-30T11:39:24",1596130764.047,8591928,-57,39,"a71850b36037"
"2020-07-30T11:39:24",1596130764.255,8592136,-55,37,"a71850b36037"
"2020-07-30T11:39:24",1596130764.676,8592557,-52,38,"a71850b36037"
"2020-07-30T11:39:24",1596130764.882,8592763,-57,39,"a71850b36037"
"2020-07-30T11:39:25",1596130765.503,8593384,-52,38,"a71850b36037"
"2020-07-30T11:39:25",1596130765.917,8593798,-57,39,"a71850b36037"
"2020-07-30T11:39:26",1596130766.543,8594424,-52,38,"a71850b36037"
"2020-07-30T11:39:26",1596130766.75,8594631,-57,39,"a71850b36037"
"2020-07-30T11:39:27",1596130767.163,8595044,-56,37,"a71850b36037"
"2020-07-30T11:39:27",1596130767.795,8595676,-57,39,"a71850b36037"
"2020-07-30T11:39:27",1596130767.998,8595879,-56,37,"a71850b36037"
"2020-07-30T11:39:28",1596130768.623,8596504,-57,39,"a71850b36037"
"2020-07-30T11:39:29",1596130769.044,8596925,-56,37,"a71850b36037"
"2020-07-30T11:39:29",1596130769.249,8597130,-52,38,"a71850b36037"
"2020-07-30T11:39:29",1596130769.663,8597544,-57,39,"a71850b36037"
"2020-07-30T11:39:29",1596130769.873,8597754,-56,37,"a71850b36037"
"2020-07-30T11:39:30",1596130770.296,8598177,-51,38,"a71850b36037"
"2020-07-30T11:39:30",1596130770.5,8598381,-57,39,"a71850b36037"
"2020-07-30T11:39:30",1596130770.916,8598797,-56,37,"a71850b36037"
"2020-07-30T11:39:31",1596130771.125,8599006,-52,38,"a71850b36037"
"2020-07-30T11:39:31",1596130771.544,8599425,-57,39,"a71850b36037"
"2020-07-30T11:39:31",1596130771.748,8599629,-56,37,"a71850b36037"
"2020-07-30T11:39:32",1596130772.171,8600052,-52,38,"a71850b36037"
"2020-07-30T11:39:32",1596130772.798,8600679,-55,37,"a71850b36037"
"2020-07-30T11:39:33",1596130773.003,8600884,-52,38,"a71850b36037"
"2020-07-30T11:39:33",1596130773.416,8601297,-57,39,"a71850b36037"
"2020-07-30T11:39:33",1596130773.623,8601504,-56,37,"a71850b36037"
"2020-07-30T11:39:34",1596130774.044,8601925,-52,38,"a71850b36037"
"2020-07-30T11:39:34",1596130774.25,8602131,-57,39,"a71850b36037"
"2020-07-30T11:39:34",1596130774.668,8602549,-55,37,"a71850b36037"
"2020-07-30T11:39:34",1596130774.872,8602753,-51,38,"a71850b36037"
"2020-07-30T11:39:35",1596130775.299,8603180,-57,39,"a71850b36037"
"2020-07-30T11:39:35",1596130775.504,8603385,-56,37,"a71850b36037"
"2020-07-30T11:39:36",1596130776.124,8604005,-57,39,"a71850b36037"
"2020-07-30T11:39:36",1596130776.329,8604210,-57,39,"a71850b36037"
"2020-07-30T11:39:36",1596130776.542,8604423,-55,37,"a71850b36037"
"2020-07-30T11:39:36",1596130776.955,8604836,-52,38,"a71850b36037"
"2020-07-30T11:39:37",1596130777.162,8605043,-57,39,"a71850b36037"
"2020-07-30T11:39:37",1596130777.371,8605252,-55,37,"a71850b36037"
"2020-07-30T11:39:37",1596130777.794,8605675,-52,38,"a71850b36037"
"2020-07-30T11:39:37",1596130777.998,8605879,-57,39,"a71850b36037"
"2020-07-30T11:39:38",1596130778.203,8606084,-57,39,"a71850b36037"
"2020-07-30T11:39:38",1596130778.417,8606298,-56,37,"a71850b36037"
"2020-07-30T11:39:39",1596130779.038,8606919,-57,39,"a71850b36037"
"2020-07-30T11:39:39",1596130779.452,8607333,-56,37,"a71850b36037"
"2020-07-30T11:39:39",1596130779.657,8607538,-52,38,"a71850b36037"
"2020-07-30T11:39:40",1596130780.072,8607953,-57,39,"a71850b36037"
"2020-07-30T11:39:40",1596130780.287,8608168,-56,37,"a71850b36037"
"2020-07-30T11:39:40",1596130780.701,8608582,-51,38,"a71850b36037"
"2020-07-30T11:39:40",1596130780.908,8608789,-57,39,"a71850b36037"
"2020-07-30T11:39:41",1596130781.948,8609829,-57,39,"a71850b36037"
"2020-07-30T11:39:42",1596130782.571,8610452,-52,38,"a71850b36037"
"2020-07-30T11:39:42",1596130782.778,8610659,-57,39,"a71850b36037"
"2020-07-30T11:39:43",1596130783.197,8611078,-55,37,"a71850b36037"
"2020-07-30T11:39:43",1596130783.401,8611282,-52,38,"a71850b36037"
"2020-07-30T11:39:43",1596130783.814,8611695,-57,39,"a71850b36037"
"2020-07-30T11:39:44",1596130784.024,8611905,-56,37,"a71850b36037"
"2020-07-30T11:39:44",1596130784.447,8612328,-52,38,"a71850b36037"
"2020-07-30T11:39:44",1596130784.651,8612532,-57,39,"a71850b36037"
"2020-07-30T11:39:45",1596130785.063,8612944,-56,37,"a71850b36037"
"2020-07-30T11:39:45",1596130785.701,8613582,-57,39,"a71850b36037"
"2020-07-30T11:39:46",1596130786.322,8614203,-52,38,"a71850b36037"
"2020-07-30T11:39:46",1596130786.951,8614832,-56,37,"a71850b36037"
"2020-07-30T11:39:47",1596130787.155,8615036,-52,38,"a71850b36037"
"2020-07-30T11:39:47",1596130787.569,8615450,-57,39,"a71850b36037"
"2020-07-30T11:39:47",1596130787.783,8615664,-56,37,"a71850b36037"
"2020-07-30T11:39:48",1596130788.194,8616075,-52,38,"a71850b36037"
"2020-07-30T11:39:48",1596130788.4,8616281,-57,39,"a71850b36037"
"2020-07-30T11:39:49",1596130789.031,8616912,-52,38,"a71850b36037"
"2020-07-30T11:39:49",1596130789.44,8617321,-57,39,"a71850b36037"
"2020-07-30T11:39:50",1596130790.07,8617951,-52,38,"a71850b36037"
"2020-07-30T11:39:50",1596130790.282,8618163,-57,39,"a71850b36037"
"2020-07-30T11:39:50",1596130790.696,8618577,-56,37,"a71850b36037"
"2020-07-30T11:39:50",1596130790.907,8618788,-52,38,"a71850b36037"
"2020-07-30T11:39:51",1596130791.321,8619202,-56,39,"a71850b36037"
"2020-07-30T11:39:51",1596130791.527,8619408,-56,37,"a71850b36037"
"2020-07-30T11:39:51",1596130791.943,8619824,-50,38,"a71850b36037"
"2020-07-30T11:39:52",1596130792.563,8620444,-59,37,"a71850b36037"
"2020-07-30T11:39:53",1596130793.189,8621070,-63,39,"a71850b36037"
"2020-07-30T11:39:53",1596130793.404,8621285,-62,37,"a71850b36037"
"2020-07-30T11:39:53",1596130793.814,8621695,-54,38,"a71850b36037"
"2020-07-30T11:39:54",1596130794.024,8621905,-57,39,"a71850b36037"
"2020-07-30T11:39:54",1596130794.446,8622327,-56,37,"a71850b36037"
"2020-07-30T11:39:54",1596130794.654,8622535,-52,38,"a71850b36037"
"2020-07-30T11:39:55",1596130795.069,8622950,-57,39,"a71850b36037"
"2020-07-30T11:39:55",1596130795.275,8623156,-56,37,"a71850b36037"
"2020-07-30T11:39:56",1596130796.312,8624193,-56,37,"a71850b36037"
"2020-07-30T11:39:56",1596130796.528,8624409,-52,38,"a71850b36037"
"2020-07-30T11:39:56",1596130796.938,8624819,-57,39,"a71850b36037"
"2020-07-30T11:39:57",1596130797.148,8625029,-56,37,"a71850b36037"
"2020-07-30T11:39:57",1596130797.563,8625444,-52,38,"a71850b36037"
"2020-07-30T11:39:57",1596130797.775,8625656,-57,39,"a71850b36037"
"2020-07-30T11:39:58",1596130798.191,8626072,-56,37,"a71850b36037"
"2020-07-30T11:39:58",1596130798.402,8626283,-52,38,"a71850b36037"
"2020-07-30T11:39:58",1596130798.811,8626692,-57,39,"a71850b36037"
"2020-07-30T11:39:59",1596130799.433,8627314,-52,38,"a71850b36037"
"2020-07-30T11:40:00",1596130800.693,8628574,-57,39,"a71850b36037"
"2020-07-30T11:40:00",1596130800.899,8628780,-56,37,"a71850b36037"
"2020-07-30T11:40:01",1596130801.313,8629194,-52,38,"a71850b36037"
"2020-07-30T11:40:01",1596130801.526,8629407,-57,39,"a71850b36037"
"2020-07-30T11:40:01",1596130801.938,8629819,-55,37,"a71850b36037"
"2020-07-30T11:40:02",1596130802.146,8630027,-52,38,"a71850b36037"
"2020-07-30T11:40:02",1596130802.562,8630443,-57,39,"a71850b36037"
"2020-07-30T11:40:02",1596130802.775,8630656,-54,37,"a71850b36037"
"2020-07-30T11:40:03",1596130803.189,8631070,-52,38,"a71850b36037"
"2020-07-30T11:40:03",1596130803.392,8631273,-56,39,"a71850b36037"
"2020-07-30T11:40:03",1596130803.812,8631693,-54,37,"a71850b36037"
"2020-07-30T11:40:04",1596130804.021,8631902,-54,38,"a71850b36037"
"2020-07-30T11:40:04",1596130804.439,8632320,-58,39,"a71850b36037"
"2020-07-30T11:40:04",1596130804.65,8632531,-64,37,"a71850b36037"
"2020-07-30T11:40:05",1596130805.058,8632939,-57,38,"a71850b36037"
"2020-07-30T11:40:05",1596130805.272,8633153,-61,39,"a71850b36037"
"2020-07-30T11:40:05",1596130805.682,8633563,-54,37,"a71850b36037"
"2020-07-30T11:40:05",1596130805.889,8633770,-52,38,"a71850b36037"
"2020-07-30T11:40:06",1596130806.309,8634190,-57,39,"a71850b36037"
"2020-07-30T11:40:06",1596130806.932,8634813,-52,38,"a71850b36037"
"2020-07-30T11:40:07",1596130807.141,8635022,-57,39,"a71850b36037"
"2020-07-30T11:40:07",1596130807.558,8635439,-56,37,"a71850b36037"
"2020-07-30T11:40:07",1596130807.77,8635651,-52,38,"a71850b36037"
"2020-07-30T11:40:08",1596130808.187,8636068,-57,39,"a71850b36037"
"2020-07-30T11:40:08",1596130808.391,8636272,-54,37,"a71850b36037"
"2020-07-30T11:40:08",1596130808.805,8636686,-52,38,"a71850b36037"
"2020-07-30T11:40:09",1596130809.015,8636896,-57,39,"a71850b36037"
"2020-07-30T11:40:09",1596130809.434,8637315,-56,37,"a71850b36037"
"2020-07-30T11:40:10",1596130810.676,8638557,-52,38,"a71850b36037"
"2020-07-30T11:40:10",1596130810.89,8638771,-56,39,"a71850b36037"
"2020-07-30T11:40:11",1596130811.305,8639186,-55,37,"a71850b36037"
"2020-07-30T11:40:11",1596130811.515,8639396,-53,38,"a71850b36037"
"2020-07-30T11:40:11",1596130811.934,8639815,-57,39,"a71850b36037"
"2020-07-30T11:40:12",1596130812.143,8640024,-54,37,"a71850b36037"
"2020-07-30T11:40:12",1596130812.763,8640644,-57,39,"a71850b36037"
"2020-07-30T11:40:13",1596130813.809,8641690,-62,39,"a71850b36037"
"2020-07-30T11:40:14",1596130814.433,8642314,-57,38,"a71850b36037"
"2020-07-30T11:40:15",1596130815.061,8642942,-56,37,"a71850b36037"
"2020-07-30T11:40:15",1596130815.273,8643154,-52,38,"a71850b36037"
"2020-07-30T11:40:15",1596130815.689,8643570,-57,39,"a71850b36037"
"2020-07-30T11:40:15",1596130815.898,8643779,-56,37,"a71850b36037"
"2020-07-30T11:40:16",1596130816.314,8644195,-52,38,"a71850b36037"
"2020-07-30T11:40:16",1596130816.523,8644404,-57,39,"a71850b36037"
"2020-07-30T11:40:16",1596130816.933,8644814,-56,37,"a71850b36037"
"2020-07-30T11:40:17",1596130817.148,8645029,-52,38,"a71850b36037"
"2020-07-30T11:40:17",1596130817.769,8645650,-54,37,"a71850b36037"
"2020-07-30T11:40:18",1596130818.176,8646057,-52,38,"a71850b36037"
"2020-07-30T11:40:18",1596130818.39,8646271,-57,39,"a71850b36037"
"2020-07-30T11:40:18",1596130818.804,8646685,-56,37,"a71850b36037"
"2020-07-30T11:40:19",1596130819.013,8646894,-52,38,"a71850b36037"
"2020-07-30T11:40:19",1596130819.43,8647311,-57,39,"a71850b36037"
"2020-07-30T11:40:19",1596130819.634,8647515,-56,37,"a71850b36037"
"2020-07-30T11:40:21",1596130821.298,8649179,-56,39,"a71850b36037"
"2020-07-30T11:40:21",1596130821.504,8649385,-56,37,"a71850b36037"
"2020-07-30T11:40:21",1596130821.924,8649805,-54,38,"a71850b36037"
"2020-07-30T11:40:22",1596130822.133,8650014,-60,39,"a71850b36037"
"2020-07-30T11:40:22",1596130822.55,8650431,-60,37,"a71850b36037"
"2020-07-30T11:40:22",1596130822.762,8650643,-54,38,"a71850b36037"
"2020-07-30T11:40:23",1596130823.173,8651054,-63,39,"a71850b36037"
"2020-07-30T11:40:24",1596130824.424,8652305,-53,37,"a71850b36037"
"2020-07-30T11:40:24",1596130824.639,8652520,-51,38,"a71850b36037"
"2020-07-30T11:40:25",1596130825.059,8652940,-56,39,"a71850b36037"
"2020-07-30T11:40:25",1596130825.679,8653560,-52,38,"a71850b36037"
"2020-07-30T11:40:25",1596130825.893,8653774,-57,39,"a71850b36037"
"2020-07-30T11:40:26",1596130826.31,8654191,-54,37,"a71850b36037"
"2020-07-30T11:40:26",1596130826.519,8654400,-52,38,"a71850b36037"
"2020-07-30T11:40:26",1596130826.934,8654815,-57,39,"a71850b36037"
"2020-07-30T11:40:27",1596130827.146,8655027,-54,37,"a71850b36037"
"2020-07-30T11:40:27",1596130827.558,8655439,-52,38,"a71850b36037"
"2020-07-30T11:40:27",1596130827.765,8655646,-57,39,"a71850b36037"
"2020-07-30T11:40:28",1596130828.179,8656060,-56,37,"a71850b36037"
"2020-07-30T11:40:28",1596130828.393,8656274,-52,38,"a71850b36037"
"2020-07-30T11:40:29",1596130829.43,8657311,-52,38,"a71850b36037"
"2020-07-30T11:40:29",1596130829.642,8657523,-57,39,"a71850b36037"
"2020-07-30T11:40:30",1596130830.051,8657932,-56,37,"a71850b36037"
"2020-07-30T11:40:30",1596130830.261,8658142,-50,38,"a71850b36037"
"2020-07-30T11:40:30",1596130830.679,8658560,-56,39,"a71850b36037"
"2020-07-30T11:40:30",1596130830.887,8658768,-54,37,"a71850b36037"
"2020-07-30T11:40:31",1596130831.306,8659187,-53,38,"a71850b36037"
"2020-07-30T11:40:31",1596130831.518,8659399,-56,39,"a71850b36037"
"2020-07-30T11:40:32",1596130832.134,8660015,-53,38,"a71850b36037"
"2020-07-30T11:40:32",1596130832.553,8660434,-62,39,"a71850b36037"
"2020-07-30T11:40:32",1596130832.769,8660650,-57,37,"a71850b36037"
"2020-07-30T11:40:33",1596130833.182,8661063,-54,38,"a71850b36037"
"2020-07-30T11:40:33",1596130833.386,8661267,-62,39,"a71850b36037"
"2020-07-30T11:40:33",1596130833.8,8661681,-58,37,"a71850b36037"
"2020-07-30T11:40:34",1596130834.015,8661896,-54,38,"a71850b36037"
"2020-07-30T11:40:34",1596130834.432,8662313,-54,39,"a71850b36037"
"2020-07-30T11:40:34",1596130834.638,8662519,-55,37,"a71850b36037"
"2020-07-30T11:40:35",1596130835.262,8663143,-62,39,"a71850b36037"
"2020-07-30T11:40:35",1596130835.889,8663770,-57,38,"a71850b36037"
"2020-07-30T11:40:36",1596130836.303,8664184,-57,39,"a71850b36037"
"2020-07-30T11:40:36",1596130836.509,8664390,-56,37,"a71850b36037"
"2020-07-30T11:40:36",1596130836.926,8664807,-52,38,"a71850b36037"
"2020-07-30T11:40:37",1596130837.141,8665022,-57,39,"a71850b36037"
"2020-07-30T11:40:37",1596130837.555,8665436,-56,37,"a71850b36037"
"2020-07-30T11:40:37",1596130837.763,8665644,-52,38,"a71850b36037"
"2020-07-30T11:40:38",1596130838.174,8666055,-57,39,"a71850b36037"
"2020-07-30T11:40:38",1596130838.385,8666266,-56,37,"a71850b36037"
"2020-07-30T11:40:39",1596130839.64,8667521,-52,38,"a71850b36037"
"2020-07-30T11:40:40",1596130840.27,8668151,-56,37,"a71850b36037"
"2020-07-30T11:40:40",1596130840.681,8668562,-51,38,"a71850b36037"
"2020-07-30T11:40:40",1596130840.893,8668774,-57,39,"a71850b36037"
"2020-07-30T11:40:41",1596130841.303,8669184,-56,37,"a71850b36037"
"2020-07-30T11:40:41",1596130841.517,8669398,-52,38,"a71850b36037"
"2020-07-30T11:40:41",1596130841.929,8669810,-57,39,"a71850b36037"
"2020-07-30T11:40:42",1596130842.14,8670021,-55,37,"a71850b36037"
"2020-07-30T11:40:42",1596130842.762,8670643,-57,39,"a71850b36037"
"2020-07-30T11:40:43",1596130843.384,8671265,-52,38,"a71850b36037"
"2020-07-30T11:40:43",1596130843.8,8671681,-57,39,"a71850b36037"
"2020-07-30T11:40:44",1596130844.013,8671894,-56,37,"a71850b36037"
"2020-07-30T11:40:44",1596130844.425,8672306,-52,38,"a71850b36037"
"2020-07-30T11:40:44",1596130844.635,8672516,-57,39,"a71850b36037"
"2020-07-30T11:40:45",1596130845.051,8672932,-56,37,"a71850b36037"
"2020-07-30T11:40:45",1596130845.264,8673145,-52,38,"a71850b36037"
"2020-07-30T11:40:45",1596130845.677,8673558,-57,39,"a71850b36037"
"2020-07-30T11:40:45",1596130845.884,8673765,-55,37,"a71850b36037"
"2020-07-30T11:40:47",1596130847.14,8675021,-52,38,"a71850b36037"
"2020-07-30T11:40:47",1596130847.552,8675433,-57,39,"a71850b36037"
"2020-07-30T11:40:47",1596130847.759,8675640,-56,37,"a71850b36037"
"2020-07-30T11:40:48",1596130848.175,8676056,-52,38,"a71850b36037"
"2020-07-30T11:40:48",1596130848.382,8676263,-57,39,"a71850b36037"
"2020-07-30T11:40:48",1596130848.8,8676681,-56,37,"a71850b36037"
"2020-07-30T11:40:49",1596130849.006,8676887,-52,38,"a71850b36037"
"2020-07-30T11:40:49",1596130849.424,8677305,-57,39,"a71850b36037"
"2020-07-30T11:40:49",1596130849.634,8677515,-56,37,"a71850b36037"
"2020-07-30T11:40:50",1596130850.052,8677933,-52,38,"a71850b36037"
"2020-07-30T11:40:50",1596130850.67,8678551,-56,37,"a71850b36037"
"2020-07-30T11:40:50",1596130850.876,8678757,-52,38,"a71850b36037"
"2020-07-30T11:40:51",1596130851.295,8679176,-57,39,"a71850b36037"
"2020-07-30T11:40:51",1596130851.501,8679382,-55,37,"a71850b36037"
"2020-07-30T11:40:51",1596130851.92,8679801,-52,38,"a71850b36037"
"2020-07-30T11:40:52",1596130852.131,8680012,-57,39,"a71850b36037"
"2020-07-30T11:40:52",1596130852.753,8680634,-52,38,"a71850b36037"
"2020-07-30T11:40:53",1596130853.164,8681045,-57,39,"a71850b36037"
"2020-07-30T11:40:53",1596130853.372,8681253,-56,37,"a71850b36037"
"2020-07-30T11:40:54",1596130854.422,8682303,-56,37,"a71850b36037"
"2020-07-30T11:40:54",1596130854.628,8682509,-52,38,"a71850b36037"
"2020-07-30T11:40:55",1596130855.048,8682929,-57,39,"a71850b36037"
"2020-07-30T11:40:55",1596130855.253,8683134,-56,37,"a71850b36037"
"2020-07-30T11:40:55",1596130855.665,8683546,-52,38,"a71850b36037"
"2020-07-30T11:40:55",1596130855.874,8683755,-57,39,"a71850b36037"
"2020-07-30T11:40:56",1596130856.295,8684176,-56,37,"a71850b36037"
"2020-07-30T11:40:56",1596130856.507,8684388,-52,38,"a71850b36037"
"2020-07-30T11:40:56",1596130856.92,8684801,-57,39,"a71850b36037"
"2020-07-30T11:40:57",1596130857.545,8685426,-52,38,"a71850b36037"
"2020-07-30T11:40:57",1596130857.753,8685634,-56,39,"a71850b36037"
"2020-07-30T11:40:58",1596130858.167,8686048,-57,37,"a71850b36037"
"2020-07-30T11:40:58",1596130858.382,8686263,-60,38,"a71850b36037"
"2020-07-30T11:40:58",1596130858.794,8686675,-58,39,"a71850b36037"
"2020-07-30T11:40:59",1596130859.004,8686885,-61,37,"a71850b36037"
"2020-07-30T11:40:59",1596130859.421,8687302,-51,38,"a71850b36037"
"2020-07-30T11:40:59",1596130859.629,8687510,-54,39,"a71850b36037"
"2020-07-30T11:41:00",1596130860.254,8688135,-52,38,"a71850b36037"
"2020-07-30T11:41:01",1596130861.292,8689173,-53,38,"a71850b36037"
"2020-07-30T11:41:01",1596130861.498,8689379,-56,39,"a71850b36037"
"2020-07-30T11:41:01",1596130861.921,8689802,-56,37,"a71850b36037"
"2020-07-30T11:41:02",1596130862.133,8690014,-52,38,"a71850b36037"
"2020-07-30T11:41:02",1596130862.547,8690428,-56,39,"a71850b36037"
"2020-07-30T11:41:02",1596130862.754,8690635,-56,37,"a71850b36037"
"2020-07-30T11:41:03",1596130863.171,8691052,-53,38,"a71850b36037"
"2020-07-30T11:41:03",1596130863.378,8691259,-57,39,"a71850b36037"
"2020-07-30T11:41:04",1596130864,8691881,-51,38,"a71850b36037"
"2020-07-30T11:41:04",1596130864.634,8692515,-54,37,"a71850b36037"
"2020-07-30T11:41:05",1596130865.05,8692931,-52,38,"a71850b36037"
"2020-07-30T11:41:05",1596130865.255,8693136,-56,39,"a71850b36037"
"2020-07-30T11:41:05",1596130865.67,8693551,-65,37,"a71850b36037"
"2020-07-30T11:41:05",1596130865.883,8693764,-58,38,"a71850b36037"
"2020-07-30T11:41:06",1596130866.298,8694179,-58,39,"a71850b36037"
"2020-07-30T11:41:06",1596130866.508,8694389,-63,37,"a71850b36037"
"2020-07-30T11:41:06",1596130866.922,8694803,-50,38,"a71850b36037"
"2020-07-30T11:41:07",1596130867.136,8695017,-56,39,"a71850b36037"
"2020-07-30T11:41:07",1596130867.546,8695427,-55,37,"a71850b36037"
"2020-07-30T11:41:07",1596130867.756,8695637,-52,38,"a71850b36037"
"2020-07-30T11:41:08",1596130868.794,8696675,-52,38,"a71850b36037"
"2020-07-30T11:41:08",1596130868.999,8696880,-57,39,"a71850b36037"
"2020-07-30T11:41:09",1596130869.416,8697297,-56,37,"a71850b36037"
"2020-07-30T11:41:09",1596130869.625,8697506,-52,38,"a71850b36037"
"2020-07-30T11:41:10",1596130870.039,8697920,-57,39,"a71850b36037"
"2020-07-30T11:41:10",1596130870.251,8698132,-56,37,"a71850b36037"
"2020-07-30T11:41:10",1596130870.664,8698545,-52,38,"a71850b36037"
"2020-07-30T11:41:10",1596130870.875,8698756,-57,39,"a71850b36037"
"2020-07-30T11:41:11",1596130871.294,8699175,-56,37,"a71850b36037"
"2020-07-30T11:41:11",1596130871.5,8699381,-52,38,"a71850b36037"
"2020-07-30T11:41:11",1596130871.91,8699791,-57,39,"a71850b36037"
"2020-07-30T11:41:12",1596130872.114,8699995,-55,37,"a71850b36037"
"2020-07-30T11:41:12",1596130872.536,8700417,-52,38,"a71850b36037"
"2020-07-30T11:41:12",1596130872.738,8700619,-57,39,"a71850b36037"
"2020-07-30T11:41:13",1596130873.356,8701237,-52,38,"a71850b36037"
"2020-07-30T11:41:13",1596130873.775,8701656,-56,39,"a71850b36037"
"2020-07-30T11:41:13",1596130873.984,8701865,-55,37,"a71850b36037"
"2020-07-30T11:41:14",1596130874.403,8702284,-51,38,"a71850b36037"
"2020-07-30T11:41:14",1596130874.605,8702486,-56,39,"a71850b36037"
"2020-07-30T11:41:15",1596130875.026,8702907,-55,37,"a71850b36037"
"2020-07-30T11:41:15",1596130875.233,8703114,-52,38,"a71850b36037"
"2020-07-30T11:41:15",1596130875.651,8703532,-57,39,"a71850b36037"
"2020-07-30T11:41:15",1596130875.855,8703736,-54,37,"a71850b36037"
"2020-07-30T11:41:16",1596130876.273,8704154,-52,38,"a71850b36037"
"2020-07-30T11:41:16",1596130876.9,8704781,-54,37,"a71850b36037"
"2020-07-30T11:41:17",1596130877.105,8704986,-51,38,"a71850b36037"
"2020-07-30T11:41:17",1596130877.53,8705411,-54,39,"a71850b36037"
"2020-07-30T11:41:17",1596130877.732,8705613,-54,37,"a71850b36037"
"2020-07-30T11:41:18",1596130878.149,8706030,-53,38,"a71850b36037"
"2020-07-30T11:41:18",1596130878.357,8706238,-56,39,"a71850b36037"
"2020-07-30T11:41:18",1596130878.769,8706650,-57,37,"a71850b36037"
"2020-07-30T11:41:18",1596130878.976,8706857,-52,38,"a71850b36037"
"2020-07-30T11:41:19",1596130879.401,8707282,-56,39,"a71850b36037"
"2020-07-30T11:41:19",1596130879.603,8707484,-54,37,"a71850b36037"
"2020-07-30T11:41:20",1596130880.021,8707902,-53,38,"a71850b36037"
"2020-07-30T11:41:20",1596130880.227,8708108,-56,39,"a71850b36037"
"2020-07-30T11:41:20",1596130880.641,8708522,-54,37,"a71850b36037"
"2020-07-30T11:41:20",1596130880.851,8708732,-52,38,"a71850b36037"
"2020-07-30T11:41:21",1596130881.267,8709148,-57,39,"a71850b36037"
"2020-07-30T11:41:21",1596130881.476,8709357,-54,37,"a71850b36037"
"2020-07-30T11:41:21",1596130881.893,8709774,-52,38,"a71850b36037"
"2020-07-30T11:41:22",1596130882.094,8709975,-57,39,"a71850b36037"
"2020-07-30T11:41:22",1596130882.523,8710404,-56,37,"a71850b36037"
"2020-07-30T11:41:22",1596130882.723,8710604,-52,38,"a71850b36037"
"2020-07-30T11:41:23",1596130883.146,8711027,-56,39,"a71850b36037"
"2020-07-30T11:41:23",1596130883.351,8711232,-54,37,"a71850b36037"
"2020-07-30T11:41:23",1596130883.766,8711647,-51,38,"a71850b36037"
"2020-07-30T11:41:23",1596130883.973,8711854,-57,39,"a71850b36037"
"2020-07-30T11:41:24",1596130884.392,8712273,-56,37,"a71850b36037"
"2020-07-30T11:41:24",1596130884.601,8712482,-53,38,"a71850b36037"
"2020-07-30T11:41:25",1596130885.015,8712896,-57,39,"a71850b36037"
"2020-07-30T11:41:25",1596130885.218,8713099,-54,37,"a71850b36037"
"2020-07-30T11:41:25",1596130885.637,8713518,-52,38,"a71850b36037"
"2020-07-30T11:41:25",1596130885.847,8713728,-57,39,"a71850b36037"
"2020-07-30T11:41:26",1596130886.269,8714150,-56,37,"a71850b36037"
"2020-07-30T11:41:26",1596130886.473,8714354,-51,38,"a71850b36037"
"2020-07-30T11:41:27",1596130887.726,8715607,-54,39,"a71850b36037"
"2020-07-30T11:41:28",1596130888.145,8716026,-53,37,"a71850b36037"
"2020-07-30T11:41:28",1596130888.346,8716227,-52,38,"a71850b36037"
"2020-07-30T11:41:28",1596130888.77,8716651,-60,39,"a71850b36037"
"2020-07-30T11:41:28",1596130888.97,8716851,-60,37,"a71850b36037"
"2020-07-30T11:41:29",1596130889.391,8717272,-60,38,"a71850b36037"
"2020-07-30T11:41:29",1596130889.594,8717475,-61,39,"a71850b36037"
"2020-07-30T11:41:30",1596130890.02,8717901,-63,37,"a71850b36037"
"2020-07-30T11:41:30",1596130890.223,8718104,-57,38,"a71850b36037"
"2020-07-30T11:41:30",1596130890.844,8718725,-62,37,"a71850b36037"
"2020-07-30T11:41:31",1596130891.475,8719356,-59,39,"a71850b36037"
"2020-07-30T11:41:31",1596130891.894,8719775,-62,37,"a71850b36037"
"2020-07-30T11:41:32",1596130892.094,8719975,-57,38,"a71850b36037"
"2020-07-30T11:41:32",1596130892.513,8720394,-59,39,"a71850b36037"
"2020-07-30T11:41:32",1596130892.724,8720605,-62,37,"a71850b36037"
"2020-07-30T11:41:33",1596130893.147,8721028,-56,38,"a71850b36037"
"2020-07-30T11:41:33",1596130893.347,8721228,-59,39,"a71850b36037"
"2020-07-30T11:41:33",1596130893.764,8721645,-62,37,"a71850b36037"
"2020-07-30T11:41:33",1596130893.971,8721852,-56,38,"a71850b36037"
"2020-07-30T11:41:34",1596130894.391,8722272,-59,39,"a71850b36037"
"2020-07-30T11:41:34",1596130894.591,8722472,-61,37,"a71850b36037"
"2020-07-30T11:41:35",1596130895.01,8722891,-57,38,"a71850b36037"
"2020-07-30T11:41:35",1596130895.22,8723101,-58,39,"a71850b36037"
"2020-07-30T11:41:35",1596130895.637,8723518,-54,37,"a71850b36037"
"2020-07-30T11:41:35",1596130895.846,8723727,-51,38,"a71850b36037"
"2020-07-30T11:41:36",1596130896.266,8724147,-57,39,"a71850b36037"
"2020-07-30T11:41:36",1596130896.468,8724349,-54,37,"a71850b36037"
"2020-07-30T11:41:36",1596130896.89,8724771,-53,38,"a71850b36037"
"2020-07-30T11:41:37",1596130897.096,8724977,-58,39,"a71850b36037"
"2020-07-30T11:41:37",1596130897.511,8725392,-57,37,"a71850b36037"
"2020-07-30T11:41:37",1596130897.711,8725592,-52,38,"a71850b36037"
"2020-07-30T11:41:38",1596130898.13,8726011,-57,39,"a71850b36037"
"2020-07-30T11:41:38",1596130898.338,8726219,-57,37,"a71850b36037"
"2020-07-30T11:41:38",1596130898.758,8726639,-53,38,"a71850b36037"